<?xml version="1.0" encoding="UTF-8" standalone="no"?>
<!-- Created with Inkscape (http://www.inkscape.org/) -->

<svg
   xmlns:dc="http://purl.org/dc/elements/1.1/"
   xmlns:cc="http://creativecommons.org/ns#"
   xmlns:rdf="http://www.w3.org/1999/02/22-rdf-syntax-ns#"
   xmlns:svg="http://www.w3.org/2000/svg"
   xmlns="http://www.w3.org/2000/svg"
   xmlns:xlink="http://www.w3.org/1999/xlink"
   xmlns:sodipodi="http://sodipodi.sourceforge.net/DTD/sodipodi-0.dtd"
   xmlns:inkscape="http://www.inkscape.org/namespaces/inkscape"
   width="335"
   height="432"
   id="svg2"
   version="1.1"
   inkscape:version="0.48.2 r9819"
   sodipodi:docname="Lyra Hindley.svg">
  <defs
     id="defs4">
    <linearGradient
       inkscape:collect="always"
       id="linearGradient4927">
      <stop
         style="stop-color:#b3b3b3;stop-opacity:1"
         offset="0"
         id="stop4929" />
      <stop
         style="stop-color:#f9f9f9;stop-opacity:1"
         offset="1"
         id="stop4931" />
    </linearGradient>
    <linearGradient
       inkscape:collect="always"
       id="linearGradient3906">
      <stop
         style="stop-color:#fb5d00;stop-opacity:1"
         offset="0"
         id="stop3908" />
      <stop
         style="stop-color:#f6d449;stop-opacity:1"
         offset="1"
         id="stop3910" />
    </linearGradient>
    <clipPath
       clipPathUnits="userSpaceOnUse"
       id="clipPath3902">
      <path
         transform="matrix(0.99886923,0.04754221,-0.04754221,0.99886923,-11.474407,-24.520039)"
         d="m 174.73318,201.89821 a 38.270821,51.95446 0 1 1 -76.541644,0 38.270821,51.95446 0 1 1 76.541644,0 z"
         sodipodi:ry="51.95446"
         sodipodi:rx="38.270821"
         sodipodi:cy="201.89821"
         sodipodi:cx="136.46236"
         id="path3904"
         style="fill:none;stroke:#008080;stroke-width:1;stroke-linecap:butt;stroke-linejoin:round;stroke-miterlimit:4;stroke-opacity:1;stroke-dasharray:none;stroke-dashoffset:0"
         sodipodi:type="arc" />
    </clipPath>
    <clipPath
       clipPathUnits="userSpaceOnUse"
       id="clipPath4555">
      <path
         style="fill:none;stroke:#000000;stroke-width:1px;stroke-linecap:butt;stroke-linejoin:miter;stroke-opacity:1"
         d="m 140.296,104.64418 c 0,0 32.70348,1.93512 51.86114,-17.41605 C 187.36301,1.3960767 151.40193,-38.532626 140.296,104.64418 z"
         id="path4557"
         inkscape:connector-curvature="0"
         sodipodi:nodetypes="ccc" />
    </clipPath>
    <clipPath
       clipPathUnits="userSpaceOnUse"
       id="clipPath4727">
      <path
         transform="matrix(0.99712168,-0.01971104,0.01951911,0.98741259,-8.0264184,-2.7903542)"
         d="m 163.91776,203.48412 a 45.622429,63.790653 0 1 1 -91.244863,0 45.622429,63.790653 0 1 1 91.244863,0 z"
         sodipodi:ry="63.790653"
         sodipodi:rx="45.622429"
         sodipodi:cy="203.48412"
         sodipodi:cx="118.29533"
         id="path4729"
         style="fill:none;stroke:#ff00ff;stroke-width:1.00760829;stroke-linecap:butt;stroke-linejoin:round;stroke-miterlimit:4;stroke-opacity:1;stroke-dasharray:none;stroke-dashoffset:0"
         sodipodi:type="arc" />
    </clipPath>
    <linearGradient
       inkscape:collect="always"
       xlink:href="#linearGradient3906"
       id="linearGradient4787"
       gradientUnits="userSpaceOnUse"
       x1="121.87876"
       y1="163.68996"
       x2="116.97072"
       y2="233.46307" />
    <radialGradient
       inkscape:collect="always"
       xlink:href="#linearGradient4927"
       id="radialGradient4933"
       cx="167.5"
       cy="216"
       fx="167.5"
       fy="216"
       r="167.75"
       gradientTransform="matrix(1,0,0,1.2891207,0,-62.450075)"
       gradientUnits="userSpaceOnUse" />
  </defs>
  <sodipodi:namedview
     id="base"
     pagecolor="#ffffff"
     bordercolor="#666666"
     borderopacity="1.0"
     inkscape:pageopacity="0.0"
     inkscape:pageshadow="2"
     inkscape:zoom="2.6848687"
     inkscape:cx="167.5"
     inkscape:cy="300.66728"
     inkscape:document-units="px"
     inkscape:current-layer="layer2"
     showgrid="true"
     fit-margin-top="0"
     fit-margin-left="0"
     fit-margin-right="0"
     fit-margin-bottom="0"
     inkscape:window-width="1366"
     inkscape:window-height="706"
     inkscape:window-x="-8"
     inkscape:window-y="-8"
     inkscape:window-maximized="1">
    <inkscape:grid
       type="xygrid"
       id="grid4915"
       empspacing="5"
       visible="true"
       enabled="false"
       snapvisiblegridlinesonly="true"
       originx="2.5px"
       originy="1px"
       spacingx="5px"
       spacingy="5px" />
  </sodipodi:namedview>
  <metadata
     id="metadata7">
    <rdf:RDF>
      <cc:Work
         rdf:about="">
        <dc:format>image/svg+xml</dc:format>
        <dc:type
           rdf:resource="http://purl.org/dc/dcmitype/StillImage" />
        <dc:title />
      </cc:Work>
    </rdf:RDF>
  </metadata>
  <g
     inkscape:groupmode="layer"
     id="layer2"
     inkscape:label="Drawing"
     style="display:inline">
    <rect
       style="fill:url(#radialGradient4933);fill-opacity:1;fill-rule:evenodd;stroke:none;stroke-width:0.50000000000000000;stroke-linecap:butt;stroke-linejoin:round;stroke-miterlimit:4;stroke-opacity:1;stroke-dasharray:none;stroke-dashoffset:0"
       id="rect4925"
       width="335"
       height="432"
       x="0"
       y="0" />
    <g
       id="g4848">
      <path
         sodipodi:nodetypes="csscc"
         inkscape:connector-curvature="0"
         id="path4650"
         d="m 75,457 c 4,-70 14,-119 20,-125 14,-14 131,-14 145,0 6,6 16,55 20,125 -60,50 -125,50 -185,0 z"
         style="fill:#0f0f0f;fill-opacity:1;stroke:#000000;stroke-width:6;stroke-linecap:butt;stroke-linejoin:miter;stroke-miterlimit:4;stroke-opacity:1;stroke-dasharray:none" />
      <path
         sodipodi:nodetypes="ccccc"
         inkscape:connector-curvature="0"
         d="m 240.40209,442.64319 -145.804427,0 C 106.08802,401.4553 115.25783,344.87091 105.37561,298.44618 l 124.24853,0 c -9.88222,46.42473 -0.71241,103.00912 10.77795,144.19701 z"
         style="fill:#93ffdb;fill-opacity:1;stroke:none"
         id="path4611" />
      <use
         height="432"
         width="335"
         transform="matrix(-1,0,0,1,334.99975,0)"
         id="use4569"
         xlink:href="#path4329"
         y="0"
         x="0" />
      <path
         sodipodi:nodetypes="cc"
         inkscape:connector-curvature="0"
         id="path4329"
         d="m 105.37561,298.44618 c 9.88222,46.42473 0.71241,103.00912 -10.777947,144.19701"
         style="fill:none;stroke:#36af7c;stroke-width:8;stroke-linecap:butt;stroke-linejoin:miter;stroke-miterlimit:4;stroke-opacity:1;stroke-dasharray:none" />
      <g
         id="g4829">
        <path
           style="fill:#e3dbf5;stroke:#595959;stroke-width:3;stroke-linecap:butt;stroke-linejoin:miter;stroke-miterlimit:4;stroke-opacity:1;stroke-dasharray:none;fill-opacity:1"
           d="m 95,377 c 50,17 95,17 145,0 l -30,95 -85,0 z"
           id="path4755"
           inkscape:connector-curvature="0"
           sodipodi:nodetypes="ccccc" />
        <g
           id="g4803"
           transform="translate(0,-4.0682225)">
          <path
             inkscape:transform-center-y="4.5943603"
             sodipodi:nodetypes="cccc"
             inkscape:connector-curvature="0"
             id="path4789"
             d="m 162.07201,413.03463 5.42799,-5.40513 5.42798,5.40513 c 0,5.04479 -10.85597,5.04479 -10.85597,0 z"
             style="fill:#121212;fill-opacity:1;stroke:none;stroke-width:0.50000000000000000;stroke-miterlimit:4;stroke-dasharray:none;stroke-opacity:1" />
          <use
             inkscape:transform-center-x="4.5943562"
             height="432"
             width="335"
             transform="matrix(0,1,-1,0,574.6295,239.62951)"
             id="use4797"
             xlink:href="#path4789"
             y="0"
             x="0" />
          <use
             inkscape:transform-center-x="-4.5943562"
             height="432"
             width="335"
             transform="matrix(0,-1,1,0,-239.62951,574.6295)"
             id="use4799"
             xlink:href="#path4789"
             y="0"
             x="0" />
          <use
             height="432"
             width="335"
             transform="matrix(-1,0,0,-1,334.99999,814.259)"
             id="use4801"
             inkscape:transform-center-y="-4.5943622"
             xlink:href="#path4789"
             y="0"
             x="0" />
        </g>
        <use
           x="0"
           y="0"
           xlink:href="#g4803"
           id="use4809"
           transform="translate(-17.009345,14.510335)"
           width="335"
           height="432" />
        <use
           x="0"
           y="0"
           xlink:href="#g4803"
           id="use4811"
           transform="translate(17.009345,14.510335)"
           width="335"
           height="432" />
        <use
           x="0"
           y="0"
           xlink:href="#g4803"
           id="use4813"
           transform="translate(0,29.50099)"
           width="335"
           height="432" />
        <use
           x="0"
           y="0"
           xlink:href="#g4803"
           id="use4815"
           transform="translate(-32,-2)"
           width="335"
           height="432" />
        <use
           x="0"
           y="0"
           xlink:href="#g4803"
           id="use4817"
           transform="translate(32,-2)"
           width="335"
           height="432" />
        <use
           x="0"
           y="0"
           xlink:href="#g4803"
           id="use4823"
           transform="translate(-16,45.097252)"
           width="335"
           height="432" />
        <use
           x="0"
           y="0"
           xlink:href="#g4803"
           id="use4825"
           transform="translate(16,45.097252)"
           width="335"
           height="432" />
        <use
           height="432"
           width="335"
           transform="translate(0,60.16144)"
           id="use4846"
           xlink:href="#g4803"
           y="0"
           x="0" />
      </g>
      <g
         id="g4747">
        <path
           style="fill:#f2f2f2;stroke:#cccccc;stroke-width:4;stroke-linecap:butt;stroke-linejoin:miter;stroke-miterlimit:4;stroke-opacity:1;stroke-dasharray:none"
           d="m 92.260992,362.98164 c 38.630188,-11.72522 32.004708,29.77033 38.059208,41.75023 6.05451,11.97989 34.45425,20.59558 17.2796,61.67688 C 108.77369,465.83778 92.260992,362.98164 92.260992,362.98164 z"
           id="path4737"
           inkscape:connector-curvature="0"
           sodipodi:nodetypes="czcc" />
        <path
           sodipodi:nodetypes="czc"
           inkscape:connector-curvature="0"
           id="path4739"
           d="m 93.688423,369.26233 c 33.205947,-11.15424 24.867557,26.91547 30.922057,38.89537 6.05451,11.97989 31.88487,19.16815 17.2796,56.82362"
           style="fill:#f2f2f2;stroke:#cccccc;stroke-width:2;stroke-linecap:butt;stroke-linejoin:miter;stroke-miterlimit:4;stroke-opacity:1;stroke-dasharray:none" />
        <path
           style="fill:#f2f2f2;stroke:#cccccc;stroke-width:2;stroke-linecap:butt;stroke-linejoin:miter;stroke-miterlimit:4;stroke-opacity:1;stroke-dasharray:none"
           d="m 94.544881,374.11559 c 28.352679,-9.44132 19.728809,24.91707 25.783309,36.89697 6.05451,11.97989 31.3139,16.88426 16.99411,51.68487"
           id="path4741"
           inkscape:connector-curvature="0"
           sodipodi:nodetypes="czc" />
        <path
           sodipodi:nodetypes="czc"
           inkscape:connector-curvature="0"
           id="path4743"
           d="m 95.401339,379.82531 c 22.928441,-10.58326 14.875541,21.49124 20.930041,33.47114 6.05451,11.97989 30.74293,17.16974 16.42314,47.68806"
           style="fill:#f2f2f2;stroke:#cccccc;stroke-width:2;stroke-linecap:butt;stroke-linejoin:miter;stroke-miterlimit:4;stroke-opacity:1;stroke-dasharray:none" />
      </g>
      <use
         height="432"
         width="335"
         transform="matrix(-1,0,0,1,335,0)"
         id="use4753"
         xlink:href="#g4747"
         y="0"
         x="0" />
      <path
         style="fill:#141414;fill-opacity:1;stroke:#000000;stroke-width:6;stroke-linecap:butt;stroke-linejoin:round;stroke-miterlimit:4;stroke-opacity:1;stroke-dasharray:none"
         d="m 75,457 c 4,-70 14,-119 20,-125 18,173 127,173 145,0 6,6 16,55 20,125 -60,50 -125,50 -185,0 z"
         id="path4735"
         inkscape:connector-curvature="0"
         sodipodi:nodetypes="ccccc" />
      <g
         id="g4623">
        <path
           style="fill:#ffffff;fill-opacity:1;stroke:#7bebe9;stroke-width:8;stroke-linecap:butt;stroke-linejoin:miter;stroke-miterlimit:4;stroke-opacity:1;stroke-dasharray:none"
           d="m 218.64705,298.57043 c -13.75087,31.63709 -14.09519,99.52251 28.67731,116.79022 -12.4872,-28.00836 -14.50097,-97.03573 -1.71989,-129.92258 z"
           id="path4617"
           inkscape:connector-curvature="0"
           sodipodi:nodetypes="cccc" />
        <path
           style="fill:#afe8e7;fill-opacity:1;stroke:#52cfd1;stroke-width:8;stroke-linecap:butt;stroke-linejoin:miter;stroke-miterlimit:4;stroke-opacity:1;stroke-dasharray:none"
           d="m 285.9447,185.48312 c -9.66596,75.36953 -15.19656,168.25888 38.48178,154.86624 -6.45981,52.48598 -80.56854,47.23943 -85.4134,-49.65777 z"
           id="path4621"
           inkscape:connector-curvature="0"
           sodipodi:nodetypes="cccc" />
        <path
           sodipodi:nodetypes="cccc"
           inkscape:connector-curvature="0"
           id="path4619"
           d="m 233.49233,289.43487 c -9.75406,45.34042 -6.10158,109.22904 60.65175,103.65786 C 260.53091,355.94881 261.372,283.49562 274.72405,242.04418 z"
           style="fill:#afe8e7;fill-opacity:1;stroke:#52cfd1;stroke-width:8;stroke-linecap:butt;stroke-linejoin:miter;stroke-miterlimit:4;stroke-opacity:1;stroke-dasharray:none" />
      </g>
      <path
         transform="matrix(0.99873043,0,0,1.0036173,2.17744,-15.66053)"
         d="m 286.11803,214.38504 c 0,72.91398 -53.98788,132.02243 -120.58532,132.02243 -66.597428,0 -120.585315,-59.10845 -120.585315,-132.02243 0,-72.91397 53.987887,-132.02243 120.585315,-132.02243 66.59744,0 120.58532,59.10846 120.58532,132.02243 z"
         sodipodi:ry="132.02243"
         sodipodi:rx="120.58532"
         sodipodi:cy="214.38504"
         sodipodi:cx="165.53271"
         id="path3048"
         style="fill:#93ffdb;fill-opacity:1;stroke:#36af7c;stroke-width:7.99064398;stroke-miterlimit:4;stroke-opacity:1;stroke-dasharray:none"
         sodipodi:type="arc" />
      <g
         id="g4201">
        <path
           sodipodi:nodetypes="ccsc"
           inkscape:connector-curvature="0"
           id="path4193"
           d="M 54.504673,186.93084 96.493458,109.00935 C 93.263552,65.001869 61.495617,34.297074 50.871028,37.143925 30.658957,42.559735 -13.323365,149.78691 54.504673,186.93084 z"
           style="fill:#93ffdb;fill-opacity:1;stroke:none" />
        <path
           style="fill:#36af7c;fill-opacity:1;stroke:none"
           d="M 54.504673,186.93084 C -15.745795,158.66916 24.007771,40.491907 50.063552,33.510281 66.087185,29.216761 96.897195,64.194391 96.493458,109.00935 88.418692,66.616822 61.899355,37.93072 51.274766,40.77757 32.94616,45.688707 -5.2485986,145.3458 54.504673,186.93084 z"
           id="path4191"
           inkscape:connector-curvature="0"
           sodipodi:nodetypes="cscsc" />
        <path
           style="fill:#36af7c;fill-opacity:1;stroke:none"
           d="M 56.133184,76.964832 C 45.406838,92.123393 42.752502,123.18265 54.463426,140.45825 48.858245,123.28965 50.266751,92.192506 56.133184,76.964832 z"
           id="path4195"
           inkscape:connector-curvature="0"
           sodipodi:nodetypes="ccc" />
      </g>
      <g
         transform="translate(0,12)"
         id="g4171">
        <g
           id="g3826"
           transform="matrix(0.99868126,-0.06023147,0.05251309,1.0756692,-22.886569,-9.806067)">
          <path
             transform="matrix(0.99712168,-0.01971104,0.01951911,0.98741259,-8.2213782,0.91734442)"
             d="m 163.91776,203.48412 c 0,35.2306 -20.42586,63.79065 -45.62243,63.79065 -25.196575,0 -45.622433,-28.56005 -45.622433,-63.79065 0,-35.23061 20.425858,-63.79066 45.622433,-63.79066 25.19657,0 45.62243,28.56005 45.62243,63.79066 z"
             sodipodi:ry="63.790653"
             sodipodi:rx="45.622429"
             sodipodi:cy="203.48412"
             sodipodi:cx="118.29533"
             id="path3824"
             style="fill:#ffffff;stroke:none"
             sodipodi:type="arc" />
          <g
             transform="translate(-0.19495982,3.7076986)"
             id="g4158"
             clip-path="url(#clipPath4727)">
            <path
               transform="matrix(0.99886923,0.04754221,-0.04754221,0.99886923,-11.474407,-24.520039)"
               d="m 174.73318,201.89821 c 0,28.69365 -17.13443,51.95446 -38.27082,51.95446 -21.13639,0 -38.270824,-23.26081 -38.270824,-51.95446 0,-28.69366 17.134434,-51.95446 38.270824,-51.95446 21.13639,0 38.27082,23.2608 38.27082,51.95446 z"
               sodipodi:ry="51.95446"
               sodipodi:rx="38.270821"
               sodipodi:cy="201.89821"
               sodipodi:cx="136.46236"
               id="path3833"
               style="fill:url(#linearGradient4787);fill-opacity:1;stroke:none"
               sodipodi:type="arc" />
            <g
               clip-path="url(#clipPath3902)"
               id="g3898">
              <path
                 style="fill:#ffffc2;fill-opacity:1;stroke:none;display:inline"
                 d="m 75.490668,197.97632 6.821996,19.43017 20.337236,-21.89687 19.88091,2.0475 20.03536,26.97534 9.98953,-19.7303 -27.95546,-17.66608 -24.92405,-3.354 z"
                 id="path3854"
                 inkscape:connector-curvature="0"
                 sodipodi:nodetypes="ccccccccc" />
              <path
                 style="fill:#eff072;fill-opacity:1;stroke:none;display:inline"
                 d="m 70.900898,191.55111 28.767979,-10.92232 23.343753,1.78101 37.4982,19.94432 -7.64461,13.61832 -25.32091,-24.13737 -28.06332,-2.62472 -23.742707,15.66649 z"
                 id="path3852"
                 inkscape:connector-curvature="0"
                 sodipodi:nodetypes="ccccccccc" />
            </g>
            <path
               sodipodi:type="arc"
               style="fill:#000000;stroke:none"
               id="path3835"
               sodipodi:cx="136.46236"
               sodipodi:cy="201.89821"
               sodipodi:rx="26.879658"
               sodipodi:ry="37.134026"
               d="m 163.34201,201.89821 c 0,20.50855 -12.03443,37.13402 -26.87965,37.13402 -14.84523,0 -26.87966,-16.62547 -26.87966,-37.13402 0,-20.50856 12.03443,-37.13403 26.87966,-37.13403 14.84522,0 26.87965,16.62547 26.87965,37.13403 z"
               transform="matrix(0.99899529,0.04481497,-0.04481497,0.99899529,-11.939535,-25.310644)" />
          </g>
          <path
             transform="matrix(0.99712168,-0.01971104,0.01951911,0.98741259,-8.2213782,0.91734442)"
             style="fill:#000000;stroke:none"
             d="M 156.7418,237.84165 C 184.86204,139.62235 95.987315,112.63467 78.959486,179.08956 39.388898,165.69607 41.172453,159.10081 76.202218,170.95043 110.25253,92.550465 195.5809,163.7824 156.7418,237.84165 z"
             id="path3841"
             inkscape:connector-curvature="0"
             sodipodi:nodetypes="cccc" />
          <path
             style="fill:#000000;stroke:#000000;stroke-width:0.96340477px;stroke-linecap:butt;stroke-linejoin:miter;stroke-opacity:1"
             d="m 79.70868,155.64074 3.344093,-4.98747 c -29.46055,-22.49468 -33.324229,-18.76411 -3.344093,4.98747 z"
             id="path3848"
             inkscape:connector-curvature="0"
             sodipodi:nodetypes="ccc" />
          <path
             sodipodi:nodetypes="ccc"
             inkscape:connector-curvature="0"
             id="path3850"
             d="M 93.836324,141.64593 99.984,138.41281 C 78.581635,106.19516 73.703413,108.8464 93.836324,141.64593 z"
             style="fill:#000000;stroke:#000000;stroke-width:0.96340477px;stroke-linecap:butt;stroke-linejoin:miter;stroke-opacity:1" />
        </g>
        <path
           sodipodi:type="arc"
           style="fill:#ffffff;stroke:none"
           id="path3877"
           sodipodi:cx="131.6091"
           sodipodi:cy="165.21324"
           sodipodi:rx="11.986379"
           sodipodi:ry="14.730371"
           d="m 143.59548,165.21324 c 0,8.13536 -5.36649,14.73037 -11.98638,14.73037 -6.61989,0 -11.98638,-6.59501 -11.98638,-14.73037 0,-8.13536 5.36649,-14.73037 11.98638,-14.73037 6.61989,0 11.98638,6.59501 11.98638,14.73037 z"
           transform="matrix(0.99671354,0.08100685,-0.08100685,0.99671354,-1.2658499,-16.093193)" />
        <path
           transform="matrix(0.98487117,0.17328815,-0.17328815,0.98487117,5.1430544,-5.9632392)"
           d="m 135.89139,165.21324 c 0,3.23223 -1.91725,5.85247 -4.28229,5.85247 -2.36504,0 -4.28229,-2.62024 -4.28229,-5.85247 0,-3.23223 1.91725,-5.85246 4.28229,-5.85246 2.36504,0 4.28229,2.62023 4.28229,5.85246 z"
           sodipodi:ry="5.8524652"
           sodipodi:rx="4.2822914"
           sodipodi:cy="165.21324"
           sodipodi:cx="131.6091"
           id="path3879"
           style="fill:#ffffff;stroke:none"
           sodipodi:type="arc" />
      </g>
      <g
         id="g4559">
        <path
           style="fill:#afe8e7;fill-opacity:1;stroke:#52cfd1;stroke-width:8;stroke-linecap:butt;stroke-linejoin:miter;stroke-miterlimit:20;stroke-opacity:1;stroke-dasharray:none;display:inline"
           d="M 13.596523,193.43378 C 1.2812868,135.93686 24.269659,92.946225 71.614943,63.100044 60.668032,62.551954 40.416353,68.028346 28.922138,77.063571 42.879398,1.496215 220.49205,-14.116992 266.7428,70.217681 l -6.56812,25.462907 C 203.83765,66.793768 217.82341,121.46884 133.955,132.94801 89.008246,139.09993 36.169211,151.21309 13.596523,193.43378 z"
           id="path4526-1"
           inkscape:connector-curvature="0"
           sodipodi:nodetypes="cccccsc" />
        <path
           style="fill:#ffffff;fill-opacity:1;stroke:#7bebe9;stroke-width:8;stroke-linecap:butt;stroke-linejoin:miter;stroke-miterlimit:20;stroke-opacity:1;stroke-dasharray:none;display:inline"
           d="M 245.39655,97.876069 C 228.70237,95.68979 225.14451,125.80926 187.9253,144.42631 205.71427,117.86795 199.14595,40.925724 270.3004,52.143392 z"
           id="path4528-7"
           inkscape:connector-curvature="0"
           sodipodi:nodetypes="cccc" />
        <g
           id="g4215"
           transform="translate(0,-8)"
           clip-path="url(#clipPath4555)">
          <path
             sodipodi:nodetypes="cczc"
             inkscape:connector-curvature="0"
             id="path4208"
             d="m 145,122 c 14.5,5.5 30.5,5.5 45,0 C 184,64 176.5,18 167.5,18 158.5,18 151,64 145,122 z"
             style="fill:#93ffdb;fill-opacity:1;stroke:#36af7c;stroke-width:8;stroke-linecap:butt;stroke-linejoin:miter;stroke-miterlimit:4;stroke-opacity:1;stroke-dasharray:none" />
          <path
             sodipodi:nodetypes="cccccc"
             inkscape:connector-curvature="0"
             id="path4210"
             d="m 147.62967,98.919372 c 13.42482,6.476608 32.02548,-0.444315 38.27748,-12.409524 L 183.70093,63.851521 C 174.56538,75.556451 160.014,80.19698 150.14168,75.865707 l 4.9918,-27.503187 c 8.56458,4.853264 17.7239,0.08956 22.74789,-7.789281"
             style="fill:none;stroke:#36af7c;stroke-width:4;stroke-linecap:butt;stroke-linejoin:miter;stroke-miterlimit:4;stroke-opacity:1;stroke-dasharray:none" />
        </g>
        <path
           style="fill:#52cfd1;fill-opacity:1;stroke:none"
           d="m 132.77606,96.474808 c 25.34569,-0.637321 49.2029,-7.638207 65.23371,-24.350261 -12.53005,23.101403 -38.43609,29.192093 -65.23371,24.350261 z"
           id="path4551"
           inkscape:connector-curvature="0"
           sodipodi:nodetypes="ccc" />
      </g>
      <use
         height="432"
         width="335"
         transform="matrix(-1,0,0,1,334.99939,1.6e-4)"
         id="use4206"
         xlink:href="#g4201"
         y="0"
         x="0" />
      <g
         transform="translate(12,12)"
         id="g4186">
        <use
           x="0"
           y="0"
           xlink:href="#g3826"
           id="use3831"
           transform="matrix(-1,0,0,1,323,0)"
           width="335"
           height="432" />
        <path
           transform="matrix(0.96506278,0.26201873,-0.26201873,0.96506278,153.32936,-34.756148)"
           d="m 143.02638,165.21324 c 0,8.13536 -5.11169,14.73037 -11.41728,14.73037 -6.30559,0 -11.41728,-6.59501 -11.41728,-14.73037 0,-8.13536 5.11169,-14.73037 11.41728,-14.73037 6.30559,0 11.41728,6.59501 11.41728,14.73037 z"
           sodipodi:ry="14.730371"
           sodipodi:rx="11.417283"
           sodipodi:cy="165.21324"
           sodipodi:cx="131.6091"
           id="path3881"
           style="fill:#ffffff;stroke:none"
           sodipodi:type="arc" />
        <path
           sodipodi:type="arc"
           style="fill:#ffffff;stroke:none"
           id="path3883"
           sodipodi:cx="131.6091"
           sodipodi:cy="165.21324"
           sodipodi:rx="4.2822914"
           sodipodi:ry="5.2406597"
           d="m 135.89139,165.21324 c 0,2.89434 -1.91725,5.24066 -4.28229,5.24066 -2.36504,0 -4.28229,-2.34632 -4.28229,-5.24066 0,-2.89433 1.91725,-5.24066 4.28229,-5.24066 2.36504,0 4.28229,2.34633 4.28229,5.24066 z"
           transform="matrix(0.98487117,0.17328815,-0.17328815,0.98487117,123.53022,-7.2437248)" />
      </g>
      <path
         sodipodi:nodetypes="ccc"
         inkscape:connector-curvature="0"
         id="path4595"
         d="m 151,269 c 11,-11 22,-11 33,0 -12,-7 -21,-7 -33,0 z"
         style="fill:#36af7c;fill-opacity:1;stroke:none" />
      <path
         sodipodi:nodetypes="ccc"
         inkscape:connector-curvature="0"
         id="path4597"
         d="m 149.23382,276.20121 c -0.46752,3.69572 1.63162,6.55299 5.16555,8.11269 -6.10297,2.06392 -9.73855,-3.94054 -5.16555,-8.11269 z"
         style="fill:#36af7c;fill-opacity:1;stroke:none" />
      <path
         sodipodi:nodetypes="ccc"
         inkscape:connector-curvature="0"
         id="path4601"
         d="m 140,312 c 13,-5 42,-5 55,0 -14,-10 -41,-10 -55,0 z"
         style="fill:#36af7c;fill-opacity:1;stroke:none" />
      <use
         height="432"
         width="335"
         transform="matrix(-1,0,0,1,335.00024,0)"
         id="use4607"
         xlink:href="#path4597"
         y="0"
         x="0" />
    </g>
  </g>
</svg>
