<?xml version="1.0" encoding="UTF-8" standalone="no"?>
<!-- Created with Inkscape (http://www.inkscape.org/) -->

<svg
   xmlns:dc="http://purl.org/dc/elements/1.1/"
   xmlns:cc="http://creativecommons.org/ns#"
   xmlns:rdf="http://www.w3.org/1999/02/22-rdf-syntax-ns#"
   xmlns:svg="http://www.w3.org/2000/svg"
   xmlns="http://www.w3.org/2000/svg"
   xmlns:xlink="http://www.w3.org/1999/xlink"
   xmlns:sodipodi="http://sodipodi.sourceforge.net/DTD/sodipodi-0.dtd"
   xmlns:inkscape="http://www.inkscape.org/namespaces/inkscape"
   id="svg3055"
   version="1.1"
   inkscape:version="0.48.3.1 r9886"
   width="660.85095"
   height="658.2962"
   sodipodi:docname="Pommel on the Horse.svg"
   inkscape:export-filename="/home/parclytaxel/Pictures/Pommel on the Horse.png"
   inkscape:export-xdpi="875.02173"
   inkscape:export-ydpi="875.02173">
  <metadata
     id="metadata3061">
    <rdf:RDF>
      <cc:Work
         rdf:about="">
        <dc:format>image/svg+xml</dc:format>
        <dc:type
           rdf:resource="http://purl.org/dc/dcmitype/StillImage" />
        <dc:title></dc:title>
      </cc:Work>
    </rdf:RDF>
  </metadata>
  <defs
     id="defs3059">
    <inkscape:path-effect
       effect="skeletal"
       id="path-effect3898"
       is_visible="true"
       pattern="m 586.61119,502.61119 c -4.68422,0 -11.48767,1.13671 -18,3.5 6.62518,2.51598 12.75815,3.5 18,3.5 l 401,0 c 7.10062,0 22.37301,-0.53925 27.00001,-3.5 -4.5142,-2.81471 -19.89939,-3.5 -27.00001,-3.5 z"
       copytype="single_stretched"
       prop_scale="1"
       scale_y_rel="false"
       spacing="0"
       normal_offset="0"
       tang_offset="0"
       prop_units="false"
       vertical_pattern="false"
       fuse_tolerance="0"
       pattern-nodetypes="scsscss" />
    <inkscape:path-effect
       effect="skeletal"
       id="path-effect3864"
       is_visible="true"
       pattern="m 798.83207,633.64737 -0.875,7 344.00003,0 c 6.6406,0 16.1641,-0.73422 25,-3.5 -8.7413,-2.60153 -18.0058,-3.5 -25,-3.5 z"
       copytype="single_stretched"
       prop_scale="1"
       scale_y_rel="false"
       spacing="0"
       normal_offset="0"
       tang_offset="0"
       prop_units="false"
       vertical_pattern="false"
       fuse_tolerance="0"
       pattern-nodetypes="ccscsc" />
    <inkscape:path-effect
       effect="skeletal"
       id="path-effect3832"
       is_visible="true"
       pattern="m 823.04791,746.70476 c -19.3685,0 -61.5469,0.3932 -82,3.5 20.1942,2.3301 62.6315,3.5 82,3.5 l 345.99999,0 c 19.3685,0 59.6181,-0.911 78,-3.5 -18.6408,-2.0712 -58.6315,-3.5 -78,-3.5 z"
       copytype="single_stretched"
       prop_scale="1"
       scale_y_rel="false"
       spacing="0"
       normal_offset="0"
       tang_offset="0"
       prop_units="false"
       vertical_pattern="false"
       fuse_tolerance="0"
       pattern-nodetypes="scsscss" />
    <inkscape:path-effect
       effect="skeletal"
       id="path-effect3893"
       is_visible="true"
       pattern="m 731.82991,581.61522 0,7 99.99998,0 c 6.6406,0 16.1641,-0.73422 25,-3.5 -8.7413,-2.60153 -18.0058,-3.5 -25,-3.5 z"
       copytype="single_stretched"
       prop_scale="1"
       scale_y_rel="false"
       spacing="0"
       normal_offset="0"
       tang_offset="0"
       prop_units="false"
       vertical_pattern="false"
       fuse_tolerance="0"
       pattern-nodetypes="ccscsc" />
    <inkscape:path-effect
       effect="skeletal"
       id="path-effect3861"
       is_visible="true"
       pattern="m 821.34462,546.79394 0,7 293.99998,0 c 6.6406,0 16.1641,-0.73422 25,-3.5 -8.7413,-2.60153 -18.0058,-3.5 -25,-3.5 z"
       copytype="single_stretched"
       prop_scale="1"
       scale_y_rel="false"
       spacing="0"
       normal_offset="0"
       tang_offset="0"
       prop_units="false"
       vertical_pattern="false"
       fuse_tolerance="0"
       pattern-nodetypes="ccscsc" />
    <inkscape:path-effect
       effect="skeletal"
       id="path-effect3839"
       is_visible="true"
       pattern="m 844,476 c -12.3685,0 -32.1719,0.7682 -47,3.5 14.6942,2.2051 35.0065,3.5 47,3.5 l 153,0 c 19.3685,0 98.6181,-1.26455 117,-3.5 -18.6408,-2.0712 -97.6315,-3.5 -117,-3.5 z"
       copytype="single_stretched"
       prop_scale="1"
       scale_y_rel="false"
       spacing="0"
       normal_offset="0"
       tang_offset="0"
       prop_units="false"
       vertical_pattern="false"
       fuse_tolerance="0"
       pattern-nodetypes="scsscss" />
    <inkscape:path-effect
       effect="skeletal"
       id="path-effect3903"
       is_visible="true"
       pattern="m 1099.1909,340.71197 c -19.3685,0 -61.5469,0.3932 -82,3.5 20.1942,2.3301 62.6315,3.5 82,3.5 l 273,0 c 19.3685,0 59.6181,-0.911 78,-3.5 -18.6408,-2.0712 -58.6315,-3.5 -78,-3.5 z"
       copytype="single_stretched"
       prop_scale="1"
       scale_y_rel="false"
       spacing="0"
       normal_offset="0"
       tang_offset="0"
       prop_units="false"
       vertical_pattern="false"
       fuse_tolerance="0"
       pattern-nodetypes="scsscss" />
    <linearGradient
       inkscape:collect="always"
       id="linearGradient3971">
      <stop
         style="stop-color:#229fa5;stop-opacity:1"
         offset="0"
         id="stop3973" />
      <stop
         style="stop-color:#d8fff9;stop-opacity:1"
         offset="1"
         id="stop3975" />
    </linearGradient>
    <clipPath
       clipPathUnits="userSpaceOnUse"
       id="clipPath3967">
      <path
         sodipodi:type="arc"
         style="fill:none;stroke:#008080;stroke-width:0.7388379;stroke-linecap:round;stroke-linejoin:miter;stroke-miterlimit:4;stroke-opacity:1;stroke-dasharray:none"
         id="path3969"
         sodipodi:cx="1001.7119"
         sodipodi:cy="375.65762"
         sodipodi:rx="20.534365"
         sodipodi:ry="27.457989"
         d="m 1022.2463,375.65762 a 20.534365,27.457989 0 1 1 -41.06875,0 20.534365,27.457989 0 1 1 41.06875,0 z"
         transform="matrix(1.330141,0.25024943,-0.25024943,1.330141,-234.52126,-374.70885)" />
    </clipPath>
    <linearGradient
       inkscape:collect="always"
       xlink:href="#linearGradient3971"
       id="linearGradient3992"
       gradientUnits="userSpaceOnUse"
       x1="1008.051"
       y1="356.6239"
       x2="1009.7943"
       y2="394.42148" />
    <clipPath
       clipPathUnits="userSpaceOnUse"
       id="clipPath4017">
      <path
         style="fill:none;stroke:#ececec"
         d="m 979.25,337.25 c 71.6485,-32.84609 66.1232,23.0379 104.25,37.75 -30.3888,112.15142 -175.14425,118.04331 -104.25,-37.75 z"
         id="path4019"
         inkscape:connector-curvature="0"
         sodipodi:nodetypes="ccc" />
    </clipPath>
    <clipPath
       clipPathUnits="userSpaceOnUse"
       id="clipPath3073">
      <path
         sodipodi:type="arc"
         style="fill:none;stroke:#ff00ff;stroke-width:0.5;stroke-linecap:round;stroke-linejoin:miter;stroke-miterlimit:4;stroke-opacity:1;stroke-dasharray:none"
         id="path3075"
         sodipodi:cx="932.4325"
         sodipodi:cy="357.34052"
         sodipodi:rx="10.565033"
         sodipodi:ry="22.954031"
         d="m 942.99753,357.34052 a 10.565033,22.954031 0 1 1 -21.13007,0 10.565033,22.954031 0 1 1 21.13007,0 z"
         transform="matrix(1.3782802,0.03113435,-0.03113435,1.3782802,-345.67344,-164.62613)" />
    </clipPath>
    <linearGradient
       inkscape:collect="always"
       xlink:href="#linearGradient3971"
       id="linearGradient3851"
       x1="927.76697"
       y1="340.82883"
       x2="929.22443"
       y2="372.96518"
       gradientUnits="userSpaceOnUse" />
    <clipPath
       clipPathUnits="userSpaceOnUse"
       id="clipPath3864">
      <path
         sodipodi:nodetypes="ccccc"
         inkscape:connector-curvature="0"
         id="path3866"
         d="m 912.16364,402.87727 c 7.73181,-1.10454 12.70908,-3.64545 17.24999,-8.30909 11.31666,-24.45333 14.80524,-55.4538 4.03577,-81.41327 -14.502,-1.25704 -12.48078,9.75057 -23.25398,21.17216 -4.58846,22.90697 -3.9513,48.32752 1.96822,68.5502 z"
         style="fill:none;stroke:#00ff00;stroke-width:1;stroke-linecap:round;stroke-linejoin:miter;stroke-miterlimit:4;stroke-opacity:1;stroke-dasharray:none" />
    </clipPath>
    <clipPath
       clipPathUnits="userSpaceOnUse"
       id="clipPath3935">
      <path
         style="fill:none;stroke:#ffff00;stroke-width:1;stroke-linecap:round;stroke-linejoin:miter;stroke-miterlimit:4;stroke-opacity:1;stroke-dasharray:none"
         d="M 746.625,621.5 752.5,607.875 643.46717,601.28871 543.05801,847.36187 888.83322,843.11923 847.82103,510.07193 767.21086,630.98719 z"
         id="path3937"
         inkscape:connector-curvature="0" />
    </clipPath>
    <clipPath
       clipPathUnits="userSpaceOnUse"
       id="clipPath4046">
      <path
         style="font-size:medium;font-style:normal;font-variant:normal;font-weight:normal;font-stretch:normal;text-indent:0;text-align:start;text-decoration:none;line-height:normal;letter-spacing:normal;word-spacing:normal;text-transform:none;direction:ltr;block-progression:tb;writing-mode:lr-tb;text-anchor:start;baseline-shift:baseline;color:#000000;fill:none;stroke:#ff0000;stroke-width:1;stroke-miterlimit:4;stroke-dasharray:none;marker:none;visibility:visible;display:inline;overflow:visible;enable-background:accumulate;font-family:Sans;-inkscape-font-specification:Sans"
         d="m 1078.3438,337.03125 c 11.093,-0.60945 22.9963,-2.56448 35.0937,-6.5625 4.1275,-84.87118 -33.5689,-77.46311 -35.0937,6.5625 z"
         id="path4048"
         inkscape:connector-curvature="0"
         sodipodi:nodetypes="ccc" />
    </clipPath>
    <clipPath
       clipPathUnits="userSpaceOnUse"
       id="clipPath4054">
      <path
         style="font-size:medium;font-style:normal;font-variant:normal;font-weight:normal;font-stretch:normal;text-indent:0;text-align:start;text-decoration:none;line-height:normal;letter-spacing:normal;word-spacing:normal;text-transform:none;direction:ltr;block-progression:tb;writing-mode:lr-tb;text-anchor:start;baseline-shift:baseline;color:#000000;fill:none;stroke:#00ff00;stroke-width:1;stroke-miterlimit:4;stroke-dasharray:none;marker:none;visibility:visible;display:inline;overflow:visible;enable-background:accumulate;font-family:Sans;-inkscape-font-specification:Sans"
         d="m 1109.4062,337.5 c -6.5714,-12.48373 -11.3374,-30.93607 -9.256,-53.11076 l 43.3646,47.64204 55.0196,-84.75988 L 867.67346,88.904265 866.18645,396.71644 z"
         id="path4056"
         inkscape:connector-curvature="0"
         sodipodi:nodetypes="cc"
         clip-path="none" />
    </clipPath>
    <clipPath
       clipPathUnits="userSpaceOnUse"
       id="clipPath3953">
      <path
         id="path3955"
         style="fill:none;stroke:#ffffff;stroke-width:1;stroke-miterlimit:4;stroke-dasharray:none;display:inline"
         d="m 565.40444,654.49131 c 8.46433,4.69108 17.36542,8.73317 26.55058,11.94918 L 585.14054,778.13588 839.42017,764.75274 760.20931,577.5187 c 7.98378,-5.95374 15.01716,-13.14375 20.58789,-21.51862 L 985.23549,406.00219 453.1873,276.67032 z"
         inkscape:connector-curvature="0"
         sodipodi:nodetypes="cccccc" />
    </clipPath>
    <clipPath
       clipPathUnits="userSpaceOnUse"
       id="clipPath3957">
      <path
         id="path3959"
         style="font-size:medium;font-style:normal;font-variant:normal;font-weight:normal;font-stretch:normal;text-indent:0;text-align:start;text-decoration:none;line-height:normal;letter-spacing:normal;word-spacing:normal;text-transform:none;direction:ltr;block-progression:tb;writing-mode:lr-tb;text-anchor:start;baseline-shift:baseline;color:#000000;fill:none;stroke:#ffffff;stroke-width:1;stroke-miterlimit:4;stroke-dasharray:none;marker:none;visibility:visible;display:inline;overflow:visible;enable-background:accumulate;font-family:Sans;-inkscape-font-specification:Sans"
         d="M 782.75,562.59375 C 758.57148,559.75793 744.29385,549.072 736.875,536.0625 L 588.59375,532.25 c 13.05796,55.12227 12.97664,89.71854 -16.875,136.1875 113.22357,41.75369 203.67753,-2.31577 211.03125,-105.84375 z"
         inkscape:connector-curvature="0"
         sodipodi:nodetypes="ccccc" />
    </clipPath>
    <clipPath
       clipPathUnits="userSpaceOnUse"
       id="clipPath3903">
      <path
         style="font-size:medium;font-style:normal;font-variant:normal;font-weight:normal;font-stretch:normal;text-indent:0;text-align:start;text-decoration:none;line-height:normal;letter-spacing:normal;word-spacing:normal;text-transform:none;direction:ltr;block-progression:tb;writing-mode:lr-tb;text-anchor:start;baseline-shift:baseline;color:#000000;fill:none;stroke:#000000;stroke-width:1;marker:none;visibility:visible;display:inline;overflow:visible;enable-background:accumulate;font-family:Sans;-inkscape-font-specification:Sans"
         d="m 928.84375,501.46289 c 7.20205,-12.7476 12.99381,-25.96097 17,-37.71875 l -58.80425,-65.78006 -81.71573,90.44865 70.38659,32.25144 8.67272,-51.36418 c 7.90652,3.41245 15.37662,7.83325 22.39742,12.91372 l -16.04503,24.00831 26.0509,34.16511 12.05738,-38.92424"
         id="path3905"
         inkscape:connector-curvature="0"
         sodipodi:nodetypes="cccccccccc" />
    </clipPath>
  </defs>
  <sodipodi:namedview
     pagecolor="#ffffff"
     bordercolor="#666666"
     borderopacity="1"
     objecttolerance="10"
     gridtolerance="10"
     guidetolerance="10"
     inkscape:pageopacity="0"
     inkscape:pageshadow="2"
     inkscape:window-width="1364"
     inkscape:window-height="698"
     id="namedview3057"
     showgrid="true"
     fit-margin-top="0"
     fit-margin-left="0"
     fit-margin-right="0"
     fit-margin-bottom="0"
     inkscape:zoom="0.81118499"
     inkscape:cx="330.42548"
     inkscape:cy="329.1481"
     inkscape:window-x="0"
     inkscape:window-y="0"
     inkscape:window-maximized="1"
     inkscape:current-layer="layer2"
     showguides="true"
     inkscape:guide-bbox="true"
     inkscape:snap-object-midpoints="false" />
  <g
     inkscape:groupmode="layer"
     id="layer2"
     inkscape:label="Drawing"
     style="display:inline"
     transform="translate(-571.16096,-195.34229)">
    <g
       id="g4040"
       transform="matrix(0.51285009,0.07620736,-0.07620736,0.51285009,1143.403,154.27714)">
      <path
         sodipodi:nodetypes="csssscsscssscssscsssc"
         inkscape:connector-curvature="0"
         id="path4038"
         d="m 74.12893,441.90461 c -3.71712,39.43941 13.76761,43.51368 22.46063,33.36263 5.58557,-6.52242 13.17129,-13.70118 26.65986,-5.81313 37.26349,21.79151 24.20403,-26.54694 40.53221,-28.54688 10.79578,-1.32231 12.75559,-9.93313 5.34647,-24.75137 30.14091,6.03698 34.79632,-10.67177 28.97758,-22.76617 -9.84212,-20.45712 29.50182,-24.24277 19.04899,-48.60562 -5.78743,-13.489 -22.90148,-10.30406 -15.89164,-26.34514 7.04099,-16.11233 -8.10025,-25.71398 -47.94133,-0.87166 20.26612,-20.91985 34.45427,-48.15924 9.37035,-48.15924 -25.48591,0 -1.18161,-28.79314 -33.55893,-11.54951 -21.17915,11.27968 -20.87451,-20.26227 -39.59629,-8.0765 -8.65185,5.63137 -11.96457,16.62368 -8.88356,41.27149 -23.7996,-37.35086 -48.22584,-45.43773 -48.53253,-28.31966 -0.52345,29.21581 -33.57418,-3.1684 -29.44447,29.6949 3.65542,29.08892 -22.8758,2.58163 -19.59708,38.93118 1.09718,12.16389 19.49605,27.25553 36.0576,30.30634 -53.60712,20.48402 -51.78133,56.20959 -30.24393,49.87044 27.88224,-8.20665 -10.35518,40.45303 15.08592,31.76379 28.13,-9.60763 3.54361,38.66372 27.24541,20.53711 20.85435,-15.94895 20.65086,41.64496 42.90474,-21.933 z"
         style="fill:#f66d75;fill-opacity:1;stroke:#d83b4e;stroke-width:12;stroke-linecap:butt;stroke-linejoin:round;stroke-miterlimit:4;stroke-opacity:1;stroke-dasharray:none" />
      <path
         sodipodi:nodetypes="ssscsscssscssscs"
         inkscape:connector-curvature="0"
         id="path4032"
         d="m 119.32694,448.53426 c 34.486,-2.94032 -0.05,-23.44746 32.07037,-25.49221 42.51738,-2.7066 2.24012,-16.47073 25.50735,-29.90407 10.14427,-5.8568 18.84536,-34.11696 -28.50543,-31.76977 33.34101,-16.34363 33.27139,-34.27169 13.20256,-38.69863 -14.81823,-3.26873 -17.33507,-6.82484 -10.49663,-19.17722 12.25236,-22.13159 -15.27595,-32.1012 -36.11462,-10.66167 6.00118,-31.68264 -25.03637,-27.4989 -33.17135,-8.82235 -12.98845,29.81932 -39.99848,-23.42636 -39.6195,17.11102 0.18567,19.86036 -24.90036,7.79778 -29.18391,28.20919 -3.00787,14.33271 2.349,26.83432 14.67613,32.9979 -30.81786,8.62899 -26.36949,42.96825 -8.38002,41.67325 25.05259,-1.80346 -3.49364,33.39095 24.03793,28.04423 17.4208,-3.38318 11.02201,17.10709 25.27064,17.10708 12.32714,-10e-6 18.94982,-11.55354 23.5725,-24.18886 4.3145,14.79257 16.34275,24.49218 27.13398,23.57211 z"
         style="fill:#f99686;fill-opacity:1;stroke:#d83b4e;stroke-width:12;stroke-linecap:butt;stroke-linejoin:round;stroke-opacity:1;stroke-dasharray:none" />
      <path
         inkscape:connector-curvature="0"
         d="m 73.2465,398.95223 c -2.237797,5.82127 -4.925953,10.26333 -8.810191,15.08511 2.461018,-5.76146 3.77104,-9.98477 5.112409,-15.28848 z m -10.18694,1.53743 c -6.910021,6.27174 -13.30459,10.56196 -21.110543,14.68369 5.457054,-6.86859 10.049924,-12.98098 14.807225,-19.87458 z m 6.370461,-77.01861 c -2.170115,-4.30419 -3.962457,-8.66498 -5.636147,-13.45692 3.561532,3.82595 6.914102,7.32511 10.319413,10.73624 z m -19.216842,57.21454 c -5.698622,2.5339 -10.740448,3.7741 -16.896529,4.43704 5.814168,-2.33376 9.726825,-4.39377 14.425609,-7.19557 z m 4.670851,-49.99022 c -7.276598,-0.79179 -15.154239,-2.73556 -21.456966,-5.31065 5.523405,7.15737 13.396445,12.29915 19.6349,13.62565 z m 44.94612,-11.59836 c 2.64248,-4.03147 5.52287,-7.76408 8.83598,-11.60952 -1.53261,4.99737 -2.8867,9.65036 -4.13817,14.30501 z m 6.02571,5.0451 c 5.73188,-7.36398 11.29582,-12.68742 18.27912,-18.08696 -4.19807,7.70276 -7.67447,14.51237 -11.17887,22.11977 z m 21.37279,17.50478 c 4.84862,-3.92247 9.39768,-6.42532 15.17243,-8.65895 -5.01204,3.75904 -8.25819,6.76154 -12.07172,10.68401 z m -4.08819,54.80566 c 5.99719,3.67718 11.5901,8.38519 16.34363,13.72865 -2.89446,-8.96965 -6.57257,-14.40204 -10.56889,-18.95861 z m -18.08696,11.44054 c 5.92563,4.29674 11.80185,9.8919 15.99738,15.25406 -1.24594,-8.95455 -5.53198,-17.32425 -10.29099,-21.57039 z"
         style="fill:#d83b4e;fill-opacity:1;stroke:none"
         id="path4028" />
      <path
         transform="matrix(1.3068314,0,0,1.3068314,716.4727,141.93458)"
         d="m -456.10423,168.88184 c 0,12.76517 -10.34822,23.11339 -23.11339,23.11339 -12.76517,0 -23.11339,-10.34822 -23.11339,-23.11339 0,-12.76518 10.34822,-23.11339 23.11339,-23.11339 12.76517,0 23.11339,10.34821 23.11339,23.11339 z"
         sodipodi:ry="23.11339"
         sodipodi:rx="23.11339"
         sodipodi:cy="168.88184"
         sodipodi:cx="-479.21762"
         id="path4033"
         style="fill:#cd91cf;fill-opacity:1;stroke:#8f5298;stroke-width:7.69452381;stroke-linecap:butt;stroke-linejoin:miter;stroke-miterlimit:20;stroke-opacity:1;stroke-dasharray:none"
         sodipodi:type="arc" />
      <path
         sodipodi:nodetypes="cccc"
         inkscape:connector-curvature="0"
         d="M 59.687296,358.50015 C 77.126889,357.11097 91.77657,347.98867 96.61492,332.39496 m -13.999349,58.30221 c -17.43321,-33.1231 23.863959,-57.88927 35.800949,-20.44525"
         style="fill:none;stroke:#8f5298;stroke-width:5.19999981;stroke-linecap:butt;stroke-linejoin:miter;stroke-miterlimit:20;stroke-opacity:1;stroke-dasharray:none"
         id="path4037" />
      <path
         inkscape:transform-center-y="-11.648636"
         inkscape:transform-center-x="-36.568457"
         transform="matrix(1.1874462,0,0,1.1874462,655.39268,166.78109)"
         d="m -437.45942,155.78426 c 0,4.25505 -3.4494,7.70446 -7.70446,7.70446 -4.25506,0 -7.70446,-3.44941 -7.70446,-7.70446 0,-4.25506 3.4494,-7.70447 7.70446,-7.70447 4.25506,0 7.70446,3.44941 7.70446,7.70447 z"
         sodipodi:ry="7.7044635"
         sodipodi:rx="7.7044635"
         sodipodi:cy="155.78426"
         sodipodi:cx="-445.16388"
         id="path3079"
         style="fill:#8d4891;fill-opacity:1;stroke:#6a336c;stroke-width:4.2107172;stroke-linecap:butt;stroke-linejoin:miter;stroke-miterlimit:20;stroke-opacity:1;stroke-dasharray:none"
         sodipodi:type="arc" />
      <use
         height="658.26935"
         width="612.8125"
         transform="matrix(0.86602541,-0.50000001,0.50000001,0.86602541,-169.62091,93.796431)"
         id="use3940"
         inkscape:transform-center-y="-28.372242"
         inkscape:transform-center-x="-25.844902"
         xlink:href="#path3079"
         y="0"
         x="0" />
      <use
         x="0"
         y="0"
         xlink:href="#path3079"
         inkscape:transform-center-x="-8.1962135"
         inkscape:transform-center-y="-37.493541"
         id="use3942"
         transform="matrix(0.5,-0.86602541,0.86602541,0.5,-269.61872,259.83697)"
         width="612.8125"
         height="658.26935" />
      <use
         height="658.26935"
         width="612.8125"
         transform="matrix(0,-1,1,0,-273.19909,453.63121)"
         id="use3944"
         inkscape:transform-center-y="-36.568462"
         inkscape:transform-center-x="11.648644"
         xlink:href="#path3079"
         y="0"
         x="0" />
      <use
         x="0"
         y="0"
         xlink:href="#path3079"
         inkscape:transform-center-x="28.372251"
         inkscape:transform-center-y="-25.844897"
         id="use3946"
         transform="matrix(-0.50000001,-0.86602541,0.86602541,-0.50000001,-179.40266,623.25213)"
         width="612.8125"
         height="658.26935" />
      <use
         height="658.26935"
         width="612.8125"
         transform="matrix(-0.86602541,-0.5,0.5,-0.86602541,-13.362114,723.24994)"
         id="use3948"
         inkscape:transform-center-y="-8.1962085"
         inkscape:transform-center-x="37.493543"
         xlink:href="#path3079"
         y="0"
         x="0" />
      <use
         x="0"
         y="0"
         xlink:href="#path3079"
         inkscape:transform-center-x="36.56846"
         inkscape:transform-center-y="11.648649"
         id="use3950"
         transform="matrix(-1,0,0,-1,180.43213,726.83031)"
         width="612.8125"
         height="658.26935" />
      <use
         height="658.26935"
         width="612.8125"
         transform="matrix(-0.86602541,0.50000001,-0.50000001,-0.86602541,350.05305,633.03387)"
         id="use3952"
         inkscape:transform-center-y="28.372246"
         inkscape:transform-center-x="25.844895"
         xlink:href="#path3079"
         y="0"
         x="0" />
      <use
         x="0"
         y="0"
         xlink:href="#path3079"
         inkscape:transform-center-x="8.1962065"
         inkscape:transform-center-y="37.493524"
         id="use3954"
         transform="matrix(-0.5,0.86602541,-0.86602541,-0.5,450.05086,466.99331)"
         width="612.8125"
         height="658.26935" />
      <use
         height="658.26935"
         width="612.8125"
         transform="matrix(0,1,-1,0,453.63122,273.19907)"
         id="use3956"
         inkscape:transform-center-y="36.568445"
         inkscape:transform-center-x="-11.648641"
         xlink:href="#path3079"
         y="0"
         x="0" />
      <use
         x="0"
         y="0"
         xlink:href="#path3079"
         inkscape:transform-center-x="-28.372238"
         inkscape:transform-center-y="25.84489"
         id="use3958"
         transform="matrix(0.50000001,0.86602541,-0.86602541,0.50000001,359.83478,103.57816)"
         width="612.8125"
         height="658.26935" />
      <use
         height="658.26935"
         width="612.8125"
         transform="matrix(0.86602541,0.5,-0.5,0.86602541,193.79422,3.58036)"
         id="use3960"
         inkscape:transform-center-y="8.1962115"
         inkscape:transform-center-x="-37.493516"
         xlink:href="#path3079"
         y="0"
         x="0" />
    </g>
    <path
       style="fill:#ede1c9;fill-opacity:1;stroke:#dabe97;stroke-width:7;stroke-miterlimit:4;stroke-opacity:1;stroke-dasharray:none;display:inline"
       d="m 952.33328,576.71223 c -22.87744,68.2358 -37.31037,165.11819 -23.72618,234.06617 3.97978,20.19977 98.4263,14.84052 91.3725,-0.8717 -28.93077,-64.44291 -40.3891,-154.57781 -29.87682,-230.0125 z"
       id="path3840-9"
       inkscape:connector-curvature="0"
       sodipodi:nodetypes="csscc" />
    <g
       id="g3874">
      <path
         clip-path="none"
         sodipodi:nodetypes="ssssscs"
         inkscape:connector-curvature="0"
         id="path3872"
         d="m 781.25,629.75 c -49.14588,60.65225 -65.30213,117.89433 -68.99999,151.52145 -2.01622,18.3348 90.2855,17.11933 86.28032,0 -12.69724,-54.27172 9.24295,-114.296 72.13535,-179.02188 25.97415,-26.73136 -56.78577,-60.35783 -59.6142,-20.4063 -1.82183,25.73332 -3.86889,35.1744 -5.75238,40.31253 -11.68092,-1.66588 -18.81999,1.14082 -24.0491,7.5942 z"
         style="fill:#ede1c9;fill-opacity:1;stroke:none" />
      <path
         inkscape:original-d="m 806.03661,622.14016 c -12.12132,-1.76515 -19.44899,1.02254 -24.78661,7.60984 -49.14591,60.65223 -65.30213,117.89433 -68.99999,151.52145 -2.01622,18.3348 90.2855,17.11933 86.28032,0 -12.69724,-54.27172 9.24295,-114.296 72.13535,-179.02188 25.97415,-26.73136 -56.78577,-60.35783 -59.6142,-20.4063 -2.82843,39.95154 -6.19975,40.63352 -8.67462,47.35103"
         inkscape:path-effect="#path-effect3864"
         style="fill:#dabe97;fill-opacity:1;stroke:none"
         d="m 804.10864,625.42731 c 0.75076,-2.27166 1.56707,-4.52432 2.43233,-6.75062 -5.2411,-0.81909 -10.94752,-0.92592 -16.51964,0.8064 -4.59869,1.52384 -8.55319,4.41532 -11.49067,8.06346 0,10e-6 -10e-6,10e-6 -2e-5,2e-5 -21.29156,26.26676 -39.25443,55.3905 -52.0644,86.77663 -10e-6,0 -10e-6,10e-6 -10e-6,10e-6 -8.67955,21.24845 -15.15781,43.59265 -17.69525,66.56566 -0.18591,1.89177 0.21231,3.73165 1.11597,5.31999 0,1e-5 1e-5,1e-5 1e-5,2e-5 1.01632,1.69637 2.29572,2.96203 3.59838,3.86026 1e-5,0 1e-5,0 2e-5,1e-5 3.54676,2.5015 7.44116,3.82436 11.06375,4.72838 0,0 10e-6,0 10e-6,0 4.92333,1.29581 9.90218,2.04221 14.82283,2.52778 5.59227,0.55752 11.19977,0.78027 16.7879,0.74136 5.56002,-0.037 11.13575,-0.33296 16.69218,-0.95982 4.82669,-0.53939 9.71158,-1.32986 14.5385,-2.66215 10e-6,0 10e-6,0 2e-5,0 3.45493,-0.89639 7.21857,-2.206 10.62729,-4.72706 1.22436,-0.87413 2.42459,-2.15677 3.3341,-3.90354 0.79289,-1.67982 0.99551,-3.53623 0.58636,-5.33997 -6.48191,-27.5082 -2.83837,-56.99035 7.57046,-83.51158 13.65234,-34.81395 37.34412,-65.12815 63.66709,-92.27391 3.16762,-3.15103 5.56513,-7.44643 5.99459,-12.40609 0.20491,-4.4881 -1.24925,-8.67532 -3.5429,-12.04511 0,-10e-6 -10e-6,-2e-5 -2e-5,-3e-5 -2.61876,-3.91405 -6.02477,-7.05125 -9.64007,-9.58131 -4.06724,-2.87687 -8.49731,-5.1518 -13.08603,-6.88804 -4.63782,-1.76503 -9.51644,-3.00796 -14.52009,-3.55299 -1e-5,-10e-6 -2e-5,-10e-6 -3e-5,-10e-6 -4.568,-0.51624 -9.36248,-0.39692 -14.06339,0.81919 -4.24437,1.08119 -8.34668,3.32155 -11.46717,6.82073 -3.36748,3.98841 -5.00434,8.92925 -5.29052,13.74112 -0.11945,1.65092 -0.23418,3.29949 -0.35046,4.9443 -0.30243,4.27806 -0.54624,9.22421 -0.86539,14.49311 -0.31916,5.2689 -0.7272,10.85206 -1.4633,16.52157 -0.28566,2.24 -0.68145,4.48055 -1.26304,6.69494 -0.4262,1.61855 -0.94654,3.27779 -1.24117,4.94428 0.84445,-1.46669 1.82498,-2.82308 2.73167,-4.29774 1.25255,-2.04037 2.28345,-4.24359 3.12375,-6.50104 2.03394,-5.44599 3.36576,-11.07 4.26915,-16.4237 0.90338,-5.35369 1.39069,-10.43782 1.70253,-14.94209 0.11437,-1.652 0.22521,-3.2989 0.33878,-4.93929 0.31314,-3.6534 1.38229,-7.22686 3.5874,-9.63894 1.8959,-2.26246 4.83451,-3.77908 7.97607,-4.64954 3.60362,-0.97827 7.55141,-1.03366 11.52329,-0.62739 10e-6,10e-6 2e-5,10e-6 3e-5,10e-6 4.33903,0.46421 8.64035,1.56882 12.78815,3.13803 4.09915,1.56092 8.00788,3.55801 11.52202,6.05452 3.11325,2.23887 5.92119,4.75784 7.84585,7.72663 1e-5,0 1e-5,10e-6 2e-5,2e-5 1.56853,2.48105 2.64143,5.23398 2.39912,7.74222 -0.064,2.75974 -1.80636,5.57794 -4.02918,7.9745 -26.73917,27.46328 -50.92876,58.54905 -65.16049,94.58859 -10.90523,27.63785 -14.64952,58.50602 -7.87266,87.66968 0.0621,0.21035 0.0296,0.52186 -0.0758,0.70525 -0.1162,0.38064 -0.63307,0.82393 -1.28399,1.38551 -2.07443,1.67683 -5.0432,2.59067 -8.2427,3.53976 -10e-6,0 -2e-5,0 -3e-5,10e-6 -4.32236,1.20507 -8.8456,1.92542 -13.45353,2.45178 -10e-6,0 -2e-5,10e-6 -3e-5,10e-6 -5.27965,0.59719 -10.60933,0.87849 -15.95406,0.91574 -5.37157,0.0357 -10.73138,-0.17559 -16.04484,-0.70689 -4.69525,-0.47449 -9.30935,-1.15488 -13.72856,-2.32976 -10e-6,0 -2e-5,0 -3e-5,-10e-6 -3.33986,-0.93726 -6.45922,-1.89197 -8.73861,-3.62391 0,-10e-6 -1e-5,-10e-6 -1e-5,-2e-5 -0.7609,-0.60121 -1.38272,-1.13113 -1.62567,-1.65307 0,0 0,0 0,-10e-6 -0.19468,-0.34647 -0.30273,-0.77941 -0.24545,-1.09913 2.42657,-22.16802 8.74598,-43.88599 17.2187,-64.68696 1e-5,-1e-5 1e-5,-2e-5 1e-5,-3e-5 12.50377,-30.67142 30.11902,-59.20747 51.02157,-85.01356 10e-6,-10e-6 10e-6,-2e-5 2e-5,-3e-5 2.19316,-2.68372 5.0535,-4.82429 8.20816,-5.81071 3.591,-1.22716 7.7133,-1.19266 11.93114,-0.71543 z"
         id="path3846"
         inkscape:connector-curvature="0"
         sodipodi:nodetypes="csssssc"
         clip-path="none" />
    </g>
    <g
       id="g4023">
      <path
         id="path3949"
         style="fill:#9ceced;fill-opacity:1;stroke:none;display:inline"
         d="M 770.09728,563.73938 C 686.91233,541.75255 738.43937,411.75987 808.03742,497.3918 l 17.27436,-14.31482 C 774.46559,313.85174 554.35792,372.54339 591.99799,531.4354 c 12.05661,50.89522 12.89275,85.64478 -10.33206,127.38463 19.61266,8.56873 38.18369,12.52498 55.97028,12.55521 12.68607,25.99962 5.86847,52.11766 -25.33871,62.97296 26.96185,16.1023 56.6807,18.77268 85.36521,8.01923 5.99558,-14.75983 10.41441,-26.75849 14.40114,-42.7835 3.07325,13.14381 4.21077,24.60659 4.78277,37.26139 37.7266,-42.44507 44.9407,-97.30045 21.50084,-150.89604 11.87014,-5.09408 22.95927,-12.45066 31.74982,-22.2099 z"
         inkscape:connector-curvature="0"
         sodipodi:nodetypes="cccscccccccc" />
      <path
         sodipodi:nodetypes="cccccscccccs"
         inkscape:connector-curvature="0"
         id="path3949-0"
         d="m 688.99699,381.77085 c -88.09373,12.20725 -117.0709,93.38214 -92.46875,168.5 33.20396,59.56281 94.2456,95.69609 61.9375,198.28125 5.8194,0.30762 11.65481,0.0672 17.5,-0.71875 47.14865,-147.47895 -123.23329,-224.37719 13.03125,-366.0625 z m -15.96875,141.25 c 16.62676,87.28647 61.08815,102.32104 65.40625,182.625 18.25145,-36.52876 18.3975,-78.56358 0.34375,-119.84375 11.87014,-5.09408 22.95945,-12.42827 31.75,-22.1875 -83.18495,-21.98683 -31.66055,-151.97568 37.9375,-66.34375 l 6.3125,-5.25 c -55.5772,-84.82208 -158.32156,-55.99672 -141.75,31 z"
         style="fill:#d0fdfa;fill-opacity:1;stroke:none;display:inline" />
      <path
         clip-path="url(#clipPath3957)"
         inkscape:original-d="m 719.58356,592.20859 c 21.69036,-4.98457 44.59827,-17.40377 58.2932,-38.1375 14.94937,-22.63292 369.35554,-196.01704 -116.15492,-201.96511 -200.4868,-2.4562 -180.2749,252.01953 -94.62534,299.32152 31.74378,17.53125 61.07169,22.69541 88.59457,18.74213"
         inkscape:path-effect="#path-effect3898"
         sodipodi:nodetypes="csssc"
         inkscape:connector-curvature="0"
         d="m 756.04087,571.9127 c -4.26409,3.16071 -9.66684,6.87694 -15.91072,10.445 -6.24389,3.56805 -13.3196,6.97764 -20.54659,9.85089 7.90321,-0.52542 15.55711,-2.24446 22.45328,-4.82968 6.89618,-2.58522 13.03392,-6.02824 18.17247,-9.86021 7.98378,-5.95374 15.01716,-13.14375 20.58789,-21.51862 0.30814,-0.53023 0.97726,-1.11293 1.79042,-1.88979 1.1988,-1.09052 2.52135,-2.13115 3.9042,-3.18842 1e-5,-10e-6 1e-5,-10e-6 2e-5,-2e-5 4.03209,-3.07624 8.27538,-5.96807 12.56773,-8.88896 10e-6,-10e-6 2e-5,-10e-6 2e-5,-2e-5 12.38169,-8.42036 24.93299,-16.68812 37.26441,-25.36871 1e-5,-1e-5 3e-5,-2e-5 4e-5,-2e-5 14.32556,-10.08171 28.43239,-20.61546 41.69351,-32.24259 0,-1e-5 10e-6,-2e-5 2e-5,-2e-5 6.32599,-5.54627 12.46783,-11.36522 18.21624,-17.60422 5.15973,-5.59376 10.0339,-11.56992 14.19291,-18.10993 3.57787,-5.60121 6.63161,-11.73942 8.38124,-18.41837 10e-6,-2e-5 10e-6,-4e-5 2e-5,-5e-5 0.77919,-2.99754 1.26005,-6.11041 1.34503,-9.27772 0,-10e-6 0,-2e-5 0,-3e-5 0.0802,-3.0764 -0.23745,-6.17548 -0.98021,-9.1948 -1.67349,-6.61365 -5.28003,-12.47072 -9.82812,-17.20468 -1e-5,-1e-5 -2e-5,-1e-5 -2e-5,-2e-5 -6.07136,-6.32759 -13.43877,-11.005 -20.97873,-14.75126 -10.72341,-5.36119 -22.06124,-9.14618 -33.4383,-12.22459 -15.71088,-4.26139 -31.69921,-7.20684 -47.70231,-9.53567 -48.20876,-7.01834 -96.93347,-8.90526 -145.4606,-9.49395 -22.42825,-0.29236 -45.15158,2.61403 -66.39526,10.43238 -17.61605,6.49658 -33.98033,16.5176 -47.4966,29.638 -2e-5,10e-6 -3e-5,2e-5 -4e-5,3e-5 -12.65831,12.31125 -22.70111,27.1356 -29.96536,43.13688 -7.3199,16.12399 -11.92826,33.366 -14.26825,50.82778 -2.35965,17.57609 -2.47391,35.41795 -0.5844,53.01758 1.81645,16.95951 5.48867,33.75412 11.20135,49.86861 10e-6,10e-6 10e-6,3e-5 2e-5,4e-5 5.17039,14.61039 12.06087,28.75796 21.2628,41.41689 7.92694,10.94128 17.80899,20.83562 29.88546,27.54688 8.46433,4.69108 17.36542,8.73317 26.55058,11.94918 4.055,1.41979 9.35317,3.04622 15.25166,4.36056 5.89849,1.31434 12.39468,2.30145 18.72848,2.69751 6.33381,0.39607 12.49647,0.19844 17.70413,-0.45755 5.20766,-0.656 9.45399,-1.75046 12.05178,-2.87138 -2.73718,-0.31774 -6.99447,-0.37909 -12.07188,-0.6421 -5.0774,-0.26302 -10.97849,-0.74602 -17.01007,-1.62709 -6.03159,-0.88106 -12.19005,-2.157 -17.79524,-3.62134 -5.60519,-1.46433 -10.65504,-3.10282 -14.53483,-4.46568 -8.78826,-3.08706 -17.33598,-6.96266 -25.49049,-11.44973 -10.93899,-5.99957 -20.06269,-15.22469 -27.61044,-25.53923 -8.73209,-11.975 -15.30983,-25.5292 -20.32459,-39.63679 -5.52023,-15.55772 -9.07155,-31.8212 -10.83863,-48.27524 -1e-5,-10e-6 -1e-5,-3e-5 -1e-5,-4e-5 -1.82899,-17.0724 -1.72222,-34.35469 0.56197,-51.33887 2.27273,-16.86686 6.6928,-33.45422 13.7034,-48.86387 6.94747,-15.27099 16.49197,-29.38719 28.47047,-41.01244 12.75237,-12.40153 28.29858,-21.90708 45.0424,-28.09156 20.22634,-7.48684 42.1132,-10.24908 63.88583,-9.99993 48.4038,0.59883 96.82063,2.46154 144.53699,9.42131 15.82972,2.30983 31.54323,5.19817 46.87784,9.36434 11.11718,3.02785 22.02102,6.64711 32.13633,11.72741 7.10048,3.58951 13.82349,7.79 19.04556,13.3205 1e-5,1e-5 2e-5,2e-5 3e-5,3e-5 3.83165,4.06479 6.86251,8.87188 8.10109,14.05475 0.58953,2.37766 0.83988,4.8581 0.77848,7.33889 0,2e-5 0,3e-5 0,5e-5 -0.061,2.56309 -0.46827,5.15115 -1.12433,7.70328 -10e-6,2e-5 -10e-6,3e-5 -2e-5,5e-5 -1.45925,5.72872 -4.22397,11.20072 -7.51417,16.41973 -3.84871,6.0756 -8.46926,11.72152 -13.43205,17.11922 -5.52934,6.00686 -11.49342,11.65231 -17.68299,17.08374 -10e-6,10e-6 -2e-5,2e-5 -3e-5,3e-5 -12.97996,11.38954 -26.89138,21.76951 -41.10728,31.78127 -10e-6,0 -2e-5,1e-5 -3e-5,2e-5 -12.21248,8.59856 -24.73273,16.84484 -37.17128,25.30427 -10e-6,1e-5 -3e-5,2e-5 -4e-5,3e-5 -4.29894,2.92188 -8.64471,5.88754 -12.87515,9.11043 -2e-5,1e-5 -3e-5,2e-5 -4e-5,3e-5 -1.44822,1.10106 -2.92334,2.26863 -4.36194,3.56923 -0.90827,0.78382 -1.95712,1.80917 -2.92961,3.21777 -5.02573,7.66786 -11.50163,14.2752 -18.91545,19.7706 z"
         style="fill:#4fd3d3;fill-opacity:1;stroke:none;display:inline"
         id="path3876" />
      <path
         clip-path="url(#clipPath3953)"
         d="m 637.61685,671.32775 c 12.70543,26.04711 5.88783,52.16515 -25.31935,63.02045 26.96185,16.1023 56.6807,18.77268 85.36521,8.01923 5.99558,-14.75983 10.41441,-26.75849 14.40114,-42.7835 3.07325,13.14381 4.21077,24.60659 4.78277,37.26139 37.7266,-42.44507 44.9407,-97.30045 21.2887,-150.89468 m 44.21524,-19.86679 C 682.15084,554.33173 735.19719,407.77076 808.03742,497.3918 l 17.27436,-14.31482 C 774.46559,313.85174 554.35794,372.54339 591.99799,531.4354 c 13.13861,55.46271 12.95246,91.7518 -17.33703,138.90235"
         style="fill:none;stroke:#4fd3d3;stroke-width:7;stroke-linecap:butt;stroke-linejoin:miter;stroke-miterlimit:20;stroke-opacity:1;stroke-dasharray:none;display:inline"
         id="path3873"
         inkscape:connector-curvature="0" />
    </g>
    <path
       sodipodi:nodetypes="cscssscsscscc"
       inkscape:connector-curvature="0"
       id="path3910"
       d="m 929.267,506.94325 c -47.19239,-49.75 -92.51624,-50.18323 -117.68178,-24.75 -56.19686,56.79463 -50.56114,104.54259 -62.4146,133.85723 -11.38081,-0.43994 -17.33765,0.0914 -22.92062,5.69952 -68.36615,68.67411 -114.39834,167.18291 -110.29289,183.875 4.41486,17.95011 84.04794,17.91653 84.79289,0 3.05635,-73.50741 37.20282,-133.75487 125.81767,-214.81517 29.24174,48.42901 120.56433,61.4974 171.12423,3.19627 C 1036.9914,548.6894 1099.4152,459.06268 1116,384.5 1157.2021,199.26239 868.75126,180.31519 909.77489,403.33148 c -7.31814,1.14146 -13.05051,2.17112 -13.1676,10.27371 -0.20163,13.95211 12.55291,40.70887 52.10271,51.78779 -5.1297,14.39064 -11.2609,27.03713 -19.443,41.55027 z"
       style="fill:#faf2df;fill-opacity:1;stroke:none" />
    <path
       style="fill:#e6cca6;fill-opacity:1;stroke:none"
       d="m 906.35061,404.133 6.88456,-1.266 c -4.31826,-23.61208 -5.67987,-47.8933 -1.23647,-71.20814 3.39047,-17.79557 10.28724,-35.01923 21.26397,-49.19373 0,0 1e-5,-10e-6 1e-5,-10e-6 9.47556,-12.27671 21.98136,-22.23045 36.06823,-28.71933 10e-6,0 10e-6,-1e-5 2e-5,-1e-5 13.58429,-6.26718 28.61786,-9.3986 43.62607,-9.40419 14.9796,-8.2e-4 29.9772,3.09606 43.6735,9.12311 13.835,6.08947 26.3588,15.22957 36.0891,26.7332 0,0 1e-4,10e-6 1e-4,10e-6 10.5062,12.38915 17.6791,27.57534 21.1456,43.52306 4.2773,19.57455 3.0983,40.21316 -1.2818,60.0191 -4.3561,19.62485 -11.4378,38.65207 -19.7323,57.14512 -8.8794,19.78091 -19.2394,38.9122 -30.4829,57.52516 0,1e-5 0,3e-5 0,4e-5 -10.8064,17.88619 -22.4412,35.27651 -34.7703,52.16397 -10.3275,14.14382 -21.1044,27.94156 -32.55032,41.13865 -7.35174,8.47615 -16.01003,15.82517 -25.59822,21.62063 -2e-5,1e-5 -3e-5,1e-5 -4e-5,2e-5 -9.03232,5.46338 -18.8969,9.56671 -29.13544,12.20906 -10e-6,0 -3e-5,0 -4e-5,10e-6 -19.47735,5.02591 -40.32964,4.83732 -59.694,-0.58727 -9.06765,-2.54313 -17.80762,-6.23022 -25.76959,-11.14448 -3.02894,-1.87119 -5.9479,-3.91814 -8.71475,-6.13848 -3.72251,-2.98725 -7.62882,-6.59102 -11.29513,-10.89424 -5.14672,-6.03592 -9.81501,-13.50709 -12.81028,-21.98118 0,-1e-5 0,-1e-5 0,-1e-5 -3.02998,-8.5323 -4.30174,-18.07934 -3.96953,-27.50418 -1.1587,4.58195 -1.82164,9.39419 -1.90715,14.25193 -0.0855,4.85775 0.40707,9.75923 1.49891,14.51828 1.07995,4.67926 2.72521,9.18094 4.78689,13.37006 2.06168,4.18912 4.53839,8.06505 7.25969,11.54311 3.74834,4.7877 7.9097,8.82664 12.05172,12.15584 3.00241,2.41322 6.15841,4.62646 9.42589,6.63736 8.57742,5.28317 17.91285,9.23102 27.55598,11.92675 20.57877,5.75913 42.64306,5.96015 63.32999,0.62458 10.88459,-2.80696 21.37363,-7.17296 31.00881,-12.99703 1e-5,-10e-6 2e-5,-2e-5 3e-5,-3e-5 10.22959,-6.18753 19.44336,-14.00452 27.26468,-23.02455 11.6014,-13.37909 22.5,-27.32968 32.9154,-41.5972 12.4425,-17.04179 24.19,-34.60136 35.1081,-52.67172 0,-10e-6 0,-2e-5 0,-2e-5 11.361,-18.80011 21.8525,-38.18229 30.8775,-58.27784 8.4362,-18.76933 15.667,-38.24567 20.1794,-58.49248 4.5968,-20.55274 5.7784,-42.19268 1.2896,-63.02313 -3.6844,-17.01234 -11.3567,-33.21157 -22.6442,-46.56217 0,-10e-6 0,-2e-5 0,-4e-5 -10.469,-12.35302 -23.8342,-22.12121 -38.6131,-28.61746 -14.6106,-6.42365 -30.548,-9.71801 -46.4926,-9.71554 -15.98296,-0.002 -31.99284,3.34333 -46.55493,10.04674 -10e-6,1e-5 -2e-5,2e-5 -4e-5,2e-5 -15.12286,6.97175 -28.49897,17.61862 -38.67915,30.79872 -10e-6,10e-6 -2e-5,2e-5 -3e-5,3e-5 -11.73352,15.23831 -19.076,33.45375 -22.60106,52.16905 -4.60271,24.44454 -3.24338,49.58199 1.22962,73.77685 z"
       id="path3847"
       inkscape:connector-curvature="0"
       sodipodi:nodetypes="cssc"
       inkscape:path-effect="#path-effect3861"
       inkscape:original-d="M 909.79289,403.5 C 868.75126,180.31519 1157.2021,199.26239 1116,384.5 1099.4152,459.06268 1036.9914,548.68942 997.69187,594.0061 934.18533,667.23621 806.3672,627.86636 818.06066,547.29289" />
    <g
       id="g3996">
      <path
         inkscape:connector-curvature="0"
         clip-path="none"
         id="path3994"
         d="m 1100.0118,237.79786 c 13.9515,10.16899 28.3274,22.55518 43.0436,37.41636 -48.4407,43.06244 -77.4105,32.72551 -43.0436,-37.41636 z"
         style="fill:#9ceced;fill-opacity:1;stroke:none"
         sodipodi:nodetypes="ccc" />
      <path
         sodipodi:nodetypes="cc"
         style="fill:none;stroke:#4fd3d3;stroke-width:7;stroke-linecap:butt;stroke-linejoin:miter;stroke-miterlimit:20;stroke-opacity:1;stroke-dasharray:none"
         d="m 1100.0118,237.79786 c 13.9515,10.16899 28.3274,22.55518 43.0436,37.41636"
         id="path3990"
         clip-path="none"
         inkscape:connector-curvature="0" />
    </g>
    <path
       style="font-size:medium;font-style:normal;font-variant:normal;font-weight:normal;font-stretch:normal;text-indent:0;text-align:start;text-decoration:none;line-height:normal;letter-spacing:normal;word-spacing:normal;text-transform:none;direction:ltr;block-progression:tb;writing-mode:lr-tb;text-anchor:start;baseline-shift:baseline;color:#000000;fill:#e6cca6;fill-opacity:1;stroke:none;stroke-width:1;marker:none;visibility:visible;display:inline;overflow:visible;enable-background:accumulate;font-family:Sans;-inkscape-font-specification:Sans"
       d="m 945.84375,463.75 c -6.17346,18.11853 -16.54009,39.69191 -29.87116,57.69441 18.27053,-11.73625 29.35283,-37.52748 36.30866,-55.28816 z"
       id="path3875"
       inkscape:connector-curvature="0"
       sodipodi:nodetypes="cccc" />
    <path
       style="fill:#e6cca6;fill-opacity:1;stroke:none"
       d="m 926.72771,509.35199 5.07856,-4.81748 c -18.49037,-19.66736 -41.66378,-37.22559 -69.10584,-41.61894 -9.87699,-1.54013 -20.17345,-1.01327 -29.82465,2.08912 0,0 -10e-6,0 -10e-6,0 -8.98192,2.91407 -17.16546,8.04056 -23.77848,14.72681 -13.66636,13.79978 -25.81813,29.27629 -35.14989,46.45535 -10e-6,0 -10e-6,10e-6 -10e-6,10e-6 -7.00679,12.92527 -12.26265,26.71833 -16.04897,40.84837 -0.17488,0.6531 -0.34636,1.30643 -0.51476,1.95989 -1.14075,4.4265 -2.20875,9.42428 -3.20776,14.76601 -0.99902,5.34174 -1.93346,11.02358 -2.96062,16.83249 -0.81109,4.57152 -1.69087,9.19325 -2.95613,13.73742 -1.14969,4.12371 -2.62367,8.18895 -4.67571,11.9993 2.95368,-3.17266 5.38509,-6.97402 7.34361,-10.97651 2.15675,-4.40205 3.79742,-9.03402 5.18598,-13.58253 1.72012,-5.61865 3.13137,-11.15958 4.42357,-16.39455 1.29219,-5.23498 2.4701,-10.16472 3.62394,-14.63354 0.16339,-0.63281 0.32958,-1.26434 0.4989,-1.89451 3.66964,-13.66744 8.72274,-26.95225 15.44072,-39.32366 8.93632,-16.49159 20.69579,-31.43967 33.97299,-44.87004 5.8447,-5.90398 13.08795,-10.45162 20.95762,-12.99028 1e-5,0 1e-5,-10e-6 1e-5,-10e-6 8.45189,-2.75528 17.67375,-3.19618 26.60087,-1.83121 25.1357,3.72955 46.97251,20.58763 65.09606,39.51849 z"
       id="path3869"
       inkscape:connector-curvature="0"
       sodipodi:nodetypes="csc"
       inkscape:path-effect="#path-effect3893"
       inkscape:original-d="m 929.26699,506.94325 c -47.19238,-49.75 -92.51623,-50.18323 -117.68177,-24.75 -63.36584,64.03986 -48.117,116.57769 -68.00178,144.13709" />
    <path
       style="fill:none;stroke:#e6cca6;stroke-width:7;stroke-miterlimit:4;stroke-opacity:1;stroke-dasharray:none"
       d="M 750.28661,616.10983 C 738.16529,615.58211 732.00876,615.9653 726.25,621.75 657.88387,690.42413 611.85166,788.93291 615.95711,805.625 c 4.41486,17.95011 84.04794,17.91653 84.79289,0 3.06498,-73.71499 37.39592,-134.09504 126.56066,-215.52145"
       id="path3931"
       inkscape:connector-curvature="0"
       sodipodi:nodetypes="csssc"
       clip-path="url(#clipPath3935)" />
    <g
       id="g3842">
      <path
         style="fill:#faf2df;fill-opacity:1;stroke:none"
         d="m 887.35835,593.38922 c -61.51829,86.26702 -87.96865,211.45849 -86.08504,241.78026 1.41205,22.73068 94.91005,16.97447 91.99494,0 -13.37436,-77.87794 9.0429,-156.42745 31.85965,-238.59829 z"
         id="path3840"
         inkscape:connector-curvature="0"
         sodipodi:nodetypes="csscc" />
      <path
         inkscape:original-d="m 887.35835,593.38922 c -61.51829,86.26702 -87.96865,211.45849 -86.08504,241.78026 1.41205,22.73068 94.91005,16.97447 91.99494,0 -13.37436,-77.87794 9.0429,-156.42745 31.85965,-238.59829"
         inkscape:path-effect="#path-effect3832"
         sodipodi:nodetypes="cssc"
         inkscape:connector-curvature="0"
         id="path3050"
         d="m 843.77156,680.62662 c 2.20813,-5.32242 5.13116,-12.18138 8.56229,-19.75535 3.43112,-7.57398 7.37684,-15.85855 11.53256,-24.08297 4.15571,-8.22442 8.52455,-16.38609 12.62962,-23.82122 4.10508,-7.43514 7.94337,-14.14689 10.86232,-19.57786 -3.98065,4.57876 -8.74934,10.66923 -13.65829,17.66972 -4.90895,7.00049 -9.95296,14.91192 -14.64848,23.00153 -4.69552,8.08962 -9.04479,16.35348 -12.74808,23.95415 -3.7033,7.60067 -6.76736,14.53334 -9.00602,19.92499 -7.64963,18.42366 -14.28011,37.27711 -20.10356,56.29307 -6.22653,20.29848 -11.5231,40.92753 -15.35826,61.86766 -1.40063,7.64337 -2.61165,15.35994 -3.40929,23.1572 -0.54359,5.21233 -0.97665,10.60649 -0.64633,16.12894 0.13943,2.02499 0.78295,3.93799 1.83446,5.58836 0,10e-6 10e-6,2e-5 10e-6,2e-5 1.14517,1.75919 2.56287,3.15576 4.05664,4.23189 3.80133,2.74328 8.03779,4.2842 12.07546,5.31983 5.2126,1.39071 10.49853,2.15046 15.72273,2.5947 10e-6,0 10e-6,0 2e-5,0 5.84691,0.50342 11.7051,0.61794 17.53266,0.43595 5.77738,-0.17853 11.55992,-0.64893 17.30725,-1.47007 5.01388,-0.71168 10.06769,-1.69348 15.04019,-3.21415 3.61492,-1.05873 7.48225,-2.51843 10.98198,-5.11373 0,-10e-6 10e-6,-10e-6 2e-5,-2e-5 1.24806,-0.89673 2.49166,-2.1639 3.47692,-3.87548 0.85945,-1.56051 1.1978,-3.39986 0.90937,-5.3067 -6.60877,-38.32581 -4.22806,-77.89377 2.3585,-116.5065 1.7421,-10.19155 3.76181,-20.33478 5.98537,-30.44362 1.23809,-5.62868 2.82482,-12.77461 4.62756,-20.66075 1.80275,-7.88615 3.82072,-16.51306 5.8249,-25.11762 4.00837,-17.20913 7.91957,-34.33752 9.61382,-45.2774 -3.98083,10.46566 -9.57865,27.11638 -14.71702,44.04011 -2.56919,8.46187 -5.01314,16.99345 -7.10442,24.83649 -2.09128,7.84305 -3.82898,14.99726 -5.07773,20.67647 -2.24271,10.19958 -4.28469,20.45011 -6.05216,30.7655 -6.71637,39.1182 -9.09685,79.47469 -2.35782,118.87212 0.0675,0.16587 -0.0227,0.49877 -0.16511,0.78736 -0.21027,0.49509 -0.81644,1.0178 -1.56464,1.64212 0,0 -1e-5,0 -1e-5,10e-6 -2.30009,1.82384 -5.43796,2.9089 -8.79361,3.98979 -4.4914,1.3843 -9.19079,2.28688 -13.97695,2.97649 -5.46518,0.78213 -10.98981,1.23016 -16.53352,1.40295 -5.59235,0.17238 -11.17758,0.0654 -16.71378,-0.4134 -1e-5,0 -1e-5,-10e-6 -2e-5,-10e-6 -4.96438,-0.43489 -9.84654,-1.12364 -14.51139,-2.38173 -3.66335,-1.02952 -7.11748,-2.19331 -9.72848,-4.18843 -0.97353,-0.74708 -1.80682,-1.51574 -2.30339,-2.34816 0,0 -10e-6,-10e-6 -10e-6,-10e-6 -0.44188,-0.70707 -0.72767,-1.51608 -0.76126,-2.27638 -0.31387,-4.8475 0.11161,-9.85994 0.62357,-14.98379 0.7693,-7.54641 1.95424,-15.07984 3.33107,-22.60779 3.77292,-20.61752 9.0051,-40.98266 15.16509,-61.07594 5.78219,-18.82939 12.33989,-37.47126 19.88525,-55.65834 z"
         style="fill:#e6cca6;fill-opacity:1;stroke:none" />
    </g>
    <g
       id="g3868">
      <path
         sodipodi:nodetypes="ccccc"
         inkscape:connector-curvature="0"
         id="path3841"
         d="m 912.16364,402.87727 c 7.73181,-1.10454 12.70908,-3.64545 17.24999,-8.30909 11.31666,-24.45333 14.80524,-55.4538 4.03577,-81.41327 -14.502,-1.25704 -12.48078,9.75057 -23.25398,21.17216 -4.58846,22.90697 -3.9513,48.32752 1.96822,68.5502 z"
         style="fill:#ffffff;stroke:none" />
      <path
         sodipodi:nodetypes="cccccccccccccscsc"
         id="path3845"
         style="fill:#000000;stroke:none"
         d="m 908.72762,343.48073 c -2.63057,3.23095 -5.71346,3.80451 -9.917,3.46374 2.34079,3.16565 5.54798,4.82329 9.08084,3.91795 z m -1.22474,11.65864 c -2.09707,4.08734 -5.10425,5.21051 -9.46068,5.04734 2.54343,3.23119 5.80901,4.20479 9.16935,2.63982 z m 4.61551,-23.44506 -3.51073,3.13974 c -2.91608,14.15896 -4.00588,32.79799 -0.35866,48.54695 -0.65459,-16.11492 0.47693,-34.14803 3.86939,-51.68669 z m -15.24548,1.25251 c 10.79883,13.96821 14.7648,3.89891 24.10074,-9.05761 6.82873,-9.47699 18.20771,-9.31803 22.63821,11.91845 0.88533,-28.1965 -13.41647,-39.1065 -23.96909,-21.98756 -9.47682,15.37371 -7.69038,22.65862 -22.76986,19.12672 z"
         inkscape:connector-curvature="0" />
      <g
         clip-path="url(#clipPath3864)"
         id="g3853">
        <path
           transform="matrix(1.3782802,0.03113435,-0.03113435,1.3782802,-345.67344,-164.62613)"
           d="m 942.99753,357.34052 c 0,12.67716 -4.73013,22.95403 -10.56503,22.95403 -5.83491,0 -10.56504,-10.27687 -10.56504,-22.95403 0,-12.67717 4.73013,-22.95404 10.56504,-22.95404 5.8349,0 10.56503,10.27687 10.56503,22.95404 z"
           sodipodi:ry="22.954031"
           sodipodi:rx="10.565033"
           sodipodi:cy="357.34052"
           sodipodi:cx="932.4325"
           id="path3029"
           style="fill:url(#linearGradient3851);fill-opacity:1;stroke:none"
           sodipodi:type="arc" />
        <g
           id="g3054"
           clip-path="url(#clipPath3073)">
          <path
             sodipodi:nodetypes="ccccc"
             inkscape:connector-curvature="0"
             id="path3033"
             d="m 910.72952,364.9411 3.4682,15.41302 11.11079,-9.99888 -1.73179,-4.97121 z"
             style="fill:#effcfd;fill-opacity:1;stroke:none" />
          <path
             sodipodi:nodetypes="ccccc"
             inkscape:connector-curvature="0"
             id="path3031"
             d="m 909.16354,360.53984 14.95245,1.55945 0.4744,6.03863 -15.6464,0.79221 z"
             style="fill:#c3f4f9;fill-opacity:1;stroke:none" />
        </g>
        <path
           sodipodi:type="arc"
           style="fill:#000000;stroke:none"
           id="path3025"
           sodipodi:cx="932.4325"
           sodipodi:cy="357.34052"
           sodipodi:rx="10.565033"
           sodipodi:ry="22.954031"
           d="m 942.99753,357.34052 c 0,12.67716 -4.73013,22.95403 -10.56503,22.95403 -5.83491,0 -10.56504,-10.27687 -10.56504,-22.95403 0,-12.67717 4.73013,-22.95404 10.56504,-22.95404 5.8349,0 10.56503,10.27687 10.56503,22.95404 z"
           transform="matrix(1.0409335,0.08643873,-0.08643873,1.0409335,-9.890616,-97.095832)" />
        <path
           sodipodi:type="arc"
           style="fill:#ffffff;stroke:none"
           id="path3021"
           sodipodi:cx="931.32977"
           sodipodi:cy="343.1351"
           sodipodi:rx="7.0577431"
           sodipodi:ry="13.102703"
           d="m 938.38752,343.1351 c 0,7.23642 -3.15986,13.1027 -7.05775,13.1027 -3.89788,0 -7.05774,-5.86628 -7.05774,-13.1027 0,-7.23642 3.15986,-13.1027 7.05774,-13.1027 3.89789,0 7.05775,5.86628 7.05775,13.1027 z"
           transform="matrix(0.96733946,-0.2534845,0.2534845,0.96733946,-55.85914,247.97126)" />
        <path
           transform="matrix(0.24435524,-0.10389713,0.10389713,0.24435524,664.13054,377.58868)"
           d="m 939.9655,343.1351 c 0,6.76457 -3.86635,12.24834 -8.63573,12.24834 -4.76938,0 -8.63572,-5.48377 -8.63572,-12.24834 0,-6.76457 3.86634,-12.24834 8.63572,-12.24834 4.76938,0 8.63573,5.48377 8.63573,12.24834 z"
           sodipodi:ry="12.248339"
           sodipodi:rx="8.635726"
           sodipodi:cy="343.1351"
           sodipodi:cx="931.32977"
           id="path3023"
           style="fill:#ffffff;stroke:none"
           sodipodi:type="arc" />
      </g>
    </g>
    <path
       sodipodi:nodetypes="csc"
       inkscape:connector-curvature="0"
       id="path3801"
       d="m 902.52528,408.66151 c 0.65684,-0.3936 1.51567,-0.71566 2.57502,-1.01677 1.05934,-0.30111 2.3198,-0.58272 3.70827,-0.95664 3.29798,-0.77615 7.1283,-1.69334 10.77072,-3.38985 2.14144,-0.99972 4.13418,-2.29386 5.81788,-3.79057 1.6837,-1.4967 3.05575,-3.19398 4.01646,-4.9395 -1.63379,1.05713 -3.43164,1.99006 -5.33764,2.74201 -1.90599,0.75194 -3.91825,1.32389 -5.93537,1.71172 -3.45158,0.67181 -7.06473,0.85357 -10.51788,1.26996 -1.42897,0.12315 -2.93148,0.32772 -4.39081,0.70532 -1.45933,0.3776 -2.87389,0.9282 -4.14301,1.63215 -0.36891,0.20462 -0.73715,0.42537 -1.10375,0.66383 -1.51266,1.05562 -2.75545,2.49134 -3.59521,4.20761 -0.94613,2.0819 -1.29481,4.16733 -1.2823,6.05383 0,0 0,0 0,10e-6 -0.036,3.60866 0.58847,7.09384 1.57476,10.3505 0,10e-6 0,10e-6 0,10e-6 1.2462,4.16422 3.06673,8.09995 5.27918,11.74587 5.8729,9.6472 14.36926,17.38488 23.8921,23.04694 11.5699,6.87744 24.48221,10.93376 37.57441,13.08612 1.82572,0.30015 4.45186,0.66844 7.64583,0.97192 4.8967,0.46997 11.14018,0.79056 17.89237,0.6821 6.75219,-0.10846 14.00959,-0.64621 20.93309,-1.53748 6.9236,-0.89127 13.5107,-2.12158 18.9719,-3.38382 5.4613,-1.26223 9.7989,-2.54342 12.2776,-3.52291 -2.6939,0.0783 -7.1969,0.52037 -12.7424,1.01719 -5.5456,0.49683 -12.1341,1.03651 -18.9689,1.33494 -6.8348,0.29842 -13.91209,0.34215 -20.43647,0.0728 -6.52438,-0.2694 -12.49422,-0.85166 -17.16304,-1.46427 -3.04179,-0.40232 -5.53171,-0.80791 -7.26833,-1.09508 -12.44175,-2.05734 -24.53778,-5.80845 -35.12559,-12.17051 -8.68689,-5.21846 -16.38383,-12.16122 -21.49386,-20.66216 -1.93678,-3.21026 -3.51734,-6.60411 -4.55928,-10.12025 0,0 0,0 0,0 -0.81157,-2.77801 -1.33913,-5.56326 -1.28411,-8.25073 0,0 0,0 0,0 0.058,-1.26049 0.17698,-2.36961 0.59323,-3.12488 10e-6,-1e-5 10e-6,-1e-5 10e-6,-1e-5 0.25816,-0.57016 0.73622,-1.10477 1.301,-1.5043 0.16192,-0.13175 0.33696,-0.2529 0.52412,-0.36506 z"
       style="fill:#e6cca6;fill-opacity:1;stroke:none"
       inkscape:path-effect="#path-effect3839"
       inkscape:original-d="m 929.41363,394.56818 c -13.02619,13.32569 -32.589,3.99769 -32.80634,19.03701 -0.3112,21.53418 30.24171,73.57154 142.54161,51.38868" />
    <path
       id="path3824"
       style="fill:#e6cca6;fill-opacity:1;fill-rule:nonzero;stroke:none"
       d="m 910.57412,416.38247 c 3.51466,2.74559 6.59291,1.92541 8.48488,-1.9463 1.76406,7.24228 -6.48706,9.23142 -8.48488,1.9463 z m -0.52769,27.04465 5.24264,5.5962 c 11.84404,-0.88389 22.92031,-5.88909 23.27387,-23.21321 -5.65686,14.31891 -14.02082,18.14734 -28.51651,17.61701 z"
       inkscape:connector-curvature="0" />
    <g
       id="g4071">
      <path
         sodipodi:nodetypes="cccccccc"
         inkscape:connector-curvature="0"
         id="path4069"
         d="m 1124.5479,374.9303 c -24.9428,87.49357 -77.4767,86.095 -97.1063,73.78618 -1.2582,23.34821 4.8552,44.75506 21.6026,60.73886 15.8255,-10.7446 30.1441,-17.82722 44.8455,-24.68611 -6.371,12.44642 -14.4132,22.65387 -24.5758,31.9344 46.7402,5.63982 90.323,-10.64278 111.5731,-51.771 -7.0275,-46.25739 -17.6684,-88.59147 -32.2163,-127.98274 z"
         style="fill:#9ceced;fill-opacity:1;stroke:none" />
      <path
         sodipodi:nodetypes="ccccc"
         inkscape:connector-curvature="0"
         d="m 1080.409,517.58438 c 37.2477,-43.47047 49.7985,-96.86822 50.1501,-152.83959 l 12.9148,-19.74227 c 15.3551,55.45429 17.65,107.62718 -6.1979,162.13403 -13.9932,7.91269 -39.9623,12.58983 -56.867,10.44783 z"
         style="fill:#d0fdfa;fill-opacity:1;stroke:none"
         id="path4066" />
      <path
         style="fill:none;stroke:#4fd3d3;stroke-width:7;stroke-linecap:butt;stroke-linejoin:miter;stroke-miterlimit:4;stroke-opacity:1;stroke-dasharray:none"
         d="m 1124.5479,374.9303 c -24.9428,87.49357 -77.4767,86.095 -97.1063,73.78618 -1.2582,23.34821 4.8552,44.75506 21.6026,60.73886 15.8255,-10.7446 30.1441,-17.82722 44.8455,-24.68611 -6.371,12.44642 -14.4132,22.65387 -24.5758,31.9344 46.7402,5.63982 90.323,-10.64278 111.5731,-51.771 -7.0275,-46.25739 -17.6684,-88.59147 -32.2163,-127.98274 z"
         id="path4060"
         inkscape:connector-curvature="0"
         sodipodi:nodetypes="cccccccc" />
    </g>
    <g
       id="g3913">
      <path
         style="fill:#faf2df;fill-opacity:1;stroke:none"
         d="m 1092.0472,301.51545 c 16.0518,-27.96117 51.9376,-46.61148 60.1988,-42.93337 12.3973,5.51963 27.791,105.23098 -46.6376,137.14607 z"
         id="path3911"
         inkscape:connector-curvature="0"
         sodipodi:nodetypes="cscc" />
      <path
         inkscape:original-d="m 1092.0472,301.51545 c 16.0518,-27.96117 51.9376,-46.61148 60.1988,-42.93337 12.3973,5.51963 27.791,105.23098 -46.6376,137.14607"
         inkscape:path-effect="#path-effect3903"
         sodipodi:nodetypes="csc"
         inkscape:connector-curvature="0"
         id="path3882"
         d="m 1121.3769,266.4159 c -2.1616,1.44185 -4.8639,3.37953 -7.7226,5.74141 -2.8586,2.36188 -5.8696,5.151 -8.6842,8.19563 -3.1568,3.40872 -6.067,7.16607 -8.3163,10.85843 -2.2493,3.69237 -3.8336,7.30905 -4.6066,10.30408 2.0036,-2.25136 4.4945,-5.11918 7.3829,-8.10321 2.8884,-2.98403 6.1745,-6.08444 9.5374,-8.97116 2.9931,-2.56501 6.0407,-4.95889 8.8596,-7.02896 2.8188,-2.07008 5.4059,-3.81941 7.4345,-5.17277 0.5616,-0.37469 1.1267,-0.74425 1.6951,-1.10861 5.0834,-3.24291 10.3188,-6.11608 15.8092,-8.01975 0,0 0,0 0,0 1.9405,-0.66358 3.8025,-1.21495 5.5897,-1.41105 0,0 0,0 0,0 1.2728,-0.038 2.1886,-0.19411 2.4668,0.0795 0.1065,-0.0729 0.3838,0.37856 0.9536,0.99246 0.7074,0.92424 1.2891,2.09461 1.8754,3.39045 0,1e-5 0,1e-5 0,1e-5 1.6908,3.79719 2.7235,8.00087 3.5659,12.34423 2.3959,12.53719 2.4733,25.5352 0.7997,38.29246 0,0 0,0 0,0 -2.0254,15.21903 -6.788,30.13242 -14.9342,42.93746 -1.8326,2.88854 -3.836,5.66875 -5.9978,8.31668 -2.3241,2.84664 -5.666,6.69541 -9.6357,10.49216 -3.5581,3.4079 -7.6285,6.76481 -11.5364,9.69387 -3.9079,2.92906 -7.6385,5.44136 -10.3045,7.48888 3.2939,-0.68979 7.6812,-2.11741 12.2779,-4.27794 4.5968,-2.16052 9.3815,-5.06861 13.5594,-8.29684 4.6702,-3.61346 8.5399,-7.58526 11.0614,-10.67261 2.3406,-2.8659 4.5071,-5.87226 6.4871,-8.99513 8.7556,-13.84519 13.861,-29.70312 15.9627,-45.77108 0,-10e-6 0,-10e-6 0,-10e-6 1.7765,-13.3987 1.6779,-27.1385 -0.8632,-40.5178 -0.8628,-4.60815 -2.0524,-9.31628 -4.0368,-13.85756 0,0 0,0 0,0 -0.6693,-1.55296 -1.5148,-3.17604 -2.667,-4.74859 -0.6942,-1.08315 -1.8937,-2.27239 -3.7203,-3.20592 -2.3793,-0.90953 -4.5173,-0.93913 -6.1335,-0.63659 0,0 0,0 0,0 -2.5435,0.31443 -4.9016,0.98021 -7.078,1.75428 0,0 0,0 0,0 -6.2061,2.18092 -11.9313,5.29249 -17.2787,8.73497 -0.6044,0.38733 -1.2052,0.7802 -1.8025,1.17857 z"
         style="fill:#e6cca6;fill-opacity:1;stroke:none" />
      <path
         sodipodi:nodetypes="ccc"
         inkscape:connector-curvature="0"
         id="path3886"
         d="m 1141.6404,298.76569 c -5.6751,25.08055 -14.6978,42.21144 -31.5402,60.88456 21.0531,-15.19479 29.7095,-35.62094 31.5402,-60.88456 z"
         style="fill:#e6cca6;fill-opacity:1;stroke:none" />
    </g>
    <g
       id="g4021">
      <g
         clip-path="url(#clipPath4017)"
         id="g4001">
        <path
           sodipodi:type="arc"
           style="fill:#ffffff;stroke:none"
           id="path3136"
           sodipodi:cx="1911.757"
           sodipodi:cy="551.39709"
           sodipodi:rx="137.7821"
           sodipodi:ry="187.78221"
           d="m 2049.5391,551.39709 c 0,103.70926 -61.6872,187.78222 -137.7821,187.78222 -76.095,0 -137.7821,-84.07296 -137.7821,-187.78222 0,-103.70925 61.6871,-187.78221 137.7821,-187.78221 76.0949,0 137.7821,84.07296 137.7821,187.78221 z"
           transform="matrix(-0.31532257,-0.13418118,-0.14382694,0.33433721,1702.6366,450.3718)" />
        <path
           transform="matrix(1.330141,0.25024943,-0.25024943,1.330141,-234.52126,-374.70885)"
           d="m 1022.2463,375.65762 c 0,15.16463 -9.1936,27.45799 -20.5344,27.45799 -11.3408,0 -20.53435,-12.29336 -20.53435,-27.45799 0,-15.16463 9.19355,-27.45799 20.53435,-27.45799 11.3408,0 20.5344,12.29336 20.5344,27.45799 z"
           sodipodi:ry="27.457989"
           sodipodi:rx="20.534365"
           sodipodi:cy="375.65762"
           sodipodi:cx="1001.7119"
           id="path3183"
           style="fill:url(#linearGradient3992);fill-opacity:1;stroke:none"
           sodipodi:type="arc" />
        <g
           id="g3961"
           clip-path="url(#clipPath3967)">
          <path
             sodipodi:nodetypes="ccccc"
             inkscape:connector-curvature="0"
             id="path3185"
             d="m 1008.9336,394.09166 14.1717,14.79167 9.8315,-14.17167 -20.7259,-6.2001 z"
             style="fill:#effcfd;fill-opacity:1;stroke:none" />
          <path
             style="fill:#c3f4f9;fill-opacity:1;stroke:none"
             d="m 1013.0965,387.18298 20.9918,0.79715 -3.2772,11.95733 -19.6631,-9.65444 z"
             id="path3187"
             inkscape:connector-curvature="0"
             sodipodi:nodetypes="ccccc" />
        </g>
        <path
           sodipodi:type="arc"
           style="fill:#000000;stroke:none"
           id="path3179"
           sodipodi:cx="1001.7119"
           sodipodi:cy="375.65762"
           sodipodi:rx="18.379562"
           sodipodi:ry="27.948292"
           d="m 1020.0915,375.65762 c 0,15.43542 -8.2288,27.9483 -18.3796,27.9483 -10.15074,0 -18.37955,-12.51288 -18.37955,-27.9483 0,-15.43541 8.22881,-27.94829 18.37955,-27.94829 10.1508,0 18.3796,12.51288 18.3796,27.94829 z"
           transform="matrix(0.99407635,0.1086842,-0.1086842,0.99407635,43.76138,-105.7703)" />
        <path
           transform="matrix(0.95461264,-0.29785025,0.29785025,0.95461264,-61.194995,316.36498)"
           d="m 1024.0084,363.19415 c 0,9.30903 -4.879,16.85548 -10.8977,16.85548 -6.0186,0 -10.8977,-7.54645 -10.8977,-16.85548 0,-9.30902 4.8791,-16.85548 10.8977,-16.85548 6.0187,0 10.8977,7.54646 10.8977,16.85548 z"
           sodipodi:ry="16.855482"
           sodipodi:rx="10.897703"
           sodipodi:cy="363.19415"
           sodipodi:cx="1013.1107"
           id="path3175"
           style="fill:#ffffff;stroke:none"
           sodipodi:type="arc" />
        <path
           sodipodi:type="arc"
           style="fill:#ffffff;stroke:none"
           id="path3177"
           sodipodi:cx="1013.1107"
           sodipodi:cy="363.19415"
           sodipodi:rx="13.14583"
           sodipodi:ry="16.626295"
           d="m 1026.2565,363.19415 c 0,9.18245 -5.8855,16.6263 -13.1458,16.6263 -7.2602,0 -13.14581,-7.44385 -13.14581,-16.6263 0,-9.18245 5.88561,-16.62629 13.14581,-16.62629 7.2603,0 13.1458,7.44384 13.1458,16.62629 z"
           transform="matrix(0.26918669,-0.12804976,0.12804976,0.26918668,682.13836,414.15567)" />
      </g>
      <path
         sodipodi:nodetypes="cccccccccccccscsc"
         id="path3154"
         style="fill:#000000;stroke:none"
         d="m 1069.0449,378.39104 c 4.8875,7.90719 10.5038,11.5536 20.5731,13.77512 -9.2902,3.78089 -16.3668,2.11095 -22.969,-4.14519 z m -4.1796,14.9046 c 3.5822,7.76933 10.1012,11.15027 20.478,10.91521 -7.7099,6.58907 -17.5201,5.24188 -24.5023,-1.96976 z m 2.7808,-28.5135 6.9024,5.56754 c -2.4368,21.45248 -13.2007,42.46839 -28.6088,53.93024 10.7135,-15.96196 19.9792,-36.55301 21.7064,-59.49778 z m 40.7256,4.12535 c -23.3583,26.56733 -45.7136,0.15246 -64.0827,-20.50132 -13.436,-15.10712 -42.7325,-22.56348 -67.57395,-1.32214 14.13646,-32.52839 57.90225,-35.39101 77.20865,-9.24126 17.3382,23.48386 26.1013,43.25446 54.448,31.06472 z"
         inkscape:connector-curvature="0" />
    </g>
    <g
       id="g3104"
       transform="matrix(0.42360675,-0.03456924,-0.179438,0.66008511,1041.8237,166.25959)">
      <path
         inkscape:connector-curvature="0"
         id="A"
         d="m -320.63378,528.10778 c 17.70442,-31.64781 49.83053,-25.23655 44.30692,-6.60476 -4.09823,13.82384 -24.26668,18.32858 -22.40091,3.76557 -7.8825,0.0348 -14.43957,0.84006 -21.90601,2.83919 z"
         style="fill:#f66e78" />
      <path
         inkscape:connector-curvature="0"
         d="m -307.41348,525.67972 c -0.85718,0.0828 -1.70783,0.17884 -2.55571,0.28891 1.88539,-3.19244 4.00078,-5.76692 7.13869,-8.38727 -1.91352,2.69189 -3.37838,5.29189 -4.58298,8.09836 z m 4.94429,-0.33155 c -0.88421,0.0348 -1.75507,0.0813 -2.61624,0.14009 2.41022,-3.97055 4.54494,-6.70973 8.9443,-9.61775 -2.87902,3.08378 -4.91057,6.11304 -6.32806,9.47766 z m 4.01092,4.54153 c -0.38956,-1.24991 -0.5049,-2.78375 -0.2695,-4.62111 0.92517,-7.22131 11.68307,-8.75544 10.75991,-1.74745 -0.44096,3.34747 -4.22877,3.53172 -5.46716,1.14666 2.07456,0.81907 3.53394,0.12753 3.87734,-1.4756 0.78278,-3.65436 -7.88753,-5.07438 -8.90059,6.6975 z"
         style="fill:#d64c56"
         id="B" />
      <path
         inkscape:connector-curvature="0"
         id="C"
         d="m -317.8818,528.4747 6.45023,-14.99965 c 2.32194,-5.39954 -33.96991,-20.28258 -36.39979,-14.37709 l -6.00969,14.60571 c -9.66486,-0.97298 -19.46849,0.64466 -28.00267,4.86819 22.91364,34.51444 57.6481,-4.01511 81.94154,33.93683 -4.40317,-10.45754 -9.8154,-18.07136 -17.97962,-24.03399 z"
         style="fill:#ce92cf" />
      <path
         inkscape:connector-curvature="0"
         d="m -317.8818,528.4747 5.38815,-12.52985 c -6.09983,2.99406 -32.99549,-7.59413 -36.21483,-14.71517 l -5.13257,12.47399 c 6.43838,11.24951 22.02654,16.40494 35.95925,14.77103 z m -33.24779,5.91572 c 11.08645,11.80386 32.26324,19.47908 51.22741,18.11827 -9.95988,-15.76977 -23.14465,-19.95401 -51.22741,-18.11827 z"
         style="fill:#b26cbc"
         id="D" />
      <path
         inkscape:connector-curvature="0"
         d="m -299.90218,552.50869 c -2.05377,-4.87771 -4.32707,-9.13675 -6.99676,-12.89812 -21.2112,-18.96825 -57.38914,4.29129 -70.08543,-23.11584 -1.6573,0.60321 -3.28006,1.29555 -4.85935,2.07713 14.29076,38.45895 50.12601,0.93846 81.94154,33.93683 z m -47.92918,-53.41073 c -1.7936,4.35909 33.99077,19.97914 36.39979,14.37709 l -1.74853,4.06609 c -2.09231,4.86556 -38.12521,-10.00021 -36.01841,-15.12052 z"
         style="fill:#ffffff"
         id="E" />
    </g>
    <g
       id="g4022">
      <path
         clip-path="none"
         sodipodi:nodetypes="cccccccc"
         inkscape:connector-curvature="0"
         id="path3972"
         d="m 1100.1502,284.38924 c -3.715,16.36433 -2.0744,31.18207 2.6184,45.49805 -8.468,2.09548 -16.7369,3.22786 -24.6068,3.66024 -2.1206,-9.8345 -3.6045,-20.48449 -3.7658,-31.18216 -3.407,10.25872 -5.5805,21.65155 -6.1902,32.43066 -56.3939,6.71936 -128.21997,-7.85771 -177.73517,-50.9411 16.60647,-69.89948 102.30532,-127.69944 214.40177,-42.43713 z"
         style="font-size:medium;font-style:normal;font-variant:normal;font-weight:normal;font-stretch:normal;text-indent:0;text-align:start;text-decoration:none;line-height:normal;letter-spacing:normal;word-spacing:normal;text-transform:none;direction:ltr;block-progression:tb;writing-mode:lr-tb;text-anchor:start;baseline-shift:baseline;color:#000000;fill:#9ceced;fill-opacity:1;stroke:none;stroke-width:1;marker:none;visibility:visible;display:inline;overflow:visible;enable-background:accumulate;font-family:Sans;-inkscape-font-specification:Sans" />
      <path
         clip-path="url(#clipPath4046)"
         sodipodi:nodetypes="cccc"
         inkscape:connector-curvature="0"
         id="path3918"
         d="m 1102.1757,339.75324 7.2305,-2.25324 c -6.5714,-12.48373 -11.3374,-30.93607 -9.256,-53.11076 -7.5427,17.75299 -5.8049,40.81031 2.0255,55.364 z"
         style="font-size:medium;font-style:normal;font-variant:normal;font-weight:normal;font-stretch:normal;text-indent:0;text-align:start;text-decoration:none;line-height:normal;letter-spacing:normal;word-spacing:normal;text-transform:none;direction:ltr;block-progression:tb;writing-mode:lr-tb;text-anchor:start;baseline-shift:baseline;color:#000000;fill:#4fd3d3;fill-opacity:1;stroke:none;stroke-width:5.65719986;marker:none;visibility:visible;display:inline;overflow:visible;enable-background:accumulate;font-family:Sans;-inkscape-font-specification:Sans" />
      <path
         sodipodi:nodetypes="ccccc"
         inkscape:connector-curvature="0"
         d="m 1025.372,335.85658 c -44.53383,-56.47332 -15.6614,-112.73937 68.3956,-102.49863 -13.3955,-8.75815 -25.4918,-15.98707 -40.6929,-22.58598 -73.79487,-3.16402 -118.74957,36.38279 -109.90762,105.94314 24.31248,10.01519 56.51396,18.80358 82.20492,19.14147 z"
         style="fill:#d0fdfa;fill-opacity:1;stroke:none"
         id="path3940" />
      <path
         sodipodi:nodetypes="cccccc"
         inkscape:connector-curvature="0"
         clip-path="url(#clipPath4054)"
         id="path3906"
         d="m 1112.3253,327.14511 c -11.7738,3.89109 -23.3456,5.80808 -34.1635,6.40242 -2.1206,-9.8345 -3.6045,-20.48449 -3.7658,-31.18216 -3.407,10.25872 -5.5805,21.65155 -6.1902,32.43066 -56.3939,6.71936 -128.21997,-7.85771 -177.73517,-50.9411 17.22483,-72.50226 108.7833,-131.98715 227.03147,-32.31079"
         style="fill:none;stroke:#4fd3d3;stroke-width:7;stroke-linecap:butt;stroke-linejoin:miter;stroke-miterlimit:20;stroke-opacity:1;stroke-dasharray:none" />
    </g>
    <path
       id="path3881"
       style="fill:#353b5f;fill-opacity:1;stroke:none"
       d="m 883.9261,486.18172 c 21.14974,-16.61255 17.36467,-30.26502 0.38446,-27.57332 -19.1342,3.03316 -24.9723,21.27503 -19.78349,38.22274 -6.09541,0.6016 -11.17217,-0.9938 -14.72953,-5.01809 -2.34629,-18.3141 6.24403,-40.26926 33.14759,-44.29967 31.6734,-4.74497 37.54057,19.40876 13.76155,44.53517 -4.60921,-0.19135 -9.28631,-2.50022 -12.78058,-5.86683 z m 47.27175,23.60765 c 21.28965,-20.01625 19.07476,-31.37273 3.03104,-28.56783 -19.0837,3.33629 -25.21923,21.58581 -19.60341,38.3 -6.08516,0.69824 -11.1866,-0.81642 -14.80728,-4.78386 -2.63649,-18.27456 5.60459,-40.36311 32.44075,-44.81979 30.58203,-5.07861 36.61318,16.37334 11.81095,45.53483 -4.61157,-0.11831 -9.3247,-2.3525 -12.87205,-5.66335 z"
       clip-path="url(#clipPath3903)"
       inkscape:connector-curvature="0"
       sodipodi:nodetypes="csccscccsccscc" />
  </g>
</svg>
