<svg xmlns="http://www.w3.org/2000/svg" xmlns:inkscape="http://www.inkscape.org/namespaces/inkscape" xmlns:sodipodi="http://sodipodi.sourceforge.net/DTD/sodipodi-0.dtd" xmlns:xlink="http://www.w3.org/1999/xlink" height="1180" viewBox="0 0 1665.3333 1180" width="1665.3333">
  <title>The Silkiness of Space (South Korea Collection)</title>
  <defs>
    <inkscape:path-effect effect="powerstroke" id="path-effect2200" interpolator_type="CubicBezierSmooth" miter_limit="20" offset_points="0.3,4" start_linecap_type="zerowidth" />
    <inkscape:path-effect effect="powerstroke" end_linecap_type="zerowidth" id="path-effect2156" interpolator_type="CubicBezierSmooth" offset_points="0.42,4 | 0.62,4" start_linecap_type="zerowidth" />
    <inkscape:path-effect effect="powerstroke" end_linecap_type="zerowidth" id="path-effect2152" interpolator_type="CubicBezierSmooth" offset_points="0.3,4 | 6.74,4" start_linecap_type="zerowidth" />
    <inkscape:path-effect effect="powerstroke" id="path-effect1758" interpolator_type="CubicBezierSmooth" offset_points="0.32,4 | 1,4" start_linecap_type="zerowidth" />
    <inkscape:path-effect effect="powerstroke" end_linecap_type="zerowidth" id="path-effect1756" interpolator_type="CubicBezierSmooth" offset_points="0.5,4 | 2.81,4" start_linecap_type="zerowidth" />
    <linearGradient id="linearGradient919">
      <stop offset="0" stop-color="#0e6183" />
      <stop offset="1" stop-color="#06a79f" />
    </linearGradient>
    <inkscape:path-effect effect="powerstroke" end_linecap_type="zerowidth" id="path-effect844" interpolator_type="CubicBezierSmooth" offset_points="0.33,4 | 1.5,4" start_linecap_type="zerowidth" />
    <clipPath id="clipPath933">
      <use xlink:href="#path892" />
    </clipPath>
    <clipPath id="clipPath1161">
      <use xlink:href="#path1147" />
    </clipPath>
    <linearGradient gradientUnits="userSpaceOnUse" id="linearGradient2529" x1="1247.0952" x2="1244.3389" y1="763.51001" y2="849.28333" xlink:href="#linearGradient919" />
  </defs>
  <g inkscape:groupmode="layer" inkscape:label="Drawing">
    <g>
      <path d="M 1289.4528,704.51246 C 1183.5791,731.76555 1150.6838,621.98098 1067.2855,698.9007 940.84636,815.51777 926.66262,659.91028 792.8266,696.69834 479.24241,782.89453 407.8992,594.91757 541.95012,476.25316 c -36.03563,102.53544 38.69163,128.45326 92.89549,28.2599 62.92653,-116.31682 165.7082,44.26512 210.55381,0.82094 35.24456,-34.14317 -55.61083,-165.20553 37.29427,-210.1021 89.31872,-43.16344 135.11071,100.33528 194.00121,83.71386 62.7683,-17.71591 -44.6957,-254.54613 352.6184,-112.50698 z" style="fill-opacity:.5;stroke:#8952e1;stroke-width:8;fill:#473cc7" />
      <path d="m 1277.4528,689.51246 c -94.9732,9.41586 -142.6525,-94.69003 -224.0407,-48.08728 C 884.3618,738.2231 906.59947,614.71454 757.15214,667.60791 576.70855,731.47168 503.1011,644.50978 515.19427,614.98717 530.54571,577.51026 597.24162,649.2131 641.84561,563.51306 712.6998,427.3771 804.9998,570.69148 858.39942,538.334 944.1828,486.3536 847.69981,339.51953 912.69369,315.2319 c 76.60363,-28.62609 110.34081,116.32682 164.00121,103.71386 86.9509,-20.43794 -38.976,-249.88071 327.6184,-144.50698 z" fill="#1c4fc2" />
      <path fill="#fff" id="path2575" transform="rotate(355.96961 599.67419 642.8183)" sodipodi:arg1="1.2193515" sodipodi:arg2="2.0047497" sodipodi:cx="606.71497" sodipodi:cy="643.06604" sodipodi:r1="16.057104" sodipodi:r2="2.4085648" sodipodi:sides="4" sodipodi:type="star" />
      <use transform="rotate(18 505.61533 1173.0268)scale(.81377876)" xlink:href="#path2575" />
      <use transform="rotate(27.2325-243.50663 1438.1431)scale(.38956521)" xlink:href="#path2575" />
      <use transform="rotate(81.232496 309.22774 723.86655)scale(.41522028)" xlink:href="#path2575" />
      <use transform="rotate(29.568875 92.383173 1311.3711)scale(.57483618)" xlink:href="#path2575" />
      <use transform="rotate(47.568872 315.79782 1071.094)scale(.58628052)" xlink:href="#path2575" />
      <use transform="rotate(28.722773-159.61357 1708.1848)scale(.35386537)" xlink:href="#path2575" />
      <use transform="rotate(46.722767 323.90169 1167.425)scale(.45022552)" xlink:href="#path2575" />
      <use transform="rotate(82.722769 643.05844 764.38447)scale(.64865975)" xlink:href="#path2575" />
      <use transform="rotate(100.72277 846.34122 641.72074)scale(.88614275)" xlink:href="#path2575" />
      <use transform="rotate(124.11051 649.82573 586.53727)scale(.51021829)" xlink:href="#path2575" />
      <use transform="rotate(160.11051 634.97459 456.04904)scale(.38950523)" xlink:href="#path2575" />
      <use transform="rotate(124.11051 734.03055 698.85558)scale(.74224149)" xlink:href="#path2575" />
      <use transform="rotate(119.57374 682.51157 650.16065)scale(.50560224)" xlink:href="#path2575" />
      <use transform="rotate(155.57374 695.91738 445.99286)scale(.41412399)" xlink:href="#path2575" />
      <use transform="rotate(178.11051 660.1914 462.57278)scale(.50180328)" xlink:href="#path2575" />
      <use transform="rotate(119.56889 568.0939 563.75919)scale(.35595967)" xlink:href="#path2575" />
      <use transform="rotate(137.56885 576.78149 507.45017)scale(.36304635)" xlink:href="#path2575" />
      <use transform="rotate(118.72275 508.24683 605.47219)scale(.22750436)" xlink:href="#path2575" />
      <use transform="rotate(136.72274 583.14549 548.17807)scale(.28945547)" xlink:href="#path2575" />
      <use transform="rotate(172.72277 693.53508 432.81955)scale(.40167389)" xlink:href="#path2575" />
      <use transform="rotate(214.11054 724.50231 252.82723)scale(.3159459)" xlink:href="#path2575" />
      <use transform="rotate(250.1105 781.25476 47.786983)scale(.24119584)" xlink:href="#path2575" />
      <use transform="rotate(268.11051 799.35311-31.355473)scale(.31073499)" xlink:href="#path2575" />
      <use transform="rotate(136.72277 594.54823 537.12054)scale(.55995262)" xlink:href="#path2575" />
      <use transform="rotate(178.11051 581.31444 421.95297)scale(.42422393)" xlink:href="#path2575" />
      <use transform="rotate(214.11052 635.47803 430.41224)scale(.62429138)" xlink:href="#path2575" />
      <use transform="rotate(173.5689 538.98516 382.23006)scale(.29596479)" xlink:href="#path2575" />
      <use transform="rotate(191.56888 550.76321 336.51675)scale(.30185704)" xlink:href="#path2575" />
      <use transform="rotate(172.72274 527.14474 436.69649)scale(.36463917)" xlink:href="#path2575" />
      <use transform="rotate(232.11051 560.89752 411.224)scale(.48701848)" xlink:href="#path2575" />
      <use transform="rotate(250.11051 538.77425 455.54321)scale(.62743062)" xlink:href="#path2575" />
      <use transform="rotate(357.19494 8552.2538-7142.5751)scale(.35416676)" xlink:href="#path2575" />
      <use transform="rotate(110.58269 291.22096 556.17004)scale(.29511807)" xlink:href="#path2575" />
      <use transform="rotate(340.1105 1549.255-525.98544)scale(.38852801)" xlink:href="#path2575" />
      <use transform="rotate(264.14479 809.16459 18.876321)scale(.80330935)" xlink:href="#path2575" />
      <use transform="rotate(35.532531 997.07007 1697.6909)scale(.63186164)" xlink:href="#path2575" />
      <use transform="rotate(287.53253 802.89706-389.54525)scale(.32595058)" xlink:href="#path2575" />
      <use transform="rotate(251.53253 734.71863 87.367957)scale(.62113182)" xlink:href="#path2575" />
      <use transform="rotate(305.53252 731.66995-610.42954)scale(.41992532)" xlink:href="#path2575" />
      <use transform="rotate(30.990918 541.59643 2202.2484)scale(.31651574)" xlink:href="#path2575" />
      <use transform="rotate(48.990872 782.13493 1431.8791)scale(.44960163)" xlink:href="#path2575" />
      <use transform="rotate(2.8125287-2431.9641 20828.471)scale(.26003311)" xlink:href="#path2575" />
    </g>
    <g>
      <path d="M 931.12906,844.86656 C 867.70042,690.46083 786.94828,813.27791 723.86809,784.79138 673.24562,761.93066 689.99168,674.73482 620.79667,664.95168 537.04238,653.11008 554.06659,814.40557 456.83129,776.6804 275.48612,706.32243 358.47691,915.97959 225.95634,864.86655 62.857397,801.95947 -34.504678,971.12592 98.104767,1117.5877 70.357964,992.70908 154.58933,1002.6187 233.86591,1055.1394 c 110.76987,73.385 196.15124,-16.2393 282.45469,-14.8179 100.61185,1.6571 181.62596,128.2379 261.49945,-65.43156 35.41879,-85.88003 84.32179,-112.97817 126.93296,-93.15903 z" style="fill-opacity:.5;stroke:#8952e1;stroke-width:8;fill:#473cc7" />
      <path d="M 920.12906,851.86656 C 856.70042,745.02678 780.135,837.42656 707.86809,804.79138 648.80231,778.11773 670.26185,704.7833 614.80571,696.94264 545.4771,687.14061 562.25593,843.92478 426.83129,813.69849 283.97621,781.81374 349.14664,980.56837 187.63567,904.75729 115.0787,870.70001 64.816661,900.02295 60.199779,976.59483 c -4.36276,72.35717 73.464431,-19.2586 184.657091,46.55357 131.09053,77.5893 192.05297,-25.55845 273.44564,-23.81786 77.48834,1.65706 155.61483,142.75146 229.51754,-36.4406 35.41879,-85.88003 99.46647,-129.84253 157.93296,-95.15903 z" fill="#1c4fc2" />
      <g transform="rotate(144 509.69231 942.79663)">
        <use transform="rotate(13.725729-1532.4846-40.735717)scale(.81377877)" xlink:href="#path2575" />
        <use transform="rotate(22.958231-1646.674 891.53747)scale(.3895652)" xlink:href="#path2575" />
        <use transform="rotate(76.958224-172.73002 717.78042)scale(.41522027)" xlink:href="#path2575" />
        <use transform="rotate(25.294605-1143.0666 805.17037)scale(.57483617)" xlink:href="#path2575" />
        <use transform="rotate(43.294601-375.46379 1199.9935)scale(.58628051)" xlink:href="#path2575" />
        <use transform="rotate(24.448503-1437.7321 1862.0154)scale(.35386536)" xlink:href="#path2575" />
        <use transform="rotate(46.722767-414.31352 909.26913)scale(.45022552)" xlink:href="#path2575" />
        <use transform="rotate(82.722769 173.8892 753.94344)scale(.64865975)" xlink:href="#path2575" />
        <use transform="rotate(100.72277 258.54704 567.59721)scale(.88614275)" xlink:href="#path2575" />
        <use transform="rotate(119.83624 136.88953 622.72537)scale(.51021829)" xlink:href="#path2575" />
        <use transform="rotate(160.11051 384.92676 647.35648)scale(.38950523)" xlink:href="#path2575" />
        <use transform="rotate(124.11051 354.93882 807.54514)scale(.74224149)" xlink:href="#path2575" />
        <use transform="rotate(115.29947 159.21546 666.56968)scale(.50560223)" xlink:href="#path2575" />
        <use transform="rotate(155.57374 257.93593 607.46997)scale(.41412399)" xlink:href="#path2575" />
        <use transform="rotate(178.11051 405.35869 700.19296)scale(.50180328)" xlink:href="#path2575" />
        <use transform="rotate(115.29462 38.945294 582.5917)scale(.35595968)" xlink:href="#path2575" />
        <use transform="rotate(137.56885 278.17396 654.04795)scale(.36304635)" xlink:href="#path2575" />
        <use transform="rotate(118.72275 163.07188 709.19462)scale(.22750436)" xlink:href="#path2575" />
        <use transform="rotate(136.72274 282.59404 692.98604)scale(.28945547)" xlink:href="#path2575" />
        <use transform="rotate(172.72277 468.97947 647.59808)scale(.40167389)" xlink:href="#path2575" />
        <use transform="rotate(214.11054 584.44297 545.4028)scale(.3159459)" xlink:href="#path2575" />
        <use transform="rotate(268.11051 782.4198 453.1084)scale(.31073499)" xlink:href="#path2575" />
        <use transform="rotate(136.72277 293.99684 681.92858)scale(.55995262)" xlink:href="#path2575" />
        <use transform="rotate(178.11051 557.83511 719.68435)scale(.42422393)" xlink:href="#path2575" />
        <use transform="rotate(209.83625 588.99997 718.20372)scale(.62429138)" xlink:href="#path2575" />
        <use transform="rotate(173.5689 316.12012 598.56511)scale(.29596479)" xlink:href="#path2575" />
        <use transform="rotate(191.56888 278.6786 513.1814)scale(.30185704)" xlink:href="#path2575" />
        <use transform="rotate(168.44846 428.29749 676.79467)scale(.36463918)" xlink:href="#path2575" />
        <use transform="rotate(106.30842-79.396942 642.76857)scale(.29511807)" xlink:href="#path2575" />
        <use transform="rotate(251.53253 526.06733 609.49743)scale(.62113182)" xlink:href="#path2575" />
        <use transform="rotate(305.53252 822.33224 382.41065)scale(.41992532)" xlink:href="#path2575" />
        <use transform="rotate(2.8125287-12789.227 5390.5491)scale(.26003311)" xlink:href="#path2575" />
        <use transform="rotate(205.29461 380.41807 653.34627)scale(.68014753)" xlink:href="#path2575" />
        <use transform="rotate(286.11051 861.61757 723.05347)scale(.86107878)" xlink:href="#path2575" />
        <use transform="rotate(340.11051 1746.8919 445.34746)scale(.582145)" xlink:href="#path2575" />
        <use transform="rotate(52.110487-454.07893 996.85671)scale(.27981269)" xlink:href="#path2575" />
        <use transform="rotate(70.110511-163.0151 677.25563)scale(.36048548)" xlink:href="#path2575" />
        <use transform="rotate(330.44846 1401.1185 541.67163)scale(.42302007)" xlink:href="#path2575" />
        <use transform="rotate(181.79534 655.28535 834.90531)scale(.90588087)" xlink:href="#path2575" />
        <use transform="rotate(287.90586 1104.7478 477.79326)scale(.56796396)" xlink:href="#path2575" />
        <use transform="rotate(283.36424 1108.7428 370.66543)scale(.3962466)" xlink:href="#path2575" />
        <use transform="rotate(268.30841 459.22039 535.87581)scale(.32851901)" xlink:href="#path2575" />
        <use transform="rotate(53.532532-93.769084 1229.0293)scale(.6914305)" xlink:href="#path2575" />
        <use transform="rotate(164.81252 430.33211 732.61064)scale(.28946322)" xlink:href="#path2575" />
        <use transform="rotate(232.11052 733.0006 545.60854)scale(.40128462)" xlink:href="#path2575" />
      </g>
    </g>
    <path d="m 1397.1155,1007.842 c 36.1838,13.1066 75.2432,35.889 79.9179,67.9432 5.4715,37.5175 134.7438,37.6059 133.7853,-0.6715 -2.3956,-95.66125 -146.9716,-198.32902 -311.7275,-88.02041 z" fill="#30376c" stroke="#151730" stroke-width="8" />
    <path d="m 1467.1984,1068.9712 c 81.9343,27.2866 79.8389,-14.8764 53.3484,-36.3417 19.5186,2.0669 35.1279,10.4095 49.2316,26.8101 -3.6987,-44.9786 1.1076,-77.27472 16.8674,-101.54284 16.8463,39.63822 28.9725,90.07664 30.2757,125.84844 1.1722,32.1744 -139.8966,35.5845 -145.6707,-0.1628 -1.0114,-6.2614 -0.9457,-7.4719 -4.0524,-14.6112 z" fill="#9f9dce" stroke="#7e79cb" stroke-width="8" />
    <path d="m 1169.3462,823.70567 c 74.9846,36.24641 32.0433,152.85989 -70.0045,123.54122 -58.39,-16.77557 -150.46264,-88.53658 -143.79261,-128.60441 5.23972,-31.47539 81.70801,-42.77212 163.99981,-12.26051 z" style="stroke-miterlimit:20;stroke:#151730;stroke-width:8;fill:#30376c" />
    <path d="m 932.83363,1099.5703 c -19.94837,4.7878 -19.56953,-23.5898 -11.16081,-36.2266 -58.57147,-42.8699 -60.44989,-139.1673 -14.13436,-205.64327 68.3289,-98.07142 205.61064,-25.16997 273.46024,-98.228 51.9924,-55.98364 47.4084,-161.16709 40.8335,-267.60357 -11.6218,-188.13546 247.1699,-202.77481 267.0665,-47.83502 7.6724,59.74718 26.9099,85.68755 46.9403,93.23996 25.0351,9.43943 -15.151,112.09275 -42.4845,99.75397 -35.7438,-16.1353 -74.0145,2.74391 -116.3708,3.71825 -25.026,120.50797 33.8192,221.6188 -35.2064,316.62439 -86.5368,119.10769 -200.6216,28.70901 -339.8974,53.11579 l -31.51961,80.6408 z" fill="#38407c" />
    <g transform="translate(-138.71274-48.301869)scale(1.098369)">
      <path d="m 1334.7027,526.6426 c -5.7158,9.11472 -14.6235,14.71239 -26.5134,17.82415 12.7771,1.07407 23.4213,-4.72193 30.6219,-13.93892 m -10.4424,-14.43955 c -6.9983,7.58176 -16.4268,11.48813 -28.2441,12.66781 11.8875,2.91335 22.8295,-0.65865 31.2349,-7.93081 m -8.1553,-16.77547 c -8.1207,6.05599 -17.9559,8.21081 -29.6195,7.36395 11.0975,4.85405 22.3701,3.29106 31.8356,-2.29286" />
      <path d="m 1415.9192,448.84138 c -36.6014,-48.11404 -107.2595,-28.09469 -100.0158,39.4958 39.8043,-2.47737 81.0437,-15.06905 100.0158,-39.4958 z" fill="#7696ed" />
      <g clip-path="url(#clipPath1161)">
        <path d="m 1315.9034,488.33718 c 6.5363,60.98938 71.2556,88.28145 124.3985,61.33551 1.9622,-47.14889 -8.6312,-80.12532 -24.3827,-100.83131 -18.9721,24.42675 -60.2115,37.01843 -100.0158,39.4958 z" fill="#fff" id="path1147" />
        <g clip-path="url(#clipPath933)">
          <ellipse cx="1262.5549" cy="805.67725" fill="url(#linearGradient2529)" id="path892" rx="47.491718" ry="58.803658" transform="rotate(347.24411)" />
          <path d="m 1420.1131,514.96607 -37.3657,69.83201 -30.2341,-31.0018 z" fill="#9afcfd" />
          <path d="m 1420.1131,514.96607 -73.1353,21.09189 14.3744,27.63782 z" fill="#61e9d1" />
          <ellipse cx="1265.7441" cy="809.4754" rx="38.567593" ry="47.753998" transform="rotate(347.24411)" />
          <ellipse cx="1469.3911" cy="-122.57219" fill="#fff" rx="17.176653" ry="24.960793" transform="rotate(24.072868)" />
          <ellipse cx="1501.3384" cy="-87.134575" fill="#fff" rx="6.7721434" ry="9.0293894" transform="rotate(23.580499)" />
        </g>
      </g>
      <path d="m 1328.2524,487.05349 c -9.015,-6.29201 -15.346,-13.3625 -19.1623,-22.00089 7.7235,8.53899 16.3329,14.35655 28.0484,19.52179 z m -15.6949,2.03461 c -11.1292,-5.30667 -19.0532,-12.21775 -24.358,-21.03681 9.5089,8.41267 20.79,14.0668 35.4666,18.55439 z M 1278.25,483.5 c 11.6026,3.37868 20.9347,3.94097 37.1768,2.28033 48.5555,-4.96447 86.2153,-16.29074 108.8232,-50.53033 -12.2929,37.04289 -59.3692,51.96232 -108.5,56.75 -14.3794,1.40124 -26.2678,-1.07326 -37.5,-8.5 z" />
    </g>
    <path d="m 1377.2138,640.4513 c -25.2561,120.80269 33.5891,221.91352 -35.4365,316.91911 -86.5493,119.12489 -200.5942,28.67238 -339.8974,53.11579" fill="none" stroke="#151730" stroke-width="8" />
    <path d="m 1513.0279,550.29678 c 2.0747,7.34363 6.3299,8.62369 11.8752,3.93418 -4.6756,10.87014 -13.7891,8.08961 -11.8752,-3.93418 z m 13.6781,60.94831 c -28.7617,2.47 -45.7676,-6.06689 -59.4643,-26.80154 9.4335,26.4479 28.0911,35.08126 54.5392,34.74334" fill="#151730" />
    <path d="m 989.53287,1004.3306 c 8.71883,-5.8948 1.16614,-18.54013 -8.05712,-12.51515 -9.22335,6.02525 -0.66166,18.40955 8.05712,12.51515 z m -22.11872,-8.46831 c -16.80211,9.86241 -3.83155,33.01541 13.14235,23.20791 16.97396,-9.8072 3.6598,-33.07083 -13.14235,-23.20791 z m -3.90175,64.16001 c 10.15566,-4.0098 2.66872,-23.1924 -7.21774,-19.0993 -9.88659,4.093 -2.93776,23.1097 7.21774,19.0993 z m -12.25492,8.6571 c -5.48368,3.3468 0.89739,14.6425 6.76234,11.0556 5.86455,-3.5872 -1.27796,-14.4015 -6.76234,-11.0556 z m -1.59226,-248.53178 c 34.41168,-5.18629 51.99748,43.4325 23.29899,58.83199 56.24009,18.20459 29.65429,111.62849 -25.24873,95.16653 1.71027,14.78748 -6.65534,21.19731 -20.6405,15.38477 23.27696,42.33979 15.80396,70.42979 -10.90723,69.83639 -70.06615,-59.1087 -43.87996,-197.57054 33.49747,-239.21968 z" />
    <path fill="#151730" inkscape:original-d="m 1287.767,606.75836 c 80.763,72.33988 146.6146,3.64811 205.5875,30.26941 27.3335,12.33878 67.5196,-90.31454 42.4845,-99.75397 -20.0304,-7.55241 -39.2679,-33.49278 -46.9403,-93.23996 -19.8966,-154.93979 -278.6883,-140.30044 -267.0665,47.83502 6.5749,106.43648 11.1589,211.61993 -40.8335,267.60357 -67.8496,73.05803 -205.13134,0.15658 -273.46024,98.228 -50.17058,72.00906 -43.79052,179.01047 29.87997,215.38817" inkscape:path-effect="#path-effect2152" />
    <path d="m 1328.5176,363.7723 c 3.0208,-187.0904 37.841,-21.09279 34.5269,-124.56602 -2.8381,-88.61176 6.5077,-97.16871 34.8908,-8.84314 29.3701,91.39699 30.2341,-78.47414 55.598,118.32337 z" stroke="#9f9dce" stroke-width="8" />
    <g transform="translate(0 9.1923884)">
      <path d="m 1408.2497,341.5507 c 202.7358,-276.767317 201.5885,-277.890206 55.4576,36.77391 z" fill="#38407c" stroke="#151730" stroke-width="8" />
      <path d="m 1521.4426,188.05559 c 13.678,-3.12363 25.6448,-8.35974 36.1453,-15.81576 m -62.4428,51.24841 c 16.298,-0.16217 30.829,-3.33575 43.9681,-9.61615 m -71.3429,46.74839 c 19.9471,1.96503 37.9184,-1.21991 54.6832,-9.62964 m -80.5816,44.78398 c 21.8312,5.72761 41.8748,5.04893 61.148,-2.0245 m -86.2243,35.26921 c 23.2547,9.57999 45.3381,11.0198 67.634,4.5168" fill="none" stroke="#151730" stroke-width="4" />
    </g>
    <path d="m 1470.8532,421.23325 c 14.4215,26.85867 0.4497,53.54773 -14.0711,76.05383 170.5255,-49.37616 48.7529,-325.40264 -206.7785,-147.88152 51.215,80.65612 180.6682,-3.0064 220.8496,71.82769 z m -250.5974,-56.28238 c -55.4264,105.48885 -58.6804,255.8074 -7.6387,364.82316 71.9827,-111.36501 5.5061,-216.57568 14.1629,-287.54982" fill="#1c4fc2" stroke="#8952e1" stroke-width="8" />
    <g transform="translate(0 15.19239)">
      <path d="m 1233.9549,465.97387 c -42.3931,-53.95487 -40.0817,-126.93266 -3.7968,-179.40763 27.3857,19.11787 43.2858,45.76251 45.7384,83.60099 z" fill="#38407c" />
      <path d="m 1235.1586,339.05849 c -11.3043,23.95765 -10.4841,52.43823 2.2346,75.36509 -8.8703,-25.88155 -9.3325,-50.63684 -2.2346,-75.36509 z" fill="#151730" />
      <path fill="#151730" inkscape:original-d="m 1233.9549,465.97387 c -42.3931,-53.95487 -40.0817,-126.93266 -3.7968,-179.40763 27.3857,19.11787 43.2858,45.76251 45.7384,83.60099" inkscape:path-effect="#path-effect844" />
    </g>
    <path d="m 922.98477,948.53901 c 30.22034,19.44911 73.71673,-18.27603 52.087,-56.45091 0.0326,28.23276 -27.07902,29.65756 -36.78822,20.30125 -9.7092,-9.35632 -11.19684,-25.57566 2.80736,-36.01369 -35.60739,5.25386 -48.32648,52.71424 -18.10614,72.16335 z" fill="#fff" />
    <g>
      <path d="m 1165.7552,770.04698 c 115.6795,11.76449 66.2516,163.73918 140.3684,176.46436 57.1397,9.81037 77.3586,-69.83517 71.9762,-134.86915 -84.8077,20.30484 -131.0253,-54.03517 -194.1332,-59.88216 -6.1399,6.30824 -11.6936,12.88778 -18.2114,18.28695 z" />
      <path d="m 1364.5,832 c -44.0858,13.92462 -47.4142,73.07107 -6.5,90.93934 7.7053,-12.79111 11.4038,-23.76167 15.2929,-40.37868 -13.0815,1.06066 -28.682,-20.25305 -8.7929,-50.56066 z" fill="#fff" />
      <path d="m 1165.7552,770.04698 c 115.6795,11.76449 66.2516,163.73918 140.3684,176.46436 57.1397,9.81037 77.3586,-69.83517 71.9762,-134.86915 -84.8077,20.30484 -131.0253,-54.03517 -194.1332,-59.88216 -6.1399,6.30824 -11.6936,12.88778 -18.2114,18.28695 z" fill="none" stroke="#9f9dce" stroke-width="8" />
    </g>
    <g>
      <path d="m 1230.3658,964.49539 c -3.8096,91.76091 49.4667,152.37131 176.3091,65.69141 30.3091,19.4148 46.5605,43.3876 50.7727,72.2701 5.4715,37.5175 134.7439,37.6059 133.7853,-0.6715 -2.3787,-94.9861 -135.2369,-207.76398 -282.7325,-117.0416 -8.2944,-11.30688 -13.4652,-21.73819 -19.0698,-36.321 z" fill="#38407c" />
      <path fill="#151730" inkscape:original-d="m 1385.9795,1018.8923 c 43.6838,19.6067 66.3754,48.6443 71.4681,83.5646 5.4714,37.5175 134.7439,37.6059 133.7853,-0.6715 -2.5,-99.8306 -149.1284,-219.60729 -305.3991,-101.5205" inkscape:path-effect="#path-effect1756" />
      <path fill="#151730" inkscape:original-d="m 1230.3658,964.49539 c -3.8096,91.76091 49.4667,152.37131 176.2107,65.76601" inkscape:path-effect="#path-effect1758" />
      <path d="m 1289.4306,948.4228 c 3.7264,16.61638 8.1903,27.54621 16.0653,38.2962 l 7.364,-4.0658 c -9.75,-10.00002 -16.7598,-19.81529 -23.4293,-34.2304 z" fill="#151730" />
      <path d="m 1447.8991,1094.3726 c 81.9343,27.2866 79.8389,-14.8764 53.3484,-36.3417 19.5186,2.0669 35.1279,10.4095 49.2316,26.8101 -3.6987,-44.9786 1.1076,-77.2747 16.8674,-101.54282 16.8463,39.63822 28.9725,90.07662 30.2757,125.84842 1.1722,32.1744 -139.8966,35.5845 -145.6707,-0.1628 -1.0114,-6.2614 -0.9457,-7.4719 -4.0524,-14.6112 z" fill="#c4bff9" stroke="#9791f1" stroke-width="8" />
    </g>
    <g>
      <path d="m 1027.3468,908.44675 c 10.6554,34.25946 12.0409,68.49114 -0.8033,95.00425 187.4273,-46.5912 274.3662,17.0137 274.3662,101.0992 0,33.4144 -123.6912,36.0065 -141.5394,2.7857 -16.762,-31.199 -79.3979,-39.4277 -197.15064,-14.4246 z" fill="#38407c" />
      <path fill="#151730" inkscape:original-d="m 1027.3468,908.44675 c 16.9725,54.57056 10.4256,109.07065 -39.73539,133.22035" inkscape:path-effect="#path-effect2156" />
      <path d="m 1026.5557,1003.2527 c 187.4151,-46.3929 274.354,17.212 274.354,101.2975 0,33.4144 -123.6912,36.0065 -141.5394,2.7857 -18.1057,-33.7 -89.735,-40.5994 -226.53667,-7.7656 -19.94837,4.7878 -19.56953,-23.5898 -11.11118,-36.3829" fill="none" stroke="#151730" stroke-width="8" />
      <path d="m 1154.8721,1094.3726 c 81.9343,27.2866 79.8389,-14.8764 53.3484,-36.3417 19.5186,2.0669 35.1279,10.4095 49.2316,26.8101 -3.6987,-44.9786 1.1076,-77.2747 16.8674,-101.54282 16.8463,39.63822 28.9725,90.07662 30.2757,125.84842 1.1722,32.1744 -139.8966,35.5845 -145.6707,-0.1628 -1.0114,-6.2614 -0.9457,-7.4719 -4.0524,-14.6112 z" fill="#c4bff9" stroke="#9791f1" stroke-width="8" />
    </g>
    <g>
      <path d="m 1167.4333,829.54712 c 76.3675,33.23402 38.1007,151.46381 -65.033,126.22897 -59.0109,-14.43884 -153.86673,-82.47938 -148.79629,-122.78086 3.9831,-31.65898 79.94129,-45.98948 163.38209,-18.77654 z" fill="#38407c" />
      <path fill="#151730" inkscape:original-d="m 1167.4333,829.54712 c 76.3675,33.23402 38.1007,151.46381 -65.033,126.22897 -59.0109,-14.43884 -153.86673,-82.47938 -148.79629,-122.78086 3.9831,-31.65898 79.94129,-45.98948 163.38209,-18.77654 -35.6605,4.81371 -40.1543,31.02691 -2.4706,50.58325 -63.2383,-5.40793 -74.1146,22.7579 -2.1863,48.66906 -34.0685,1.17767 -41.8994,25.64824 -9.929,42.30509" inkscape:path-effect="#path-effect2200" />
      <path d="m 1093.75,917.75 -130,-54 m 125.5051,-34.18207 -99.88708,-25.05635 M 1073.0532,868.35213 955.5,826" stroke="#151730" stroke-miterlimit="20" stroke-width="4" />
    </g>
  </g>
</svg>
