<svg xmlns="http://www.w3.org/2000/svg" xmlns:inkscape="http://www.inkscape.org/namespaces/inkscape" xmlns:sodipodi="http://sodipodi.sourceforge.net/DTD/sodipodi-0.dtd" xmlns:xlink="http://www.w3.org/1999/xlink" height="440" viewBox="0 0 550 440" width="550">
  <defs>
    <inkscape:path-effect effect="powerstroke" id="path-effect4349" interpolator_type="CubicBezierSmooth" offset_points="0.25,3" start_linecap_type="zerowidth" />
    <inkscape:path-effect effect="powerstroke" end_linecap_type="zerowidth" id="path-effect4342" interpolator_type="CubicBezierSmooth" offset_points="0.34,3 | 1.55,3" start_linecap_type="zerowidth" />
    <inkscape:path-effect effect="powerstroke" id="path-effect4237" interpolator_type="CubicBezierSmooth" offset_points="0.25,3" start_linecap_type="zerowidth" />
    <inkscape:path-effect effect="powerstroke" end_linecap_type="zerowidth" id="path-effect4231" interpolator_type="CubicBezierSmooth" offset_points="0.34,3 | 1.55,3" start_linecap_type="zerowidth" />
    <clipPath id="clipPath4255">
      <use transform="rotate(-17.658236)" xlink:href="#path924" />
    </clipPath>
    <clipPath id="clipPath4336">
      <path d="M 328.52752,126.48499 V 639.43133 H 667.80441 V 126.48499 Z m 183.6625,32.08508 c 29.45368,-21.85273 64.15676,-21.17815 90.76009,3.04988 -19.27643,21.86094 -39.38401,29.19351 -63.08313,30.30404 z" />
    </clipPath>
    <filter color-interpolation-filters="sRGB" height="1.0388724" id="filter5189" width="1.0335228" x="-0.016761433" y="-0.019436216">
      <feGaussianBlur stdDeviation="3.9711038" />
    </filter>
    <clipPath id="clipPath149">
      <use xlink:href="#rect25" />
    </clipPath>
    <clipPath id="clipPath372">
      <use xlink:href="#path4016-3" />
    </clipPath>
    <clipPath id="clipPath234">
      <use xlink:href="#path76" />
    </clipPath>
    <clipPath id="clipPath365">
      <use xlink:href="#path4002-6" />
    </clipPath>
    <clipPath id="clipPath257">
      <use xlink:href="#path6512-9" />
    </clipPath>
    <clipPath id="clipPath307">
      <use xlink:href="#path3893-3" />
    </clipPath>
    <clipPath id="clipPath264">
      <use xlink:href="#path4633-6" />
    </clipPath>
    <clipPath id="clipPath166">
      <use xlink:href="#path3971-4" />
    </clipPath>
  </defs>
  <g clip-path="url(#clipPath149)" transform="translate(-689.066-256.897)scale(.75094167)">
    <rect fill="#26313c" height="1080" id="rect25" width="1920" />
    <path d="m 1876.6329,-11.127458 c 0.3763,127.057448 -15.8674,203.529068 -15.8674,312.496808 0,52.53254 -4.0073,133.80046 -8.0508,195.48111 l 34.1689,32.4279 c 4.603,-180.99942 9.8918,-361.99884 11.612,-542.998263 z" fill="#537e80" />
    <path d="M -13.422819,85.100671 C 55.445923,159.73962 109.19536,164.21089 207.78524,133.42281 l 54.17647,-157.458526 592.0165,12.018672 c 1.04684,31.428475 90.20055,54.018884 172.84619,3.7044266 l 179.7181,-1.2962221 c 6.86,44.9776435 23.9054,86.5601575 42.7737,127.5350395 26.1218,-11.30064 62.1644,-42.389393 109.61,-125.1745232 l 4.5896,-0.272503 c 9.8799,21.3419592 33.8117,66.9136782 83.5136,66.9136782 44.4618,0 96.2506,-15.632128 172.5774,-66.3441096 l 116.5539,0.7593093 c 55.2911,13.8033966 105.285,57.1879913 210.7084,-3.6790726 h -2 L -33.029954,-46.814996 Z" fill="#456983" />
    <path d="m 1045.5689,443.69881 14.4269,-459.761778 h 27.3351 l -1.8983,176.159748 c 0,0 45.179,-122.366262 96.4324,-154.1397789 C 1120.6548,131.68586 1109.3525,128.77977 1085.8123,225.01773 l -4.5559,220.1997 z M 410.40667,-13.405386 c -3.45462,115.288456 -7.68923,230.576916 -12.14895,345.865376 0,0 113.81558,12.99363 123.38777,-94.534 C 534.35479,95.158131 584.87248,41.902141 629.46741,-9.9884944 L 596.92504,-11.349854 C 569.54248,9.6644295 522.04286,65.619455 507.97792,113.93618 l -2.81484,-130.378803 z m 972.99513,453.785036 22.2358,-459.976966 9.6644,-1.073826 c 2.2158,128.418752 1.9191,258.456002 1.0739,386.577182 l -8.4753,134.77775 z m 184.5719,-453.785036 -9.0196,235.922796 31.3541,-1.07382 6.8337,-239.535109 z" fill="#537e80" />
    <path d="m 1636.0891,-9.1179866 3.7966,214.5700166 79.9499,37.73516 c 10.7796,-7.67731 20.4474,-19.34658 27.0666,-30.96652 49.9659,-25.73225 62.9828,-37.79423 69.7285,-44.33852 5.6198,-5.45197 16.4544,-24.00178 39.7694,-62.01084 -34.0769,35.26182 -70.5046,72.60616 -99.9414,83.12529 18.0965,-27.80228 44.7341,-102.349496 46.1416,-114.701763 -34.4947,72.755513 -65.7612,125.136683 -90.7375,146.546693 l -33.03,-20.881 1.5187,-217.921773 z M 788.94723,-8.7320569 771.76602,399.57428 855.30201,416.91275 C 914.84536,255.63233 910.92232,277.9514 1024.8092,92.16305 953.85112,130.47464 866.62324,289.39597 866.62324,289.39597 863.90376,190.39962 864.32985,91.403263 865.88301,-7.593093 Z M 1361.3422,474.36242 c 4.5858,-165.63759 9.8937,-331.27517 11.8121,-496.912757 l -36.51,-0.805368 c -1.9123,81.198386 -7.5775,167.227165 -7.853,249.132745 0,0 -42.0226,-63.58984 -74.9032,-124.14707 14.1775,-36.23235 9.9822,-108.2015729 9.9822,-108.2015729 l -13.399,0.3796546 c 0.048,29.2339573 -2.2685,62.4775983 -5.2041,91.0059173 l -26.8443,-56.234948 4.8243,39.70648 c 14.4542,53.943739 34.5303,82.804309 104.4051,191.280809 l -12.9083,244.87724 z" fill="#73a69f" />
    <path d="m 1496.1535,230.06711 42.1015,-31.2982 5.7489,-214.385441 -39.7316,0.471774 z M 1189.4841,-12.774708 c -8.9448,190.717338 -9.7245,376.467108 -14.0249,565.461248 l 42.888,-0.0651 c 2.5316,-188.75817 5.8239,-377.51634 7.4572,-566.274519 z m -573.90666,-2.740172 -2.81484,264.0712 74.32019,26.39158 -4.68613,-300.724631 z M 178.52981,331.76582 C 195.35238,177.13495 209.08185,39.8858 205.23591,-13.405386 l 103.80297,-4.555856 C 301.32168,88.257185 296.19955,174.28164 291.57477,324.48725 Z" fill="#709099" />
    <path d="m 1285.1627,334.79728 c -2.7416,16.99798 -14.975,18.12789 -37.8674,22.9257 z m -82.0718,116.29363 c -3.1426,16.05326 20.6869,15.89349 25.6364,7.81818 22.3453,17.17 68.2442,-18.461 68.2442,-18.461 l -29.1533,-76.99355 c 0,0 -27.5498,1.91626 -49.4546,18.72728 -15.0909,4 -28.4112,25.86005 -10.9091,39.45455 m -72.7272,80.90908 c 8.4846,-3.08712 13.8182,-10.90909 13.8182,-10.90909 8.871,0.25713 23.8805,1.74287 30.2129,-20.88703 3.2137,-11.48438 15.6853,-20.33401 18.8994,-21.87678 l -4.0616,-22.62491 -96.0379,53.09729 z m 618.5522,-7.42429 -11.6317,-11.05008 c 38.3435,11.11947 70.7493,-49.70329 70.7493,-95.01357 0,-25.65346 -10.0291,-55.49311 -19.9577,-73.25783 l -178.7399,-105.84815 -196.9628,104.29726 -4.1709,122.99392 c 8.8119,28.91093 27.6016,46.73139 27.6016,46.73139 l -45.7515,-5.53027 -157.4017,162.89865 566.9648,-11.51476 z" fill="#74465e" />
    <rect fill="#266663" height="115.3125" width="508.125" x="1258.125" y="606.5625" />
    <path d="m 1396.8493,511.8184 c 26.4867,-10.23664 52.495,-24.47353 57.3358,18.82637 l 12.0194,-5.81583 c -15.5559,-13.99696 -8.757,-27.46174 10.6291,-27.57531 -23.7256,-13.06899 -16.0296,-30.51648 -4.9933,-26.5257 -2.7611,-7.71882 -1.5314,-17.43943 1.8915,-22.32728 -10.8757,-20.87047 -7.5824,-47.50167 51.4535,-35.85053 -44.1224,-43.61303 -9.1447,-60.6728 33.7319,-37.76964 -43.1635,-90.45756 69.4375,-114.94326 160.5363,-58.32699 56.6706,35.21978 103.6805,131.31951 38.8664,151.90107 -4.7533,11.20178 -36.9472,7.1396 -44.7016,4.42554 -3.3565,9.14474 -2.2599,21.87304 -2.2599,21.87304 0,0 15.0352,2.69458 20.5964,11.5181 l -25.0287,122.01152 -492.9414,13.70804 z" fill="#5f3c4c" />
    <path d="m 1108.7068,440.93083 c -10.6922,-8.499 -7.1281,-18.64295 10.2811,-17.13506 -9.1844,-16.03842 3.2899,-13.70805 17.5463,-11.78892 l -1.2337,3.01577 c -24.6745,-4.66074 -16.861,0.68541 -11.2406,10.96643 -13.8267,-0.0758 -25.9007,2.04589 -13.51,13.13131 z m 111.8578,-46.74444 c -17.4093,-7.40235 -8.0878,-22.06996 1.782,-13.84513 -6.9911,-21.24748 12.0631,-11.65184 20.9733,0.6854 -16.3126,-11.37768 -22.07,-12.33724 -18.78,3.70117 -11.1035,-6.3057 -16.5868,-3.15285 -3.9753,9.45856 z M 1029.1115,373.6672 c -6.6883,-12.89176 -0.9693,-15.31502 10.3715,-13.18255 -12.504,2.90791 -12.6008,-0.48466 -10.3715,13.18255 z m 192.6978,-51.56704 c 1.4541,-13.18255 3.5865,-15.70275 22.8757,-10.66236 -19.3861,-0.87237 -18.6107,0.19386 -22.8757,10.66236 z m 241.8418,66.979 c -15.1933,0.70578 -41.6063,-21.82158 -39.8244,-28.47172 0.9241,-3.44883 6.4433,-4.51845 17.7242,-3.3215 -31.4562,-29.99565 -23.3329,-53.64523 10.4588,-30.13851 l -18.2603,-19.7073 1.1827,-2.04813 c 0,0 30.2858,31.32875 28.719,32.89556 -2.0304,2.03044 -27.4698,-26.67744 -37.1417,-15.25035 -4.6453,5.48836 2.396,23.17192 29.9258,42.6318 -2.1617,0.76167 -5.33,-0.26609 -10.6761,-4.78975 -9.2694,-1.82856 -18.7649,-1.63245 -19.4528,0.45253 -0.5112,1.54952 17.1064,21.04589 37.3448,27.74737 z m 22.7125,87.08135 c -8.9102,35.22968 -34.2701,28.23858 -11.3777,1.78204 -22.0699,3.42701 -24.8115,-7.40235 -22.8925,-14.80468 3.9754,2.26182 10.8294,1.50788 10.8294,1.50788 -17.9575,-5.48322 -43.1803,-27.41609 -9.1844,-37.28589 -23.989,-1.3708 -27.2105,21.11039 -3.7011,34.54428 -5.6203,12.47433 6.854,19.60251 18.3688,19.46543 -15.216,26.73069 14.2563,30.98018 17.9575,-5.20906 z m -37.5601,107.88233 c -9.1958,-22.72473 33.5819,-30.40013 33.5819,-7.41976 0,5.44313 -4.5195,11.73982 -14.2536,16.05583 20.6992,-1.91912 22.7554,7.26527 22.7554,7.26527 -8.6361,-4.52366 -10.1439,-4.66074 -28.3756,-4.38658 -0.3174,-6.75001 17.226,-8.23722 17.3697,-18.91579 0.2001,-14.86791 -33.5824,-16.86136 -31.0778,7.40103 z m -33.5942,17.70191 c -24.9354,-0.44984 -42.9151,-24.21508 -39.0715,-32.92114 2.7628,-6.25796 10.5306,-5.65308 26.5508,3.2604 -20.0011,-21.22886 -10.7305,-32.92604 -1.5879,-32.92604 8.3579,0 14.4154,4.37812 21.0641,14.31537 3.3896,-14.3124 9.3554,-17.16971 17.3902,-17.16971 12.7798,0 9.5339,26.76691 3.2915,43.20848 2.6075,-23.11516 4.6324,-39.44398 -3.4398,-39.44398 -8.7858,0 -16.4456,4.99854 -12.4189,30.60207 -7.0281,-17.54318 -14.6566,-28.10674 -26.0074,-28.10674 -4.8008,0 -10.3917,7.61439 -1.1137,20.44264 3.4634,4.7886 12.0828,13.43025 10.3687,15.14438 -0.9444,0.94446 -28.2173,-15.62511 -31.5341,-8.16171 -1.1913,2.68071 4.4028,20.66797 36.508,31.75598 z m -49.0638,-137.14567 c -9.5934,-0.0312 -12.1052,-0.40752 -14.74,15.40092 -12.159,-13.28162 -31.1653,-18.2401 -19.8393,8.15033 l -1.8869,1.78934 c -15.5192,-25.12493 -38.3744,-24.75346 -15.0753,7.64204 l -1.7298,1.7241 c -22.3202,-28.39509 -5.0812,-42.9465 13.2158,-17.75492 -4.8643,-26.22232 20.1404,-15.05631 24.8143,-4.92683 1.5273,-13.26452 1.7601,-18.01933 21.0505,-12.13295 23.1132,-11.36012 40.9336,-1.21616 44.0865,40.4563 -11.7809,-45.73369 -21.6587,-45.37364 -44.1399,-35.64093 z" fill="#a47a92" />
    <path d="m 1227.9669,532.77474 c 0,0 -37.1488,1e-5 -61.8233,-16.58673 25.3599,32.48807 61.8233,16.58673 61.8233,16.58673 z M 1262.5455,370 l 0.1818,-13.09091 -14.9091,-5 19.8182,-8.63636 L 1267.2727,374 Z m -212.2063,44.66882 6.3975,21.71244 -7.0518,-5.25848 z m 104.9499,71.36148 c 27.9046,19.93187 57.3278,48.21614 57.3278,48.21614 l 6.4541,-0.94913 c -38.5216,-43.06192 -37.3258,-26.45234 -80.6765,-69.28697 l -11.0101,-3.60672 22.5895,22.39961 c -8.4575,-1.01431 -17.428,-7.87297 -34.1689,-14.80652 16.515,17.65394 36.257,18.60308 39.4841,18.03359 z m 68.7175,45.55856 -68.148,-66.05991 2.4677,-2.46775 74.6022,67.57853 z m 14.9964,-6.64395 c -37.704,-33.09218 -61.6461,-70.3156 -63.2125,-73.27335 l 1.5185,-2.27793 c 6.7506,14.97176 21.7239,23.94104 37.2063,41.76201 l -1.5187,-40.81288 2.4678,-0.37965 c 0,0 5.6948,39.10443 2.088,44.60942 l 22.9692,23.34877 z m 2.088,-89.5985 c 6.2644,17.27429 17.8438,27.52496 20.3116,27.90461 l 1.8982,28.09445 5.6949,-1.70845 -1.3288,-21.45049 c 0,0 9.1117,-9.49136 14.0472,-35.11805 l -2.8474,-0.56948 c 0,0 -3.4169,18.60308 -12.149,31.32151 l -3.2271,-40.05357 -3.4168,-0.18983 0.9491,34.92823 c -11.7693,-11.57946 -15.5658,-26.386 -15.5658,-26.386 z m 355.5487,166.5922 9.419,-0.77544 c -27.7084,-59.93633 -56.7211,-120.00571 -56.7211,-158.96608 0,-18.65577 3.5568,-54.85758 14.6463,-71.78426 12.7887,-19.52011 47.2032,-76.29671 56.4675,-101.36693 l -5.9176,-1.38479 c 0,0 -21.3845,46.60736 -54.558,95.40801 3.5641,-38.65669 1.3709,-69.91105 -5.7574,-77.31339 l -5.4832,1.3708 c 16.7238,29.06107 -6.9911,129.95229 -6.9911,155.1751 0,21.46624 8.0877,42.76911 8.0877,42.76911 -26.6654,-10.11113 -68.3455,-47.72018 -68.3455,-47.72018 0,0 13.3764,-28.30371 0.1939,-44.39418 3.1018,19.77383 0.5816,35.08885 -5.0404,39.93538 -5.0404,-3.87722 -16.6722,-15.89661 -22.1003,-22.87561 2.6118,12.50147 5.4922,13.65953 21.4037,29.57101 34.2551,34.2551 54.1513,42.04059 77.2717,56.69717 15.3854,33.79644 28.7319,70.69467 43.4248,105.65428 z m 57.1087,-2.53397 c -2.3221,-50.24222 13.1253,-71.83789 24.9055,-88.35081 18.1858,-25.49207 30.2806,-37.48951 52.5254,-59.98617 -6.7851,-83.36026 14.3457,-78.66055 10.0808,-154.07251 l 3.8772,0.96931 c 7.3668,69.40226 -11.6317,67.85137 -8.5299,147.33441 11.0805,-10.66838 20.6223,-19.74941 30.0787,-30.91546 11.3955,-13.45571 17.6443,-29.16914 23.2331,-59.03607 1.5509,34.3134 -14.9273,56.60743 -14.9273,56.60743 15.315,1.16316 32.7626,-5.42811 32.7626,-5.42811 0,0 -12.2133,8.9176 -35.4766,11.4378 -11.1587,16.05527 -14.1699,13.72051 -29.1858,30.72028 -39.4458,44.65736 -54.5591,60.23794 -58.8603,66.14865 -9.7317,13.37334 -21.5644,33.45382 -24.3933,84.19731 z" fill="#151315" />
    <path d="m 1283.9418,646.13893 c 44.2004,5.23425 70.8772,-0.51291 91.8902,1.93861 34.895,4.07109 84.1357,-1.35702 113.4087,-1.35702 81.6156,0 69.4013,-4.07109 147.1406,-4.07109 l -1.0112,-37.22204 c 0,0 -25.6238,-9.31773 -54.0599,-9.24204 -19.3557,0.0515 -40.0144,4.45518 -54.7821,19.11184 -41.9466,-17.27214 -84.7157,-17.5463 -95.4079,14.53053 -33.1735,-19.73959 -72.9269,0.27416 -72.9269,0.27416 -30.1578,-7.40235 -66.6211,-6.3057 -74.2515,16.03705 z" fill="#533546" />
    <rect fill="#533546" height="116.50987" width="326.44278" x="963.75836" y="571.54358" />
    <path d="m 1283.8022,615.68237 c 7.4032,26.38599 2.8474,72.51403 2.8474,72.51403 l 10.0608,0.56948 c 3.0373,-40.62305 1.7085,-10.25067 30.3724,-52.96182 l 17.8663,-59.82538 7.4652,-27.43061 -14.6792,-0.43387 -19.764,85.03228 c 0,0 -15.2262,23.85032 -19.9318,22.58945 -5.7408,-1.53823 -5.8847,-35.30788 -5.8847,-35.30788 z m -49.25,9.64466 h 7.2941 v 50.99314 h -7.2941 z m -137.9197,-45.71185 c 7.2134,6.64395 23.7284,50.49407 28.8537,76.50041 l 15.7557,-0.37966 c -5.1254,-29.23341 14.6167,-62.07353 14.6167,-62.07353 0,0 -6.6345,7.97275 -8.5423,7.97275 -1.9077,0 -2.2778,-12.33878 -2.2778,-12.33878 0,0 -6.8339,38.72477 -8.922,38.72477 -2.6576,0 -3.7965,-26.19617 -9.6812,-48.59579 l -6.6439,-3.03724 c 0,0 11.01,35.11805 6.6439,35.11805 -5.8846,0 -21.8301,-33.78926 -21.8301,-33.78926 z m -78.8818,38.76454 c 7.5954,13.97322 15.5379,60.54645 15.5379,60.54645 l 9.0489,-0.72674 c 0,0 0.1573,-29.77167 -4.4851,-68.535 -3.2215,16.37584 0.2768,40.53691 -2.6846,40.53691 -3.0014,0 -12.6175,-43.22147 -12.6175,-43.22147 z" fill="#151315" />
    <path d="m -8.0947776,532.68859 104.9709866,7.05029 -26.112186,27.94004 -81.992263,4.43907 z" fill="#92b7c9" />
    <path d="m -14.659939,542.9805 c 37.754509,7.37477 84.640597,1.19745 99.785664,4.85316 l -24.545454,56.92456 -75.725339,3.65571 z" fill="#74465e" />
    <path d="m -22.481405,567.54465 c 35.637971,11.42918 70.379914,6.06147 70.379914,6.06147 l -1.548173,3.46881 c 0,0 -26.098678,7.78885 -68.984702,-3.27873 z" fill="#5f3c4c" />
    <rect fill="#2b585e" height="357.42365" width="1920" y="722.57635" />
    <path d="M -50.114413,856.76307 1061.4765,731.00671 1060.9396,686.44295 449.93289,520.53691 68.724832,564.02685 C 22.013423,558.65771 40,573.15436 46.979865,592.21476 35.704698,582.28188 -4.2973387,565.36709 13.422819,583.08725 c 8.53793,8.53793 -2.32793,6.71913 -5.8092499,0.63143 -4.1508796,-7.25853 -18.3725921,-6.28769 -21.5499311,-5.28594 z" fill="#252225" id="path4016-3" />
    <path clip-path="url(#clipPath372)" d="m 880.40269,707.24832 30.33557,21.07383 1.07382,-1.74497 c -9.86118,-8.68009 -16.07965,-14.67561 -29.66443,-22.01342 z M 631.65042,645.48526 c -20.69118,-0.18984 -17.65394,-2.65759 -5.78973,12.24385 -16.60989,-11.76929 -19.17256,-18.22341 5.78973,-12.24385 z m -41.47727,61.69388 c -20.1217,-33.97909 -44.79925,-62.64302 -62.26336,-71.94456 25.81651,5.31517 52.39234,42.14167 65.68025,65.87009 z M 193.46493,717.67601 C 160.94123,661.03171 57.957281,586.18731 41.081728,570.41815 c 54.461992,40.939 64.231272,43.72427 72.250262,50.94784 13.2225,11.91095 73.88971,70.50212 84.52036,94.87562 z M 17.986577,573.15437 c 24.123094,19.63164 35.877835,37.4974 45.780138,52.34333 22.654628,33.96473 15.605775,45.07948 18.917849,48.86471 9.030113,10.32014 1.073826,-11.27516 41.073826,38.38927 l 3.48993,-3.22148 C 94.819065,670.95902 88.625341,672.51093 86.475522,669.45157 c -4.922215,-7.0047 3.482712,-6.7768 -19.802269,-45.57407 -9.9808,-16.62994 -16.455825,-25.72698 -43.704147,-51.09611 z M 508.5474,676.61693 c -3.41689,-14.23705 -11.95912,-23.72841 -19.55221,-29.04357 14.80653,6.07447 21.07083,20.50135 24.29789,30.18254 z" fill="#403f4b" />
    <path d="m 1688.5299,718.25525 c 11.6317,-18.22294 34.895,-27.52827 34.895,-27.52827 l -66.1066,-20.35541 -33.7318,-1.55089 c 8.5299,-22.29402 14.1518,-27.52827 -28.3037,-59.51535 59.3215,-18.02908 94.6041,-12.98869 94.6041,-12.98869 l 250.6624,2.13247 -1.8916,139.81377 -168.7686,-20.44448 z" fill="#252225" id="path76" />
    <path clip-path="url(#clipPath234)" d="m 1811.8255,725.62197 c 6.5913,-13.47334 32.4717,-23.65105 32.4717,-23.65105 l 4.3619,2.22941 c 0,0 -26.6558,12.01938 -34.1195,22.19708 z M 1679.0307,621.71244 c 9.3053,12.89176 8.433,25.68659 7.0759,46.72052 l 4.3619,0.0969 c 1.9386,-20.84004 -0.1939,-37.89981 -7.4636,-47.01128 z m -20.5493,-0.77545 c 19.58,25.97739 16.4782,48.85299 16.4782,48.85299 l 3.4896,-0.19385 c 1.5508,-23.45719 -6.9791,-36.25203 -16.6721,-48.853 z" fill="#403f4b" />
    <path d="m 1595.2828,609.30533 c 59.3215,-18.02908 94.6041,-12.98869 94.6041,-12.98869 l -23.0694,16.09047 z" fill="#506f7a" />
    <path d="m 1688.4398,591.04913 c -58.0397,15.80656 -39.5786,32.35364 -27.3474,32.35364 50.1229,0 77.1963,3.1619 96.5834,-8.62062 l 63.8428,23.21462 39.5476,-53.11793 -35.2827,-67.46366 z" fill="#533546" />
    <path d="m 1790.4081,514.68012 c -3.3702,-19.813 0.03,-23.35072 15.4901,-19.19126 l 63.4281,8.41868 c 0,0 19.9403,-7.7568 16.4898,16.2558 h -2.6281 c 0,0 4.3132,-18.924 -12.3705,-13.50041 l -69.6839,-9.06109 c -8.8632,-4.039 -11.2905,1.86235 -8.5156,16.45655 z" fill="#7f5869" />
    <path d="m 91.812081,529.66443 c -21.996051,13.81034 -30.631008,30.01778 -33.478418,42.88788 47.775017,40.81096 79.196947,36.37979 107.984607,33.66825 25.65271,27.69706 23.22214,21.59561 96.26463,12.72865 34.56901,17.67996 31.05898,13.48795 42.08483,13.48795 16.16691,0 19.39959,5.67806 43.63138,1.54561 26.07612,26.24917 31.14477,18.83735 51.76219,21.98084 18.4485,2.8128 25.25977,8.82871 85.52467,-1.1323 76.65526,-12.67012 68.10898,-27.53204 71.00272,-30.76795 1.79862,-2.01129 22.82022,-2.92051 41.82473,4.69425 11.85085,4.74841 33.0767,5.87587 62.27121,18.11665 L 963.06421,620.9396 c 21.47538,-7.99674 29.98442,-3.95986 46.04989,2.71316 17.7861,7.38776 50.2223,8.26977 73.2694,-13.92319 25.1889,-24.25547 20.4238,-40.79306 50.8495,-16.11298 11.1008,9.00452 35.4275,11.92966 43.7339,6.821 10.6231,-6.53354 16.6417,-4.69916 32.3178,14.24888 15.367,18.5744 37.6059,23.28511 50.9793,23.28511 19.0587,0 22.6935,0.57395 22.5778,-16.65792 16.4535,19.03015 81.031,26.2222 85.6027,12.41413 9.1117,-97.19159 -384.3797,-99.67118 -362.3597,-203.69655 L 437.36215,331.32103 c 0,0 -255.88723,6.83378 -308.65923,139.33326 -27.33513,9.87102 -33.917946,44.74693 -36.890839,59.01014 z" fill="#74465e" id="path4002-6" />
    <path clip-path="url(#clipPath365)" d="M 69.141961,587.29903 C 115.58881,531.70892 137.07316,476.78413 183.89212,488.65531 194,440.5 230.75,412 254.5,409.75 c 8.75,-11.75 17.50903,-21.61881 40.25,-24.25 39.46634,-4.56635 88.75,44.75 66.75,79.75 17.5,20.75 42.75,-4 59.5,12.25 4.67471,4.53517 4.875,14.5 2.625,15.75 14.125,2 16,8.5 5.625,20 34.375,2.25 14.70077,9.625 26.375,9.625 8.09241,0 5.5,-21.125 50.5,-7.125 25.625,-31.75 51.125,-26.5 56.25,-15.375 31.41084,1.82406 30.16884,35.80924 -1.875,44.25 38.875,-0.875 57.625,15.25 38.25,37.75 12.75,4.375 15.5,8.375 11.625,19.125 7.5,4.875 12,10.75 13.875,17.75 30,-2.75 73.75,13.5 73.75,13.5 L 699,652 C 469.85863,691.97024 172.83492,641.24038 69.141961,587.29903 Z" fill="#5f3c4c" />
    <path d="m 424.2953,540.13423 c -18.92617,14.63087 -22.95302,22.49803 -22.95302,28.72483 0,10.31165 26.84564,17.71812 38.79195,-2.81879 -9.79866,26.30873 -42.28188,17.55663 -42.28188,2.81879 0,-12.95416 18.18109,-30.83551 26.44295,-28.72483 z m 57.13803,15.18619 c -9.93288,6.57718 -15.92941,15.66425 -15.92941,21.89105 0,10.5801 23.31196,11.66599 34.85559,-11.55548 -4.14072,30.43721 1.60493,40.6075 12.45109,40.6075 10.64081,0 11.82041,-8.28252 15.55106,-20.51312 7.2854,7.84642 23.16337,21.31325 37.30723,21.91682 -10.08216,6.4282 -25.30575,-5.26905 -36.21438,-16.53594 -2.58449,10.795 -6.6507,18.6555 -16.71685,18.6555 -8.70833,0 -18.25408,0.8025 -15.95938,-32.73174 -17.7307,22.63578 -34.76429,8.04459 -34.76429,0.15646 0,-12.28302 9.8152,-24.8071 19.41934,-21.89105 z" fill="#7f5869" />
    <path d="m 175.42963,534.48626 -43.62969,36.78977 c 1.49176,13.4939 43.27775,11.1865 32.15877,-12.92249 31.8726,8.22237 46.82507,-30.2107 11.47092,-23.86728 z m -4.42292,48.86944 c -2.93347,-27.03642 41.48839,-26.89528 29.66443,-2.4161 23.51364,-17.41245 63.05167,21.80281 11.67785,15.30201 33.31477,30.77559 -34.12747,32.41988 -26.71141,6.05369 -29.37728,13.42554 -50.51969,-20.40513 -14.63087,-18.9396 z" fill="#636b94" />
    <ellipse cx="334.62018" cy="526.01245" fill="#92a2bc" rx="13.578549" ry="6.820715" transform="rotate(14.374522)" />
    <path d="m 1924.5982,518.45745 c -36.2959,-12.92553 -30.5385,-0.91393 -41.2156,-0.91393 -8.8525,0 -4.3728,-22.77178 -43.7784,-30.86093 -26.4,-5.41937 -39.0352,1.79502 -52.2256,27.46634 -29.2064,-26.72647 -43.2223,-27.83449 -62.1558,-8.90094 -7.9103,7.91027 -17.0794,14.93658 -8.2165,30.31294 -23.41,-13.54481 -44.667,-3.69852 -44.667,10.69124 0,14.08891 -7.1002,10.45962 -28.8388,10.45962 -23.0192,0 -39.0377,10.44323 -39.0377,23.89266 0,27.71403 43.8685,14.10058 59.1441,-1.82785 9.9498,18.86805 13.0961,12.57334 29.6222,15.4789 22.0965,3.88493 26.22,1.08029 36.6381,-13.764 4.5829,-6.53005 21.251,-19.95566 33.2969,-19.95566 18.0933,0 3.2111,27.17298 42.1795,27.17298 29.9119,0 41.3994,-36.18327 42.3589,0.40746 l -13.6631,10.15525 c -36.562,-27.17077 -57.1051,-21.57748 -51.3302,15.50986 -7.7549,-2.40034 -19.572,-4.0621 -28.2501,-3.69283 -6.0931,21.23373 -39.8825,13.29416 -74.7796,39.1439 1.8464,4.06211 6.0931,8.86278 15.6945,7.57029 v 10.89381 h -39.8824 c -9.0474,15.87914 -49.2302,9.27067 -65.5476,31.0197 l 124.2634,-0.36928 c 4.2467,4.24674 22.1576,6.19723 27.3268,-0.36929 l 18.8335,-0.18464 c 17.9643,-10.69934 36.6389,-25.30555 53.7304,-31.20433 2.9543,4.61603 15.3252,2.58497 17.1716,-7.57028 l 59.6392,-24.92654 c -13.2942,9.04741 -37.2975,30.83505 -47.4528,55.94623 -19.1733,4.64996 -18.6881,19.89643 0.7386,20.20235 6.0058,12.16775 20.2394,21.94061 34.235,7.60197 8.8247,3.09527 24.2168,5.75866 45.6074,7.56167 l 0.1696,-30.81999 -10.314,0.13056 10.8365,-6.26692 z m -726.7879,-61.85039 c -5.1115,-5.72174 -1.5501,-29.84759 6.4542,-35.4977 5.0013,-3.53035 17.8438,-41.57218 52.3924,-39.67391 4.1799,-20.30657 11.9623,-23.7726 27.201,-23.7726 18.4222,0 40.5673,36.19665 40.5673,41.42654 0,1.36039 -7.3072,23.13245 -13.3106,34.82314 -5.9412,11.56945 -19.8707,19.57766 -26.9328,6.74904 -35.6876,-10.4405 -39.484,-2.65758 -48.7856,6.07448 -6.4683,6.07227 -12.8852,8.05138 -19.3393,7.86155 -3.9864,6.83379 -13.4764,7.34903 -18.2466,2.00946 z m -11.3625,-55.74409 c 27.2768,9.55869 26.4471,-3.81957 19.7475,-14.58413 19.773,7.27858 16.4603,-10.32619 18.1909,-12.05683 1.73,-1.73 12.0529,5.92117 19.4736,-8.62086 l 49.6236,-32.38184 c 2.5503,7.24832 39.461,11.81929 8.2682,-37.3134 -16.1219,-25.39399 -40.1296,-24.16689 -53.206,-4.17847 -21.5126,32.88383 -24.7022,12.05588 -43.0783,41.12869 -7.604,12.03033 -12.4352,18.04314 -8.0596,30.75857 -13.1187,2.96748 -14.7542,35.91863 -10.9599,37.24827 z M 507.3073,862.06335 c 74.2455,31.24498 97.85409,-9.74199 107.42503,-9.74199 9.30795,0 21.53476,29.57125 103.53503,-9.30137 11.84476,4.4537 41.66877,17.60433 57.67372,17.60433 13.07852,0 21.98889,-6.14367 26.70285,-6.14367 8.92432,0 58.06287,19.15845 72.82602,-1.36682 9.60464,-13.35336 52.82514,-15.51749 54.17947,-19.58045 1.19779,-3.5934 -12.23998,-12.01637 -12.23998,-12.01637 49.54967,7.3865 62.24677,9.16719 56.95803,-5.91557 16.77011,-2.45962 122.55313,28.09593 157.88653,-14.73137 42.6487,10.55309 53.454,-4.07819 110.3395,-1.45013 8.6371,0.39902 50.8655,-16.90498 50.8655,-25.75072 0,-3.70507 -12.5133,-10.36734 -16.9767,-12.04884 42.3099,-10.16287 70.6381,-17.58667 169.7626,-20.83218 -4.3432,-15.78694 -5.3769,-14.44197 35.5729,-12.24179 72.2434,3.88154 81.949,2.6991 80.9047,-5.21775 -3.4621,-26.24538 -75.7196,-11.50445 -114.121,-32.84854 -7.1495,-3.97383 -7.9607,-11.46069 -45.2734,-11.46069 -25.701,0 -25.0299,0.0753 -32.7525,6.33759 -46.4684,-26.89462 -107.0662,13.1937 -123.6646,-15.55563 -9.6676,-16.74471 -53.0099,-16.21986 -60.8995,-7.43583 -10.016,-21.52818 -108.3274,-24.0591 -114.5036,9.51839 -4.5953,24.98328 -5.493,28.12886 -58.5616,27.75724 l 12.8725,8.22173 c -57.21341,-0.81767 -83.24693,13.90578 -146.72627,18.91897 -44.28789,3.49758 -46.34771,4.80177 -65.32823,8.57903 -50.15097,9.9804 -121.17213,3.26699 -220.79087,-0.28635 -60.3304,-2.15194 -128.87255,2.41192 -191.39994,8.46699 z" fill="#bbdae0" id="path6512-9" />
    <path clip-path="url(#clipPath257)" d="m 1926.1668,573.66805 c -24.1348,4.40841 -51.5202,21.82866 -59.8152,50.26859 l -54.9788,26.15402 c -4.5066,2.14384 -17.2482,-3.52528 -40.1113,16.12878 -24.4268,20.99831 -53.7122,12.94308 -93.5913,12.94308 -21.5437,0 -31.54,3.14686 -59.1061,1.99393 26.8736,-16.85508 54.0298,-20.23876 73.671,-19.18375 14.7713,-5.53923 13.8481,-15.14057 -3.1389,-26.21903 -245.2164,97.74503 22.5441,92.55553 143.4996,49.8048 18.0613,-19.15439 73.269,-69.00747 95.6106,-81.56307 z m -83.4598,111.43613 c 31.6199,6.48623 -4.9827,20.9863 84.3723,22.0138 l -0.7834,-13.3172 c -29.2904,2.79585 -42.8688,-4.00644 1.1211,-22.99729 55.9542,103.0091 -162.5627,66.6173 -84.71,14.30069 z m 4.0378,-97.23229 c 7.6785,-4.62726 25.474,-15.57041 25.474,-19.12189 0,-3.57802 -5.8765,-4.91115 -7.1876,-13 -2.9381,-18.12746 -37.5821,-18.76164 -49.9374,-6.40625 -28.0107,28.01065 -14.059,-11.28125 -53.625,-11.28125 -33.3236,0 -57.4359,26.25 -65.3438,26.25 -4.6508,0 -0.6742,-17.5903 -25.8355,-17.09478 -143.4063,1.5196 -99.5344,150.56825 -7.6559,39.59944 19.7615,15.85313 61.0699,21.03923 99.0329,-21.83467 14.3566,26.36922 41.0284,30.9186 85.0783,22.8894 z M 1191.7359,453.56983 c 14.9964,-19.74204 19.9319,-24.86738 42.5213,-22.77928 7.5931,-38.1553 84.0936,-29.23341 98.1407,-26.00634 -35.4699,69.70602 -43.1025,34.40651 -78.7453,34.21366 -30.3279,22.21459 -51.6622,28.64114 -61.9167,14.57196 z m 0.076,-45.24768 c 9.1275,-46.57719 33.6801,-43.49792 41.3422,-57.44967 8.9934,-16.37584 21.3423,-14.4967 29.7987,-21.74497 6.135,-5.25858 5.1007,-31.54362 48.0537,-23.3557 14.4824,55.6484 5.853,10.96892 -58.0484,57.23091 -50.1497,32.49944 -32.1853,42.21249 -61.1462,45.31943 z M 419.5535,776.83157 c 119.63466,-40.92105 146.75415,-38.29669 161.59164,-15.77983 21.29971,32.32371 -17.83014,28.24347 -3.98959,47.96669 4.39485,6.2628 49.85591,1.17308 59.43607,1.17308 4.66957,0 25.44077,13.2535 56.11873,13.2535 13.43615,0 16.84865,0.0446 18.17636,-3.0868 2.17461,-5.12888 27.65192,-5.5319 58.66349,1.10596 32.96977,7.057 53.91156,8.02294 57.66698,-3.06109 2.47383,-7.30145 -11.92632,-12.70837 -18.9648,-10.1667 -0.12982,-18.1852 27.37187,-18.18275 50.24694,-16.42313 -5.08334,-29.32701 -12.82906,-31.79583 49.66041,-28.93598 -6.61694,-45.88911 4.61608,-46.78744 54.62653,-41.0133 30.87117,3.56434 36.42612,35.10434 45.49884,35.10434 8.8797,0 33.8888,-14.77719 58.1709,3.44541 34.6493,26.00271 17.014,-6.64854 73.0241,11.08194 26.0462,8.24515 65.6148,6.99244 62.1789,-31.06838 86.0795,1.8545 22.1687,-37.16968 76.0785,-35.52012 62.529,1.91329 16.9412,12.71543 23.2987,21.27642 9.6832,13.03933 32.7791,-0.82914 48.0943,4.22846 21.7627,7.18677 20.8228,-19.23831 45.0112,-5.27312 22.8529,13.19415 38.9658,-19.02603 68.7564,-12.54064 73.3677,15.97212 91.8863,3.98312 105.2348,-8.06012 22.392,41.38433 -77.7243,74.51765 -567.4927,141.43317 -468.12569,63.95853 -527.78196,53.33057 -581.0867,-69.13976 z" fill="#9cccd8" />
    <path d="m 1834.0394,598.27153 c -36.562,-27.17077 -57.1051,-21.57748 -51.3302,15.50986" fill="#bbdae0" />
    <path d="m 1050.7385,419.99999 7.651,-6.7114 c 0.4027,22.28188 43.8926,28.06124 43.8926,-10.33557 0,-10.87173 -7.4339,-21.86821 -19.1803,-33.6146 -16.8381,-16.83804 -30.7171,-32.82929 -57.3298,1.93675 -1.7824,-1.35919 -4.243,-2.585 -7.2787,-3.67431 -35.3375,-12.68034 -148.60021,-6.86115 -177.11825,22.43368 -10.95277,-40.87629 -13.55509,-43.61539 -38.51971,-43.61539 -27.43699,0 -19.49367,6.51696 -45.9845,6.22133 -29.34133,-91.64883 -32.13465,-92.67315 -103.90842,-128.82091 -62.66094,-31.55823 -120.58182,-71.18652 -156.04947,65.84486 -26.45702,2.8129 -32.99886,-8.70712 -58.78235,0.82102 -19.29758,7.13132 -20.89616,9.73552 -19.33846,32.73602 -52.08053,-38.1208 -62.47801,-40.04329 -68.18792,-18.25503 -24.16106,-5.36912 -55.57046,-1.61074 -55.57046,-1.61074 -31.14094,-12.34899 -101.23209,-21.28441 -135.83893,48.85907 -9.23548,18.71911 -12.08053,78.38926 -46.1746,98.65772 -1e-4,11.40939 11.81198,28.59059 24.42943,31.0067 13.69128,-18.52349 32.21477,-42.68455 32.48323,-61.47651 l 6.17449,0.26846 c -0.83842,11.81208 6.15353,27.38255 27.1141,27.38255 23.35066,0 25.66773,-14.4708 19.0604,-51.54363 31.67785,2.14765 35.97315,-7.24831 46.44295,-7.24831 11.54363,0 20.9396,26.04026 41.07383,-2.68457 14.49664,18.79195 27.65101,24.96644 39.73154,3.22148 l 15.83893,21.47651 c -6.62694,9.1064 -5.44129,28.99329 9.93288,28.99329 4.06809,0 13.30202,7.51678 23.50336,1.07383 11.81208,43.75838 41.73154,37.58388 47.63758,16.37583 l 7.78524,14.22818 c -17.18364,12.61624 -18.72216,37.21611 13.15436,29.79866 12.61745,31.67786 34.63088,34.09396 51.00671,-5.63757 -10.20134,-25.23491 -27.22529,-52.08054 -35.54744,-57.71812 80.22623,-15.43557 44.79079,-63.89263 83.98079,-63.89263 22.28188,0 7.94249,8.32215 27.00289,21.74497 -29.77046,47.68841 56.09978,77.88733 103.73933,74.77732 7.10368,-0.46374 22.09111,-10.48171 29.51275,-18.17119 l 68.40472,-9.469 16.89926,13.36728 c 28.76414,-18.68296 53.34281,-27.60915 94.77859,17.23675 l -0.1652,13.37633 c -25.70551,-4.47159 -208.76363,-28.2417 -180.1787,53.6425 89.93809,-27.09038 99.67716,2.23186 118.24894,2.23186 11.61062,0 22.73967,-8.64129 42.80287,-8.64129 68.83483,0 20.97006,47.1346 77.15643,47.1346 22.23053,0 36.44151,-9.63255 38.62511,-31.70558 43.4295,9.41073 63.3361,-7.08257 74.1899,-22.1963 13.042,9.67509 19.95,44.04957 54.3165,44.04957 14.0825,0 16.762,-1.909 18.9569,-7.04673 6.0745,4.55585 14.7822,7.38418 21.4505,7.38418 18.4103,0 2.1785,12.93585 49.9246,15.94549 45.2593,2.85289 17.6237,12.14895 48.9755,12.14895 16.5157,0 20.8809,-3.22706 23.9181,-19.74204 6.4542,12.52861 21.2608,41.38235 36.8266,35.49771 2.0183,23.52596 16.4327,17.90176 41.3823,24.67756 0,0 19.1726,-32.71701 19.1726,-45.74839 0,-25.25708 -38.1554,-23.72841 -51.2534,-39.48409 73.0835,5.505 73.5811,-88.35812 59.2957,-91.34603 22.5447,-12.3592 31.7485,-99.24232 25.0451,-103.81399 1.6488,-9.12751 20.652,-22.47401 21.0968,-46.45644 64.6789,9.6151 81.2311,-16.55218 81.2311,-16.55218 29.8129,2.97041 52.7477,-31.36334 58.7784,-31.36334 21.6674,0 64.1299,28.73929 99.2638,0.28195 27.604,18.29224 71.3005,46.84169 84.74,44.28182 -2.7822,19.40517 28.0498,17.65298 25.7067,2.37005 -2.4579,-16.0317 -9.8105,-21.50349 -16.0748,-24.3509 0,0 -12.9724,-27.87572 -30.2895,-37.86584 -62.5579,-88.01523 -148.6044,-64.88521 -169.4421,-51.98842 -15.302,-16.37585 -75.3576,-17.76418 -89.5857,34.31635 -12.459,-9.10402 -50.3599,23.37199 -79.5163,61.22515 -5.2541,6.82134 -26.3662,58.02244 -27.4676,70.06583 -3.9812,6.44326 -3.4864,12.05107 0.092,14.52944 -0.029,10.2613 5.1145,10.36955 5.1145,10.36955 -5.3151,34.16892 -13.8295,41.64003 -11.6223,66.13797 -26.1943,9.95756 -56.1589,40.7728 -64.18,40.7728 -7.8313,0 -51.7986,-44.63448 -77.8469,27.41512 -61.6155,30.54448 -74.5108,-32.20359 -117.4917,-43.4248 31.033,-28.87977 25.6106,-6.69791 38.7555,-6.69791 10.9721,0 20.8744,-21.6012 20.8744,-21.6012 20.5477,2.91093 20.6633,-18.63186 20.6633,-31.00971 0,-37.42351 -34.2974,-49.11035 -47.9211,-12.48022 -15.744,-11.24468 -16.9952,-8.50599 -51.3539,33.8255 0,0 -3.4708,-21.82919 -37.2693,-7.67404 -3.7449,-3.07375 -12.0155,-6.47552 -12.0155,-6.47552 z M 430.63957,699.58598 c 7.97275,-17.27428 21.90877,-26.76565 39.94236,-24.86738 37.20617,-18.98273 119.59122,24.63785 119.59122,48.59579 0,32.65426 -27.90461,29.04359 -32.84013,3.98638 -4.58011,20.01889 -42.70742,15.98871 -130.40985,11.6243 -70.75747,9.44557 -184.17446,20.64311 -188.87971,20.26669 6.68264,-34.69666 35.27012,-66.44319 63.43017,-66.44319 29.18989,0 54.24709,9.86269 56.42887,27.23567 l 23.92351,18.61868 c 9.1913,-25.05066 20.4204,-34.78677 48.81356,-39.01694 z m 83.6622,-97.14547 c -28.26925,0 -19.52755,-71.95804 10.38095,-71.95804 28.56622,0 69.34653,52.83489 69.34653,62.17451 0,32.25351 -51.10349,25.03211 -35.55726,-0.89286 3.43471,-5.72775 12.40819,-10.75331 -19.56571,-21.46397 0,0 -0.33359,32.14036 -24.60451,32.14036 z m -97.90906,55.93665 c -8.07146,0 -27.8391,-22.77645 -41.00118,-22.77645 -10.46745,0 -47.16312,-7.48294 -38.12884,-32.92947 -32.37126,-12.25741 6.39531,-34.86162 6.39531,-48.31538 0,-15.24623 0.0221,-17.50643 -29.64152,-16.72306 -2.11839,22.33613 5.47587,19.30102 5.47587,28.93071 0,11.45986 -8.03461,17.24811 -19.41898,17.24811 -11.03366,20.07563 -40.18071,11.90663 -59.04034,-3.86435 -27.8568,31.16947 -28.51807,-35.36916 -69.45445,-35.36916 -4.63505,0 -8.65795,2.91595 -12.17179,6.9027 8.65318,9.40677 7.25631,18.25635 3.25884,22.25382 -7.40207,7.40206 -36.28064,2.14976 -54.88007,-9.38681 -17.994346,30.36305 -31.229643,-1.53956 -31.229643,-25.25063 0,-17.1268 21.941818,-56.0516 54.712603,-56.0516 15.891,0 34.61596,17.16751 49.95045,4.70817 7.7234,-6.27529 44.86899,-11.62735 55.599,-6.77409 4.20738,-2.60353 5.52067,-24.2907 -1.08929,-27.58799 15.1879,-37.21412 82.86114,-51.30348 112.3658,-21.79881 26.29524,26.29523 32.98469,78.97418 6.3715,78.97418 -10.05051,0 -14.9428,-17.81515 -14.9428,-17.81515 -20.79554,19.69893 -29.75899,15.14943 -53.44542,6.29636 14.74186,8.90757 5.04323,17.3377 5.04323,17.3377 18.93739,4.04635 28.87609,-16.88338 60.67361,-2.93252 31.14982,13.66669 19.19808,72.29737 3.58148,83.52561 18.92978,2.1005 66.06472,31.9475 73.7982,39.68098 8.67843,8.67843 3.60136,21.71713 -12.78157,21.71713 z" fill="#bbdae0" id="path3893-3" />
    <path clip-path="url(#clipPath307)" d="m 123.85916,433.40226 c 32.62304,10.87966 12.65165,-33.35443 57.61576,-33.10443 -0.50931,-6.83378 4.82448,-8.98205 10.38964,-7.97274 4.14827,-27.15894 39.51201,-54.78131 62.48544,-52.64234 23.19684,-36.08514 76.12439,-24.98341 98.51538,-5.20413 -36.98543,-13.50068 -81.72622,-3.91284 -83.12449,18.60645 -29.87338,-2.66251 -39.97746,7.16802 -42.70741,18.47936 14.99636,-4.93552 13.97698,6.85103 39.67391,-0.56949 20.56436,-5.93837 23.11801,1.32879 29.80289,1.32879 5.56717,0 11.87974,-9.44159 21.07084,0.56949 13.16044,14.33454 20.88812,-2.0881 30.56219,-2.0881 11.95913,0 26.66795,11.80976 26.47812,27.94508 7.5717,4.5098 12.00518,15.36975 11.19981,21.94693 26.86404,3.04514 30.03483,26.03892 38.99323,26.03892 7.47723,0 5.66365,-10.60832 15.98084,-10.60832 13.9128,0 41.2282,31.28657 27.62944,50.87473 15.72705,0.94751 18.44581,6.1032 18.44581,12.00683 0,5.28716 10.76124,12.50637 21.31053,18.66323 27.48781,-23.13813 0.007,-52.99158 -22.27505,-78.20943 0,0 -30.87248,-37.5839 -48.85906,-48.85906 10.62147,2.4296 23.04119,12.00191 23.04119,12.00191 18.8222,-25.92117 44.87334,-2.69716 49.09495,-12.44671 6.06264,-14.00133 -25.16871,-21.6073 -6.15079,-30.44908 43.02929,-20.00512 46.69401,-22.42847 58.78963,-2.91024 11.04034,17.81537 6.06041,-8.79011 25.83926,9.06238 18.11806,16.35344 42.09138,1.13107 42.09138,-3.43269 0,-4.56376 -24.33734,-14.2478 -18.33366,-36.65384 10.62564,-39.65545 42.76814,-21.49935 44.9862,-18.06289 4.72906,7.3268 11.86749,14.44891 27.32128,14.44891 18.19279,0 25.77122,4.86892 25.77122,17.76913 0,30.88093 -22.88822,20.62644 -16.09457,54.58195 16.39654,-10.75142 24.10518,-11.18912 70.42067,1.00847 0,0 -13.59301,1.3752 -15.2691,18.87705 11.93619,0.42548 14.33304,11.01988 23.36887,11.01988 15.35906,0 63.36173,-34.56423 105.03958,2.39885 22.88758,-11.37751 76.99161,13.20135 90.22986,38.16779 -41.65771,-5.44463 -43.66568,42.23993 -64.47651,42.23993 -5.80897,0 -67.7802,-13.13239 -67.7802,4.16611 0,8.31561 36.42651,19.47295 64.52853,9.53523 23.57351,-8.3363 19.94603,2.05436 53.80068,2.05436 31.79577,0 35.41926,-3.98991 35.19093,-24.92013 39.11242,-8.3406 45.16732,-28.47483 45.16732,-28.47483 10.253,11.31371 21.6377,11.50013 27.329,15.78545 14.7523,11.10796 29.6442,45.57514 55.8583,30.44042 27.5089,-15.8823 17.9113,33.18985 55.2094,33.18985 6.6165,0 51.0246,23.76408 68.9506,7.8258 11.627,-10.3377 0.366,5.23077 24.2705,5.23077 25.0572,0 23.6664,-18.27682 35.4296,7.14348 6.0002,12.96648 27.0948,9.96532 34.1659,5.54591 16.8469,35.489 19.8905,41.26634 56.866,35.25546 C 1408.5,581.75 1370.625,561.875 1345.125,556.875 c -5.875,-2.625 -10.625,-7.75 -12.125,-13.5 30.2314,-11.50589 40.1907,-14.58361 49.8306,-40.58337 12.9749,-34.99442 -2.8302,-19.13785 1.5771,-35.58587 7.2031,-26.88254 19.005,-24.4116 28.3423,-77.95576 1.8948,-10.86564 -1,-19.25 -1,-27.5 0,-4.25 18.25,-49.625 26.125,-59.5 13.2312,-16.59149 29.5761,-2.82173 64.5,-8.125 11.0394,-1.67635 15.1469,-9.49531 20.722,-10.98916 12.0977,-3.24156 11.0906,-6.65613 14.3136,-9.58379 19.5198,-17.73101 23.6283,-15.55618 32.7144,-20.80205 10.179,-5.87688 10.3724,-10.25 23.75,-10.25 25.7755,0 52.0895,20.16053 68,4.25 8.9663,-8.96628 21.143,-7.27282 38.8689,4.53923 36.4359,24.28001 40.7795,15.62723 54.1311,23.33577 12.7444,7.35801 2.3083,15.74042 24.625,28.625 9.6184,5.55322 9.5163,12.96639 7.0416,23.38488 -258.6749,-71.13835 -158.4091,-3.8237 -334.87,-5.70595 -34.1111,216.26252 -49.4082,229.30782 -86.5059,236.71962 C 1453.411,601.25016 1378.2492,709.69708 1296,592 1294.7342,622.40731 1073.7005,583.89895 1078.5,537 988,594 936,604.5 912,546 764.30744,568.67216 607.02204,538.415 789.29337,471.40541 653.60679,487.88777 587.68381,459.65698 553.47973,384.33787 536.03836,542.39491 491.5,530 491.5,530 433,521.5 353.41146,376.82321 230.18666,402.91684 c 6.08541,67.9073 -37.57188,53.34855 -58.49427,30.05372 -32.8864,99.92634 -88.83323,34.4317 -47.83323,0.4317 z m 996.76024,46.74397 c -12.0955,-3.18559 -22.3745,-0.81415 -22.3745,-3.92242 0,-5.67145 8.3181,-8.6426 15.6945,-17.35626 7.6988,-9.09466 10.5701,-19.59434 27.7146,-19.59434 18.8371,0 18.7122,4.27302 23.0934,-0.10817 5.3659,-5.36596 5.1697,1.26748 12.8931,-12.10982 4.2659,-7.38874 10.2476,-9.66691 22.9785,-7.57628 -2.8917,77.14818 -69.4391,46.75413 -79.9996,60.66729 z m -18.1613,-85.26053 c -23.6678,31.48825 -25.8813,-11.07642 -53.7081,2.1143 1.8942,5.08586 3.1093,14.6424 2.9652,24.11074 14.8462,14.96008 59.0644,23.4175 50.7429,-26.22504 z M 255.69741,714.58234 c 33.97908,21.26066 22.20979,-28.09445 70.42593,5.69482 0,0 36.63667,45.1789 104.78468,8.16258 55.61941,-24.48773 57.63862,-8.16257 84.28334,-8.16257 18.49294,0 22.63753,-13.06151 32.23876,-13.06151 20.744,0 35.33472,22.69487 34.01098,40.39664 -34.70632,4.05142 -137.14075,-8.42875 -183.84733,-1.4475 -184.46108,27.57146 -183.05873,25.86393 -141.89636,-31.58246 z M 506.0833,538.69354 c 4.349,6.87503 8.91822,16.05688 10.96027,24.32802 15.92997,-22.97365 55.17762,-6.6617 55.7441,24.23277 9.47158,5.57688 19.71524,9.4052 11.025,27.20328 -96.74302,15.93576 -100.18035,-39.45718 -77.72937,-75.76407 z M 82.253385,507.2292 c 9.687805,49.56234 12.606603,31.20406 26.503865,31.20406 12.53385,0 13.38165,5.44566 18.80078,4.43908 8.16481,-1.51659 9.43841,2.6257 12.40329,0.91392 4.74973,-2.74226 -10.18369,-21.28143 18.80077,-21.28143 33.16367,0 55.89148,21.21222 68.41393,37.86267 19.06189,-8.3559 24.28099,12.01161 40.99613,12.01161 14.12725,0 16.70242,-6.26693 20.88975,-6.26693 9.34692,0 10.24167,-9.28722 8.67494,-22.65529 -2.79561,-23.85342 44.09174,-27.69485 55.03879,-0.32343 9.34529,23.36646 -8.48647,43.07774 -8.48647,51.83269 0,8.51841 3.30192,5.70686 6.42757,8.83251 2.00423,2.00422 -0.0772,4.64157 1.67499,5.37042 26.10391,10.85817 59.78913,28.62106 76.76205,49.64137 C 404.79445,674.69831 277.63338,587.00708 241.33354,593.66919 102.73853,619.10551 46.853879,578.4332 82.253385,507.2292 Z m 220.492365,1.60682 c 0,0 -29.13185,-18.51926 -26.51763,-25.04506 4.4859,-11.19797 30.45584,2.77436 38.77817,2.77436 10.42506,0 36.36408,-30.40832 56.86543,27.55942 -17.57984,1.77997 -27.44489,-11.30834 -69.12597,-5.28872 z" fill="#9cccd8" />
    <path d="m 1099.3751,442.14765 c 0,0 -3.4708,-21.82919 -37.2693,-7.67404" fill="#bbdae0" />
    <path d="m 730.30375,707.08192 c 19.31057,-4.75768 52.33446,-10.77475 76.40273,-12.87372 -36.10239,-16.79182 -63.10084,-20.43004 -73.6041,-20.43004 -16.09278,0 0.17243,16.90282 -35.96245,17.07167 -29.94681,0.13993 -38.62117,-20.01023 -52.61434,10.49489 27.98634,0 66.18771,1.81911 85.77816,5.7372 z m -143.48646,17.37827 c -7.15011,-15.0238 25.36434,-77.37171 60.67706,-98.41643 7.01413,-13.63337 11.74096,-16.67897 18.27366,-16.67897 13.17323,0 29.27684,-15.14936 29.27684,-18.98778 0,-3.64225 -11.78341,-29.48726 -21.83409,-29.48726 -7.15662,0 -7.43677,7.97372 -22.39159,7.97372 -19.40398,0 -17.53756,-19.33035 -31.14083,-29.13767 -8.89719,-6.41444 -11.94017,-18.03048 -20.68122,-27.81692 31.96114,2.93557 42.98291,-13.64881 38.98681,-22.46226 -5.05055,-11.13905 -30.54305,18.22929 -63.4058,-19.62518 -1.38016,3.98261 -4.64562,6.47819 -15.27716,6.47819 -31.41057,0 -46.05046,-28.95778 -56.89142,-38.6594 8.23681,-17.61305 36.4262,-21.03042 60.68318,-21.03042 41.82171,0 57.10186,8.89117 92.19292,36.18805 23.59757,18.35625 42.46951,40.28325 44.9758,61.44773 0.51756,4.37059 -4.99578,27.57983 -8.55786,34.90188 l 43.02188,0.11004 c 13.69047,-44.90111 78.60139,-46.51677 92.22871,5.64517 l 58.89109,43.29875 c 15.57941,-12.83415 58.9075,-36.59334 52.30934,15.40745 6.95658,-2.01401 19.51791,-3.67444 28.39731,-3.46954 5.32741,21.52695 42.37038,13.9856 73.89748,39.06582 -1.2569,6.19566 -7.3463,7.85239 -14.7627,8.05729 l -0.5223,10.26746 40.5676,0.17742 c 6.073,16.94854 51.0777,8.64011 62.7714,30.76552 l -121.5522,-0.49413 c -7.70313,6.26693 -22.91348,5.48356 -27.09143,0.26113 h -19.19246 c -42.30174,-27.02611 -49.48259,-30.15958 -53.7911,-31.72631 -6.91972,6.26692 -16.45068,0.13056 -17.3646,-7.05029 l -60.05803,-25.32882 c 28.98453,20.75919 42.69342,43.47679 47.52418,56.1412 14.51055,1.5328 22.64675,17.95411 -1.55424,20.59694 -4.39427,13.33962 -23.33267,19.30605 -32.82809,7.33381 -22.83199,4.41691 -50.57617,9.41659 -77.32375,13.27242 -4.96131,21.82608 -69.86434,21.288 -99.73271,21.65728 -28.66594,-15.15051 -29.21175,-15.46683 -45.63568,-15.46683 -8.89949,0 -27.80617,-2.11508 -33.086,-13.20906 z" fill="#bbdae0" id="path4633-6" />
    <path clip-path="url(#clipPath264)" d="m 1029.25,636.75 c -22.25,14.75 -1.75,26.75 -1.75,26.75 0,0 76,1 82.2546,19.62772 -41.7521,-1.56592 -56.0262,-3.66463 -67.0701,-3.66463 -25.2428,0 -51.17054,4.10512 -76.51,-2.68457 -11.63961,-3.11882 -21.89285,-21.06509 -46.29455,-24.69323 -15.1322,-2.24992 -48.2139,-18.99481 -66.18867,-28.19267 -10.4698,-28.9933 -30.33558,-49.66444 -79.19464,-52.61745 -14.7651,-17.44967 -30.57224,-11.55059 -30.87247,-1.34229 0,0 12.61744,3.22148 16.64429,25.77181 20.13423,-8.05369 35.7047,7.78524 76.24161,42.95303 13.66569,8.43136 32.72817,28.64406 45.18163,46.64456 -17.11217,-2.03681 -15.40953,9.35166 -29.24958,15.49619 -8.7821,3.89897 -54.32603,5.45531 -79.09936,9.22783 -6.41647,0.97711 -14.36924,9.6307 -22.4351,9.95334 -11.24289,0.44972 -9.77437,7.25378 -26.84118,6.47081 -30.49264,-1.39889 -30.78839,4.7378 -47.14463,2.71668 -12.01183,-19.88197 -62.47747,-2.73897 -71.67318,-19.72044 -1.58315,-14.10085 -3.00235,-20.33399 -13.05172,-20.19818 -33.56765,59.74887 25.9094,75.43785 153.80269,60.21019 C 858.98489,736.00608 913.32753,723.88392 889.75,675.75 c 69.25,48 242.75,24 242.75,24 -28.9797,-37.71159 -78.4296,-39.86478 -103.25,-63 z m -383.69275,63.90742 c -5.25775,-7.15129 3.43287,-35.18908 31.59544,-35.18908 24.37466,0 22.26846,8.63488 34.80383,-5.80592 13.92942,-16.04675 33.32634,-14.10905 68.91401,4.28828 30.40149,15.71629 40.21496,20.64108 40.21496,26.29551 0,7.22214 -28.84001,3.44616 -28.84001,3.44616 z" fill="#9cccd8" />
    <path d="m 843.98577,991.95996 c 0,24.72754 -82.22494,22.48464 -131.26093,22.48464 -96.00877,0 -132.04305,-13.9281 -132.04305,-32.58532 0,-17.39119 17.73253,-34.66226 70.90976,-49.28918 42.44197,-11.67408 113.87251,-13.00193 148.96131,0.70518 42.70703,16.6831 43.43291,38.69722 43.43291,58.68468 z M 1402.824,957.37155 c -31.891,-12.90826 -87.3206,-33.40961 -148.0654,-77.06989 -2.5654,-59.27993 228.2723,-67.44041 228.2723,6.65321 0,40.02527 -43.7648,75.67405 -80.2069,70.41668 z M -24.12331,721.11569 c 167.7877,-25.3605 207.3371,-17.19598 242.49915,2.37424 41.54632,1.12508 92.18896,-10.18201 139.92924,-10.18201 60.63212,0 95.7963,18.12093 111.75443,28.33247 34.28763,6.45804 60.77274,16.36623 81.92523,26.57381 25.64072,12.37346 41.28916,29.39599 41.28916,42.25645 0,18.77356 -67.66303,102.60648 -175.4686,120.35449 -69.06284,20.7054 -274.0221,48.64281 -296.64819,62.4068 44.13863,1.84366 70.01554,-2.84363 114.0072,-2.84363 29.1235,0 108.94092,14.70319 207.65734,34.71109 161.11945,32.6557 276.27819,46.8469 344.82936,46.8469 37.14454,0 131.54362,-44.8322 214.49659,-78.1208 -13.90123,-24.1028 -22.84183,-33.79624 4.9404,-44.56736 35.9893,-13.95303 212.2158,-11.42403 333.408,11.86603 8.2851,1.59218 30.3451,9.31529 81.6546,23.06364 32.389,8.6786 107.9605,34.95219 146.7085,112.99339 l 8.6618,0.021 c 6.4355,-107.72371 157.5127,-96.1284 196.9758,-94.5177 59.566,-11.9021 183.4925,-21.63772 135.302,95.8389 22.5503,-0.5369 26.3087,-19.0604 33.8255,-114.63088 -34.094,-2.68457 -49.933,-46.97987 -39.4631,-68.72484 -293.7295,-80.49875 -421.745,-54.11965 -421.745,-134.49664 0,-40.21515 79.3022,-75.59782 189.6965,-75.59782 191.3952,0 20.6305,27.99464 257.9072,19.40949 0,0 53.5196,379.95439 6.9782,388.16759 -51.633,9.1117 -1921.811814,-3.7966 -1953.702805,-9.1118 -27.427273,-4.5712 -7.418505,-382.42281 -7.418505,-382.42281 z" fill="#d4e3e8" id="path3971-4" />
    <path clip-path="url(#clipPath166)" d="m 68.752536,1124.3845 1901.573264,5.2218 V 818.04413 c -152.2999,-40.46826 -387.2769,-57.00368 -476.9163,15.66514 0,0 70.4931,68.75254 -16.5354,97.47195 -16.9706,-69.62282 -121.4048,-77.89053 -150.9945,-0.43514 l -494.32202,6.52714 c -102.69367,-8.70285 -232.36617,-1e-5 -239.32846,80.50138 -134.45907,0 136.18905,-257.25677 -38.73299,-257.25677 -115.5884,32.82157 -221.74866,64.72021 -312.77152,68.7975 -83.87168,3.75695 -149.779799,1.67579 -149.779799,77.06276 0,66.15678 38.727689,72.23367 75.714819,81.80681 0,0 80.50139,-31.76541 572.21256,65.7065 l 252.38273,-114.87761 335.05978,-4.35143 158.392,60.91997 c 218.6779,-58.96695 446.3702,6.87917 446.3702,6.87917 l -4.9668,101.4329 c -37.4223,-31.3303 -134.2232,-91.4992 -206.8439,-12.8175 l -433.8549,-1.9389 c -17.8408,-27.414 -57.874,-0.4352 -57.874,-0.4352 l -51.9572,10e-5 c -38.2581,-22.562 -41.4407,-30.7462 -123.452,0.9257 l -750.68231,4.7983 c -36.44684,-45.1789 -167.80736,-22.7793 -193.24422,-1.139 z" fill="#bbdae0" />
  </g>
  <g transform="translate(860.27126-120.31229)scale(-1 1)">
    <g opacity=".45">
      <path d="m 469.24644,157.52856 c 24.18608,-28.88892 58.78561,-27.93208 80.62025,2.30051 -13.10079,15.78815 -27.395,22.40276 -50.57332,21.395 z" fill="#3ca3b4" stroke="#e7f5f7" stroke-width="6" />
      <path d="m 504.39059,154.15388 c 185.61747,-67.178571 211.52743,48.65153 378.14262,45.96418 -19.48323,22.84241 -45.51657,16.56753 -49.88639,38.58923 -6.43563,32.43234 27.51424,58.71329 77.23005,57.36962 -55.56556,40.66992 -110.8103,5.42518 -162.46012,39.60729 46.53942,3.4127 73.64188,26.44464 84.63576,65.05949 -79.23462,-37.08021 -177.62887,-38.28555 -280.47563,-7.20412 z" fill="#5db9ca" />
      <path d="m 754.16627,232.87886 c -106.51129,31.4315 45.18685,51.19654 42.96485,86.63279 -16.85931,1.53628 -33.46475,5.41847 -49.71437,16.17255 46.53942,3.4127 73.64188,26.44464 84.63576,65.05949 -79.23462,-37.08021 -177.62887,-38.28555 -280.47563,-7.20412 l -40.74015,-206.6831 c 144.78446,-49.61963 307.63725,27.04518 243.32954,46.02239 z" fill="#3ca3b4" />
      <path d="m 504.39059,154.15388 c 185.61747,-67.178571 211.52743,48.65153 378.14262,45.96418 -19.48323,22.84241 -45.51657,16.56753 -49.88639,38.58923 -6.43563,32.43234 27.51424,58.71329 77.23005,57.36962 -55.56556,40.66992 -110.8103,5.42518 -162.46012,39.60729 46.53942,3.4127 73.64188,26.44464 84.63576,65.05949 -79.23462,-37.08021 -177.62887,-38.28555 -280.47563,-7.20412 z" fill="none" stroke="#e7f5f7" stroke-width="6" />
      <path d="m 370.95394,352.69342 c -16.76684,-17.1865 -23.27065,-32.00071 -26.41745,-55.16617 37.13571,-16.2921 50.93507,-32.93424 60.76517,-85.47499 18.94938,-101.2823 175.54956,-87.06964 168.57008,38.77909 -7.44676,134.27428 0.82753,245.93536 48.55581,337.11639 L 498.47965,620.2788 C 382.52222,542.22244 487.41221,424.65204 461.43709,338.83724 c -28.49419,-0.2421 -60.87085,-4.1006 -90.48315,13.85618 z" fill="#3ca3b4" />
      <path fill="#e7f5f7" inkscape:original-d="m 531.01276,296.65174 c -25.52974,75.24556 -98.72399,18.84849 -160.05882,56.04168 -16.76684,-17.1865 -23.27065,-32.00071 -26.41745,-55.16617 37.13571,-16.2921 50.93507,-32.93424 60.76517,-85.47499 18.94938,-101.2823 175.54956,-87.06964 168.57008,38.77909 -7.44676,134.27428 0.82753,245.93536 48.55581,337.11639 L 498.47965,620.2788 C 382.52222,542.22244 487.41221,424.65204 461.48891,338.7526" inkscape:path-effect="#path-effect4349" />
      <path d="m 347.16067,301.227 c 1.096,2.3885 2.92868,2.56658 4.89933,0.60849 -1.21889,4.87794 -5.09173,4.34047 -4.89933,-0.60849 z m 9.70483,35.75737 c 19.36181,-1.73723 27.32543,-5.21867 37.90683,-16.30395 -6.71835,12.93283 -18.59156,18.35046 -34.21174,21.37372 z m 7.65495,-33.93599 c 2.07139,2.37355 4.33389,2.22051 5.83955,-0.31554 -0.0787,5.43705 -4.7016,5.81423 -5.83955,0.31554 z" fill="#e7f5f7" />
      <path d="m 512.19002,158.57007 c 29.45368,-21.85273 64.15676,-21.17815 90.76009,3.04988 -19.27643,21.86094 -39.38401,29.19351 -63.08313,30.30404 z" fill="#3ca3b4" />
      <path fill="#e7f5f7" inkscape:original-d="m 512.19002,158.57007 c 29.45368,-21.85273 64.15676,-21.17815 90.76009,3.04988 -19.27643,21.86094 -39.38401,29.19351 -63.08313,30.30404" inkscape:path-effect="#path-effect4342" />
    </g>
    <g id="g5094">
      <ellipse cx="526.35828" cy="87.49054" fill="none" id="path924" rx="36.274841" ry="44.624046" stroke="#e7f5f7" transform="rotate(17.658236)" />
      <ellipse clip-path="url(#clipPath4255)" cx="539.32178" cy="87.545357" fill="#e7f5f7" rx="29.76676" ry="36.618034" transform="rotate(17.658236)" />
      <path d="m 515.13932,150.40699 c 175.94019,-58.92983 204.04938,52.34567 367.39389,49.71107 -19.48323,22.84241 -45.51657,16.56753 -49.88639,38.58923 -6.43563,32.43234 27.51424,58.71329 77.23005,57.36962 -55.56556,40.66992 -110.8103,5.42518 -162.46012,39.60729 46.53942,3.4127 73.64188,26.44464 84.63576,65.05949 -73.68485,-34.48303 -163.93936,-37.9407 -258.93536,-13.25874 M 482.70518,145.14962 c 16.60234,-11.33735 35.5966,-11.51833 51.65907,-0.67384" fill="none" stroke="#e7f5f7" stroke-width="6" />
      <path clip-path="url(#clipPath4336)" fill="#e7f5f7" inkscape:original-d="m 531.01276,296.65174 c -25.52974,75.24556 -98.72399,18.84849 -160.05882,56.04168 -16.76684,-17.1865 -23.27065,-32.00071 -26.41745,-55.16617 37.13571,-16.2921 50.93507,-32.93424 60.76517,-85.47499 18.94938,-101.2823 175.54956,-87.06964 168.57008,38.77909 -7.44676,134.27428 0.82753,245.93536 48.55581,337.11639 L 498.47965,620.2788 C 382.52222,542.22244 487.41221,424.65204 461.48891,338.7526" inkscape:path-effect="#path-effect4237" />
      <path d="m 347.16067,301.227 c 1.096,2.3885 2.92868,2.56658 4.89933,0.60849 -1.21889,4.87794 -5.09173,4.34047 -4.89933,-0.60849 z m 9.70483,35.75737 c 19.36181,-1.73723 27.32543,-5.21867 37.90683,-16.30395 -6.71835,12.93283 -18.59156,18.35046 -34.21174,21.37372 z m 7.65495,-33.93599 c 2.07139,2.37355 4.33389,2.22051 5.83955,-0.31554 -0.0787,5.43705 -4.7016,5.81423 -5.83955,0.31554 z" fill="#e7f5f7" />
      <path fill="#e7f5f7" inkscape:original-d="m 512.19002,158.57007 c 29.45368,-21.85273 64.15676,-21.17815 90.76009,3.04988 -19.27643,21.86094 -39.38401,29.19351 -63.08313,30.30404" inkscape:path-effect="#path-effect4231" />
    </g>
    <use filter="url(#filter5189)" xlink:href="#g5094" />
  </g>
  <rect fill="#3ca3b4" height="178" width="550" y="262" />
  <text style="text-align:center;font-size:41.27707672px;font-weight:300;fill:#fff;font-family:Junction;text-anchor:middle" x="274.18188" y="342.15039" sodipodi:linespacing="125%" xml:space="preserve"><tspan style="text-align:center;font-size:41.27707672px;fill:#fff;text-anchor:middle" x="274.18188" y="342.15039" sodipodi:role="line">Welcome to the Winter</tspan><tspan style="text-align:center;font-size:41.27707672px;fill:#fff;text-anchor:middle" x="274.18188" y="393.74673" sodipodi:role="line">Happy Hea<tspan fill="#fff" letter-spacing="0.24766265px">r</tspan>t<tspan fill="#fff" font-size="41.27707672px" letter-spacing="-0.9080956px">h</tspan><tspan fill="#fff" font-size="41.27707672px" letter-spacing="-2.93066812px">'</tspan>s Warming</tspan></text>
</svg>
