<svg xmlns="http://www.w3.org/2000/svg" xmlns:cc="http://creativecommons.org/ns#" xmlns:dc="http://purl.org/dc/elements/1.1/" xmlns:inkscape="http://www.inkscape.org/namespaces/inkscape" xmlns:rdf="http://www.w3.org/1999/02/22-rdf-syntax-ns#" xmlns:sodipodi="http://sodipodi.sourceforge.net/DTD/sodipodi-0.dtd" xmlns:xlink="http://www.w3.org/1999/xlink" height="535.7475" viewBox="0 0 545.79511 535.7475" width="545.7951">
  <title>The Scandium Resources of Equestria</title>
  <defs>
    <inkscape:path-effect effect="powerstroke" id="path-effect7892" interpolator_type="CubicBezierSmooth" offset_points="0.69,2.5" start_linecap_type="zerowidth" />
    <inkscape:path-effect effect="powerstroke" end_linecap_type="zerowidth" id="path-effect7316" interpolator_type="CubicBezierSmooth" offset_points="0.2,2.5 | 2.5,2.5 | 4.77,2.5" start_linecap_type="zerowidth" />
    <inkscape:path-effect effect="powerstroke" end_linecap_type="zerowidth" id="path-effect5267" interpolator_type="CubicBezierSmooth" offset_points="0.38,2.5 | 1.84,2.5" start_linecap_type="zerowidth" />
    <inkscape:path-effect effect="powerstroke" id="path-effect4910" interpolator_type="CubicBezierSmooth" offset_points="0.65,2.5" start_linecap_type="zerowidth" />
    <inkscape:path-effect effect="powerstroke" end_linecap_type="zerowidth" id="path-effect5359" interpolator_type="CubicBezierSmooth" offset_points="0.82,2.5 | 2.87,2.5" start_linecap_type="zerowidth" />
    <inkscape:path-effect effect="powerstroke" end_linecap_type="zerowidth" id="path-effect4118" interpolator_type="CubicBezierSmooth" offset_points="0.82,2.5 | 2.87,2.5" start_linecap_type="zerowidth" />
    <inkscape:path-effect effect="powerstroke" end_linecap_type="zerowidth" id="path-effect4662" interpolator_type="CubicBezierSmooth" offset_points="0.13,2.5 | 0.85,2.5" start_linecap_type="zerowidth" />
    <clipPath id="clipPath5727">
      <use xlink:href="#path10731" />
    </clipPath>
    <linearGradient id="linearGradient4676">
      <stop offset="0" stop-color="#30217c" />
      <stop offset="1" stop-color="#9284d8" />
    </linearGradient>
    <inkscape:path-effect effect="powerstroke" id="path-effect4639" interpolator_type="CubicBezierSmooth" offset_points="0.21,2.5 | 0.75,2.5" start_linecap_type="zerowidth" />
    <linearGradient gradientUnits="userSpaceOnUse" id="linearGradient6002" x1="360.72647" x2="298.88675" y1="924.74329" y2="827.24329" xlink:href="#linearGradient5996" />
    <linearGradient id="linearGradient5996">
      <stop offset="0" stop-color="#63dfb7" stop-opacity="0.25" />
      <stop offset="0.36156914" stop-color="#63dfb7" stop-opacity="0.75" />
      <stop offset="0.62980443" stop-color="#63dfb7" stop-opacity="0.75" />
      <stop offset="1" stop-color="#63dfb7" stop-opacity="0.25" />
    </linearGradient>
    <mask id="mask6214">
      <path d="m 308.07812,818.37109 c -15.59806,-0.66139 -29.48084,11.77754 -27.39257,27.09571 1.36434,10.00788 8.1,15.6113 12.55468,20.91992 4.45469,5.30862 7.88673,10.24118 7.88672,21.26758 0,7.25515 1.45929,12.93769 4.00391,17.29882 2.54462,4.36114 5.94844,7.09754 8.57617,9.0918 2.62773,1.99426 4.43549,3.34967 5.52149,4.80078 1.08599,1.45112 1.91523,3.1147 2.05468,7.22852 0.15189,4.48051 2.81452,9.10272 6.47461,11.25781 3.66009,2.1551 7.51768,2.46843 11.33203,2.25 7.62872,-0.43685 15.844,-3.34367 23.56836,-7.375 7.72437,-4.03133 14.81599,-9.05156 19.35352,-15.43945 2.26876,-3.19395 4.03676,-6.97718 3.86328,-11.40235 -0.17348,-4.42516 -2.78289,-8.79858 -6.49414,-11.58203 -8.41841,-6.31381 -7.81731,-9.30826 -8.91016,-15.60351 -0.54642,-3.14763 -1.37134,-7.31655 -4.22265,-11.27735 -2.85132,-3.9608 -7.34519,-7.16435 -13.76758,-9.77343 -9.77794,-3.97227 -10.93977,-7.26165 -13.25977,-12.91993 -2.31999,-5.65827 -5.2929,-14.61353 -15.39648,-20.84765 -5.11714,-3.15738 -10.54798,-4.76982 -15.7461,-4.99024 z" style="stroke-miterlimit:20;fill:none;fill-opacity:0.56078384;filter:url(#filter6210);stroke-width:21;stroke:#fff" sodipodi:type="inkscape:offset" inkscape:original="M 307.78125 825.36523 C 295.84092 824.85893 286.16393 833.83269 287.62109 844.52148 C 289.56398 858.7732 308.12696 862.19846 308.12695 887.6543 C 308.12695 913.11013 327.5722 904.97828 328.2793 925.83789 C 328.98641 946.6975 394.98063 914.23207 375.18164 899.38281 C 355.38265 884.53356 372.47312 872.80563 349.8457 863.61328 C 327.21829 854.42094 336.76545 839.5714 320.14844 829.31836 C 315.99419 826.7551 311.76136 825.534 307.78125 825.36523 z " inkscape:radius="7" />
    </mask>
    <filter color-interpolation-filters="sRGB" height="1.0470998" id="filter6210" width="1.0541975" x="-0.027098766" y="-0.023549899">
      <feGaussianBlur stdDeviation="1.1902022" />
    </filter>
    <clipPath id="clipPath5992">
      <path d="m 287.62088,844.52151 c 1.94289,14.25172 20.50611,17.67768 20.5061,43.13352 0,25.45583 19.44544,17.32419 20.15254,38.1838 0.70711,20.85961 66.70027,-11.60668 46.90128,-26.45594 -19.79899,-14.84925 -2.7071,-26.57715 -25.33452,-35.7695 -22.62741,-9.19234 -13.08147,-24.04162 -29.69848,-34.29466 -16.61701,-10.25305 -34.4698,0.95106 -32.52692,15.20278 z" />
    </clipPath>
    <filter color-interpolation-filters="sRGB" height="1.117787" id="filter6548" width="1.1382481" x="-0.069124058" y="-0.05889352">
      <feGaussianBlur stdDeviation="2.6327455" />
    </filter>
    <clipPath id="clipPath7299">
      <use xlink:href="#path6000" />
    </clipPath>
    <linearGradient gradientUnits="userSpaceOnUse" id="linearGradient7999" x1="510.20844" x2="511.47089" y1="910.22559" y2="959.19354" xlink:href="#linearGradient4676" />
  </defs>
  <metadata>
    <rdf:RDF>
      <cc:Work rdf:about="">
        <dc:format>image/svg+xml</dc:format>
        <dc:type rdf:resource="http://purl.org/dc/dcmitype/StillImage" />
        <dc:title>The Scandium Resources of Equestria</dc:title>
        <dc:date>27 February 2015</dc:date>
        <dc:creator>
          <cc:Agent>
            <dc:title>Parcly Taxel / Jeremy Tan</dc:title>
          </cc:Agent>
        </dc:creator>
        <dc:rights>
          <cc:Agent>
            <dc:title>CC BY-SA 4.0 / FAL 1.3</dc:title>
          </cc:Agent>
        </dc:rights>
        <dc:subject>
          <rdf:Bag>
            <rdf:li>Reference vector for Brioullina/Mayor Marks</rdf:li>
            <rdf:li>the MLPFIM S5 villain</rdf:li>
          </rdf:Bag>
        </dc:subject>
      </cc:Work>
    </rdf:RDF>
  </metadata>
  <g transform="translate(-527.56719,49.909915)" inkscape:groupmode="layer" inkscape:label="Layer 1">
    <g>
      <g transform="translate(275.4052,-858.86837)">
        <path d="m 389.63466,1089.123 21.68919,6.2591 c 11.11171,56.3265 -35.4486,75.5547 -65.81056,40.8261 -0.0893,12.4044 1.19305,25.4013 4.54828,37.2661 6.83956,24.186 -46.09574,52.7172 -53.05755,35.1181 -16.27428,-41.1405 15.50071,-154.8395 73.04408,-100.1359 7.69009,-6.4216 14.30824,-12.2317 19.58656,-19.3335 z" fill="#d19add" />
        <path d="m 369.84682,1108.5082 c 7.89137,-6.4733 14.50952,-12.2834 19.78784,-19.3852 l 21.68919,6.2591 c 11.32527,57.4091 -37.25964,76.2801 -67.58831,38.8058" fill="none" stroke="#b585c8" stroke-width="5" />
        <path d="m 345.648,1131.2287 -5.83297,4.2896 6.41878,8.2248 z" fill="#d19add" />
        <path fill="#b585c8" inkscape:original-d="m 345.8899,1127.2821 c -0.96396,14.9936 0.007,31.4651 4.17167,46.1922 6.84002,24.1859 -46.09572,52.7172 -53.05755,35.1181 -17.09236,-43.2086 18.81669,-166.4538 82.14766,-90.639" inkscape:path-effect="#path-effect5359" />
      </g>
      <path d="M 581.08234,77.868179 C 608.9941,77.469443 640.72919,75.24171 664.05545,69.061247 642.28995,52.479356 656.47974,23.125945 683.18489,34.58992 631.73814,-22.40805 569.18027,5.9983387 581.08234,77.868179 Z" fill="#652f88" stroke="#572972" stroke-width="5" />
      <path d="m 650.09615,403.71333 c -32.12408,-12.2154 -67.85314,-17.5787 -100.43066,-15.8894 -20.84561,1.081 -9.38104,73.198 8.47168,69.2004 47.08504,-10.5433 94.22132,-10.9913 140.18935,-1.8876 8.76463,1.7358 13.14795,-13.769 11.574,-29.3132 z" fill="#d19add" stroke="#b585c8" stroke-width="5" />
      <g>
        <path d="M 630.06257,25.608548 C 565.99096,-55.089213 766.20114,-94.943854 798.20468,46.414582 818.9659,138.11611 682.42286,259.11744 630.06257,25.608548 Z" fill="#652f88" />
        <path d="m 748.60868,-28.542387 c -67.64516,-21.329568 -93.13186,12.501565 -69.33803,49.904174 -31.85054,-13.2378808 -43.25343,-33.212389 -39.38349,-58.472055 28.6026,-17.380846 76.85805,-12.077264 108.72152,8.567881 z" fill="#7e37a8" />
        <path d="m 679.27065,21.361787 c -30.1486,-8.92512 -48.63438,-22.7698729 -44.65332,-55.27595 3.99301,-2.85855 8.48907,-5.214055 13.4248,-7.129893 -10.55686,22.620842 4.45984,43.7719054 31.22852,62.405843" fill="#9ddfcc" />
        <path d="M 630.06257,25.608548 C 565.99096,-55.089213 766.20114,-94.943854 798.20468,46.414582 818.9659,138.11611 682.42286,259.11744 630.06257,25.608548 Z" fill="none" stroke="#572972" stroke-width="5" />
        <path d="M 694.31942,33.431827 C 674.40564,-55.537387 842.90203,9.8683327 734.45472,120.16153" fill="none" stroke="#572972" stroke-width="3" />
      </g>
      <g>
        <path d="m 740.45293,380.73217 c 175.86396,-111.85355 240.99674,27.47382 281.99087,45.78797 0.6723,-6.79483 -2.7577,-13.10369 -12.6837,-20.73162 8.875,1.125 15.9942,3.39581 23.2332,7.87742 -1.8003,-9.27728 -5.1894,-19.09925 -11.9563,-27.78428 104.7542,7.35339 29.0042,167.71542 -85.9495,60.83758 C 883.86725,399.09738 813.63165,378.85601 738.74583,397.4809 Z" fill="#652f88" />
        <path d="m 827.07086,341.76204 c 44.98787,6.45879 80.00675,26.75226 106.9684,63.51327 46.63837,63.58935 75.84414,47.13064 85.03274,30.26165 -54.62264,1.21261 -54.56189,-73.33771 -167.83902,-97.37262 -8.05404,0.44614 -16.10808,1.82329 -24.16212,3.5977 z m 201.25904,55.97702 c 28.5091,6.8227 39.2593,21.23842 39.517,47.24821 -10.5983,29.30282 -45.8616,50.26517 -90.80843,30.41458 75.08963,6.37264 90.04373,-40.44406 54.58543,-66.63556 -0.9236,-3.85017 -2.0631,-7.39602 -3.294,-11.02723 z" fill="#9ddfcc" />
        <path d="m 1019.072,435.53696 c 1.7253,-3.16737 2.8556,-6.11962 3.367,-8.97813 -32.04684,-14.36039 -78.93963,-102.82371 -182.10745,-86.98512 127.43915,26.16308 109.5418,120.76342 178.74045,95.96325 z m 11.2511,-32.09713 c -2.0319,-6.02432 -4.9728,-12.02221 -9.2861,-17.55817 59.0441,4.1447 60.743,56.89946 30.3988,83.01168 15.6776,-29.55787 6.5015,-56.01472 -21.1127,-65.45351 z M 926.57811,439.1406 C 876.14496,396.99294 809.52233,379.87804 738.74583,397.4809 l 1.7071,-16.74873 c 9.15561,-5.82318 18.0111,-10.96558 26.44505,-15.54067 69.44262,-4.21932 130.55312,22.19241 159.68013,73.9491 z" fill="#7e37a8" />
        <path fill="#572972" inkscape:original-d="m 1019.072,435.53696 c 5.7923,-10.63385 4.8789,-18.84311 -9.3119,-29.74844 8.875,1.125 15.9942,3.39581 23.2332,7.87742 -1.8003,-9.27728 -5.1894,-19.09925 -11.9563,-27.78428 104.7542,7.35339 29.0042,167.71542 -85.9495,60.83758 C 883.86725,399.09738 813.63165,378.85601 738.74583,397.4809 l 1.7071,-16.74873 c 175.86396,-111.85355 240.99674,27.47382 282.13567,45.84062" inkscape:path-effect="#path-effect7892" />
      </g>
      <path d="m 645.79923,340.95517 c -19.89857,8.59791 -29.40364,38.30768 -1.00565,68.35908 -34.38578,-11.22142 -67.8784,-14.72522 -100.62809,-11.99032 -20.05482,1.6747 -11.33885,73.6364 8.47168,69.2004 47.08507,-10.5432 100.72132,-11.74128 146.68935,-2.6376 9.23751,1.82943 13.84239,-12.34686 11.5695,-29.6756 54.6957,-13.1132 39.42814,-80.70626 28.01774,-132.45788 C 723.86804,233.51369 755.50219,157.03714 744.06389,93.505595 725.28314,-10.80796 558.6464,21.810543 593.89116,153.34577 c 2.06926,7.7226 -16.5099,3.56243 -15.28164,13.64057 2.62577,21.54509 33.46856,51.46666 95.44707,31.54361 -21.18241,39.1574 -30.92671,88.46158 -28.25736,142.42522 z" fill="#dcb1e5" />
      <path d="m 675.29277,196.39412 c -22.12593,39.60015 -32.28037,89.92736 -29.36356,145.07819" fill="none" stroke="#b585c8" stroke-width="5" />
      <path d="m 668.15647,200.13225 11.22532,-3.27037 -6.98268,-4.59619 z" fill="#dcb1e5" />
      <path fill="#b585c8" inkscape:original-d="m 660.4052,422.99383 c -77,-56.5 -2,-123 35.5,-57" inkscape:path-effect="#path-effect4662" />
      <g transform="matrix(-0.29474598,-1.053845,-1.053845,0.29474598,746.96075,415.78003)">
        <path d="M 39.829258,0 C 36.815638,5.4313 34.715828,8.807 22.857788,9.4145 0.27799769,10.5714 4.7868277,30.7115 17.208878,36.1025 -2.7106423,6.9192 51.850928,26.5128 39.829258,0 Z m -4.64732,35.7541 c -6.67985,-2.8227 -9.79001,-4.8972 -8.39829,-10.8617 -20.5359303,12.8727 26.32747,15.6322 0.82075,28.9023 16.10247,-1.2036 22.06129,-11.9201 7.57754,-18.0406 z" fill="#b2eee7" />
        <path d="m 39.829258,0 c 8.25065,7.3991 5.69761,18.2062 -7.20312,19.7412 -16.18777,1.926 -20.51305,5.0718 -15.41726,16.3613 C 6.6562177,26.3933 7.3986377,15.2272 27.330668,13.7646 37.987798,12.9826 40.586508,9.0029 39.829258,0 Z m -13.04517,24.8923 c -5.79128,6.0835 -3.85831,9.2377 5.06342,13.0085 10.63692,4.4958 7.70151,11.7687 -4.24251,15.8939 5.55754,-4.0482 7.04749,-9.3924 0.16979,-12.8244 -8.0163,-4.0001 -13.54151,-11.5311 -0.9907,-16.078 z" fill="#04d4da" />
        <path d="m 4.0840457,62.751341 9.8599503,-6.373931 9.85995,6.373932 -6.373931,-9.85995 6.373931,-9.85995 -9.85995,6.373931 -9.8599503,-6.373931 6.3739313,9.85995 z" fill="#fff" />
        <path d="M 27.888138,52.891379 16.409083,50.426431 13.944074,38.947315 11.479078,50.426395 -2.3057136e-6,52.891391 11.479114,55.3564 l 2.464948,11.479055 2.464996,-11.47908 z" fill="#e6458b" />
      </g>
      <path fill="#b585c8" inkscape:original-d="m 687.85681,193.4054 c -63.96076,26.96315 -105.43266,-0.32434 -109.24729,-26.41906 -1.46856,-10.04594 17.3509,-5.91797 15.28164,-13.64057 C 558.6464,21.810543 725.28314,-10.80796 744.06389,93.505595 c 11.4383,63.531545 -20.19585,140.008095 -5.15013,208.247655 11.94679,54.18442 28.12192,125.73468 -36.25527,134.02068" inkscape:path-effect="#path-effect7316" />
      <path d="m 586.20943,185.47778 -0.43973,-4.2493 c 8.72285,-4.1761 18.14967,-4.2428 25.26841,1.9484 -8.21027,-2.9443 -16.09729,-2.8348 -24.82868,2.3009 z m 0.3415,-18.3124 c 1.69123,1.2614 3.30035,0.7107 4.08222,-1.1707 0.92057,4.0428 -2.3221,5.149 -4.08222,1.1707 z" fill="#b585c8" />
      <g>
        <g clip-path="url(#clipPath7299)">
          <ellipse cx="96.352364" cy="659.80444" fill="#fff" id="path6000" rx="41.5" ry="32.678482" transform="rotate(-70.121184)" />
          <g transform="matrix(0.92411068,0,0,0.92411068,287.57399,-773.664)">
            <g clip-path="url(#clipPath5727)">
              <ellipse cx="499.74045" cy="934.70367" fill="url(#linearGradient7999)" id="path10731" rx="26.939386" ry="34.365433" transform="rotate(7.4410392)" />
              <path d="m 365.04388,994.8424 62.51829,6.4194 -9.18718,27.4559 z" fill="#8b7cd6" />
              <path d="m 365.04388,994.8424 46.60839,43.7193 10.08147,-18.8596 z" fill="#c1b9ea" />
              <ellipse cx="496.90277" cy="935.80054" rx="21.589624" ry="27.639618" transform="rotate(7.4410392)" />
              <ellipse cx="805.35626" cy="672.16071" fill="#fff" rx="10.020095" ry="14.188255" transform="rotate(28.974309)" />
              <ellipse cx="865.8894" cy="625.60168" fill="#fff" rx="3.2931368" ry="4.7051544" transform="rotate(32.999385)" />
            </g>
          </g>
        </g>
        <path d="m 682.01689,104.69997 c 19.88878,-10.337395 21.29096,-6.917768 2.17274,4.02342 z m 3.90165,7.50871 c 21.18499,-7.32268 22.07286,-3.73493 1.562,4.29752 z m -61.21805,48.24852 c -15.24879,-26.86964 -2.27495,-54.09367 17.00252,-65.056967 19.54791,-11.117097 42.89327,-1.465914 49.0094,24.094857 19.53687,-2.62173 20.01932,1.15386 -3.73049,5.20927 C 684.25268,100.43063 662.85913,88.212539 643.7045,99.372968 627.01285,109.09834 616.10326,130.4598 624.70049,160.4572 Z" />
      </g>
      <path d="m 644.8058,409.27683 c -34.398,-11.184 -67.89062,-14.6878 -100.64031,-11.9529 -20.05482,1.6747 -11.33885,73.6364 8.47168,69.2004 47.08507,-10.5432 100.72132,-11.74128 146.68935,-2.6376 9.23751,1.82943 13.84239,-12.34686 11.61518,-29.747" fill="none" stroke="#b585c8" stroke-width="5" />
      <g>
        <path d="M 600.45621,75.39377 C 529.47776,-15.843823 530.57827,-17.647123 620.95189,49.573963 Z" fill="#dcb1e5" stroke="#b585c8" stroke-width="5" />
        <path d="m 565.78458,9.9553813 c -0.0771,5.6282647 -0.93502,11.1737507 -2.63682,16.6528087 m 23.38316,-2.898691 c -0.91416,8.390968 -3.49753,16.910125 -7.70676,24.292228 m 27.24709,-9.982781 c -1.59909,10.805092 -6.12523,20.739244 -13.01314,28.997591" fill="none" stroke="#b585c8" stroke-width="3" />
      </g>
      <g transform="rotate(-12.294002,-3445.5698,-721.67801)">
        <path d="m 308.07812,818.37109 c -15.59806,-0.66139 -29.48084,11.77754 -27.39257,27.09571 1.36434,10.00788 8.1,15.6113 12.55468,20.91992 4.45469,5.30862 7.88673,10.24118 7.88672,21.26758 0,7.25515 1.45929,12.93769 4.00391,17.29882 2.54462,4.36114 5.94844,7.09754 8.57617,9.0918 2.62773,1.99426 4.43549,3.34967 5.52149,4.80078 1.08599,1.45112 1.91523,3.1147 2.05468,7.22852 0.15189,4.48051 2.81452,9.10272 6.47461,11.25781 3.66009,2.1551 7.51768,2.46843 11.33203,2.25 7.62872,-0.43685 15.844,-3.34367 23.56836,-7.375 7.72437,-4.03133 14.81599,-9.05156 19.35352,-15.43945 2.26876,-3.19395 4.03676,-6.97718 3.86328,-11.40235 -0.17348,-4.42516 -2.78289,-8.79858 -6.49414,-11.58203 -8.41841,-6.31381 -7.81731,-9.30826 -8.91016,-15.60351 -0.54642,-3.14763 -1.37134,-7.31655 -4.22265,-11.27735 -2.85132,-3.9608 -7.34519,-7.16435 -13.76758,-9.77343 -9.77794,-3.97227 -10.93977,-7.26165 -13.25977,-12.91993 -2.31999,-5.65827 -5.2929,-14.61353 -15.39648,-20.84765 -5.11714,-3.15738 -10.54798,-4.76982 -15.7461,-4.99024 z" fill="url(#linearGradient6002)" mask="url(#mask6214)" sodipodi:type="inkscape:offset" inkscape:original="M 307.78125 825.36523 C 295.84092 824.85893 286.16393 833.83269 287.62109 844.52148 C 289.56398 858.7732 308.12696 862.19846 308.12695 887.6543 C 308.12695 913.11013 327.5722 904.97828 328.2793 925.83789 C 328.98641 946.6975 394.98063 914.23207 375.18164 899.38281 C 355.38265 884.53356 372.47312 872.80563 349.8457 863.61328 C 327.21829 854.42094 336.76545 839.5714 320.14844 829.31836 C 315.99419 826.7551 311.76136 825.534 307.78125 825.36523 z " inkscape:radius="7" />
        <path d="m 287.62088,844.52151 c 1.94289,14.25172 20.50611,17.67768 20.5061,43.13352 0,25.45583 19.44544,17.32419 20.15254,38.1838 0.70711,20.85961 66.70027,-11.60668 46.90128,-26.45594 -19.79899,-14.84925 -2.7071,-26.57715 -25.33452,-35.7695 -22.62741,-9.19234 -13.08147,-24.04162 -29.69848,-34.29466 -16.61701,-10.25305 -34.4698,0.95106 -32.52692,15.20278 z" style="stroke-miterlimit:20;fill:#63dfb7;fill-opacity:0.25098039;filter:url(#filter6548);stroke-width:14;clip-path:url(#clipPath5992);stroke:#63dfb7" />
        <path fill="#fff" transform="matrix(-0.36456755,0.4511748,-0.4511748,-0.36456755,1336.3314,371.70712)" sodipodi:arg1="0.57220308" sodipodi:arg2="1.3576012" sodipodi:cx="1799.04" sodipodi:cy="775.29199" sodipodi:r1="10" sodipodi:r2="1.25" sodipodi:sides="4" sodipodi:type="star" />
        <path fill="#fff" transform="matrix(0.35202054,-0.52338187,0.52338187,0.35202054,-667.51655,1505.5429)" sodipodi:arg1="0.17054964" sodipodi:arg2="0.9559478" sodipodi:cx="1728.147" sodipodi:cy="683.10999" sodipodi:r1="10" sodipodi:r2="1.25" sodipodi:sides="4" sodipodi:type="star" />
        <path fill="#fff" transform="matrix(0.35791696,-0.122193,0.122193,0.35791696,-405.14868,815.52661)" sodipodi:arg1="0.29393279" sodipodi:arg2="1.079331" sodipodi:cx="1741.645" sodipodi:cy="703.84003" sodipodi:r1="5" sodipodi:r2="0.625" sodipodi:sides="4" sodipodi:type="star" />
        <path fill="#fff" transform="matrix(1.3309256,0.55592196,-0.55592196,1.3309256,-1653.2145,-1072.0622)" sodipodi:arg1="0.24690413" sodipodi:arg2="1.0323023" sodipodi:cx="1785.3146" sodipodi:cy="700.36963" sodipodi:r1="5" sodipodi:r2="0.625" sodipodi:sides="4" sodipodi:type="star" />
        <path fill="#fff" transform="matrix(0.75486792,-0.29067978,0.29067978,0.75486792,-1249.7858,825.95384)" sodipodi:arg1="1.4308767" sodipodi:arg2="2.2162749" sodipodi:cx="1770.3452" sodipodi:cy="783.8847" sodipodi:r1="5" sodipodi:r2="0.625" sodipodi:sides="4" sodipodi:type="star" />
        <path fill="#fff" transform="matrix(-0.18723924,-0.5114526,0.5114526,-0.18723924,322.70311,1969.083)" sodipodi:arg1="0.56261474" sodipodi:arg2="1.3480129" sodipodi:cx="1842.8199" sodipodi:cy="744.66302" sodipodi:r1="14.693347" sodipodi:r2="1.8366684" sodipodi:sides="4" sodipodi:type="star" />
        <path fill="#fff" transform="matrix(0.59010339,-0.24663671,0.24663671,0.59010339,-907.14931,873.68552)" sodipodi:arg1="0.40276718" sodipodi:arg2="1.1881653" sodipodi:cx="1755.9055" sodipodi:cy="730.65955" sodipodi:r1="12.883711" sodipodi:r2="1.6104639" sodipodi:sides="4" sodipodi:type="star" />
        <path fill="#fff" transform="matrix(0.57301261,0.09013736,-0.09013736,0.57301261,-630.32229,294.32959)" sodipodi:arg1="0.41846191" sodipodi:arg2="1.2038601" sodipodi:cx="1876.5028" sodipodi:cy="776.81635" sodipodi:r1="5.5134077" sodipodi:r2="0.68917596" sodipodi:sides="4" sodipodi:type="star" />
        <path fill="#fff" transform="matrix(0.54131216,-0.20844506,0.20844506,0.54131216,-794.51829,804.63747)" sodipodi:arg1="1.3350462" sodipodi:arg2="2.1204443" sodipodi:cx="1753.8004" sodipodi:cy="746.16675" sodipodi:r1="22.049196" sodipodi:r2="2.7561495" sodipodi:sides="4" sodipodi:type="star" />
        <path fill="#fff" transform="matrix(0.55360768,0.24421555,-0.24421555,0.55360768,-469.87144,30.888932)" sodipodi:arg1="0.28756153" sodipodi:arg2="1.0729597" sodipodi:cx="1812.192" sodipodi:cy="813.12701" sodipodi:r1="10" sodipodi:r2="1.25" sodipodi:sides="4" sodipodi:type="star" />
      </g>
      <g>
        <path d="m 599.64624,79.902386 c 27.51302,4.784876 66.64685,3.097883 89.97311,-1.686992 C 669.24944,61.633503 687.03072,33.667067 716.12831,45.330412 669.19278,-13.641217 584.36075,9.7242538 599.64624,79.902386 Z" fill="#652f88" />
        <path d="M 663.26191,81.723843 C 650.32315,51.848002 668.7018,29.631107 696.6642,26.794681 684.92945,18.843919 672.80646,13.610879 660.12957,12.255071 c -23.85865,12.233721 -37.85404,36.266888 -37.03446,70.505518 13.03902,0.354243 26.19743,0.469719 40.1668,-1.036746 z" fill="#7e37a8" />
        <path d="m 651.75846,11.978434 c -25.07402,14.046952 -34.6468,37.703901 -35.41604,70.058139 4.5603,0.551309 9.17078,1.002279 14.06057,0.89462 -0.27081,-39.641861 12.18049,-59.093905 41.48955,-68.199888 -6.71136,-1.6005 -13.42272,-2.792454 -20.13408,-2.752871 z" fill="#9ddfcc" />
        <path d="m 599.64624,79.902386 c 27.51302,4.784876 66.64685,3.097883 89.97311,-1.686992 C 669.24944,61.633503 687.03072,33.667067 716.12831,45.330412 669.19278,-13.641217 584.36075,9.7242538 599.64624,79.902386 Z" fill="none" stroke="#572972" stroke-width="5" />
      </g>
      <g>
        <path d="m 707.47776,62.358111 c -1.70279,-29.951014 17.51848,-54.1043737 23.58578,-54.2071098 10.484,-0.177523 51.63173,59.3682748 9.82844,115.4393388 z" fill="#dcb1e5" />
        <path d="m 733.64882,41.520663 c 7.83146,15.087567 7.43196,32.191124 1.64644,47.75483 8.72055,-13.841882 8.60139,-34.380463 -1.64644,-47.75483 z" fill="#b585c8" />
        <path fill="#b585c8" inkscape:original-d="m 707.47776,62.358111 c -1.70279,-29.951014 17.51848,-54.1043737 23.58578,-54.2071098 10.484,-0.177523 51.63173,59.3682748 9.82844,115.4393388" inkscape:path-effect="#path-effect5267" />
      </g>
      <g transform="translate(275.4052,-858.86837)">
        <path d="m 410.27428,1095.7487 c 16.51938,54.6618 -19.47693,76.9293 -52.28283,46.4978 2.1873,11.9529 5.581,22.3588 10.23917,32.255 10.7043,22.7411 -34.0679,61.52 -44.87726,45.9844 -23.95879,-34.4345 -10.22136,-167.4725 55.5501,-109.5489 4.12618,-5.6887 7.01863,-12.8664 9.10788,-19.5917 z" fill="#dcb1e5" />
        <path fill="#b585c8" inkscape:original-d="m 410.27428,1095.7487 c 16.92805,56.0141 -21.29008,78.0112 -54.75735,44.1683" inkscape:path-effect="#path-effect4639" />
        <path d="m 357,1136.8622 -5.125,4.75 7.75,7.5 z" fill="#dcb1e5" />
        <path fill="#b585c8" inkscape:original-d="m 356.45425,1131.1041 c 1.81974,16.8677 5.73438,30.5613 11.77637,43.3974 10.7043,22.7411 -34.06788,61.52 -44.87726,45.9844 -24.70185,-35.5024 -9.333,-175.8194 61.82018,-103.5999" inkscape:path-effect="#path-effect4118" />
        <path d="m 377.54141,1109.8874 3.1636,2.4151 c 3.62221,-6.4024 6.05473,-13.5548 7.30633,-20.9572 -3.24036,7.2243 -6.60481,13.2759 -10.46993,18.5421 z" fill="#b585c8" />
      </g>
      <g>
        <path d="m 757.52754,250.1402 c 4.02276,-4.02315 7.30567,-9.7663 10.99775,-17.74068 1.3019,6.13931 1.70304,13.02244 1.04859,19.18836 2.57986,-1.37826 5.26719,-3.23333 7.50212,-5.16306 -6.02923,79.40778 -104.70652,49.21812 -82.7745,-40.23458 16.42602,-66.99575 91.52984,-55.1935 103.90318,-159.775658 21.93377,96.880578 -50.89653,147.724238 -40.67714,203.725618 z" fill="#652f88" />
        <path d="m 736.82965,258.00636 c -25.10279,-37.74866 -11.47126,-84.65243 60.02081,-134.84172 -2.0017,8.23834 -4.55243,15.82482 -7.35352,23.12109 -36.14433,25.88388 -59.23096,70.80336 -41.26951,109.68261 9.14103,-3.20453 14.15268,-10.29608 20.29786,-23.56882 1.3019,6.13931 1.70304,13.02244 1.04859,19.18836 2.57986,-1.37826 5.26719,-3.23333 7.50212,-5.16306 -6.02923,79.40778 -104.70652,49.21812 -82.7745,-40.23458 9.13267,-37.24883 36.40397,-50.13942 60.94766,-72.21746 -29.48194,35.47712 -59.1018,103.71305 -18.41951,124.03358 z" fill="#7e37a8" />
        <path d="m 791.96082,138.66941 c -47.9657,36.64047 -67.84907,82.22945 -48.99758,118.72288 3.8734,-0.78774 7.60123,-1.86661 10.48651,-4.63059 -12.54047,-35.69324 0.83087,-73.30639 33.98594,-100.76817 z M 773.6501,249.0775 c 1.20392,-0.83882 2.3658,-1.73735 3.4259,-2.65268 -4.97246,65.48957 -72.96144,56.43413 -84.33939,1.06896 30.49695,44.21836 64.69102,35.57305 80.91349,1.58372 z" fill="#9ddfcc" />
        <path fill="#572972" inkscape:original-d="m 736.82965,258.00636 c 17.15581,-1.02104 23.39052,-7.66893 31.69564,-25.60684 1.3019,6.13931 1.70304,13.02244 1.04859,19.18836 2.57986,-1.37826 5.26719,-3.23333 7.50212,-5.16306 -6.02923,79.40778 -104.70652,49.21812 -82.7745,-40.23458 16.42602,-66.99575 91.52984,-55.1935 103.90318,-159.775658" inkscape:path-effect="#path-effect4910" />
        <path d="M 798.20468,46.414582 C 820.13845,143.29516 747.30815,194.13882 757.5199,250.15389" fill="none" stroke="#572972" stroke-width="5" />
      </g>
    </g>
  </g>
</svg>