<svg xmlns="http://www.w3.org/2000/svg" xmlns:cc="http://creativecommons.org/ns#" xmlns:dc="http://purl.org/dc/elements/1.1/" xmlns:inkscape="http://www.inkscape.org/namespaces/inkscape" xmlns:rdf="http://www.w3.org/1999/02/22-rdf-syntax-ns#" xmlns:sodipodi="http://sodipodi.sourceforge.net/DTD/sodipodi-0.dtd" xmlns:xlink="http://www.w3.org/1999/xlink" height="1024" id="svg2" version="1.1" viewBox="0 0 1792 1024" width="1792" sodipodi:docname="Two Profound Truths.svg" inkscape:export-filename="/home/parclytaxel/Pictures/Two Profound Truths.png" inkscape:export-xdpi="600" inkscape:export-ydpi="600" inkscape:version="0.91+devel r">
  <sodipodi:namedview /><title id="title15357">Two Profound Truths (Bohrium)</title>
  <defs id="defs4">
    <inkscape:path-effect effect="powerstroke" end_linecap_type="butt" id="path-effect7716" interpolator_type="CubicBezierSmooth" offset_points="8.19,3.5 | 9,3 | 10,3.5" start_linecap_type="butt" />
    <inkscape:path-effect effect="powerstroke" end_linecap_type="butt" id="path-effect5990" interpolator_type="CubicBezierSmooth" offset_points="0.34,3.5 | 2,3 | 1,3.5 | 2.6,3.5" start_linecap_type="zerowidth" />
    <inkscape:path-effect effect="powerstroke" end_linecap_type="zerowidth" id="path-effect5977" interpolator_type="CubicBezierSmooth" offset_points="0.39,3.5 | 1.8,3.5" start_linecap_type="zerowidth" />
    <linearGradient id="linearGradient8789" inkscape:collect="always">
      <stop id="stop8791" offset="0" stop-color="#570030" />
      <stop id="stop8793" offset="1" stop-color="#c6006f" />
    </linearGradient>
    <inkscape:path-effect effect="powerstroke" end_linecap_type="zerowidth" id="path-effect8753" interpolator_type="CubicBezierSmooth" offset_points="0.43,3.5 | 0.55,3.5" start_linecap_type="zerowidth" />
    <inkscape:path-effect effect="powerstroke" end_linecap_type="zerowidth" id="path-effect8534" interpolator_type="CubicBezierSmooth" offset_points="0.27,3.5 | 2.61,3.5" start_linecap_type="zerowidth" />
    <inkscape:path-effect effect="powerstroke" end_linecap_type="butt" id="path-effect4243" interpolator_type="CubicBezierSmooth" offset_points="0.29,3.5 | 0.8,3.5" start_linecap_type="zerowidth" />
    <inkscape:path-effect effect="powerstroke" end_linecap_type="zerowidth" id="path-effect4239" interpolator_type="CubicBezierSmooth" offset_points="0.14,3.5 | 2.36,3.5" start_linecap_type="zerowidth" />
    <inkscape:path-effect effect="powerstroke" end_linecap_type="zerowidth" id="path-effect7177" interpolator_type="CubicBezierSmooth" offset_points="0.28,3.5 | 0.75,3.5" start_linecap_type="zerowidth" />
    <inkscape:path-effect effect="powerstroke" end_linecap_type="butt" id="path-effect5718" interpolator_type="CubicBezierSmooth" offset_points="0.2,3.5" start_linecap_type="zerowidth" />
    <inkscape:path-effect effect="powerstroke" end_linecap_type="zerowidth" id="path-effect5716" interpolator_type="CubicBezierSmooth" offset_points="0.52,3.5 | 2.82,3.5" start_linecap_type="zerowidth" />
    <clipPath id="clipPath5727">
      <use id="use5729" xlink:href="#path10731" />
    </clipPath>
    <linearGradient id="linearGradient4676" inkscape:collect="always">
      <stop id="stop4678" offset="0" stop-color="#267716" />
      <stop id="stop4680" offset="1" stop-color="#60bd50" />
    </linearGradient>
    <clipPath id="clipPath7110">
      <use id="use7112" xlink:href="#path4767" />
    </clipPath>
    <clipPath id="clipPath7159">
      <path d="m 383.75,606.26965 c 20.78228,9.09966 82.73686,-9.07694 110.5,-30.75 l 23.25,93.25 -134,5 z" fill="none" id="path7161" stroke="red" />
    </clipPath>
    <clipPath id="clipPath7110-8">
      <use id="use7112-3" xlink:href="#path4767-8" />
    </clipPath>
    <inkscape:path-effect effect="powerstroke" end_linecap_type="zerowidth" id="path-effect4927" interpolator_type="CubicBezierSmooth" miter_limit="20" offset_points="0.14,3.5 | 6.78,3.5" start_linecap_type="zerowidth" />
    <clipPath id="clipPath4550">
      <use id="use4552" xlink:href="#path10731-4" />
    </clipPath>
    <inkscape:path-effect effect="powerstroke" end_linecap_type="zerowidth" id="path-effect5977-8" interpolator_type="CubicBezierSmooth" offset_points="0.39,3.5000001 | 1.8,3.5000001" start_linecap_type="zerowidth" />
    <linearGradient gradientTransform="matrix(1.3778979,0,0,1.3778979,-140.60476,-755.43863)" gradientUnits="userSpaceOnUse" id="linearGradient7591" x1="490.04718" x2="491.12881" y1="910.05371" y2="961.16302" inkscape:collect="always" xlink:href="#linearGradient8789" />
    <linearGradient gradientUnits="userSpaceOnUse" id="linearGradient7664" x1="488.53741" x2="490.86221" y1="910.72705" y2="961.88513" inkscape:collect="always" xlink:href="#linearGradient4676" />
    <clipPath id="clipPath3499">
      <path d="m 1389.456,463.12973 -7.4223,3.87492 -3.1654,-8.21373 9.8237,-1.60999 z" fill="none" id="path3501" stroke="fuchsia" stroke-width="3.5" />
    </clipPath>
  </defs>
  <metadata id="metadata7">
    <rdf:RDF>
      <cc:Work rdf:about="">
        <dc:format>image/svg+xml</dc:format>
        <dc:type rdf:resource="http://purl.org/dc/dcmitype/StillImage" />
        <dc:title>Two Profound Truths (Bohrium)</dc:title>
        <dc:date>30 March 2015</dc:date>
        <dc:creator>
          <cc:Agent>
            <dc:title>Parcly Taxel / Jeremy Tan</dc:title>
          </cc:Agent>
        </dc:creator>
        <dc:rights>
          <cc:Agent>
            <dc:title>CC BY-SA 4.0 / FAL 1.3</dc:title>
          </cc:Agent>
        </dc:rights>
        <dc:subject>
          <rdf:Bag>
            <rdf:li>Rainbow Dash engaging in tug-of-war with Applejack using the latter's tail</rdf:li>
          </rdf:Bag>
        </dc:subject>
      </cc:Work>
    </rdf:RDF>
  </metadata>
  <g id="layer1" transform="translate(0,-98.519653)" inkscape:groupmode="layer" inkscape:label="Layer 1">
    <g id="g15337">
      <rect fill="#c1ecef" height="1024" id="rect11137" width="1792" x="0" y="98.519653" />
      <path d="M 476.8713,1103.5712 C 320.629,1001.098 447.3625,328.60266 150.1602,328.60266 c -277.4696,0 -173.264393,562.52432 -313.8826,749.97554 28.85383,142.903 442.83281,164.8345 640.5937,24.993 z" fill="#4a7d8a" id="path12546" />
      <path d="M 804.0496,1168.2754 C 700.9491,997.7777 652.9689,649.98586 410.7837,649.98586 c -201.4388,0 -262.9421,318.42949 -377.825893,501.57364 z" fill="#4a7d8a" id="path12548" />
      <path d="m 150.16016,328.60199 c -123.632634,0 -171.47024,111.70732 -198.97266,252.12695 21.74753,-16.11969 53.0567391,-63.82489 78.410156,-139.3457 -9.899495,138.59293 53.74037,89.09589 70.710934,14.14257 15.55635,53.74011 49.49849,49.49808 63.64063,12.72852 9.89949,89.09545 55.154,93.3381 57.98242,0 53.74012,117.37973 80.60893,74.95181 66.4668,14.14063 21.54786,46.94355 41.41627,72.08197 59.1582,84.8164 C 318.90043,433.74634 267.6719,328.60199 150.16016,328.60199 Z" fill="#74a4af" id="path12550" />
      <path d="m 410.7832,649.98675 c -50.75612,0 -92.6249,20.22171 -128.70508,53.39649 14.58595,12.88032 44.30607,8.66784 70.92188,-10.03516 25,34 63,23 74,-3 17,38 49,49 70,18 22.8046,9.29076 47.74681,9.30469 56.75586,-6.58008 -38.93907,-32.17378 -85.48093,-51.78125 -142.97266,-51.78125 z" fill="#74a4af" id="path12557" />
      <path d="m 427.0925,1105.5491 c 608.1118,-65.0538 896.6114,-254.55845 1493.4095,-313.95542 l -2.8284,383.15142 z" fill="#84d9ac" id="path15335" />
      <path d="M -55.254834,1098.8923 C 415.18587,961.61301 1343.2997,967.78963 1830.5486,1103.2354 l 0,106.9655 -1885.803434,0 z" fill="#cccd68" id="path11417" />
    </g>
    <g id="g7466">
      <path d="m 1089.6282,514.52596 c -12.9792,89.57716 33.93,129.09869 -2.086,211.25108 -14.7135,33.56152 72.4081,92.49832 82.8432,55.04107 37.7395,-135.46725 -29.5293,-165.22107 -42.9643,-267.04445 z" fill="#91bee7" id="path6565" stroke="#6aaadd" stroke-width="7" />
      <g id="g8409" transform="translate(0,52.691737)">
        <path d="m 821,701.51965 -23,-20 c 316,-96 532.3485,-363.91009 597.3928,-268.4979 C 1450.6229,494.03787 1191,677.51965 821,701.51965 Z" fill="#fffaab" id="path4568" stroke="#f4dd6c" stroke-width="7" />
        <path d="M 813.39115,695.83247 C 1071.3973,648.89701 1265.9991,571.23689 1390.7082,473.05489 M 804.72817,688.00086 C 1145.9895,608.76959 1209.0597,461.44243 1393.7513,411.01893" fill="none" id="path8406" stroke="#f4dd6c" stroke-width="3.5" />
      </g>
      <path d="m 1411.7387,440.24372 c -4.3802,13.19391 -4.9927,28.50394 -1.8284,41.32286 -101.4784,16.03857 -55.4261,-97.29826 1.8284,-41.32286 z" fill="white" id="path6451" stroke="#b0d8e7" stroke-width="3.5" />
      <g id="g8546" transform="translate(0,52.691737)">
        <path d="m 852.17027,306.56868 c -39.10436,-13.28064 -73.65893,-35.97088 -98.69062,-76.19521 -17.1294,-27.52586 -104.49151,5.79268 -91.29939,27.18308 40.52305,65.70621 106.30152,102.5528 185.24964,107.97783 26.03909,22.41642 59.43251,32.50479 94.38034,27.09538 l 79.85246,-70.88341 c -63.1248,-73.78009 -116.30946,-4.44833 -161.14592,3.06095 0.64613,-8.37206 -2.66656,-16.30959 -8.34651,-18.23862 z" fill="#91bee7" id="path8544" />
        <path d="m 860.4987,325.00631 c 0.66421,-8.57107 -2.64848,-16.5086 -8.32843,-18.43763 -39.10436,-13.28064 -73.65893,-35.97088 -98.69062,-76.19521 -17.1294,-27.52586 -104.49151,5.79268 -91.29939,27.18308 41.5022,67.29386 109.49506,104.31659 191.06971,108.44831" fill="none" id="path8536" stroke="#6aaadd" stroke-width="7" />
        <path d="m 841.875,360.26965 12.625,11 0.625,-11.5 z" fill="#91bee7" id="path8538" />
        <path fill="#6aaadd" id="path8512" inkscape:original-d="m 846.82103,324.64584 c 47.57717,8.62132 105.1518,-84.35281 174.84167,-2.89949 l -79.85246,70.88341 C 901.96037,398.79793 864.13157,384.81575 836.82011,355.2" inkscape:path-effect="#path-effect8534" />
      </g>
      <g id="g11126" transform="translate(0,52.691737)">
        <path d="m 726.5,329.51965 c 20.30886,-82.51583 71,-136 158.9981,-111.49681 27.21623,16.20732 53.84962,40.87502 77.63159,74.81792 l -2.73674,3.90255 c -74.18774,-76.59915 -166.16776,-65.50393 -188.27163,45.27887 -14.6066,73.2071 -11.83386,166.39937 -33.73335,244.56842 -15.46757,19.62523 -34.08393,36.3443 -57.44414,47.67182 12.83883,-13.71247 20.60888,-25.88493 24.22361,-43.19418 -25.53503,25.67251 -46.97753,40.24601 -90.88404,40.53733 C 758.47935,586.31523 693.02642,465.52433 726.5,329.51965 Z" fill="#7ac240" id="path11122" />
        <path d="m 762.96822,620.97384 c 9.58332,-29.35827 11.06146,-60.34934 10.25305,-91.71678 -9.67314,19.82442 -20.65458,39.11919 -33.98937,56.25589 24.21163,-93.62332 15.62255,-155.34857 34.08607,-242.96527 24.92432,-118.27575 114.67328,-116.49815 189.81172,-49.70692 l -12.07107,17.2132 c -64.01789,-45.60349 -127.38485,1.12395 -151.00866,114.42268 -13.29714,63.77249 -3.07873,115.77422 -37.08174,196.4972 z" fill="#f67634" id="path11124" />
        <path d="m 805.2785,361.30876 c 29.90199,-82.42068 98.87108,-96.6395 146.65204,-52.53839 l -0.87192,1.28359 c -64.83719,-42.62908 -133.25088,27.55534 -125.45079,180.60512 -7.87843,-14.25958 -12.46205,-30.4299 -15.97057,-48.03301 -2.71893,83.68755 -15.02603,136.31394 -46.66904,178.34777 9.58332,-29.35827 11.06146,-60.34934 10.25305,-91.71678 -0.54717,1.12138 -1.09852,2.24107 -1.70647,3.46574 14.23048,-59.23652 13.12148,-114.51662 33.7637,-171.41404 z" fill="#f13e32" id="path11087" />
        <path d="m 614.2834,631.60557 c 66.93019,-33.30586 89.62394,-90.11523 93.20206,-174.07822 -12.43357,33.57887 -24.84448,60.39268 -48.8155,84.10408 40.23655,-86.28141 17.84229,-207.65752 77.4282,-288.14602 -22.61042,5.19429 -36.85222,15.32214 -53.48276,35.21931 C 709.95519,199.25999 800.56469,167.44484 885.4981,218.02284 797.5,193.51965 746.80886,247.00382 726.5,329.51965 693.02642,465.52433 758.47935,586.31523 614.2834,631.60557 Z" fill="#662e8a" id="path11111" />
        <path d="m 784.68662,350.30876 c -17.15245,68.4295 -10.38459,149.24321 -38.42111,225.73884 -6.56737,9.32228 -13.85529,18.33351 -22.41051,27.15175 33.56912,-80.90656 18.04895,-179.77769 35.66005,-267.89059 21.36969,-106.91816 99.23178,-127.15323 187.64567,-63.37759 5.35298,6.40545 10.73016,13.43248 15.96897,20.90959 l -6.94787,9.7864 c -66.6174,-74.30641 -146.4911,-52.07193 -171.4952,47.6816 z" fill="#f5eb7e" id="path11085" />
        <path d="m 705.16744,591.06824 c -25.53503,25.67251 -46.97753,40.24601 -90.88404,40.53733 66.93019,-33.30586 89.62394,-90.11523 93.20206,-174.07822 -0.87978,2.37599 -1.75944,4.7181 -2.70017,7.09948 1.80479,-38.57946 -0.45868,-81.50005 14.22976,-136.31807 27.02166,-100.84621 80.49053,-134.69053 155.41375,-116.45914 8.13256,4.18377 16.58148,9.28432 25.21005,15.42994 -73.83373,-28.63464 -145.11305,7.03194 -163.6238,102.5292 -25.3199,130.62581 6.69022,214.18745 -37.31079,279.93709 2.94775,-5.77147 5.03142,-11.82159 6.46318,-18.67761 z" fill="#0193cf" id="path11081" />
        <path d="m 951.05862,310.05396 c -64.83719,-42.62908 -133.25088,27.55534 -125.45079,180.60512 -7.87843,-14.25958 -12.46205,-30.4299 -15.97057,-48.03301 -2.71893,83.68755 -15.02603,136.31394 -46.66904,178.34777 9.58332,-29.35827 11.06146,-60.34934 10.25305,-91.71678 -21.01372,43.06613 -48.20156,83.63268 -92.27744,105.00536 12.83883,-13.71247 20.60888,-25.88493 24.22361,-43.19418 -25.53503,25.67251 -46.97753,40.24601 -90.88404,40.53733 66.93019,-33.30586 89.62394,-90.11523 93.20206,-174.07822 -12.43357,33.57887 -24.84448,60.39268 -48.8155,84.10408 40.23655,-86.28141 17.84229,-207.65752 77.4282,-288.14602 -22.61042,5.19429 -36.85222,15.32214 -53.48276,35.21931 36.1006,-118.10658 182.51619,-135.73212 280.51429,4.13604 z" id="path9794" style="stroke-miterlimit:20;stroke-width:7;fill:none;stroke:#0193cf" />
      </g>
      <path d="m 1070.0948,436.83762 c -112.12572,-83.40525 -59.5747,-124.11659 -31.469,-90.1262 -68.25538,-167.25674 10.1823,-156.82563 23.3853,-56.23493 8.4706,-76.02033 -13.3336,-158.0759 17.2104,-158.32765 19.7971,-0.16315 36.5696,80.2687 23.4753,150.13312 24.1027,-53.80743 18.2417,-128.99444 43.2268,-123.1779 12.1614,2.83119 18.1641,23.7118 19.1118,50.47171 2.8286,79.87384 -74.6217,143.05539 -65.8329,219.52304 z" id="path8327" style="stroke-miterlimit:20;stroke-width:7;fill:#91bee7;stroke:#6aaadd" />
      <path d="m 871.68639,461.48761 c -44.07585,43.6094 -74.47662,90.72497 -92.3222,151.94539 -10.85572,37.24124 -90.4333,-37.67501 -68.94975,-73.46448 34.65905,-57.73852 76.95704,-99.42142 129.36976,-128.42751 6.3902,-3.53644 15.99708,-1.82205 22.62962,5.6839 14.13474,15.99609 16.92303,-80.45736 81.00362,-93.94619 104.81516,-22.06339 103.74926,118.8021 226.63886,83.92659 -1.9958,-139.0672 193.7534,-160.15406 222.0282,-6.53796 2.7196,14.77576 26.907,-5.55234 29.9537,14.45215 4.0013,26.27161 -23.1019,47.45025 -40.6662,22.05558 -1.6241,21.54877 7.1728,39.6459 27.7516,44.65812 -24.4124,28.68303 -76.4602,43.67148 -157.0958,43.03773 -89.4612,-0.70312 -206.0314,76.77579 -321.54535,-64.05758 -20.35796,6.04586 -39.85065,5.45796 -58.79606,0.67426 z" fill="#9dd9f8" id="path6449" />
      <g id="RD" transform="matrix(-0.15023438,-0.21804827,-0.21804827,0.15023438,1175.7645,633.65782)">
        <path d="m 1253.1698,250.99348 -50.2385,26.75044 c 55.5914,-178.29837 127.095,-162.74235 105.0443,-91.99533 0,0 -23.4882,7.17691 -52.6785,50.26006 l 39.164,-19.58196 c -47.4819,73.94875 -42.6106,171.24814 -34.4643,263.57334 -14.3105,-63.10386 -34.7851,-161.43695 -6.827,-229.00655 z" fill="#0193cf" id="path8844" />
        <path d="m 1248.2069,89.70785 51.7371,37.42504 c -37.4737,33.40728 -59.9785,88.75024 -74.8031,133.54906 l 39.5556,-20.36525 c -29.4736,76.85005 -19.1497,157.11165 -4.6997,239.68333 -26.2872,-68.8803 -43.0143,-140.47445 -30.0481,-203.91412 l -53.5168,31.37189 c 3.5419,-80.95414 38.1912,-166.71223 71.775,-217.74995 z" fill="#f5eb7e" id="path8846" />
        <path d="m 1270.1794,91.4937 c -43.1682,42.08432 -73.6612,141.14215 -80.6777,201.30268 l 51.3048,-32.89771 c -21.4394,62.93214 -2.8021,153.66295 19.1903,220.10136 -27.5407,-60.71941 -50.8651,-128.14506 -37.989,-191.9033 -20.0667,12.7374 -39.2631,28.71967 -56.3961,46.21342 -6.4995,-100.94938 25.9283,-187.57564 73.6282,-256.91544 z" fill="#f13e32" id="path8848" />
        <path d="m 1354.0743,48.53092 c 50.0635,33.03226 7.4733,70.99582 7.4733,70.99582 21.3506,7.72934 60.6149,66.99512 0,103.22418 -47.676,28.49553 -70.7529,-27.61681 -63.0555,-58.85179 -26.9761,36.87862 -89.381,27.44004 -34.3302,-40.86931 0,0 -60.7026,-24.82425 -23.3539,-71.69643 28.0317,-35.17955 66.454,-6.99832 68.4269,-2.10186 14.7785,-9.53438 34.0448,-7.823 44.8394,-0.70061 z" fill="white" id="path8850" />
        <path d="m 1307.6177,49.76401 c -44.6332,-43.49375 -124.1625,41.61702 -38.6991,72.75325 -54.4679,48.49821 -8.4222,93.43489 34.3211,31.89127 -10.0851,35.59681 2.3264,94.2757 60.4416,64.99743 38.5706,-19.43184 37.9358,-78.0706 -5.0115,-99.3185 29.3202,-26.2716 15.3282,-61.86762 -10.4786,-71.07199 -45.0961,-16.08423 -65.1531,32.17205 -33.7136,39.78818 -30.8446,30.84461 -18.4213,58.30502 5.0896,64.60472 12.8606,3.44597 22.9202,-9.24257 13.134,-27.24639 14.8072,13.19368 5.3949,35.79417 -13.3487,30.85425 -35.3465,-9.31556 -36.6619,-42.06684 -11.609,-67.21246 -28.8287,-6.5463 -10.3565,-64.73109 41.9674,-45.94533 33.5337,12.03956 43.9916,49.61796 13.5147,75.31781 43.1292,20.95711 41.4194,84.66058 2.278,104.17814 -66.7367,33.27782 -76.0025,-40.91858 -68.0347,-57.10052 -37.6255,55.48809 -87.3554,2.17241 -36.1434,-42.52173 -81.3987,-37.05458 -2.7596,-127.94696 49.0257,-76.16162 z" fill="#0193cf" id="path8852" />
      </g>
      <g id="g7323">
        <g clip-path="url(#clipPath7110-8)" id="g7099-9" transform="matrix(-0.94591076,0.27722779,0.27722779,0.94591076,1551.8884,-289.68638)">
          <ellipse cx="623.1778" cy="412.84314" fill="white" id="path4767-8" rx="50.290405" ry="60.927528" transform="rotate(20.357552)" />
          <g clip-path="url(#clipPath4550)" id="g4542">
            <ellipse cx="547.98651" cy="532.48755" fill="url(#linearGradient7591)" id="path10731-4" rx="37.119724" ry="47.352058" transform="rotate(8.4021767)" />
            <path d="m 472.59265,614.99577 -40.5215,35.90118 -9.11876,-24.64084 z" fill="#f0aed0" id="path4672-2" />
            <path d="m 472.59265,614.99577 -55.49655,2.4499 5.06315,17.79593 z" fill="#d64a99" id="path4674-1" />
            <ellipse cx="572.9577" cy="509.28088" id="ellipse4666-8" rx="29.748297" ry="38.084568" transform="rotate(10.773378)" />
            <ellipse cx="97.613358" cy="738.44946" fill="white" id="path4668-7" rx="13.084386" ry="18.527235" transform="matrix(-0.70262581,0.71155953,0.71155953,0.70262581,0,0)" />
            <ellipse cx="162.84573" cy="746.32953" fill="white" id="ellipse4670-3" rx="4.5376062" ry="6.4832225" transform="matrix(-0.65754933,0.75341149,0.75341149,0.65754933,0,0)" />
          </g>
        </g>
        <path d="m 1254.9347,367.36789 c -31.3538,-21.90382 -27.9164,-26.70663 3.026,-4.19446 z m -8.1268,16.28607 c -37.3886,-8.05752 -36.0788,-13.81649 1.1662,-5.03881 z m -2.2576,14.20769 c -0.3371,-39.69468 31.9534,-63.50586 69.8767,-47.85404 25.4092,10.48699 51.7625,41.81786 39.8816,77.62321 4.5056,-31.73058 -14.3507,-61.74972 -41.7509,-73.28964 -34.4252,-14.49862 -65.671,7.0063 -62.8638,48.47596 -35.2205,1.89142 -35.8304,-3.09888 -5.1436,-4.95549 z" fill="black" id="path5782" />
        <path d="m 1409.1444,420.83587 c -2.3022,3.41473 -5.816,3.15103 -7.9708,-0.0898 0.4423,7.09096 7.5994,7.43028 7.9708,0.0898 z" fill="#6aaadd" id="path5768" />
      </g>
      <path fill="#6aaadd" id="path8482" inkscape:original-d="m 971.8461,438.83858 c -31.6769,31.01671 -80.78224,30.77929 -115.99254,17.78703" inkscape:path-effect="#path-effect8753" />
      <path fill="#6aaadd" id="path6445" inkscape:original-d="m 871.68639,461.48761 c -44.07585,43.6094 -74.47662,90.72497 -92.3222,151.94539 -10.85572,37.24124 -90.4333,-37.67501 -68.94975,-73.46448 34.65905,-57.73852 76.95704,-99.42142 129.36976,-128.42751 6.3902,-3.53644 15.99708,-1.82205 22.62962,5.6839 14.13474,15.99609 16.92303,-80.45736 81.00362,-93.94619 104.81516,-22.06339 103.74926,118.8021 226.63886,83.92659 -1.9958,-139.0672 193.7534,-160.15406 222.0282,-6.53796 2.7196,14.77576 26.907,-5.55234 29.9537,14.45215 4.0013,26.27161 -23.1019,47.45025 -40.6662,22.05558 -1.6241,21.54877 7.1728,39.6459 27.7516,44.65812 -24.4124,28.68303 -76.4602,43.67148 -157.0958,43.03773 -89.4612,-0.70312 -206.0314,76.77579 -321.54535,-64.05758" inkscape:path-effect="#path-effect7716" />
      <g id="g8319" transform="translate(0,52.691737)">
        <path d="m 1058.4837,385.25294 c -123.63711,-65.13431 -77.98594,-113.45603 -44.9789,-84.20171 -93.20949,-154.74368 -14.10124,-156.52192 14.442,-59.16643 -3.3429,-76.41771 -37.52892,-154.134206 -7.3884,-159.088828 19.5355,-3.211303 48.4998,73.676068 46.3258,144.723738 15.5249,-56.87846 -1.8501,-130.264742 23.7328,-128.367071 12.4524,0.923691 21.6005,20.630151 26.6597,46.924551 15.1009,78.48435 -51.6903,152.8442 -31.2252,227.04476 z" fill="#9dd9f8" id="path5250" />
        <path fill="#6aaadd" id="path5967" inkscape:original-d="m 1058.4837,385.25294 c -123.63711,-65.13431 -77.98594,-113.45603 -44.9789,-84.20171 -93.20949,-154.74368 -14.10124,-156.52192 14.442,-59.16643 -3.3429,-76.41771 -37.52892,-154.134206 -7.3884,-159.088828 19.5355,-3.211303 48.4998,73.676068 46.3258,144.723738 15.5249,-56.87846 -1.8501,-130.264742 23.7328,-128.367071 12.4524,0.923691 21.6005,20.630151 26.6597,46.924551 15.1009,78.48435 -51.6903,152.8442 -31.2252,227.04476" inkscape:path-effect="#path-effect4927" />
        <path d="m 1057.5411,287.9239 c -17.165,-78.19576 -69.6955,-11.88579 -24.1005,54.28036 z" fill="#9dd9f8" id="path5254" />
        <path d="m 1103.4999,249.35009 c -4.9906,-33.46606 -34.362,-18.29336 -45.9588,38.57381 -17.165,-78.19576 -69.6955,-11.88579 -24.1005,54.28036 -20.1011,-13.80104 -29.6583,-3.44456 -23.4026,12.25011" id="path5238" style="stroke-miterlimit:20;stroke-width:7;fill:none;stroke:#6aaadd" />
      </g>
      <g id="g6462">
        <path d="m 1389.7528,461.92348 c 1.5764,70.66726 57.6524,45.16354 8.5427,-0.21209 z" fill="#ea403f" id="path6455" />
        <path d="m 1384.4684,459.76445 c 5.4183,1.33054 10.9312,1.85903 16.1566,1.75521 -4.9422,1.25202 -10.1796,1.54874 -15.4834,0.97258 z" fill="#b0d8e7" id="path6453" />
        <path d="m 1442.6062,538.08985 c 11.4524,-5.23834 21.3043,-14.49332 28.4054,-28.28011 1.5374,31.2625 -12.2991,52.32239 -46.8631,55.4046 38.4095,23.91768 -33.5272,32.72223 -42.1205,-24.97331 -20.6826,56.45877 -36.0522,-40.12375 22.2045,-50.04988 36.6043,-6.23694 52.4217,25.98418 38.3737,47.8987 z" id="path11166" style="stroke-miterlimit:20;stroke-width:7;fill:#fffaab;stroke:#f4dd6c" />
        <path d="m 1392.1406,493.94071 c 17.0127,9.17262 20.7715,29.21006 10.0923,47.46104 20.4613,0.81561 34.9479,-3.67367 44.5456,-14.19034" fill="none" id="path11168" stroke="#f4dd6c" stroke-width="3.5" />
      </g>
      <ellipse cx="707.27838" cy="1071.116" id="path8521" opacity="0.2" rx="356.55792" ry="28.890001" />
      <path d="m 569.5762,826.37496 c -37.11523,78.98885 -85.89594,165.01483 -142.04467,234.96274 -15.2173,18.9572 100.40242,21.295 108.25286,4.1004 34.72796,-76.06369 57.84257,-145.97018 76.14126,-218.55385 z" fill="#f2ab54" id="path5568" stroke="#e97135" stroke-width="7" />
      <path d="m 851.03523,895.05696 c 24.10575,48.33715 77.31519,87.99546 130.90803,98.47685 30.22944,5.91211 40.13504,-92.93473 2.20718,-95.53715 -44.52095,-3.0548 -72.08054,-18.4176 -96.72367,-52.19647 -7.01545,-9.61623 -27.90208,-7.21849 -38.72407,11.02503 z" fill="#f2ab54" id="path3338" stroke="#e97135" stroke-width="7" />
      <g id="g5807" transform="translate(0,52.691737)">
        <path d="m 345.31743,672.77216 c 5.53173,7.96471 6.98033,16.65822 5.34315,26.05052 88.89286,25.93 95.06343,-46.23855 -5.34315,-26.05052 z" fill="white" id="path5480" stroke="#b0d8e7" stroke-width="3.5" />
        <path d="m 397.9556,692.18085 c -10.44444,-3.00532 -21.86277,-3.76123 -32.95598,-2.27046 11.76879,0.63992 21.99878,2.09665 32.03657,5.57736 z" fill="#b0d8e7" id="path5805" />
      </g>
      <path d="m 847.65877,904.71403 c 36.80157,47.60173 72.65888,105.40417 91.70618,163.37057 14.80977,45.0704 96.85435,-35.1381 61.97795,-80.05062 -34.32425,-44.20051 -70.8227,-83.07266 -109.00158,-121.07757 -7.86576,-7.82981 -20.54324,-6.68838 -31.41434,-0.41195 -11.91525,6.87928 1.65132,-33.80058 -8.99799,-72.65255 C 809.51745,639.16152 623.07589,835.78849 583.48268,634.80161 546.34807,446.29538 305.35759,482.26879 347.6025,686.2748 c 4.38391,21.17042 -29.02641,6.34088 -19.11168,30.53754 15.34732,37.45477 53.46749,-5.97373 68.23543,37.90342 -16.21377,-2.83155 -30.18413,-3.54374 -45.72834,-3.45404 32.74701,19.99528 80.77386,23.93956 121.39432,14.37356 95.80253,41.0463 106.63745,154.75097 294.76788,110.88264 22.67515,21.73245 52.99921,34.71579 80.49866,28.19611 z" fill="#faba61" id="path6192" />
      <g id="AJ" transform="matrix(0.17707337,-0.06504656,0.06504656,0.17707337,604.44828,714.75999)">
        <path d="m 812.05251,628.20393 c 63.85516,-50.68604 98.59506,0.84962 72.77626,58.34123 -15.49751,34.50904 -59.54338,71.66117 -102.84904,43.9064 -56.61397,22.72521 -90.57319,-45.19125 -84.20389,-92.62431 9.18941,-68.43516 71.31967,-65.30874 114.27667,-9.62332 z M 613.57195,815.8584 c 41.35978,-57.86219 83.51044,-49.42301 96.83442,10.8262 9.08284,41.0708 -2.64478,111.5818 -58.34123,107.6606 -53.14758,25.7544 -100.69419,-14.5887 -115.47967,-69.7689 -16.09146,-60.05419 17.69433,-85.08835 76.98648,-48.7179 z m 386.73645,110.0665 c -14.97897,55.9023 -77.012,85.6148 -120.29124,51.7252 -53.45984,3.2029 -82.36837,-53.0664 -77.58788,-98.6388 6.6958,-63.8328 60.4876,-67.4797 95.03012,-9.6233 68.60887,-40.688 119.2606,-4.7119 102.849,56.5369 z" fill="#ea403f" id="path7465" />
        <path d="m 813.85691,599.33396 c -28.10673,1.92239 -36.12992,-33.02424 -33.08008,-55.33393 30.74208,9.75149 35.76504,28.10909 33.08008,55.33393 z M 553.42631,745.4879 c 23.45232,6.08855 44.74498,28.94333 52.92812,51.72531 -14.19963,0.0915 -41.5351,2.07432 -52.92812,-51.72531 z m 58.34123,64.9573 c -3.45187,-33.32297 2.02754,-56.30451 13.23204,-77.58783 9.62332,0.8019 15.03643,5.41311 16.23933,13.83343 -22.22094,19.93255 -29.47137,63.7544 -29.47137,63.7544 z m 235.77094,-260.43065 12.63054,16.23934 c -17.41197,11.56079 -38.80847,26.65258 -43.90631,47.5151 3.18197,-21.47552 13.43933,-52.05992 31.27577,-63.75444 z M 901.66951,854.953 c 2.20993,-35.8934 1.03588,-62.09778 -11.42763,-89.61696 5.21262,-7.61851 12.63063,-10.02432 22.25386,-7.21751 3.6088,35.28547 0,67.56367 -10.82623,96.83447 z m 6.01461,2.4059 c 4.27604,-30.9672 14.29762,-44.448 34.28298,-64.3559 10.76945,34.8994 -5.16036,52.8342 -34.28298,64.3559 z" fill="#60bd50" id="path7467" />
      </g>
      <path fill="#e97135" id="path5564" inkscape:original-d="m 735.51723,825.28554 c 14.03136,51.24022 75.84989,97.48705 123.29576,75.47338" inkscape:path-effect="#path-effect7177" />
      <path d="M 467.45144,763.57267 C 567.87276,802.69786 575.774,921.14643 767.10849,876.47085" fill="none" id="path4747" stroke="#e97135" stroke-width="7" />
      <path d="m 464.21145,767.30954 3.18613,-10.35181 15.02187,6.00625 z" fill="#faba61" id="path7183" />
      <path fill="#e97135" id="path7179" inkscape:original-d="m 487.53719,761.26211 c -43.12335,14.68957 -99.56893,12.57365 -136.53928,-10.00039 15.54421,-0.0897 29.51457,0.62249 45.72834,3.45404 -14.76794,-43.87715 -52.88811,-0.44865 -68.23543,-37.90342 -9.91473,-24.19666 23.49559,-9.36712 19.11168,-30.53754 -42.24491,-204.00601 198.74557,-239.97942 235.88018,-51.47319 39.59321,200.98688 226.03477,4.35991 268.44631,159.0903 10.64931,38.85197 -2.91726,79.53183 8.99799,72.65255 10.8711,-6.27643 23.54858,-7.41786 31.41434,0.41195 38.17888,38.00491 74.67733,76.87706 109.00158,121.07757 34.8764,44.91252 -47.16818,125.12102 -61.97795,80.05062 -19.0473,-57.9664 -54.90461,-115.76884 -91.58575,-163.33633" inkscape:path-effect="#path-effect5990" />
      <g id="g5762" transform="translate(0,52.691737)">
        <path d="m 622.53903,796.28917 c -17.1301,90.40892 -63.87398,34.42626 -126.68439,33.47459 -8.32701,18.13697 -11.64009,39.39602 -10.30431,60.50119 2.07002,32.70612 -104.09342,68.62338 -107.95896,37.51674 -8.87157,-71.39101 93.69823,-195.60001 181.93715,-142.17756 11.7696,0.70225 21.68108,-1.30694 29.23743,-6.42933 z" fill="#faba61" id="path5756" />
        <path fill="#e97135" id="path5710" inkscape:original-d="m 503.35488,816.33453 c -13.79515,20.5245 -19.4869,47.34951 -17.80455,73.93042 2.07001,32.70612 -104.09342,68.62338 -107.95896,37.51674 -9.3611,-75.33034 105.35707,-209.46844 196.39209,-131.6728" inkscape:path-effect="#path-effect5716" />
        <path fill="#e97135" id="path5712" inkscape:original-d="m 622.53903,796.28917 c -17.1301,90.40892 -63.47955,34.49442 -126.28996,33.54275" inkscape:path-effect="#path-effect5718" />
        <path d="m 554.23048,782.77244 c 12.83315,1.75799 24.47321,0.60922 34.53547,-3.59764 -6.1162,6.42379 -14.24871,8.74582 -25.10883,9.13755 z" fill="#e97135" id="path5714" />
      </g>
      <g id="g7291">
        <path d="m 494.02719,655.17862 c 10.70392,-1.33922 18.90055,-4.66432 26.9643,-11.4458 -5.97816,11.77538 -15.62929,16.14579 -26.46389,17.45083 z m -1.43939,-8.94685 c 10.25746,-3.33933 17.67738,-8.1546 24.31302,-16.33872 -3.64328,12.69347 -12.29372,18.81025 -22.68595,22.1408 z" id="path6777" />
        <g clip-path="url(#clipPath7159)" id="g7116" transform="matrix(1.0134355,0,0,1.0134355,-1.9835341,51.283816)">
          <g clip-path="url(#clipPath7110)" id="g7099">
            <ellipse cx="623.1778" cy="412.84314" fill="white" id="path4767" rx="50.290405" ry="60.927528" transform="rotate(20.357552)" />
            <g clip-path="url(#clipPath5727)" id="g5719" transform="matrix(1.3778979,0,0,1.3778979,-47.271482,-753.92788)">
              <ellipse cx="499.74045" cy="934.70367" fill="url(#linearGradient7664)" id="path10731" rx="26.939386" ry="34.365433" transform="rotate(7.4410392)" />
              <path d="m 380.60091,997.36553 -46.27034,41.33997 -14.49839,-26.4792 z" fill="#d1ecc9" id="path4672" />
              <path d="m 380.60091,997.36553 -62.02789,4.26237 5.18248,19.4814 z" fill="#7dd967" id="path4674" />
              <ellipse cx="502.05032" cy="934.82495" id="ellipse4666" rx="21.589624" ry="27.639618" transform="rotate(7.4410392)" />
              <ellipse cx="812.15997" cy="657.44812" fill="white" id="path4668" rx="9.6316328" ry="13.638204" transform="rotate(30.561129)" />
              <ellipse cx="935.91705" cy="506.13364" fill="white" id="ellipse4670" rx="3.2931368" ry="4.7051544" transform="rotate(41.225676)" />
            </g>
          </g>
        </g>
        <path d="m 490.19729,637.27202 c 9.26192,-5.5303 15.42963,-11.87077 20.08578,-21.32232 -0.7385,13.18533 -7.8176,21.06768 -17.21287,26.61929 -29.7827,17.59842 -69.292,29.38167 -98.14397,28.64818 -12.05109,-0.30637 -15.39287,-11.19136 -7.79855,-18.5892 -2.6314,7.71003 0.23541,12.66942 8.12983,12.77085 27.95189,0.35914 64.65624,-10.04446 94.93978,-28.1268 z m -95.24031,30.59121 c -0.73833,10.87346 1.22084,22.13405 5.42146,34.0198 -8.22164,-10.18694 -11.56816,-21.73356 -10.98693,-34.61044 z" id="path5779" />
        <ellipse cx="811.72302" cy="290.84253" fill="white" id="path4363" rx="4.1423874" ry="7.3464217" transform="rotate(33.704618)" />
        <ellipse cx="858.11584" cy="129.53352" fill="white" id="ellipse5170" rx="4.1423874" ry="7.3464217" transform="rotate(46.143628)" />
        <ellipse cx="865.80756" cy="161.91406" fill="white" id="ellipse5172" rx="4.0867143" ry="6.5547194" transform="rotate(43.384595)" />
        <path d="m 338.30482,711.90286 c 3.35109,2.39395 6.82708,1.30938 7.57038,-2.3666 2.06501,6.79796 -4.41415,9.00314 -7.57038,2.3666 z" fill="#e97135" id="path6711" />
      </g>
      <g id="g7257">
        <path d="m 515.86735,546.49087 c -27.16158,-14.27653 -56.7807,-7.51499 -81.29737,33.08369 -1.35342,-8.41747 -1.39277,-17.88459 -1.27817,-26.50634 -13.37632,30.30156 -25.67248,47.07361 -48.98625,61.35563 4.60375,-8.53315 6.61219,-16.20179 7.57618,-25.16066 -34.37161,43.49483 -99.68515,68.12886 -144.79137,23.59497 55.05728,-1.23237 74.01531,-68.6852 95.34396,-100.47225 -10.81145,6.48918 -26.91549,20.77921 -31.36682,16.32789 -14.97044,-14.97045 88.80288,-147.13789 227.83644,-24.10857 z" id="path3939-9" style="stroke-miterlimit:20;stroke-width:7;fill:#fffaab;stroke:#f4dd6c" />
        <path d="M 331.63183,631.73629 C 388.62775,584.41913 355.86155,505.93854 465.68804,460.2615 M 273.41571,628.61924 C 363.3548,603.64091 342.02871,491.45527 444.8759,453.9601" id="path5224" style="stroke-miterlimit:5;stroke-width:3.5;fill:none;stroke:#f4dd6c" />
        <path d="m 568.94943,585.97597 c 20.1833,132.38736 -100.92505,124.05066 -47.48053,221.29165 23.30492,42.40273 106.4583,38.40877 77.79297,-71.83344 -13.7099,-52.72611 3.66943,-114.1553 -12.76876,-172.07474 z" fill="#fffaab" id="path3953-1" stroke="#f4dd6c" stroke-width="7" />
        <path d="m 602.62576,748.27193 c -8.65008,62.5773 -38.39211,63.69343 -83.91176,56.04402 m 74.76453,-121.19086 c -19.08811,47.14099 -1.57119,94.81891 -75.40804,119.14995" fill="none" id="path3961-0" stroke="#f4dd6c" stroke-width="3.53999996" />
        <path d="m 515.06323,796.28078 c 20.14467,-26.79203 44.16886,2.7176 23.10775,23.66365 z" fill="#ea403f" id="path3964-2-8" />
        <path d="m 445.5824,839.50119 c 8.72897,-90.47877 126.37107,-59.32849 88.71559,32.57027 7.34379,-1.094 15.01824,-3.24071 21.60772,-6.8529 -13.40924,43.27029 -61.02612,50.75052 -75.88072,8.25952 -2.85171,9.08872 -3.49316,20.41104 -1.90502,29.24551 -22.9349,-22.69002 -27.44261,-46.84818 -16.95143,-76.31975 -5.78444,3.18475 -11.23098,7.46326 -15.58614,13.09735 z" fill="#fffaab" id="path3955-6" stroke="#f4dd6c" stroke-width="7" />
        <path d="m 541.31461,842.11114 c -6.39148,16.96642 -25.98389,22.83809 -43.77707,16.89801 1.57204,21.03099 14.98887,33.64257 38.45825,35.61295" fill="none" id="path3957-2" stroke="#f4dd6c" stroke-width="3.53999996" />
        <path d="m 641.25948,606.17464 c 79.40677,-123.37109 53.23633,-125.71614 -39.58127,-175.40233 -36.45753,-19.51608 -34.28403,-49.99295 -55.83529,-44.66984 -21.32831,5.26804 -36.15069,21.96135 -109.82636,54.85827 z" fill="#cb9b61" id="path5181" stroke="#a4794c" stroke-width="7" />
        <path d="m 568.56803,430.08674 c 18.69142,25.46823 46.69322,44.98933 83.48184,62.43244 -39.1043,-11.54522 -70.55127,-32.73858 -83.48184,-62.43244 z" fill="#a4794c" id="path5183" />
        <path d="M 656.02883,721.31449 C 604.10579,521.58508 338.04697,440.33226 376.80045,337.04314 425.60654,530.91411 770.00789,467.08819 656.02883,721.31449 Z" fill="#cb9b61" id="path5190" stroke="#a4794c" stroke-width="7" />
        <path d="m 507.91421,557.51965 c -1,-41.5 24.20414,-83.39487 36.20711,-84 18.98008,-0.95688 70.29289,78 20.29289,158.5 z" fill="#faba61" id="path5979" />
        <path d="m 546.77638,518.02106 c 13.57691,21.80447 13.98292,46.94369 7.10317,71.07142 11.5042,-21.88014 9.91171,-52.13272 -7.10317,-71.07142 z" fill="#e97135" id="path4516" />
        <path fill="#e97135" id="path5972" inkscape:original-d="m 507.91421,557.51965 c -1,-41.5 24.20414,-83.39487 36.20711,-84 18.98008,-0.95688 70.29289,78 20.29289,158.5" inkscape:path-effect="#path-effect5977" />
      </g>
      <g id="g4257" transform="translate(0,52.691737)">
        <path d="m 1075.1464,476.3732 c -17.4593,46.20299 11.6185,80.36946 66.6406,49.11511 -5.9121,13.9934 -15.5094,28.41895 -27.4564,40.36598 -25.6037,25.6037 16.4339,123.67335 45.3687,92.97637 74.6099,-79.15371 40.647,-267.48961 -39.6701,-179.89752 -3.434,-4.08148 -5.9875,-9.05325 -7.6349,-14.2425 z" fill="#9dd9f8" id="path4251" />
        <path fill="#6aaadd" id="path4262" inkscape:original-d="m 1075.1464,476.3732 c -17.7292,48.02505 13.088,81.45895 69.7697,47.29111" inkscape:path-effect="#path-effect4243" />
        <path d="m 1144.2563,519.46409 -5.7079,13.9785 11.6487,-5.70789 z" fill="#9dd9f8" id="path4255" />
        <path d="m 1118.0777,481.27644 4.1662,-3.8482 c -4.0785,-3.80312 -6.9526,-7.60366 -9.8496,-12.7376 0.946,6.12237 2.7622,11.27421 5.6834,16.5858 z" fill="#6aaadd" id="path4245" />
        <path fill="#6aaadd" id="path4264" inkscape:original-d="m 1112.9861,487.1842 c 85.3169,-106.76624 123.4688,90.21635 46.7132,171.64646 -28.9348,30.697 -70.9724,-67.37265 -45.3687,-92.97637 15.6716,-15.67159 27.3,-35.60798 32.0004,-53.33259" inkscape:path-effect="#path-effect4239" />
      </g>
      <g id="g6413">
        <path d="m 1449.5228,309.7968 c -45.5159,15.27446 -95.3904,18.23927 -149.6861,5.92679 19.7078,13.27503 26.4522,22.7872 33.4267,37.05626 -49.2169,-25.89268 -95.2938,-29.5301 -148.1454,-16.04459 l -24.0823,-39.20928 c 5.3078,-13.7247 12.0411,-26.52089 19.9999,-38.18963 110.2718,-27.30811 172.3676,45.9116 268.4872,50.46045 z" fill="#f5eb7e" id="path6576" />
        <path d="m 1181.0356,259.33635 c 34.7301,-50.91938 92.7956,-80.36942 157.5706,-71.81805 -23.2549,5.30809 -44.0573,13.09819 -60.7321,23.21667 55.4001,-6.26181 96.7106,5.50453 130.2487,40.16701 -24.385,-11.53809 -44.3919,-14.87308 -72.2881,-15.40673 52.6821,23.22899 54.9208,56.06883 113.6881,74.30155 -102.0546,-2.91992 -132.1057,-78.54062 -268.4872,-50.46045 z" fill="#f13e32" id="path6584" />
        <path d="m 1408.1228,250.90198 c -24.385,-11.53809 -44.3919,-14.87308 -72.2881,-15.40673 52.6821,23.22899 54.9208,56.06883 113.6881,74.30155 -35.6275,11.95609 -73.9255,16.37006 -114.6943,11.92754 -48.2055,-40.50797 -102.2354,-61.56135 -162.3906,-48.24674 4.5447,-8.3787 9.6821,-16.12329 14.9597,-23.02651 59.5197,-22.60754 124.5259,-31.35138 189.3572,-23.93452 11.3414,6.26873 21.679,14.37162 31.368,24.38541 z" fill="#f67634" id="path6574" />
        <path d="m 1161.0357,297.52598 c 28.4695,-73.61576 97.9516,-120.51869 177.5705,-110.00768 -23.2549,5.30809 -44.0573,13.09819 -60.7321,23.21667 55.4001,-6.26181 96.7106,5.50453 130.2487,40.16701 -24.385,-11.53809 -44.3919,-14.87308 -72.2881,-15.40673 52.6821,23.22899 54.9208,56.06883 113.6881,74.30155 -45.5159,15.27446 -95.3904,18.23927 -149.6861,5.92679 19.7078,13.27503 26.4522,22.7872 33.4267,37.05626 -49.2169,-25.89268 -95.2938,-29.5301 -148.1454,-16.04459 z" id="path6567" style="stroke-miterlimit:20;stroke-width:7;fill:none;stroke:#0193cf" />
        <path d="m 1185.5376,633.95271 c 18.7575,-48.19467 17.3983,-94.80355 -9.3832,-137.10293 13.1047,8.04528 25.851,11.76503 40.4026,11.67766 -31.0008,-23.94261 -49.3486,-64.20424 -53.602,-104.90887 l -17.291,-100.45871 c -18.2708,45.95012 -25.7332,97.53503 -22.4636,150.00662 30.5604,64.71312 76.7443,109.67952 62.3372,180.78623 z" fill="#7ac240" id="path8355" />
        <path d="m 1115.1517,675.36864 c 38.3748,-27.80442 53.3074,-59.4021 51.1496,-113.35018 14.5553,21.10036 20.6591,46.68438 19.2363,71.93425 14.4641,-70.44201 -33.5016,-113.74972 -62.278,-178.37553 6.0029,74.69139 25.6703,157.5026 -8.1079,219.79146 z" fill="#662e8a" id="path8359" />
        <path d="m 1128.0836,506.35643 c 15.3428,38.82808 31.1292,72.62356 30.0752,116.79958 6.5883,-16.96095 9.1176,-36.76416 8.1427,-61.13851 14.5553,21.10035 20.6593,46.68433 19.2365,71.93419 6.4478,-16.56691 10.5185,-32.94573 11.9966,-49.02918 -16.9398,-76.07383 -58.1411,-109.53512 -73.5365,-190.12619 -4.1511,38.82557 0.6807,79.11243 4.0855,111.56011 z" fill="#0193cf" id="path8350" />
        <path d="m 1145.664,303.15986 c -61.1696,162.05526 24.5217,259.4743 -30.5123,372.20878 38.3748,-27.80442 53.3074,-59.4021 51.1496,-113.35018 14.5553,21.10036 20.6591,46.68438 19.2363,71.93425 18.7575,-48.19467 17.3983,-94.80355 -9.3832,-137.10293 13.1047,8.04528 25.851,11.76503 40.4026,11.67766 -31.0008,-23.94261 -49.3486,-64.20424 -53.602,-104.90887 z" id="path7426" style="stroke-miterlimit:20;stroke-width:7;fill:none;stroke:#0193cf" />
        <path d="m 1209.9338,348.80141 c -11.0977,-40.00115 -47.3843,-72.76859 -59.0456,-69.86112 -18.4396,4.59755 -44.6053,95.05499 26.6218,157.56058 z" fill="#9dd9f8" id="path5979-5" />
        <path d="m 1161.274,322.29419 c -6.6579,24.80804 0.2558,48.98129 13.8473,70.07035 -17.3637,-17.59511 -24.6274,-47.00588 -13.8473,-70.07035 z" fill="#6aaadd" id="path4516-5" />
        <path fill="#6aaadd" id="path5972-4" inkscape:original-d="m 1209.9338,348.80141 c -11.0977,-40.00115 -47.3843,-72.76859 -59.0456,-69.86112 -18.4396,4.59755 -44.6053,95.05499 26.6218,157.56058" inkscape:path-effect="#path-effect5977-8" />
      </g>
      <use clip-path="url(#clipPath3499)" id="use3495" xlink:href="#path6445" />
    </g>
  </g>
</svg>