<svg xmlns="http://www.w3.org/2000/svg" xmlns:inkscape="http://www.inkscape.org/namespaces/inkscape" xmlns:xlink="http://www.w3.org/1999/xlink" height="283" viewBox="0 0 774 283" width="774">
  <defs>
    <inkscape:path-effect effect="powerstroke" id="path-effect4605" interpolator_type="CubicBezierSmooth" offset_points="0.2,1 | 8,1" start_linecap_type="zerowidth" />
    <inkscape:path-effect effect="powerstroke" id="path-effect4574" interpolator_type="CubicBezierSmooth" offset_points="0.6,1 | 3,1" start_linecap_type="zerowidth" />
    <inkscape:path-effect effect="powerstroke" id="path-effect4560" interpolator_type="CubicBezierSmooth" offset_points="0.24,1" start_linecap_type="zerowidth" />
    <inkscape:path-effect effect="powerstroke" id="path-effect4458" interpolator_type="CubicBezierSmooth" miter_limit="20" offset_points="0.14,1 | 3,1" start_linecap_type="zerowidth" />
    <inkscape:path-effect effect="powerstroke" end_linecap_type="zerowidth" id="path-effect4456" interpolator_type="CubicBezierSmooth" miter_limit="20" offset_points="0.4,1 | 6.3,1" start_linecap_type="zerowidth" />
    <inkscape:path-effect effect="powerstroke" end_linecap_type="zerowidth" id="path-effect6168" interpolator_type="CubicBezierSmooth" offset_points="0.2,1 | 1.84,1" start_linecap_type="zerowidth" />
    <inkscape:path-effect effect="powerstroke" end_linecap_type="zerowidth" id="path-effect4962" interpolator_type="CubicBezierSmooth" offset_points="0.4,1 | 0.6,1" start_linecap_type="zerowidth" />
    <inkscape:path-effect effect="powerstroke" id="path-effect4960" interpolator_type="CubicBezierSmooth" offset_points="0.4,1" start_linecap_type="zerowidth" />
    <inkscape:path-effect effect="powerstroke" id="path-effect4941" interpolator_type="CubicBezierSmooth" offset_points="0.52,1 | 5,1" start_linecap_type="zerowidth" />
    <inkscape:path-effect effect="powerstroke" id="path-effect4921" interpolator_type="CubicBezierSmooth" offset_points="0.28,1 | 1,1 | 1.8,1" start_linecap_type="zerowidth" />
    <inkscape:path-effect effect="powerstroke" end_linecap_type="zerowidth" id="path-effect4919" interpolator_type="CubicBezierSmooth" offset_points="0.24,1 | 1.5,1 | 2.79,1" start_linecap_type="zerowidth" />
    <inkscape:path-effect effect="powerstroke" id="path-effect4839" interpolator_type="CubicBezierSmooth" offset_points="0.32,0.75 | 1,0.75" start_linecap_type="zerowidth" />
    <inkscape:path-effect effect="powerstroke" id="path-effect4825" interpolator_type="CubicBezierSmooth" offset_points="0.14,1 | 3.8,1" start_linecap_type="zerowidth" />
    <inkscape:path-effect effect="powerstroke" end_linecap_type="zerowidth" id="path-effect4823" interpolator_type="CubicBezierSmooth" offset_points="0.37,1 | 5.56,1" start_linecap_type="zerowidth" />
    <inkscape:path-effect effect="powerstroke" id="path-effect4656" interpolator_type="CubicBezierSmooth" offset_points="0.42,1 | 2,1" start_linecap_type="zerowidth" />
    <inkscape:path-effect effect="powerstroke" id="path-effect4654" interpolator_type="CubicBezierSmooth" offset_points="0.54,1" start_linecap_type="zerowidth" />
    <inkscape:path-effect effect="powerstroke" end_linecap_type="zerowidth" id="path-effect4630" interpolator_type="CubicBezierSmooth" offset_points="0.15,1 | 9.56,1" start_linecap_type="zerowidth" />
    <inkscape:path-effect effect="powerstroke" id="path-effect4604" interpolator_type="CubicBezierSmooth" offset_points="0.65,1 | 6,1" start_linecap_type="zerowidth" />
    <inkscape:path-effect effect="powerstroke" id="path-effect4591" interpolator_type="CubicBezierSmooth" offset_points="0.33,1" start_linecap_type="zerowidth" />
    <inkscape:path-effect effect="powerstroke" id="path-effect4555" interpolator_type="CubicBezierSmooth" offset_points="0.38,1 | 1,1" start_linecap_type="zerowidth" />
    <inkscape:path-effect effect="powerstroke" end_linecap_type="zerowidth" id="path-effect4553" interpolator_type="CubicBezierSmooth" offset_points="0.24,1 | 2,1 | 3.81,1" start_linecap_type="zerowidth" />
    <inkscape:path-effect effect="powerstroke" id="path-effect4364" interpolator_type="CubicBezierSmooth" offset_points="0.13,1 | 3,1" start_linecap_type="zerowidth" />
    <inkscape:path-effect effect="powerstroke" end_linecap_type="zerowidth" id="path-effect4362" interpolator_type="CubicBezierSmooth" miter_limit="20" offset_points="0.33,1 | 2.48,1" start_linecap_type="zerowidth" />
    <inkscape:path-effect effect="powerstroke" id="path-effect4360" interpolator_type="CubicBezierSmooth" miter_limit="20" offset_points="0.44,1 | 4,1" start_linecap_type="zerowidth" />
    <clipPath id="clipPath4313">
      <use xlink:href="#ellipse4304" />
    </clipPath>
    <clipPath id="clipPath4356">
      <path d="m 425.31927,45.639896 c -3.33524,8.664294 -13.96193,7.008159 -23.81003,0.796695 4.27274,-15.207289 32.99658,-18.630565 23.81003,-0.796695 z" />
    </clipPath>
    <clipPath id="clipPath4741">
      <use xlink:href="#path4726" />
    </clipPath>
    <clipPath id="clipPath4779">
      <use xlink:href="#path4764" />
    </clipPath>
    <clipPath id="clipPath6362">
      <use xlink:href="#ellipse6332" />
    </clipPath>
    <clipPath id="clipPath6424">
      <use xlink:href="#ellipse6413" />
    </clipPath>
  </defs>
  <g inkscape:groupmode="layer" inkscape:label="Drawing">
    <g>
      <path d="m 317.96678,83.609825 c -3.92248,24.270255 -0.20201,39.138975 12.00998,38.733115 6.6566,-0.22131 -0.58837,-51.602506 -9.92671,-52.996842 z" style="stroke-miterlimit:20;stroke:#352c2c;fill:#978d7b;stroke-width:2" />
      <path d="m 319.28712,115.78266 c 0.27924,-3.10093 1.06339,-7.82987 2.02368,-11.50056 -1.62039,3.0011 -2.40624,5.87498 -3.06991,9.04694 z m 6.41795,-9.50163 c -1.16769,5.10977 -1.4839,10.11531 -0.60169,15.20199 l 2.36369,0.76299 c -1.42805,-4.77595 -1.90667,-9.71119 -1.76213,-15.965 z" fill="#352c2c" />
      <path d="m 209.4396,96.560353 c -7.15025,7.097987 -13.96249,11.599047 -20.51304,14.148927 l 2.4665,-3.89865 c -8.7333,5.7033 -18.16968,2.84726 -29.9525,5.43879 l -1.55949,-2.81417 19.239,-18.510492 z" style="stroke-miterlimit:20;stroke:#352c2c;fill:#675c51;stroke-width:2" />
      <path d="m 164.26841,109.83665 c -0.85361,-2.11595 -2.27008,-3.76313 -5.00436,-5.51128 1.0226,1.3447 1.52127,2.4714 1.8748,3.71803 -2.2282,-1.63526 -4.56427,-2.87728 -7.74769,-3.87985 2.46451,1.61806 3.91728,3.00308 5.70036,4.86496 -3.32962,-1.82483 -6.11515,-2.67589 -10.45165,-2.85378 3.79095,1.22119 6.74773,2.75431 9.54975,5.20054 -2.79789,-0.8038 -5.30624,-1.23813 -8.29313,-1.00106 4.24999,1.03376 6.94233,2.20591 9.7089,3.96207 3.79747,2.41054 6.2527,-0.55907 4.66302,-4.49963 z" fill="#15130f" />
      <path d="m 336.25136,42.711 c 50.69139,-18.675448 114.67993,-4.982279 139.5297,26.682434 -95.97967,51.389606 -112.23938,-11.040059 -136.02918,-17.597572 z" style="stroke-miterlimit:20;stroke:#1f1e1b;fill:#25201f;stroke-width:2" />
      <path d="m 387.4355,85.379441 c -4.43477,-1.698942 -8.42091,-3.819018 -12.05838,-6.165806 8.0212,-18.4903 5.50744,-32.930674 -9.45404,-43.701782 9.99762,-1.301031 20.1136,-1.579293 30.01218,-0.926977 12.25612,21.110049 10.07113,39.692714 -8.49976,50.794565 z m 29.31544,-47.993738 c 9.65354,1.987481 18.82561,4.883903 27.15427,8.589884 6.24517,14.214393 3.25644,27.859882 -4.51177,38.932339 -13.54748,4.048372 -24.90222,5.175304 -34.57732,4.37872 24.74381,-13.018384 28.16074,-36.446866 11.93482,-51.900943 z m 44.39354,18.306334 c 5.73013,4.072682 10.67957,8.659192 14.63658,13.701397 -6.44323,3.449846 -12.5272,6.386754 -18.27829,8.862062 8.87418,-6.272215 8.85142,-14.108331 3.64171,-22.563459 z" fill="#eee9d6" />
      <path d="m 336.25136,42.711 c 50.69139,-18.675448 114.67993,-4.982279 139.5297,26.682434 -95.97967,51.389606 -112.23938,-11.040059 -136.02918,-17.597572 z" style="stroke-miterlimit:20;stroke:#14110d;fill:none;stroke-width:2" />
      <path d="m 235.51933,113.665 c 37.13618,1.41674 65.12618,5.27537 96.41929,-13.28972 33.5952,-19.930837 28.21869,-72.003659 -26.62695,-72.003659 -31.56215,0 -45.99249,20.726166 -63.11155,23.878616 l -41.33495,45.663069 z" fill="#675c51" />
      <path d="m 331.93862,100.37528 c -31.29311,18.56509 -59.28311,14.70646 -96.41929,13.28972 l -34.65416,-15.751694 c 45.41143,0.951963 74.00125,-24.931699 101.97632,-26.625313 z" fill="#eee9d6" />
      <path d="m 235.51933,113.665 c 37.13618,1.41674 65.12618,5.27537 96.41929,-13.28972 33.5952,-19.930837 28.21869,-72.003659 -26.62695,-72.003659 -31.56215,0 -45.99249,20.726166 -63.11155,23.878616 l -41.33495,45.663069 z" style="stroke-miterlimit:20;stroke:#352c2c;fill:none;stroke-width:2" />
      <path d="m 251.58821,110.99125 c -6.6093,3.79108 -12.98019,3.85646 -20.50454,1.72104 2.17916,2.08973 3.31464,3.18959 6.28755,4.89783 -14.41459,1.8878 -32.98363,-3.61323 -38.20562,-17.17873 l -3.5776,6.93236 c -2.02567,-3.70918 -3.18057,-7.23176 -3.51847,-11.679399 l 60.57853,10.705729 z" fill="#eee9d6" />
      <path fill="#bab2a4" inkscape:original-d="m 251.58821,110.99125 c -6.6093,3.79108 -12.98019,3.85646 -20.50454,1.72104 2.17916,2.08973 3.31464,3.18959 6.28755,4.89783 -14.41459,1.8878 -32.98363,-3.61323 -38.20562,-17.17873 l -3.5776,6.93236 c -2.02567,-3.70918 -3.18057,-7.23176 -3.51847,-11.679399" inkscape:path-effect="#path-effect4941" />
      <g>
        <path d="m 205.6185,47.536757 c -10.35851,-5.937291 -15.58507,-11.150175 -20.87265,-23.81791 -4.46305,-10.692366 -21.89227,-1.438886 -10.11218,33.824436" style="stroke-miterlimit:20;stroke:#352c2c;fill:#675c51;stroke-width:2" />
        <path d="m 203.74942,46.344671 c 22.43538,-12.97523 18.5306,-21.64764 25.5592,-30.015887 11.03476,-13.1379901 28.34682,12.352447 12.29277,42.541522 z" fill="#675c51" />
        <path d="m 227.89268,31.06892 c 4.15434,-1.475632 5.69341,2.100481 2.91665,11.131789 7.05423,-4.096524 6.12719,1.587732 0.95552,6.91853 l -2.19996,5.768057 12.0365,3.98301 c 11.28083,-21.213195 6.08693,-40.106409 -1.76105,-44.897264 -6.57931,1.507235 -9.3693,9.625239 -11.94766,17.095878 z" fill="#82776a" />
        <path fill="#352c2c" inkscape:original-d="m 221.14955,43.65845 c 7.30311,-4.549656 7.22693,-27.07798 18.75709,-29.675024" inkscape:path-effect="#path-effect4839" />
        <path d="m 227.88385,31.058967 c 4.16317,-1.465679 5.70224,2.110434 2.92548,11.141742 7.05423,-4.096524 6.12719,1.587732 0.95552,6.91853" style="stroke-miterlimit:20;stroke:#352c2c;fill:none;stroke-width:1.5" />
        <path d="m 203.74942,46.344671 c 22.43538,-12.97523 18.5306,-21.64764 25.5592,-30.015887 11.03476,-13.1379901 28.34682,12.352447 12.29277,42.541522 z" style="stroke-miterlimit:20;stroke:#352c2c;fill:none;stroke-width:2" />
        <path d="m 214.9886,44.43129 c -52.78667,-3.560915 -44.50589,24.659784 -57.52863,17.482171 0.51079,5.559828 1.86952,9.340088 4.20525,13.007675 -2.43991,-0.608688 -4.35871,-2.132781 -5.91483,-4.108173 0.25547,3.700496 1.03876,6.914834 2.86699,10.618065 -2.5482,0.564604 -5.40928,0.901188 -8.55786,1.149956 12.51656,22.508626 48.36678,22.922016 71.40872,14.137317 23.17203,-8.834297 34.31149,-21.89065 34.40239,-31.9789 -3.36061,3.303437 -6.87462,4.970279 -11.87591,6.037734 6.99464,-4.883864 9.55428,-10.016121 10.79912,-17.774887 -13.98163,8.074581 -16.95463,-2.87175 -27.86497,-6.160828 z" fill="#675c51" />
        <path d="m 163.75638,76.197791 c 6.58857,4.374557 18.0781,2.057613 16.72165,-17.416571 l 5.47596,-2.628904 c -8.87793,31.731748 31.52517,29.36665 47.39323,20.069971 l -30.51941,-27.461036 -21.76496,7.024275 -6.24127,-4.479453 c -6.06492,3.636055 -10.5241,15.597276 -17.24252,10.618885 0.10224,5.460159 1.74077,10.889082 6.17732,14.272833 z" fill="#3c3837" />
        <g>
          <g clip-path="url(#clipPath4779)">
            <ellipse cx="179.75537" cy="40.18763" fill="#fff" id="path4764" rx="5.8129215" ry="9.2220249" transform="rotate(9.5532854)" />
            <ellipse cx="162.6797" cy="93.666481" rx="4.6785288" ry="7.3495488" transform="rotate(352.12439)" />
            <ellipse cx="162.19153" cy="94.446114" fill="#fff" rx="1.9012997" ry="2.9867716" transform="rotate(351.22734)" />
          </g>
          <path d="m 161.0846,71.154265 c 1.23773,1.65968 3.10574,1.966268 4.95492,1.28799 -1.09709,-11.401328 8.33403,-16.341015 10.47426,-3.813931 1.44577,-13.383693 -12.33181,-12.520838 -12.50102,2.498717 -0.80727,0.297558 -1.81145,0.374468 -2.92816,0.02722 z" fill="#070707" />
        </g>
        <path d="m 177.19635,71.776055 c -4.60715,6.782773 -12.95609,9.684514 -27.13683,10.804929 4.55825,8.197137 12.21114,13.463887 21.21303,16.42317 10.52211,-1.687023 14.21005,-5.885506 11.78792,-22.884721 -3.74619,-26.291799 26.09281,-32.5709 35.69367,-7.544453 6.07195,15.827687 25.68881,15.206014 37.11649,-3.835579 -3.36061,3.303437 -6.87462,4.970279 -11.87591,6.037734 6.99464,-4.883864 9.55428,-10.016121 10.79912,-17.774887 -35.34021,40.602126 -27.594,-25.565457 -66.43348,-2.296988 0.90945,-3.520827 -2.33586,-3.426869 -6.64599,3.716781 -0.40476,-2.465469 -1.51866,-4.056752 -3.58732,-4.852393 l -5.90699,3.882107 c 5.27152,3.231041 9.49493,11.671841 4.97629,18.3243 z" fill="#eee9d6" />
        <g>
          <g clip-path="url(#clipPath4741)">
            <ellipse cx="209.23119" cy="-21.064592" fill="#fff" id="path4726" rx="9.1540966" ry="11.207255" transform="rotate(25.316918)" />
            <ellipse cx="180.54504" cy="99.806274" rx="6.1007309" ry="8.6581068" transform="rotate(351.82309)" />
            <ellipse cx="172.35886" cy="114.95643" fill="#fff" rx="2.2638757" ry="3.2128742" transform="rotate(346.23651)" />
          </g>
          <path d="m 205.10493,74.296203 c 5.1512,-15.268528 -10.29486,-17.560876 -15.97943,-5.839937 2.61795,-15.790177 23.60896,-12.643472 19.39163,4.438635 1.7973,0.542962 3.63439,0.650244 5.67039,-0.155573 -1.9072,3.046619 -4.81195,3.581049 -9.08259,1.556875 z" fill="#070707" />
        </g>
        <path d="m 161.48116,94.347188 c 6.27566,-1.684269 9.00331,-4.221472 9.6255,-8.790792 0.63533,4.950649 -1.40051,7.75002 -8.12507,9.926177" fill="#352c2c" />
        <circle cx="162.29787" cy="84.519173" fill="#a8a190" id="path4794" r="0.66946971" />
        <use transform="translate(5.4432567-2.1591284)" xlink:href="#path4794" />
        <use transform="translate(3.6188633 3.0562603)" xlink:href="#path4794" />
        <path d="m 167.78307,84.824764 0.61886,1.575289 c 16.46582,-0.509926 32.25651,2.369655 48.0472,6.45126 -14.97943,-5.381189 -30.96235,-8.326093 -48.66606,-8.026549 z m -0.34492,-1.523559 0.67512,1.350248 c 18.06558,-2.023947 34.58475,-2.328206 53.32099,-2.011503 -17.50652,-1.550389 -36.24585,-1.425705 -53.99611,0.661255 z m 1.07322,-0.709989 1.10025,1.01103 c 13.30643,-5.202088 25.18322,-6.994878 42.83652,-7.320659 -16.20816,-1.054336 -29.77908,0.520225 -43.93677,6.309629 z" fill="#fbf5e5" />
        <path fill="#352c2c" inkscape:original-d="m 214.9886,44.43129 c -52.78667,-3.560915 -44.50589,24.659784 -57.52863,17.482171 0.51079,5.559828 1.86952,9.340088 4.20525,13.007675 -2.43991,-0.608688 -4.35871,-2.132781 -5.91483,-4.108173 0.266,3.853006 1.10422,7.178955 3.04391,10.946171" inkscape:path-effect="#path-effect4825" />
        <path fill="#352c2c" inkscape:original-d="m 226.92887,46.84142 c 10.91034,3.289078 13.88334,14.235409 27.86497,6.160828 -1.24484,7.758766 -3.80448,12.891023 -10.79912,17.774887 5.00129,-1.067455 8.5153,-2.734297 11.87591,-6.037734 -0.0909,10.08825 -11.23036,23.144603 -34.40239,31.9789 -23.04194,8.784699 -58.89216,8.371309 -71.40872,-14.137317 14.18074,-1.120415 22.52968,-4.022156 27.13683,-10.804929" inkscape:path-effect="#path-effect4823" />
        <path d="m 152.59066,86.814613 c -5.4223,-1.541002 -7.5606,-3.950659 -7.5606,-6.186661 0,-4.376028 14.59285,-4.03666 14.87549,-0.782904 0.2153,2.478528 -2.459,4.977684 -7.31489,6.969565 z" fill="#2e2724" />
        <path d="m 145.03006,80.627952 c 0,-4.376028 14.59285,-4.03666 14.87549,-0.782904 -3.53101,1.435489 -11.57081,1.781905 -14.87549,0.782904 z" fill="#4b4641" />
        <path d="m 152.59066,86.814613 c -5.4223,-1.541002 -7.5606,-3.950659 -7.5606,-6.186661 0,-4.376028 14.59285,-4.03666 14.87549,-0.782904 0.2153,2.478528 -2.459,4.977684 -7.31489,6.969565 z" style="stroke-miterlimit:20;stroke:#221b17;fill:none;stroke-width:2" />
      </g>
      <g>
        <path d="m 256.70315,86.061168 c 1.66217,11.292536 -9.02907,20.855442 -21.73873,29.785732 l -0.12673,-3.62254 c -6.36948,9.66254 -20.8581,8.78158 -31.25399,14.27486 l -2.28348,-2.65271 c 10.4619,-16.08466 27.82793,-30.343075 46.56758,-38.602206 z" fill="#675c51" />
        <path fill="#352c2c" inkscape:original-d="m 247.8678,85.244304 c -18.73965,8.259131 -36.10568,22.517546 -46.56758,38.602206 l 2.28348,2.65271 c 12.62439,-6.67084 31.28424,-3.94172 34.14999,-22.05279" inkscape:path-effect="#path-effect4919" />
        <path fill="#352c2c" inkscape:original-d="m 256.70315,86.061168 c 1.66217,11.292536 -9.02907,20.855442 -21.73873,29.785732 l -0.14872,-3.65386" inkscape:path-effect="#path-effect4921" />
        <path d="m 206.55592,124.3552 c -0.50618,-2.51339 -1.74335,-4.73714 -3.84293,-6.59517 0.74268,2.20338 1.04293,3.85287 1.31175,5.90537 -2.06762,-3.20873 -4.66731,-5.49942 -8.24842,-7.24169 2.02803,1.96514 3.19619,3.61924 4.70947,5.71271 -3.29056,-2.05578 -6.78567,-3.31057 -11.48095,-3.8292 4.08204,1.83483 7.24307,3.875 10.06842,6.95513 -3.02481,-1.24538 -5.77225,-2.04207 -9.13743,-2.14844 4.61798,1.68262 7.59553,3.46068 10.31605,5.94225 3.57123,3.25765 7.25898,0.0406 6.30404,-4.70096 z" fill="#15130f" />
      </g>
      <path d="m 304.58112,44.275988 c -28.70149,18.022641 -21.61767,42.903722 -4.92628,54.184856 16.01816,10.826116 53.47725,7.690596 44.88725,-29.388828 z" fill="#675c51" />
      <path d="m 308.91263,66.781034 c -2.27453,2.989727 -2.15646,6.789965 0.80657,9.152878 -1.35653,-3.210366 -1.35809,-5.846384 -0.80657,-9.152878 z m -3.5369,-3.938845 c -3.27947,2.798911 -3.80632,6.281839 -1.73937,9.825123 -0.50462,-3.575318 0.12582,-6.605258 1.73937,-9.825123 z m -4.70701,-5.085182 c -2.92877,3.164032 -2.89589,6.497302 -0.57569,9.961276 -0.92022,-3.49152 -0.44568,-6.768462 0.57569,-9.961276 z" fill="#797165" />
      <path fill="#352c2c" inkscape:original-d="m 304.58112,44.275988 c -28.70149,18.022641 -21.61767,42.903722 -4.92628,54.184856 16.01816,10.826116 53.47725,7.690596 44.88725,-29.388828" inkscape:path-effect="#path-effect6168" />
      <path d="m 336.55344,77.552543 14.27431,-2.61953 c 0.95461,-4.215515 4.29147,-7.464025 7.40205,-7.35423 9.56426,0.337593 20.37815,51.554737 13.79879,52.589877 -12.07027,1.89902 -16.3592,-18.73279 -16.66505,-36.969819 -6.38187,2.059142 -12.34301,5.585748 -19.87998,12.240077 z" fill="#675c51" />
      <path d="m 350.82775,74.933013 c 0.95461,-4.215515 4.29147,-7.464025 7.40205,-7.35423 9.56426,0.337593 20.37815,51.554737 13.79879,52.589877 -12.07027,1.89902 -16.3592,-18.73279 -16.66505,-36.969819 -1.51211,0.48789 -3.0006,1.058164 -4.49203,1.732905 z" fill="#978d7b" />
      <path fill="#352c2c" inkscape:original-d="m 335.48356,95.438918 c 7.53697,-6.654329 13.49811,-10.180935 19.87998,-12.240077 0.30585,18.237029 4.59478,38.868839 16.66505,36.969819 6.57936,-1.03514 -4.23453,-52.252284 -13.79879,-52.589877 -3.11058,-0.109795 -6.44744,3.138715 -7.37725,7.326941" inkscape:path-effect="#path-effect4960" />
      <path fill="#352c2c" inkscape:original-d="m 336.55344,77.552543 21.25429,-3.866539" inkscape:path-effect="#path-effect4962" />
      <path d="m 361.12745,112.88034 c 0.0188,-3.1134 0.36983,-6.40586 1.01978,-10.14398 -1.01055,2.57747 -1.78192,5.16142 -2.26755,7.78649 z m 5.58578,-8.28169 c -0.73625,5.18949 -0.63275,10.20393 0.67195,15.19903 l 2.41919,0.5626 c -1.82247,-4.63972 -2.71214,-9.51768 -3.09114,-15.76163 z" fill="#352c2c" />
    </g>
    <g>
      <path d="m 768.59749,167.88753 c -2.20971,4.06587 -4.32264,6.55775 -8.02396,8.59386 1.86386,-0.22655 3.63403,-0.20949 5.16706,0.0727 -11.7412,14.2772 -25.92913,22.37011 -62.72789,22.37011 -32.06219,0 -50.69456,-9.7513 -65.67909,-32.26173 l -32.7511,-49.5491 c 21.45083,-0.61896 52.29421,-8.67387 74.3283,1.00224 -4.36666,-0.59752 -8.3867,-0.86574 -13.29332,-0.82594 49.51891,12.9823 59.47607,45.4537 90.51849,56.65076 4.4201,-0.8825 8.47806,-2.85922 12.46151,-6.05291 z" fill="#25201f" />
      <path d="m 621.72403,143.04675 -17.14152,-25.93338 c 6.53593,-0.18859 13.94385,-1.06753 21.70888,-1.9249 1.57249,8.60799 1.44687,22.47427 -4.56736,27.85828 z m 77.83904,-10.95383 c 8.25688,5.36054 15.02096,11.25065 21.33725,16.96795 6.82483,12.07189 6.67029,35.28177 0.39654,49.03896 -8.89932,0.67859 -16.03684,1.02812 -24.09801,0.71109 14.20842,-22.26722 10.67405,-45.48542 2.36422,-66.718 z m 36.22046,30.09679 c 5.70115,4.39233 13.13341,9.1468 20.35245,11.75072 4.4201,-0.8825 8.47806,-2.85922 12.46151,-6.05291 v 1e-5 c -2.20971,4.06587 -4.32264,6.55775 -8.02396,8.59386 1.86386,-0.22655 3.63403,-0.20949 5.16706,0.0727 -6.84097,8.31857 -14.51256,14.53771 -27.00312,18.2799 10.32942,-13.58546 3.69136,-21.97473 -2.95394,-32.64428 z m -69.83209,30.07856 c -11.57287,-5.20182 -20.61552,-13.58438 -28.61783,-25.6058 15.723,-18.05806 16.56712,-33.71448 9.40036,-53.18329 5.75607,-0.21352 10.3434,-0.2247 15.82011,0.48177 13.40099,19.01435 27.57873,49.0336 3.39736,78.30732 z" fill="#eee9d6" />
      <path fill="#050401" inkscape:original-d="m 746.21537,183.27155 c 4.8443,-5.14984 13.82441,-7.76685 19.52522,-6.71745 -11.7412,14.2772 -25.92913,22.37011 -62.72789,22.37011 -32.06219,0 -50.69456,-9.7513 -65.67909,-32.26173 l -32.7511,-49.5491 c 21.45083,-0.61896 52.29421,-8.67387 74.3283,1.00224 -4.36666,-0.59752 -8.3867,-0.86574 -13.29332,-0.82594 49.51891,12.9823 59.47607,45.4537 90.5649,56.65212" inkscape:path-effect="#path-effect4654" />
      <path fill="#050401" inkscape:original-d="m 739.67627,173.09176 c 11.98383,2.82343 20.61453,1.45557 28.92122,-5.20423 -2.20971,4.06587 -4.32264,6.55775 -8.02471,8.59439" inkscape:path-effect="#path-effect4656" />
      <path d="m 608.37554,165.75817 c 6.39246,22.17657 -0.38088,31.5388 5.53367,44.37129 4.38569,9.51542 11.59992,8.75676 11.46939,-3.1992 -0.14091,-12.90723 -6.37146,-20.51361 -10.33349,-42.20424 z" style="stroke-miterlimit:20;stroke:#352c2c;fill:#978d7b;stroke-width:2" />
      <path d="m 617.69677,193.98946 c 0.42692,6.41756 3.20507,11.48637 7.33088,14.68664 l 0.33551,-2.03034 c -3.57446,-2.89276 -6.06848,-7.27249 -7.66639,-12.6563 z m -3.08538,6.32667 c 0.0367,7.22256 2.90381,12.25277 7.86715,16.29592 l 1.3461,-1.40667 c -4.68116,-3.01671 -7.77768,-8.25594 -9.21325,-14.88925 z" fill="#352c2c" />
      <g>
        <path d="m 388.75379,94.072868 -0.3732,1.098465 c 13.89447,3.527046 22.8777,17.203707 30.99846,17.367077 14.97554,0.30128 22.87823,8.0485 27.65228,0.61457 1.47922,-14.406009 -0.54613,-26.002577 -11.66029,-30.313111 -0.89594,6.225527 -2.16503,11.079982 -4.91596,16.353457 -11.23838,-4.327024 -26.38029,-6.43312 -41.70129,-5.120458 z" fill="#5d5549" />
        <path fill="#352c2c" inkscape:original-d="m 434.79659,101.0985 c -11.4261,-5.589553 -28.61864,-8.518488 -46.0428,-7.025632 l -0.3732,1.098465 c 13.89447,3.527046 22.8777,17.203707 30.99846,17.367077 14.97554,0.30128 22.87823,8.0485 27.65228,0.61457 1.47922,-14.406009 -0.54613,-26.002577 -11.66029,-30.313111 -0.89594,6.225527 -2.16503,11.079982 -4.87763,16.352937" inkscape:path-effect="#path-effect4591" />
        <path d="m 391.14717,93.172279 c 0.3038,-2.415822 0.0522,-4.956113 -0.859,-7.622594 -0.0693,2.270426 -0.28975,3.839571 -0.63293,5.738629 -0.54827,-3.80959 -1.67963,-7.102677 -3.59625,-10.425907 0.83739,2.721914 1.1874,4.737975 1.65331,7.307298 -1.64586,-3.444048 -3.62944,-6.304913 -6.58994,-9.146384 2.22307,3.658314 3.78754,7.022851 4.86738,11.108778 -1.67624,-2.612769 -3.28357,-4.698843 -5.47267,-6.507614 2.63457,3.579309 4.26434,6.836659 5.42688,10.355287 1.52604,4.618943 4.63025,3.74999 5.20328,-0.807488 z" fill="#15130f" />
      </g>
      <path d="m 594.05255,158.50907 c -14.87497,15.90257 -56.68135,10.53178 -79.65855,0.91784 -27.95348,-11.69608 -44.1796,-33.67128 -67.06941,-43.13474 l -3.20238,-34.536761 c 20.28602,-15.579636 56.6088,-24.132523 70.74686,-9.65081 l -12.72551,2.485717 c 15.16783,19.246615 70.11474,22.025497 91.90899,83.918754 z" fill="#5d5549" />
      <path d="m 462.76124,86.67506 c 17.85322,43.47891 57.40273,14.518 90.06856,36.81139 l 41.22275,35.02262 c -14.87497,15.90257 -56.68135,10.53178 -79.65855,0.91784 -27.95348,-11.69608 -44.1796,-33.67128 -67.06941,-43.13474 l -3.20238,-34.536761 z" fill="#eee9d6" />
      <path d="m 594.05255,158.50907 c -14.87497,15.90257 -56.68135,10.53178 -79.65855,0.91784 -27.95348,-11.69608 -44.1796,-33.67128 -67.06941,-43.13474 l -3.20238,-34.536761 c 20.28602,-15.579636 56.6088,-24.132523 70.74686,-9.65081 l -12.72551,2.485717 c 15.16783,19.246615 70.11474,22.025497 91.90899,83.918754 z" style="stroke-miterlimit:20;stroke:#352c2c;fill:none;stroke-width:2" />
      <path d="m 459.77817,121.42149 c 3.36817,4.54485 6.5027,6.96608 10.91986,9.50283 -4.93583,0.1094 -10.4358,-1.05747 -14.18101,-4.02054 l 1.1875,3.875 c -13.74585,-4.48905 -19.04045,-13.18936 -18.77522,-26.65662 -1.68033,1.79927 -3.02065,3.5898 -4.43308,5.5498 -0.78304,-8.29849 -0.68978,-15.112745 2.08217,-22.33936 10.29388,-1.248901 18.76051,6.501973 23.19978,34.08889 z" fill="#eee9d6" />
      <path fill="#bab2a4" inkscape:original-d="m 459.77817,121.42149 c 3.36817,4.54485 6.5027,6.96608 10.91986,9.50283 -4.93583,0.1094 -10.4358,-1.05747 -14.18101,-4.02054 l 1.1875,3.875 c -13.74585,-4.48905 -19.04045,-13.18936 -18.77522,-26.65662 -1.68033,1.79927 -3.02065,3.5898 -4.43308,5.5498 -0.78304,-8.29849 -0.68978,-15.112745 2.08217,-22.33936" inkscape:path-effect="#path-effect4604" />
      <path d="m 552.8298,123.48645 c 1.83535,65.38676 84.28501,35.85098 110.87107,58.43318 2.30975,12.14997 -6.62268,25.54075 -2.93868,39.18195 2.73173,10.11509 11.55465,10.209 13.42643,-1.60027 2.18599,-13.7916 -1.57797,-25.2651 -2.60045,-40.45971 -10.749,-13.18292 -25.99788,-22.42857 -41.76401,-30.65749 -4.18131,-6.87032 -9.44219,-16.30544 -14.862,-21.34406 -6.3424,-12.11708 -2.97382,-25.009 -26.61767,-40.806983 -26.23546,-17.529611 -55.59946,-8.153855 -77.30834,-10.264783 3.83978,-1.738791 8.4193,-2.992958 13.30061,-3.669453 -8.95196,-2.863655 -18.8813,-4.074749 -30.82933,-2.040458 8.96509,36.649287 45.53731,24.692838 59.32237,53.228077 z" fill="#5d5549" />
      <path d="m 660.01789,179.31092 c 1.32163,0.78292 2.55278,1.64872 3.68298,2.60871 2.30975,12.14997 -6.62268,25.54075 -2.93868,39.18195 2.73173,10.11509 11.55465,10.209 13.42643,-1.60027 2.18599,-13.7916 -1.57797,-25.2651 -2.60045,-40.45971 -1.83826,-2.2545 -3.80813,-4.39385 -5.88968,-6.43266 z" fill="#978d7b" />
      <path fill="#352c2c" inkscape:original-d="m 552.8298,123.48645 c 1.83535,65.38676 84.28501,35.85098 110.87107,58.43318 2.30975,12.14997 -6.62268,25.54075 -2.93868,39.18195 2.73173,10.11509 11.55465,10.209 13.42643,-1.60027 2.18599,-13.7916 -1.57797,-25.2651 -2.60045,-40.45971 -10.749,-13.18292 -25.99788,-22.42857 -41.76401,-30.65749 -4.18131,-6.87032 -9.44219,-16.30544 -14.862,-21.34406 -6.3424,-12.11708 -2.97382,-25.009 -26.61767,-40.806983 -26.23546,-17.529611 -55.59946,-8.153855 -77.30834,-10.264783 3.83978,-1.738791 8.4193,-2.992958 13.30061,-3.669453 -8.95196,-2.863655 -18.8813,-4.074749 -30.82933,-2.040458" inkscape:path-effect="#path-effect4630" />
      <path d="m 592.25448,113.42393 c 5.03308,1.80345 6.86966,6.00733 5.67613,11.74744 -0.75219,-5.54212 -1.86079,-8.52512 -5.67613,-11.74744 z m -1.74111,6.79834 c 4.32998,1.29551 6.81332,6.26177 5.2152,11.79919 -0.36751,-4.90075 -1.70245,-8.83552 -5.2152,-11.79919 z m -1.5034,4.42157 c 2.72121,2.38318 4.46388,7.46879 2.38755,12.90279 0.19024,-4.65277 -0.60993,-8.6036 -2.38755,-12.90279 z" fill="#797165" />
      <g>
        <path d="m 427.49029,29.916604 c -4.00021,-24.3157838 16.18451,-33.3255388 17.02937,-21.2022956 0.6245,8.9611766 2.54896,15.6650106 7.15696,21.0375546" fill="#5d5549" stroke="#352c2c" stroke-width="2" />
        <path d="m 489.67977,25.556659 c -9.7817,2.460424 -10.30692,6.795097 -22.15069,9.203978 -18.31087,-14.580999 -41.41536,-13.807834 -53.80586,1.410265 -4.6908,-5.691042 -8.87892,-0.438819 -7.50801,6.457132 -2.44134,-1.270715 -5.06014,0.138951 -3.72917,4.384808 -0.27248,-0.138452 -0.62514,-0.354447 -0.9768,-0.576251 l -6.0302,1.32821 c -4.69141,23.554182 37.58138,48.916036 62.55148,48.795569 23.32152,-0.112513 42.15241,-10.883526 34.65537,-16.311726 5.65016,-3.717985 3.5808,-7.093469 -3.19428,-4.960225 12.4429,-9.276055 6.9548,-14.404372 -1.89135,-12.66991 -0.49179,-1.297698 -1.01174,-2.570489 -1.7054,-3.778025 19.46489,-9.274039 17.80317,-36.80989 3.78491,-33.283825 z" fill="#5d5549" />
        <path d="m 481.65346,50.337893 c 2.07683,-1.92934 3.67444,-3.796512 5.14731,-6.213119 -1.42225,-0.205044 -2.76493,-0.36328 -4.26674,-0.42352 2.46401,-1.819244 3.53857,-4.108265 4.36182,-7.353228 -2.58471,0.69283 -5.06502,1.654775 -7.98028,3.005106 4.48639,-4.237056 7.59545,-8.312789 10.7642,-13.796473 14.01826,-3.526065 15.67998,24.009786 -3.92565,33.324474 -0.93743,-3.134052 -2.46405,-5.875307 -4.10066,-8.54324 z" fill="#978d7b" />
        <path d="m 489.49161,75.288419 c 12.4429,-9.276055 6.9548,-14.404372 -1.89135,-12.66991 -0.28776,-0.75932 -0.58516,-1.510113 -0.89317,-2.252439 -24.51915,9.863744 -15.82385,-38.179556 -57.54464,-17.008555 0.51095,-7.989217 -0.41093,-12.541457 -6.34475,-14.862603 -3.40925,1.914141 -6.48878,4.475649 -9.09448,7.67599 -4.6908,-5.691042 -8.87892,-0.438819 -7.44381,6.354752 1.21531,6.114266 3.96241,12.117216 8.14819,16.855567 21.29989,4.909821 33.53069,29.691637 69.73294,18.634179 z" fill="#403734" />
        <path d="m 425.87403,26.958668 c 2.08797,-0.24269 3.76682,0.167125 5.27054,1.64189 0.79559,-3.421259 4.92305,-3.398947 0.48817,9.371416 10.54977,-9.777206 14.14872,-5.904642 10.09798,-2.303981 33.39957,-8.468105 21.1478,23.791503 44.0234,23.21314 l 1.84614,3.512335 c -6.8804,5.610031 -17.86727,5.551036 -27.89231,-12.890828 -9.01119,-16.576814 -32.65314,-4.552332 -34.24204,8.900442 -1.55855,13.195796 -10.36602,20.538274 -22.72421,11.14525 -5.57519,-6.805612 -8.73651,-14.383776 -7.26266,-21.783531 l 6.0302,-1.32821 c 9.8481,6.211464 20.47479,7.867598 23.81003,-0.796695 4.06602,-10.562701 0.10313,-15.903061 -7.97844,-13.60932 2.49011,-2.044927 5.29342,-3.776651 8.5332,-5.071908 z" fill="#eee9d6" />
        <g clip-path="url(#clipPath4356)">
          <g clip-path="url(#clipPath4313)">
            <ellipse cx="404.60645" cy="-116.78745" fill="#fff" id="ellipse4304" rx="6.0582342" ry="7.8802137" transform="rotate(22.197435)" />
            <ellipse cx="395.97717" cy="-150.32993" rx="4.4809184" ry="5.3598585" transform="rotate(27.207124)" />
            <ellipse cx="409.02579" cy="-113.86494" fill="#fff" rx="2.1281679" ry="2.8133774" transform="rotate(21.807765)" />
          </g>
          <ellipse cx="404.60645" cy="-116.78745" fill="none" rx="6.0582342" ry="7.8802137" stroke="#070707" stroke-width="0.80000001" transform="rotate(22.197435)" />
          <path d="m 412.37541,46.320491 c 5.06178,-8.763504 11.00567,-9.27464 12.40339,-0.38299 2.61355,-11.002272 -11.05442,-12.630442 -12.40339,0.38299 z" fill="#070707" />
        </g>
        <circle cx="443.9498" cy="59.037529" fill="#fff" r="9.8156519" />
        <ellipse cx="398.37161" cy="-195.16049" rx="5.6522622" ry="6.0386858" transform="rotate(33.675509)" />
        <ellipse cx="441.29834" cy="58.087936" fill="#fff" rx="2.670439" ry="3.2910645" />
        <circle cx="443.9498" cy="59.037529" fill="none" r="9.8156519" stroke="#070707" stroke-width="0.80000001" />
        <path d="m 453.36017,61.968403 c -1.26843,-11.213252 -12.90448,-12.894504 -18.8721,-5.515338 3.46637,-11.506724 21.566,-8.873907 18.8721,5.515338 z" fill="#070707" />
        <path fill="#352c2c" inkscape:original-d="m 486.0698,83.585831 c 13.07151,-4.628555 12.16545,-11.050487 3.42181,-8.297412 12.4429,-9.276055 6.9548,-14.404372 -1.89135,-12.66991 -2.5808,-6.810058 -5.93727,-12.93422 -10.76394,-18.415808" inkscape:path-effect="#path-effect4362" />
        <path d="m 397.78584,61.972871 c 6.92725,1.270105 11.30396,0.542067 13.70145,-2.255358 -1.88177,4.108005 -6.36321,5.216697 -12.78579,4.241513" fill="#352c2c" />
        <circle cx="404.17892" cy="54.48893" fill="#9a917d" id="path4325" r="0.49451426" />
        <use transform="translate(-1.2386926 2.8408716)" xlink:href="#path4325" />
        <use transform="translate(1.1645759 2.9204358)" xlink:href="#path4325" />
        <path d="m 467.51723,34.752293 c 11.85562,-2.400537 12.38084,-6.73521 22.16254,-9.195634 14.01826,-3.526065 15.67998,24.009786 -3.92565,33.324474" fill="none" stroke="#352c2c" stroke-width="2" />
        <path d="m 489.67977,25.556659 c -3.16875,5.483684 -6.27781,9.559417 -10.7642,13.796473 2.91526,-1.350331 5.39557,-2.312276 7.98028,-3.005106 -0.82325,3.244963 -1.89781,5.533984 -4.36182,7.353228 1.50181,0.06024 2.84449,0.218476 4.26674,0.42352 -1.47287,2.416607 -3.07048,4.283779 -5.14731,6.213119" style="stroke-miterlimit:20;stroke:#352c2c;fill:none;stroke-width:1.5" />
        <path fill="#352c2c" inkscape:original-d="m 425.31927,45.639896 c -3.33524,8.664294 -13.96193,7.008159 -23.81003,0.796695 l -6.0302,1.32821 c -4.69141,23.554182 37.58138,48.916036 62.55148,48.795569 23.32152,-0.112513 42.15241,-10.883526 34.49808,-16.375135" inkscape:path-effect="#path-effect4360" />
        <path fill="#352c2c" inkscape:original-d="m 473.57348,40.332911 c -18.97145,-20.142659 -46.05316,-21.107701 -59.85026,-4.162009 -4.6908,-5.691042 -8.87892,-0.438819 -7.50801,6.457132 -2.44134,-1.270715 -5.06014,0.138951 -3.80996,4.313337" inkscape:path-effect="#path-effect4364" />
        <path d="m 395.40778,51.633858 c -2.99361,-2.695072 -4.32087,-7.345009 -2.84569,-9.390942 2.16333,-3.00034 15.43649,5.499009 13.79548,8.407718 -0.65966,1.169247 -6.23327,1.553057 -10.94979,0.983224 z" fill="#2e2724" />
        <path d="m 392.56209,42.242916 c 2.16333,-3.00034 15.43649,5.499009 13.79548,8.407718 -4.56905,-1.679789 -10.28214,-4.453777 -13.79548,-8.407718 z" fill="#4b4641" />
        <path d="m 395.40778,51.633858 c -2.99361,-2.695072 -4.32087,-7.345009 -2.84569,-9.390942 2.16333,-3.00034 15.43649,5.499009 13.79548,8.407718 -0.65966,1.169247 -6.23327,1.553057 -10.94979,0.983224 z" fill="none" stroke="#221b17" stroke-width="2" />
        <path d="m 407.5318,53.869622 c 2.3144,-0.170838 4.30339,0.03119 6.67441,0.738822 -2.10417,-1.248601 -4.34587,-1.873925 -6.80424,-1.878018 z m 0.51444,4.290158 -0.23276,1.104247 c 2.58619,0.36139 4.17872,1.127496 6.25161,2.390338 -1.69157,-1.772943 -3.57936,-2.999304 -6.01885,-3.494585 z m 0.94138,-2.594639 -0.20273,1.124705 c 2.62612,0.175689 4.69137,0.699915 7.16635,2.095692 -1.76293,-1.748657 -4.51734,-2.973927 -6.96362,-3.220397 z" fill="#fbf5e5" />
      </g>
      <g>
        <path d="m 485.67197,100.32565 c -5.58169,7.60111 -20.95967,8.53724 -21.43149,26.54557 -14.83926,-2.85241 -15.74841,9.21361 -30.59305,5.54967 l -0.26299,1.20168 c 3.5843,7.14381 27.21231,11.19007 38.93228,9.79114 11.96545,-1.42824 26.62665,-23.27005 23.30392,-40.23431" fill="#5d5549" />
        <path fill="#352c2c" inkscape:original-d="m 485.67197,100.32565 c -5.58169,7.60111 -20.95967,8.53724 -21.39816,26.53041" inkscape:path-effect="#path-effect4555" />
        <path fill="#352c2c" inkscape:original-d="m 495.62064,103.1794 c 3.32273,16.96426 -11.33847,38.80607 -23.30392,40.23431 -11.71997,1.39893 -35.34798,-2.64733 -38.93228,-9.79114 l 0.26299,-1.20168 c 16.56538,4.08865 15.77731,-11.41075 36.31202,-3.88758" inkscape:path-effect="#path-effect4553" />
        <path d="m 436.47456,131.54563 c 0.0559,-2.67795 -0.50941,-5.42858 -1.81198,-8.24172 0.18382,2.49205 0.12224,4.23409 -0.036,6.35114 -1.03573,-4.1054 -2.65031,-7.57898 -5.12757,-10.99569 1.22763,2.88228 1.84124,5.04804 2.64496,7.80587 -2.1948,-3.57988 -4.69239,-6.48305 -8.25662,-9.25323 2.85086,3.74827 4.94752,7.25047 6.59649,11.5974 -2.13293,-2.66689 -4.1302,-4.7654 -6.7323,-6.49394 3.29204,3.61475 5.4479,6.9922 7.12241,10.70898 2.19813,4.87906 5.4951,3.57316 5.60061,-1.47881 z" fill="#15130f" />
      </g>
      <path d="m 668.70798,205.3557 c -0.65289,6.39851 1.31035,11.96262 4.84253,15.8081 l 0.67049,-1.94556 c -3.04008,-3.45005 -4.83848,-8.28727 -5.51302,-13.86254 z m -4.6443,5.71859 c -1.17223,7.12687 0.81274,12.56591 5.0296,17.38251 l 1.5625,-1.16161 c -4.11042,-3.75742 -6.28666,-9.4409 -6.5921,-16.2209 z" fill="#352c2c" />
    </g>
    <g>
      <path d="m 162.95,149.09316 c 59.7817,-15.05044 58.80381,33.2886 101.40263,45.31102 -27.33441,9.03472 -70.25312,3.57874 -99.64524,-17.09853 z" fill="#25201f" />
      <path d="m 249.81525,188.15063 c 4.2697,2.54636 9.04078,4.70228 14.53738,6.25355 -5.39185,1.78214 -11.39008,3.00046 -17.77125,3.64934 2.17692,-3.53442 3.08613,-6.79954 3.23387,-9.90289 z m -26.70245,-23.64686 c 4.76726,4.7217 9.37046,9.80052 14.5707,14.50913 0.47971,7.43711 -1.28052,14.08365 -6.46177,19.52277 -7.1967,-0.24581 -14.62644,-1.12692 -22.02891,-2.64987 9.37987,-8.65846 12.58202,-18.78406 13.91998,-31.38203 z m -28.53229,27.50438 c -6.15156,-2.01628 -12.15929,-4.49753 -17.86431,-7.44772 12.62197,-9.21641 17.4732,-24.91022 15.83972,-37.65724 4.35053,0.71092 8.21972,1.94637 11.74675,3.57334 2.44721,14.29638 3.15736,29.77952 -9.72216,41.53162 z" fill="#eee9d6" />
      <path d="m 162.95,149.09316 c 59.7817,-15.05044 58.80381,33.2886 101.40263,45.31102 -27.33441,9.03472 -70.25312,3.57874 -99.64524,-17.09853 z" fill="none" stroke="#14110d" stroke-width="2" />
      <path d="m 155.21947,184.90967 c 22.03763,14.6108 24.28785,29.92569 19.57914,30.58873 -9.11376,1.28335 -12.67452,-20.0085 -22.33516,-27.86469" fill="#978d7b" stroke="#575349" stroke-width="2" />
      <path d="m 173.54201,215.46114 2.15957,-0.50887 c -3.58776,-2.56015 -5.54644,-5.51246 -8.23851,-9.92119 1.49969,4.35286 3.24308,7.44287 6.07894,10.43006 z m 3.30148,-3.19874 -0.0953,-1.9386 c -2.75225,-1.13436 -5.09727,-3.27408 -7.20081,-6.69305 1.32597,4.14154 3.839,6.58566 7.29607,8.63165 z" fill="#575349" />
      <path d="m 213.97496,203.25072 c 17.61982,19.71482 15.91881,35.10039 11.1956,34.54953 -9.14165,-1.06618 -7.19505,-22.5658 -14.55159,-32.61214" fill="#978d7b" stroke="#575349" stroke-width="2" />
      <path d="m 223.60001,237.44199 2.50664,0.2098 c -2.34858,-1.82915 -4.01771,-5.28757 -5.13002,-9.14451 0.13001,3.32198 0.99851,6.46803 2.62338,8.93471 z m -0.52692,-12.36684 c 0.23415,4.34241 1.89725,7.51633 4.72362,10.37104 l 0.54764,-2.07281 c -2.37532,-1.79429 -4.10212,-4.45807 -5.27126,-8.29823 z" fill="#575349" />
      <path d="m 7.8496206,152.84887 c 18.4514534,15.83259 23.8443774,22.00878 46.9196494,16.39916 l -1.034377,-11.85305 c -12.610865,-3.99146 -30.814951,-6.47624 -45.8852724,-4.54611 z" fill="#59524e" stroke="#352c2c" stroke-width="2" />
      <path d="m 5.2735726,145.34761 c -6.6185395,11.43472 4.5086254,14.40694 9.2319574,3.89894 -1.737322,1.36862 -2.938752,2.06743 -4.6081194,2.93971 1.1146184,-1.83585 1.7491924,-3.49021 2.2390104,-6.0447 -1.181143,1.80619 -2.4210293,3.21808 -3.960591,4.3659 0.7563016,-2.08818 1.1310774,-3.85292 1.308846,-6.39219 -1.2983231,2.29381 -2.3234527,3.78345 -3.849096,5.62006 -0.3494979,-1.3132 -0.3754574,-2.68503 -0.3620074,-4.38772 z" fill="#070401" />
      <path d="m 210.7326,206.73623 3.63909,-3.60876 c -4.5688,-1.94432 -9.49627,-4.77998 -13.55773,-7.85665 -1.85487,-13.65542 -9.99531,-21.95179 -20.04794,-29.75391 -9.18207,-21.9947 -26.91777,-31.1722 -46.51966,-31.1722 -26.43871,0 -29.42199,13.68494 -51.637798,8.46059 l -29.768875,15.92293 c 7.304356,26.06073 65.633353,50.77493 102.384573,38.21496 9.8593,7.5377 27.94313,11.9284 55.50834,9.79304 z" fill="#59524e" />
      <path d="m 163.59881,182.6384 c 0.39093,2.91041 2.48649,4.35646 5.05369,4.36644 -2.24819,-1.00121 -3.6716,-2.29778 -5.05369,-4.36644 z m -3.16741,0.0472 c 0.0651,3.03531 2.05085,4.7633 4.68722,5.07038 -2.17359,-1.47023 -3.50649,-2.78526 -4.68722,-5.07038 z m -5.16338,-6.31836 c -0.46017,4.46073 1.12012,7.6833 4.61297,10.06237 -2.24196,-3.21364 -3.77604,-6.30673 -4.61297,-10.06237 z m -64.059749,-28.07237 c 2.32245,2.02297 5.128035,2.60131 7.426062,1.35324 -2.569759,-0.0248 -4.734112,-0.44929 -7.426062,-1.35324 z m 11.220989,5.2373 c 2.33699,1.06988 4.71908,0.8694 6.26313,-0.67278 -2.06232,0.58827 -3.89499,0.75979 -6.26313,0.67278 z m -4.565039,-2.23592 c 2.656479,1.3422 5.421899,1.21644 7.277389,-0.49926 -2.41262,0.58882 -4.54105,0.70549 -7.277389,0.49926 z" fill="#948e80" />
      <path d="m 146.75177,175.73897 c -1.68718,7.78651 0.88673,15.31348 8.34431,21.10541 -36.62304,12.65878 -94.952037,-12.05542 -102.256393,-38.11615 41.279937,25.53975 65.022143,-0.12919 93.912083,17.01074 z" fill="#eee9d6" />
      <path fill="#352c2c" inkscape:original-d="m 155.47653,160.45111 c -21.07184,22.27061 -7.40487,51.13919 55.25607,46.28512 l 3.63909,-3.60876 c -4.5688,-1.94432 -9.49627,-4.77998 -13.55773,-7.85665 -1.85487,-13.65542 -9.99531,-21.95179 -20.04794,-29.75391 -9.18207,-21.9947 -26.91777,-31.1722 -46.51966,-31.1722 -26.43871,0 -29.42199,13.68494 -51.637798,8.46059 l -29.768875,15.92293 c 7.304356,26.06073 65.633353,50.77493 102.341293,38.16143" inkscape:path-effect="#path-effect4605" />
      <path d="m 80.716525,178.47336 c -6.036973,2.50873 -13.32894,2.34995 -18.884325,-0.86237 l 1.879851,4.43381 c -9.281867,-3.29712 -16.241614,-11.01266 -16.153874,-29.38066 z" fill="#eee9d6" />
      <path fill="#bab2a4" inkscape:original-d="m 80.716525,178.47336 c -6.036973,2.50873 -13.32894,2.34995 -18.884325,-0.86237 l 1.879851,4.43381 c -9.281867,-3.29712 -16.241614,-11.01266 -16.153874,-29.38066" inkscape:path-effect="#path-effect4574" />
      <path d="m 93.514613,169.86879 c -13.678733,11.2425 -43.807804,9.624 -51.641998,4.4034 l -0.331657,-2.0214 c 11.091167,-2.26334 21.795129,-8.26604 29.397046,-14.60829 z" fill="#59524e" />
      <path fill="#352c2c" inkscape:original-d="m 93.514613,169.86879 c -13.678733,11.2425 -43.807804,9.624 -51.641998,4.4034 l -0.331657,-2.0214 c 11.091167,-2.26334 21.795129,-8.26604 29.397046,-14.60829" inkscape:path-effect="#path-effect4560" />
      <path d="m 39.277328,165.94502 c -7.316177,11.43303 5.656761,14.98119 12.100133,5.0033 -2.151828,1.27297 -3.930684,2.01303 -5.805169,2.65089 1.323943,-1.81769 2.088027,-3.6699 2.566533,-6.29521 -1.411191,1.78064 -2.980589,3.09371 -4.891312,4.15385 0.951678,-2.29059 1.470669,-4.59701 1.665247,-7.18045 -1.411533,2.42619 -3.112914,4.54692 -4.96504,6.32814 -0.361612,-1.48443 -0.587038,-2.88228 -0.670392,-4.66052 z" fill="#070401" />
      <g>
        <path d="m 32.411484,139.47389 -1.172803,0.35556 c -5.325554,-6.89654 -11.285062,-11.21094 -19.388798,-15.76348 8.662947,3.52326 14.665856,7.72307 20.561601,15.40792 z m 0.432923,3.85977 c -6.579623,-5.88228 -11.676093,-8.41021 -20.497039,-11.92028 8.969922,2.26947 14.673361,5.15854 21.601254,11.38872 z m 1.412013,-3.99919 c -4.889001,-7.49075 -9.325411,-11.355 -17.105141,-16.64319 8.297848,4.28457 13.077032,8.42031 18.309567,16.41682 z" fill="#fbf5e5" />
        <path d="m 47.417469,117.14341 c -1.168556,-17.955367 9.174227,-27.652494 14.576462,-27.181492 3.571185,0.311358 -0.85202,12.118442 5.512394,21.688542 z" fill="#59524e" />
        <path d="m 57.526138,106.66419 c -1.608595,-0.42047 -2.967191,-0.88029 -4.544536,-1.67465 -0.14597,3.06662 0.40301,5.6749 1.563272,8.6999 l -7.127405,3.45397 c -1.078574,-16.57275 7.649635,-26.110115 13.324389,-27.106329 -3.582513,4.407437 -4.819857,9.733802 -3.21572,16.627109 z" fill="#978d7b" />
        <path d="m 47.417469,117.14341 c -1.168556,-17.955367 9.174227,-27.652494 14.576462,-27.181492 3.571185,0.311358 -0.85202,12.118442 5.512394,21.688542" fill="none" stroke="#352c2c" stroke-width="2" />
        <path d="m 60.818121,90.041048 c -3.658776,4.40347 -4.89612,9.729835 -3.291983,16.623142 -1.608595,-0.42047 -2.967191,-0.88029 -4.544536,-1.67465 -0.14597,3.06662 0.40301,5.6749 1.563272,8.6999" fill="none" stroke="#352c2c" stroke-width="1.5" />
        <path d="m 88.091125,147.25348 c 11.709692,0.78873 15.568725,4.60128 3.856077,6.61256 6.754671,1.2165 7.046423,8.44435 -11.787399,6.91942 l 4.361956,3.92576 c -23.588096,2.26791 -32.341744,-6.51103 -41.38964,-8.67895 -10.544681,-2.52655 -22.173942,-7.46516 -18.14153,-18.18135 -2.181401,-8.01408 -0.209074,-15.33377 3.127718,-9.80817 -0.352312,-6.99202 3.357398,-7.23222 4.820167,-1.35618 11.261642,-20.62233 41.712657,-22.71198 52.942415,-6.06373 13.561501,-8.55157 26.476111,-9.95422 26.683151,-4.07226 0.24422,6.93776 -3.33754,19.08308 -22.567229,25.85705 -0.400761,1.66977 -1.051,3.25773 -1.905686,4.84585 z" fill="#59524e" />
        <path d="m 89.938714,142.38035 c 19.287786,-6.74669 22.869546,-18.89201 22.625326,-25.82977 l -0.12132,-1.46031 c -4.00995,3.85672 -10.76823,5.5873 -18.402859,7.4794 2.244661,1.00389 4.398118,1.37352 6.734729,1.48816 -2.329617,1.69612 -4.312761,2.65468 -7.985127,3.14329 1.786755,1.58756 3.336209,2.38213 5.786312,2.93973 -2.174691,1.54445 -4.578396,2.60935 -7.643669,3.45538 0.462829,3.00022 -0.175956,5.90029 -0.993392,8.78412 z" fill="#978d7b" />
        <path d="m 46.251107,120.49909 -4.266263,-4.58115 c -6.193156,5.03079 -11.947758,13.31361 -13.455382,22.50252 9.538307,0.44897 15.861257,-5.71485 17.721645,-17.92137 z m 0.0084,-0.58413 c 3.045905,-1.00699 5.220596,-0.13077 6.772528,2.05048 5.714086,-5.67157 13.193449,-8.35818 22.154841,-10.08456 -6.65976,-2.31588 -13.606461,-3.19704 -21.097686,-1.35559 -3.964092,3.2672 -5.769596,5.56896 -7.829683,9.38967 z m 6.112481,2.01504 c -18.858138,27.86174 16.967277,28.05919 18.244641,42.84678 3.642861,-12.09283 3.242218,-24.39194 -0.567687,-34.86138 -4.857984,-5.28742 -10.657806,-7.65036 -17.676954,-7.9854 z" fill="#423c3b" />
        <path d="m 91.831752,160.32396 c -18.261739,-9.64724 -8.285907,-27.91219 -18.82482,-36.35965 4.543805,-0.39782 4.144497,-3.20062 -3.840088,-4.96953 10.51527,-3.0238 -13.298482,-10.20064 -20.53561,5.28669 30.114568,-2.22144 13.07552,24.77272 35.635206,36.67811 2.604436,0.28412 5.170981,0.34089 7.565312,-0.63562 z m -50.304203,-18.63846 c -0.814707,-2.54459 2.624664,-3.98264 -0.988712,-7.02426 -3.747037,3.41867 -8.935082,4.40202 -15.548248,3.18968 -3.935234,10.45794 7.045433,15.41341 17.265552,17.96556 7.564548,-7.61931 0.224253,-11.15494 -0.728592,-14.13098 z" fill="#eee9d6" />
        <g>
          <g clip-path="url(#clipPath6362)">
            <ellipse cx="136.31342" cy="61.828766" fill="#fff" id="ellipse6332" rx="9.5237083" ry="10.647898" transform="rotate(42.25347)" />
            <ellipse cx="125.62477" cy="78.189148" fill="#2fa2d4" rx="8.2971439" ry="8.7897892" transform="rotate(35.885957)" />
            <ellipse cx="124.38881" cy="78.666763" fill="#177fae" rx="4.7856121" ry="5.2698236" transform="rotate(35.885957)" />
            <ellipse cx="140.13922" cy="60.627914" fill="#fff" rx="2.4604404" ry="3.5403342" transform="rotate(43.877487)" />
            <ellipse cx="129.51028" cy="64.096375" fill="#fff" rx="2.6366708" ry="3.7939131" transform="rotate(41.872066)" />
          </g>
          <ellipse cx="136.31342" cy="61.828766" fill="none" rx="9.5237083" ry="10.647898" stroke="#292724" stroke-miterlimit="20" transform="rotate(42.25347)" />
          <path d="m 49.665579,135.86701 c 0.395426,-1.70157 1.281974,-3.38941 2.606918,-4.84788 3.954232,-4.35274 10.315821,-5.01423 14.209005,-1.47748 3.893182,3.53676 3.843687,9.93244 3.22e-4,14.27086 5.306103,-16.98504 -11.053617,-18.50129 -16.816245,-7.9455 z" fill="#292724" />
        </g>
        <path fill="#352c2c" inkscape:original-d="m 89.045882,127.56247 c -6.748688,-23.82226 -43.483801,-23.99226 -56.107408,-0.8759 -1.462769,-5.87604 -5.172479,-5.63584 -4.820167,1.35618 -3.336792,-5.5256 -5.309119,1.79409 -3.127718,9.80817" inkscape:path-effect="#path-effect4458" />
        <g transform="translate(-.0625.0625)">
          <g clip-path="url(#clipPath6424)">
            <ellipse cx="85.797653" cy="102.90571" fill="#fff" id="ellipse6413" rx="5.5516481" ry="9.7813644" transform="rotate(23.414317)" />
            <ellipse cx="90.12011" cy="100.02257" fill="#2fa2d4" rx="5.048501" ry="8.575635" transform="rotate(25.293618)" />
            <ellipse cx="87.562546" cy="103.91606" fill="#177fae" rx="2.9025731" ry="4.6090145" transform="rotate(23.18064)" />
            <ellipse cx="75.946838" cy="112.03075" fill="#fff" rx="2.0707071" ry="3.6302638" transform="rotate(16.245978)" />
            <ellipse cx="72.521706" cy="114.65253" fill="#fff" rx="1.636883" ry="3.1743331" transform="rotate(17.113538)" />
          </g>
          <ellipse cx="85.797653" cy="102.90571" fill="none" rx="5.5516481" ry="9.7813644" stroke="#292724" stroke-miterlimit="20" transform="rotate(23.414317)" />
          <path d="m 80.288115,104.11643 c -0.08223,-0.38908 -0.04211,-0.80077 -0.04211,-1.21072 -10e-7,-5.402099 2.485557,-9.781366 5.551648,-9.781366 3.066091,0 5.551649,4.379267 5.551648,9.781366 -2.382088,-11.055473 -8.585523,-10.514224 -11.061186,1.21072 z" fill="#292724" transform="rotate(23.414317)" />
        </g>
        <path d="m 46.813607,122.87409 c 5.592376,-15.09711 -7.982263,-21.15972 -5.711859,-11.34664 -4.910373,-1.30662 -6.97796,2.26651 -3.342058,3.89339 3.148179,1.40865 6.62518,3.87183 9.053917,7.45325 z" fill="#eee9d6" />
        <path d="m 85.879466,120.56828 c 13.562924,-8.49701 26.477534,-9.89966 26.684574,-4.0177 0.24422,6.93776 -3.33754,19.08308 -22.625326,25.82977" fill="none" stroke="#352c2c" stroke-width="2" />
        <path fill="#352c2c" inkscape:original-d="m 46.813607,122.87409 c -3.071961,12.51522 -10.274519,17.09392 -21.823018,14.97683 -4.032412,10.71619 7.596849,15.6548 18.14153,18.18135 9.047896,2.16792 17.801544,10.94686 41.38964,8.67895 l -4.361956,-3.92576 c 18.833822,1.52493 18.54207,-5.70292 11.787399,-6.91942 11.712648,-2.01128 7.853615,-5.82383 -3.856077,-6.61256 2.556841,-4.75096 3.284002,-9.50041 2.53128,-15.71286" inkscape:path-effect="#path-effect4456" />
        <path d="m 21.97144,137.26815 c 1.318721,-4.28829 10.355591,-2.19066 9.641198,1.41736 -0.444061,2.24272 -3.373347,4.23659 -7.497821,5.66456 -1.800331,-2.25042 -2.739031,-5.14494 -2.143377,-7.08192 z" fill="#2e2724" />
        <path d="m 24.194387,135.1531 c 3.068566,-1.00597 7.950579,0.8439 7.418251,3.53241 -3.45099,0.12088 -6.697952,-1.20437 -7.418251,-3.53241 z" fill="#4b4641" />
        <path d="m 21.97144,137.26815 c 1.318721,-4.28829 10.355591,-2.19066 9.641198,1.41736 -0.444061,2.24272 -3.373347,4.23659 -7.497821,5.66456 -1.800331,-2.25042 -2.739031,-5.14494 -2.143377,-7.08192 z" style="stroke-miterlimit:20;stroke:#221b17;fill:none;stroke-width:2" />
        <path d="m 112.44272,115.09027 c -4.00995,3.85672 -10.76823,5.5873 -18.402859,7.4794 2.244661,1.00389 4.398118,1.37352 6.734729,1.48816 -2.329617,1.69612 -4.312761,2.65468 -7.985127,3.14329 1.786755,1.58756 3.336209,2.38213 5.786312,2.93973 -2.174691,1.54445 -4.578396,2.60935 -7.643669,3.45538" fill="none" stroke="#352c2c" stroke-width="1.5" />
        <use id="use6444" transform="translate(3.0562603.94373965)" xlink:href="#path6442" />
        <use transform="translate(-.8874793-2.4500824)" xlink:href="#use6444" />
        <circle cx="32.830006" cy="144.55745" fill="#332e24" id="path6442" r="0.50634313" />
        <path d="m 29.402996,150.54495 c 4.415365,0.1453 6.798182,-0.25547 9.035537,-2.27139 -0.861104,2.55117 -3.09799,3.54431 -6.603578,3.98187" fill="#352c2c" />
        <path d="m 38.704937,145.42344 c 8.944403,0.10513 14.585942,1.77464 23.223294,5.50097 -8.068563,-4.70215 -14.123141,-6.51518 -23.67866,-6.63875 z m 1.103484,2.38378 c 8.039903,3.64043 12.412181,7.2802 19.188292,13.92954 -5.70161,-7.2871 -10.649547,-11.33603 -19.14839,-15.15441 z m -0.810114,-2.03093 0.278474,1.19346 c 8.635357,1.16379 15.3515,4.16765 23.34598,8.90944 -7.382711,-5.7407 -14.021309,-8.83946 -23.624454,-10.1029 z" fill="#fbf5e5" />
      </g>
    </g>
  </g>
</svg>