<svg xmlns="http://www.w3.org/2000/svg" xmlns:xlink="http://www.w3.org/1999/xlink" viewBox="-19 -23 38 46">
  <clipPath id="U"><use xlink:href="#T"/></clipPath>
  <g clip-path="url(#U)">
    <path fill="#c1e0e0" d="M2.8 11.4C-31.7 15-17.5-28.2 4.1-21.1-15.6-15.4-11.9 1 3 2.7Z" id="T"/>
    <path fill="none" stroke="#fff" d="M4.2 8.9C-25.3 6-15.5-21.1 5.7-21.5"/>
  </g>
  <path fill="#666b9a" d="M-8.3 15.1 7.1 12.5 18.5 11.3-4.2-2.5 2.4 10.7 9.7 22.4 11.8 9.6 12.4-3.9Z"/>
</svg>
