<svg xmlns="http://www.w3.org/2000/svg" viewBox="-20 -33 40 66">
  <clipPath id="G"><path d="m16.9-21.6s-15.8-3-31.8-1.3v-9.2s13.2-2.9 31.8 2zm3 45.8s-28.5-.1-39.8 1l1 7.4s24.3.7 37.6-.1z"/></clipPath>
  <path d="M-12.8 27C-23.9 10.4-3.2 7.85-3.2.2s-21.9-10.5-5.4-26.6H11.5C24.2-5.8 3.9-7.1 3.9.4s20.9 7 10.7 26.9z" fill="#bae9fa"/>
  <path d="m-10.7 26.1c-8.4-18.2 10-16 10-24.9 0-7.6-10.2-9.5-10.8-18.9 0 0 10.9-2.1 22.9.6-1.5 10-9.7 10.1-9.7 17.4 0 10.3 17.1 8.2 10.1 25z" fill="#e2d678"/>
  <path d="m-11.3-11.5a3.2 3.7 0 0 1-6.4 0 3.2 3.7 0 0 1 6.4 0z" transform="rotate(30)" fill="#f6f5eb"/>
  <path d="M8.8 14.5a3.1 3.5 0 0 1-6.2 0 3.1 3.5 0 0 1 6.2 0Z" transform="rotate(56)" fill="#f6f5eb"/>
  <g clip-path="url(#G)">
    <path d="m16.9-21.6s-15.8-3-31.8-1.3v-9.2s13.2-2.9 31.8 2zm3 45.8s-28.5-.1-39.8 1l1 7.4s24.3.7 37.6-.1z" fill="#f2e257"/>
    <path d="m-6.9-22.3s-4.4-4.5-1.1-11H3s-4 6.1-.6 11.2zM-9.8 24s-3.7 5.1.5 9.6h10s-4.3-3.7.2-9.8z" fill="#f7ec9b"/>
  </g>
</svg>
