<svg xmlns="http://www.w3.org/2000/svg" viewBox="-23 -22 46 44">
  <g transform="matrix(.4.51-.58.37 13.8-10.5)">
    <path d="M-.2 6C9.7 9.2 17.5 5.5 14.1-2S5.6-7-1.9 3.6l-2.4.2c-11.7-9.3-17.5-7.1-17.3-1s5.5 7.9 15.1 3.3c-11.7 6.4-11.4 9.2-6.6 13s12.8 3.5 11-9.7z" fill="#fff" stroke="#c2bfbf"/>
    <path d="m-1.4 8.9c2.6 11.8 6.5 13 12.6 7S9 4.6 0 6.8L-.7 3.9c5.4-13.8-3.2-20.8-10.1-16.6s-2.5 10.3 6.5 17z" fill="#fff" stroke="#c2bfbf"/>
    <path d="M-3.8 6.6C-3.9 2.3-4.5-1.1-6.4-4.9-3.7-1.3-2.5 1.9-2.3 6.4 1 3.6 3.4 2 7.3.8 4.1 2.7 2 4.3-.1 6.6 2.7 8 4.4 9.6 5.9 12.1 3 9.3.1 7.9-3.3 7.5c-1.2 3.4-3 5.5-6.1 7.8 2.2-2.7 3.7-4.9 4.8-7.5-4-2.7-7.1-3.9-12.3-5.4 5.2.7 9 1.8 13.1 4.2z" fill="#c2bfbf"/>
    <path d="M5.4 6.6A5 3.9 0 0 1-4.6 6.6 5 3.9 0 0 1 5.4 6.6Z" fill="#ff0" stroke="#c2bfbf" transform="rotate(27)"/>
  </g>
  <g>
    <path d="M-.2 6C9.7 9.2 17.5 5.5 14.1-2S5.6-7-1.9 3.6l-2.4.2c-11.7-9.3-17.5-7.1-17.3-1s5.5 7.9 15.1 3.3c-11.7 6.4-11.4 9.2-6.6 13s12.8 3.5 11-9.7z" fill="#fff" stroke="#c2bfbf"/>
    <path d="m-1.4 8.9c2.6 11.8 6.5 13 12.6 7S9 4.6 0 6.8L-.7 3.9c5.4-13.8-3.2-20.8-10.1-16.6s-2.5 10.3 6.5 17z" fill="#fff" stroke="#c2bfbf"/>
    <path d="M-3.8 6.6C-3.9 2.3-4.5-1.1-6.4-4.9-3.7-1.3-2.5 1.9-2.3 6.4 1 3.6 3.4 2 7.3.8 4.1 2.7 2 4.3-.1 6.6 2.7 8 4.4 9.6 5.9 12.1 3 9.3.1 7.9-3.3 7.5c-1.2 3.4-3 5.5-6.1 7.8 2.2-2.7 3.7-4.9 4.8-7.5-4-2.7-7.1-3.9-12.3-5.4 5.2.7 9 1.8 13.1 4.2z" fill="#c2bfbf"/>
    <path d="M5.4 6.6A5 3.9 0 0 1-4.6 6.6 5 3.9 0 0 1 5.4 6.6Z" fill="#ff0" stroke="#c2bfbf" transform="rotate(27)"/>
  </g>
</svg>
