<svg xmlns="http://www.w3.org/2000/svg" viewBox="-25 -40 50 80">
  <path d="M-5.4 18.2C-8 12.4 1.9 13.6-1.7 20.1S-20.6 19.8-8.6 7.8 20.8 9.1 7.5 28.4-29 37.8-22.5 16.9-3-10.9 1.7-24.7-4.5-37.3-4.7-16.4 3.1 17.1 11.2 26s5.9-.7 10.7 1.3-2.6 12.5-11.8 4.3S-4.5 14.5-8.4-6.5-8.2-40.7 4.6-38 9.2-21-9.9 4-7.3 39.6 2.1 25.9 1.3 4.7-4.5 8.8s-4.8 9.5-.9 9.4z" fill="#a75cbe"/>
</svg>
