<svg xmlns="http://www.w3.org/2000/svg" xmlns:xlink="http://www.w3.org/1999/xlink" viewBox="-36 -34 72 72">
  <defs><path d="m-30 10c-5-18-2-32 11-38s18 10 6 14-15 11-17 24z" stroke-miterlimit="9" id="Z"/></defs>
  <use xlink:href="#Z" fill="#eeb0c3" stroke="#ea8cab"/>
  <path d="m-27 26c9-5 17-5 23-2 2 1 4 1 6 0 6-3 14-3 23 2v-36l-5-2h-42l-5 2z" fill="#4862b9"/>
  <path d="m-27 26c9-5 17-5 23-2 2 1 4 1 6 0 6-3 14-3 23 2v-36l-5-2h-42l-5 2zm0-2c9-5 17-5 23-2 2 1 4 1 6 0 6-3 14-3 23 2" fill="none" stroke="#223a86"/>
  <path d="m-1 18-6-2h-17v-30c12-5 18-4 23 2 5-6 11-7 23-2v30h-17z" fill="#fffcc8"/>
  <path d="m-24 20c10-5 18-4 23 1 5-5 13-6 23-1v-4c-11-5-18-4-23 2-5-6-12-7-23-2z" fill="#f5c491"/>
  <path d="m3-16v20l2-2 2 1v-20z" fill="#da251d"/>
  <path d="m-24 20c10-5 18-4 23 1 5-5 13-6 23-1v-34c-12-5-18-4-23 2-5-6-11-7-23-2zm0-4c11-5 18-4 23 2 5-6 12-7 23-2m-23 5v-33" fill="none" stroke="#ee9a69"/>
  <path d="m-21 1c7-3 13-3 17 1m-17-4c7-3 13-3 17 1m-17-4c7-3 13-3 17 1m-17-4c7-3 13-3 17 1m-17-4c7-3 13-3 17 1" fill="none" stroke="#b7673c" stroke-linecap="round"/>
  <use xlink:href="#Z" fill="#c6d0f2" stroke="#9aadec" transform="rotate(120)"/>
  <use xlink:href="#Z" fill="#eef6cc" stroke="#dff199" transform="rotate(240)"/>
</svg>
