<?xml version="1.0" encoding="UTF-8" standalone="no"?>
<!-- Created with Inkscape (http://www.inkscape.org/) -->

<svg
   xmlns:dc="http://purl.org/dc/elements/1.1/"
   xmlns:cc="http://creativecommons.org/ns#"
   xmlns:rdf="http://www.w3.org/1999/02/22-rdf-syntax-ns#"
   xmlns:svg="http://www.w3.org/2000/svg"
   xmlns="http://www.w3.org/2000/svg"
   xmlns:sodipodi="http://sodipodi.sourceforge.net/DTD/sodipodi-0.dtd"
   xmlns:inkscape="http://www.inkscape.org/namespaces/inkscape"
   width="670.13818"
   height="675.18689"
   id="svg4429"
   version="1.1"
   inkscape:version="0.48.3.1 r9886"
   sodipodi:docname="Candy Floss Cutie Mark.svg"
   inkscape:export-filename="/home/parclytaxel/Pictures/Candy Floss Cutie Mark.png"
   inkscape:export-xdpi="550.09552"
   inkscape:export-ydpi="550.09552">
  <defs
     id="defs4431" />
  <sodipodi:namedview
     id="base"
     pagecolor="#ffffff"
     bordercolor="#666666"
     borderopacity="1.0"
     inkscape:pageopacity="0.0"
     inkscape:pageshadow="2"
     inkscape:zoom="0.79089213"
     inkscape:cx="335.06909"
     inkscape:cy="337.59344"
     inkscape:document-units="px"
     inkscape:current-layer="layer1"
     showgrid="true"
     inkscape:window-width="1364"
     inkscape:window-height="698"
     inkscape:window-x="0"
     inkscape:window-y="0"
     inkscape:window-maximized="1"
     fit-margin-top="0"
     fit-margin-left="0"
     fit-margin-right="0"
     fit-margin-bottom="0" />
  <metadata
     id="metadata4434">
    <rdf:RDF>
      <cc:Work
         rdf:about="">
        <dc:format>image/svg+xml</dc:format>
        <dc:type
           rdf:resource="http://purl.org/dc/dcmitype/StillImage" />
        <dc:title></dc:title>
      </cc:Work>
    </rdf:RDF>
  </metadata>
  <g
     inkscape:label="Layer 1"
     inkscape:groupmode="layer"
     id="layer1"
     transform="translate(-186.65432,-176.44976)">
    <g
       id="g5020"
       transform="matrix(0.9980788,0.06195729,-0.06195729,0.9980788,32.500097,-30.097436)">
      <g
         inkscape:transform-center-x="33.231161"
         transform="matrix(-0.74314483,0.66913061,0.66913061,0.74314483,530.91728,-203.80005)"
         id="g4985"
         inkscape:transform-center-y="-29.086367">
        <path
           transform="translate(0,28.362183)"
           inkscape:connector-curvature="0"
           id="path4987"
           d="m 496,384 0,512 32,0 0,-512 z"
           style="fill:#fbfdf7;fill-opacity:1;fill-rule:evenodd;stroke:none" />
        <path
           transform="matrix(-1,0,0,1,1024,28.362183)"
           d="m 672,256 c 0,88.36556 -71.63444,160 -160,160 -88.36556,0 -160,-71.63444 -160,-160 0,-88.36556 71.63444,-160 160,-160 88.36556,0 160,71.63444 160,160 z"
           sodipodi:ry="160"
           sodipodi:rx="160"
           sodipodi:cy="256"
           sodipodi:cx="512"
           id="path4989"
           style="fill:#feaff0;fill-opacity:1;fill-rule:evenodd;stroke:#e393da;stroke-width:8;stroke-miterlimit:4;stroke-opacity:1;stroke-dasharray:none"
           sodipodi:type="arc" />
        <path
           transform="matrix(-1,0,0,1,1024,28.362183)"
           d="m 532.24353,236.24653 c 15.58278,10.5201 16.93286,32.59427 6.5614,47.2234 -14.40644,20.32054 -43.63132,21.88385 -62.86186,7.71413 -25.83047,-19.03278 -27.60873,-56.66489 -8.90822,-81.26473 24.44057,-32.15071 71.80344,-34.1439 102.57862,-10.13809 39.31761,30.66922 41.52416,89.15012 11.39874,126.94306 C 543.2559,374.09035 472.20879,376.50728 426.52073,339.40999 370.1912,293.67213 367.56817,208.5522 412.52591,154.0581 c 36.14106,-43.80724 95.84069,-62.092841 150.77733,-49.61"
           sodipodi:t0="0.5"
           sodipodi:argument="-25.434649"
           sodipodi:radius="160"
           sodipodi:revolution="3.8499999"
           sodipodi:expansion="2.5"
           sodipodi:cy="256"
           sodipodi:cx="512"
           id="path4991"
           style="fill:none;stroke:#e393da;stroke-width:8;stroke-linecap:round;stroke-linejoin:round;stroke-miterlimit:4;stroke-opacity:1;stroke-dasharray:none"
           sodipodi:type="spiral" />
      </g>
      <g
         inkscape:transform-center-x="-33.231161"
         transform="matrix(0.74314483,0.66913061,-0.66913061,0.74314483,493.08272,-203.80005)"
         inkscape:transform-center-y="-29.086367"
         id="g4980">
        <path
           style="fill:#f9faf8;fill-opacity:1;fill-rule:evenodd;stroke:none"
           d="m 496,384 0,512 32,0 0,-512 z"
           id="path4958"
           inkscape:connector-curvature="0"
           transform="translate(0,28.362183)" />
        <path
           sodipodi:type="arc"
           style="fill:#fffcb0;fill-opacity:1;fill-rule:evenodd;stroke:#e5e390;stroke-width:8;stroke-miterlimit:4;stroke-opacity:1;stroke-dasharray:none"
           id="path4448"
           sodipodi:cx="512"
           sodipodi:cy="256"
           sodipodi:rx="160"
           sodipodi:ry="160"
           d="m 672,256 c 0,88.36556 -71.63444,160 -160,160 -88.36556,0 -160,-71.63444 -160,-160 0,-88.36556 71.63444,-160 160,-160 88.36556,0 160,71.63444 160,160 z"
           transform="matrix(-1,0,0,1,1024,28.362183)" />
        <path
           sodipodi:type="spiral"
           style="fill:none;stroke:#e5e390;stroke-width:8;stroke-linecap:round;stroke-linejoin:round;stroke-miterlimit:4;stroke-opacity:1;stroke-dasharray:none"
           id="path4974"
           sodipodi:cx="512"
           sodipodi:cy="256"
           sodipodi:expansion="2.5"
           sodipodi:revolution="3.8499999"
           sodipodi:radius="160"
           sodipodi:argument="-25.434649"
           sodipodi:t0="0.5"
           d="m 532.24353,236.24653 c 15.58278,10.5201 16.93286,32.59427 6.5614,47.2234 -14.40644,20.32054 -43.63132,21.88385 -62.86186,7.71413 -25.83047,-19.03278 -27.60873,-56.66489 -8.90822,-81.26473 24.44057,-32.15071 71.80344,-34.1439 102.57862,-10.13809 39.31761,30.66922 41.52416,89.15012 11.39874,126.94306 C 543.2559,374.09035 472.20879,376.50728 426.52073,339.40999 370.1912,293.67213 367.56817,208.5522 412.52591,154.0581 c 36.14106,-43.80724 95.84069,-62.092841 150.77733,-49.61"
           transform="matrix(-1,0,0,1,1024,28.362183)" />
      </g>
      <g
         id="g5013">
        <path
           style="fill:#5fcbff;fill-opacity:1;fill-rule:evenodd;stroke:#41c1ff;stroke-width:8;stroke-linecap:round;stroke-linejoin:round;stroke-miterlimit:4;stroke-opacity:1;stroke-dasharray:none"
           d="m 517,559.36218 c 58.87006,66.10051 258.18794,138.7237 284.94113,108.11775 C 830.82717,634.43395 854.44481,541.28132 833,482.36218 c -12.43358,-34.16098 -197,-8 -298,34 z"
           id="path4995"
           inkscape:connector-curvature="0"
           sodipodi:nodetypes="csscc" />
        <path
           sodipodi:nodetypes="csccc"
           inkscape:connector-curvature="0"
           id="path4999"
           d="m 517,559.36218 c 58.87006,66.10051 258.18794,138.7237 284.94113,108.11775 C 830.82717,634.43395 854.44481,541.28132 833,482.36218 c 21.36963,58.71258 -213.97056,58.46804 -298,34 z"
           style="fill:#7cd5ff;fill-opacity:1;fill-rule:evenodd;stroke:#41c1ff;stroke-width:8;stroke-linecap:round;stroke-linejoin:round;stroke-miterlimit:4;stroke-opacity:1;stroke-dasharray:none" />
        <path
           style="fill:#5fcbff;fill-opacity:1;fill-rule:evenodd;stroke:#41c1ff;stroke-width:8;stroke-linecap:round;stroke-linejoin:round;stroke-miterlimit:4;stroke-opacity:1;stroke-dasharray:none"
           d="m 507.41421,483.48528 c -64,-57 -271.78459,-104.29151 -292.45584,-70.89949 -26,42 -31.71241,139.49468 -5,173 C 236.56665,618.96051 423,591 498,538 z"
           id="path5009"
           inkscape:connector-curvature="0"
           transform="translate(0,28.362183)"
           sodipodi:nodetypes="csscc" />
        <path
           sodipodi:nodetypes="csccc"
           transform="translate(0,28.362183)"
           inkscape:connector-curvature="0"
           id="path5011"
           d="m 507.41421,483.48528 c -64,-57 -271.78459,-104.29151 -292.45584,-70.89949 -26,42 -31.71241,139.49468 -5,173 C 175.98533,542.97346 410.27208,516.75379 498,538 z"
           style="fill:#7cd5ff;fill-opacity:1;fill-rule:evenodd;stroke:#41c1ff;stroke-width:8;stroke-linecap:round;stroke-linejoin:round;stroke-miterlimit:4;stroke-opacity:1;stroke-dasharray:none" />
        <rect
           style="fill:#7cd5ff;fill-opacity:1;fill-rule:evenodd;stroke:#41c1ff;stroke-width:8;stroke-linecap:round;stroke-linejoin:round;stroke-miterlimit:4;stroke-opacity:1;stroke-dasharray:none"
           id="rect4993"
           width="93.560555"
           height="116.61171"
           x="535.27179"
           y="405.74329"
           transform="matrix(0.9900265,0.14088124,-0.14088124,0.9900265,0,0)"
           rx="36.744099"
           ry="51.09391" />
      </g>
    </g>
  </g>
</svg>
