<svg xmlns="http://www.w3.org/2000/svg" xmlns:xlink="http://www.w3.org/1999/xlink" viewBox="-19 -42 38 57">
  <clipPath id="B"><use xlink:href="#A"/></clipPath>
  <g clip-path="url(#B)">
    <path d="m-19 9.5a19 5.5 0 0 0 38 0v-9.5a19 5.5 0 0 0-38 0z" fill="#e6e6e6" id="A"/>
    <ellipse fill="#f5f5f5" rx="19" ry="5.5"/>
    <path d="m19.4 0c-8.6-.3-22.3 2.9-22.3 5.7 0 8-5.2 7-5.2-.4 0-2.9 15.9-7.9 27.1-7.4m-7.2-3.4c-15.7 1.1-28.6 5.4-28.6 8.2 0 7.5 4.2 10 4.2 1.7 0-2.9 15.1-8 27.5-8.4" id="C" fill="none" stroke="#d96519" stroke-width=".5"/>
    <use transform="scale(-1 1)" xlink:href="#C"/>
  </g>
  <path d="m12.8-41.7c1.1-.1 2.3.6 2.6 1.7l-10.4 14.4c3.2 5.7-3.6 11.7-6.8 9.8s-1.1-11.1 5.5-10.7z" fill="#e6e6e6"/>
  <path d="m-2.6 1.7v-20c0-7.9 9.8-4.2 3.8 1.8-2.4 2.4-3.3 7.9-3.3 18z" fill="#d96519"/>
</svg>
