<svg xmlns="http://www.w3.org/2000/svg" viewBox="-10 -21 20 42">
  <path d="m-9.3 17.4 5.5-3.9 5.5 3.9-3.5-6.6 3.5-6.6-5.5 3.9-5.5-3.9 3.5 6.6z" fill="ivory"/>
  <path d="m-3.8.8c.6 6.5 2.5 9 5.7 10-3.2 1-5.1 3.5-5.7 10-.6-6.5-2.5-9-5.7-10 3.2-1 5.1-3.5 5.7-10z" fill="#b765b8"/>
  <path d="m1.7-6.3c-3.3 5.2 6.4 4.5 6.4 10.9 0 2.1-1.8 4.6-6.8 4.7 11-6.2-9.8-9.2.4-15.6zm-5.8 4.6c-3.1-1.6-4.6-3.8-4.6-6 0-9.8 18.9-1.7 13.9-13.1 13.6 12.8-16.2 9.6-9.3 19.1z" fill="#9be9d8"/>
  <path d="M1.7-6.3C-10.8 0 9.6 2.5 1.3 9.3 7.8 7.6 6.1 3.2 3.2 1S-2-3.3 1.7-6.3Zm-5.8 4.6c-4.1-8.2 13.6-2.8 13.6-12.4 0-2.3-1.4-4.7-4.3-6.7 4.1 4.3 4.3 8.8-4.4 10.1s-8.2 5.5-4.9 9z" fill="#08bab7"/>
</svg>
