<?xml version="1.0" encoding="UTF-8" standalone="no"?>
<!-- Created with Inkscape (http://www.inkscape.org/) -->

<svg
   xmlns:dc="http://purl.org/dc/elements/1.1/"
   xmlns:cc="http://creativecommons.org/ns#"
   xmlns:rdf="http://www.w3.org/1999/02/22-rdf-syntax-ns#"
   xmlns:svg="http://www.w3.org/2000/svg"
   xmlns="http://www.w3.org/2000/svg"
   xmlns:xlink="http://www.w3.org/1999/xlink"
   xmlns:sodipodi="http://sodipodi.sourceforge.net/DTD/sodipodi-0.dtd"
   xmlns:inkscape="http://www.inkscape.org/namespaces/inkscape"
   id="svg2985"
   version="1.1"
   inkscape:version="0.48.2 r9819"
   width="1639"
   height="2332"
   sodipodi:docname="Parcly Taxel Changed Her Hairstyle.svg">
  <metadata
     id="metadata2991">
    <rdf:RDF>
      <cc:Work
         rdf:about="">
        <dc:format>image/svg+xml</dc:format>
        <dc:type
           rdf:resource="http://purl.org/dc/dcmitype/StillImage" />
        <dc:title />
      </cc:Work>
    </rdf:RDF>
  </metadata>
  <defs
     id="defs2989">
    <linearGradient
       inkscape:collect="always"
       id="linearGradient3824">
      <stop
         style="stop-color:#230f38;stop-opacity:1"
         offset="0"
         id="stop3826" />
      <stop
         style="stop-color:#5c2594;stop-opacity:1"
         offset="1"
         id="stop3828" />
    </linearGradient>
    <linearGradient
       inkscape:collect="always"
       id="linearGradient4469">
      <stop
         style="stop-color:#230f38;stop-opacity:1"
         offset="0"
         id="stop4471" />
      <stop
         style="stop-color:#5c2594;stop-opacity:1"
         offset="1"
         id="stop4473" />
    </linearGradient>
    <linearGradient
       inkscape:collect="always"
       xlink:href="#linearGradient4469"
       id="linearGradient4475"
       x1="645.32965"
       y1="545.46844"
       x2="642.51398"
       y2="757.00696"
       gradientUnits="userSpaceOnUse" />
    <clipPath
       clipPathUnits="userSpaceOnUse"
       id="clipPath4483">
      <path
         transform="matrix(0.99906082,-0.04332995,0.04332995,0.99906082,-44.399144,12.060771)"
         d="m 731.15523,652.328 a 80.496658,121.54653 0 1 1 -160.99332,0 80.496658,121.54653 0 1 1 160.99332,0 z"
         sodipodi:ry="121.54653"
         sodipodi:rx="80.496658"
         sodipodi:cy="652.328"
         sodipodi:cx="650.65857"
         id="path4485"
         style="fill:url(#linearGradient4487);fill-opacity:1;stroke:none"
         sodipodi:type="arc" />
    </clipPath>
    <linearGradient
       inkscape:collect="always"
       xlink:href="#linearGradient4469"
       id="linearGradient4487"
       gradientUnits="userSpaceOnUse"
       x1="645.32965"
       y1="545.46844"
       x2="642.51398"
       y2="757.00696" />
    <linearGradient
       inkscape:collect="always"
       xlink:href="#linearGradient4469-9"
       id="linearGradient4475-0"
       x1="645.32965"
       y1="545.46844"
       x2="642.51398"
       y2="757.00696"
       gradientUnits="userSpaceOnUse" />
    <linearGradient
       inkscape:collect="always"
       id="linearGradient4469-9">
      <stop
         style="stop-color:#230f38;stop-opacity:1"
         offset="0"
         id="stop4471-4" />
      <stop
         style="stop-color:#5c2594;stop-opacity:1"
         offset="1"
         id="stop4473-8" />
    </linearGradient>
    <clipPath
       clipPathUnits="userSpaceOnUse"
       id="clipPath4483-8">
      <path
         transform="matrix(0.99906082,-0.04332995,0.04332995,0.99906082,-44.399144,12.060771)"
         d="m 731.15523,652.328 a 80.496658,121.54653 0 1 1 -160.99332,0 80.496658,121.54653 0 1 1 160.99332,0 z"
         sodipodi:ry="121.54653"
         sodipodi:rx="80.496658"
         sodipodi:cy="652.328"
         sodipodi:cx="650.65857"
         id="path4485-2"
         style="fill:url(#linearGradient4487);fill-opacity:1;stroke:none"
         sodipodi:type="arc" />
    </clipPath>
    <linearGradient
       inkscape:collect="always"
       xlink:href="#linearGradient4469-9"
       id="linearGradient4620"
       gradientUnits="userSpaceOnUse"
       x1="645.32965"
       y1="545.46844"
       x2="642.51398"
       y2="757.00696" />
    <linearGradient
       inkscape:collect="always"
       xlink:href="#linearGradient3824"
       id="linearGradient3830"
       x1="923.03192"
       y1="558.68146"
       x2="943.94714"
       y2="756.97467"
       gradientUnits="userSpaceOnUse" />
    <clipPath
       clipPathUnits="userSpaceOnUse"
       id="clipPath3834">
      <path
         transform="matrix(0.99889459,0.04700632,-0.04700632,0.99889459,17.727451,-61.284956)"
         d="m 1034.3053,652.06018 a 81.17469,120.95566 0 1 1 -162.34938,0 81.17469,120.95566 0 1 1 162.34938,0 z"
         sodipodi:ry="120.95566"
         sodipodi:rx="81.17469"
         sodipodi:cy="652.06018"
         sodipodi:cx="953.13062"
         id="path3837"
         style="fill:url(#linearGradient3839);fill-opacity:1;stroke:none"
         sodipodi:type="arc" />
    </clipPath>
    <linearGradient
       inkscape:collect="always"
       xlink:href="#linearGradient3824"
       id="linearGradient3839"
       gradientUnits="userSpaceOnUse"
       x1="923.03192"
       y1="558.68146"
       x2="943.94714"
       y2="756.97467" />
    <linearGradient
       inkscape:collect="always"
       xlink:href="#linearGradient4469"
       id="linearGradient3910"
       gradientUnits="userSpaceOnUse"
       x1="645.32965"
       y1="545.46844"
       x2="642.51398"
       y2="757.00696" />
    <linearGradient
       inkscape:collect="always"
       xlink:href="#linearGradient4469"
       id="linearGradient3940"
       gradientUnits="userSpaceOnUse"
       x1="645.32965"
       y1="545.46844"
       x2="642.51398"
       y2="757.00696" />
    <linearGradient
       inkscape:collect="always"
       xlink:href="#linearGradient3824"
       id="linearGradient3956"
       gradientUnits="userSpaceOnUse"
       x1="923.03192"
       y1="558.68146"
       x2="943.94714"
       y2="756.97467" />
    <clipPath
       clipPathUnits="userSpaceOnUse"
       id="clipPath4003">
      <path
         sodipodi:type="arc"
         style="fill:none;stroke:#ffffff;display:inline"
         id="path4005"
         sodipodi:cx="611.5"
         sodipodi:cy="623.5"
         sodipodi:rx="94.5"
         sodipodi:ry="132.5"
         d="m 706,623.5 a 94.5,132.5 0 1 1 -189,0 94.5,132.5 0 1 1 189,0 z"
         transform="matrix(1.0710143,0.08377349,-0.08377349,1.0710143,305.96897,-81.239078)" />
    </clipPath>
    <clipPath
       clipPathUnits="userSpaceOnUse"
       id="clipPath4056">
      <path
         style="font-size:xx-small;font-style:normal;font-variant:normal;font-weight:normal;font-stretch:normal;text-indent:0;text-align:start;text-decoration:none;line-height:normal;letter-spacing:normal;word-spacing:normal;text-transform:none;direction:ltr;block-progression:tb;writing-mode:lr-tb;text-anchor:start;baseline-shift:baseline;color:#000000;fill:none;stroke:#000000;stroke-width:1;stroke-miterlimit:4;stroke-dasharray:none;marker:none;visibility:visible;display:inline;overflow:visible;enable-background:accumulate;font-family:Sans;-inkscape-font-specification:Sans"
         d="m 855.63732,504.09827 9.7296,5.37133 7.26459,-12.48433 10.38506,1.85725 c 1.17491,-8.22436 1.2765,2.94734 2.69972,-4.39048 l 134.94061,-101.62361 130,332 -319.00005,99 L 754.65685,536.82843 Z"
         id="path4058"
         inkscape:connector-curvature="0"
         sodipodi:nodetypes="cccccccccc" />
    </clipPath>
    <clipPath
       clipPathUnits="userSpaceOnUse"
       id="clipPath4077">
      <path
         sodipodi:type="arc"
         style="fill:#ffffff;stroke:none"
         id="path4079"
         sodipodi:cx="611.5"
         sodipodi:cy="623.5"
         sodipodi:rx="94.5"
         sodipodi:ry="132.5"
         d="m 706,623.5 a 94.5,132.5 0 1 1 -189,0 94.5,132.5 0 1 1 189,0 z"
         transform="matrix(1.0753631,-0.07658372,0.07658372,1.0753631,-102.48982,13.152646)" />
    </clipPath>
    <clipPath
       clipPathUnits="userSpaceOnUse"
       id="clipPath4479">
      <path
         style="fill:none;stroke:#000000"
         d="M 816.58722,333.37374 C 764.5972,332.29599 724.8998,337.7053 694.7184,347.98159 613.62076,204.57938 830.38788,60.667604 816.58722,333.37374 z"
         id="path4481"
         inkscape:connector-curvature="0"
         sodipodi:nodetypes="ccc" />
    </clipPath>
    <linearGradient
       inkscape:collect="always"
       xlink:href="#linearGradient4469"
       id="linearGradient4239"
       gradientUnits="userSpaceOnUse"
       x1="645.32965"
       y1="545.46844"
       x2="642.51398"
       y2="757.00696" />
    <linearGradient
       inkscape:collect="always"
       xlink:href="#linearGradient3824"
       id="linearGradient4241"
       gradientUnits="userSpaceOnUse"
       x1="923.03192"
       y1="558.68146"
       x2="943.94714"
       y2="756.97467" />
    <clipPath
       clipPathUnits="userSpaceOnUse"
       id="clipPath8839">
      <path
         transform="matrix(0.99081634,0.41517783,-0.41517783,0.99081634,531.19324,-284.75705)"
         d="m 706,623.5 a 94.5,132.5 0 1 1 -189,0 A 94.5,132.5 0 1 1 706,623.5 Z"
         sodipodi:ry="132.5"
         sodipodi:rx="94.5"
         sodipodi:cy="623.5"
         sodipodi:cx="611.5"
         id="path8841"
         style="fill:#ffffff;stroke:none;display:inline"
         sodipodi:type="arc" />
    </clipPath>
    <clipPath
       clipPathUnits="userSpaceOnUse"
       id="clipPath8843">
      <path
         transform="matrix(1.0372835,0.27952216,-0.27952216,1.0372835,450.29529,-174.29729)"
         d="m 706,623.5 a 94.5,132.5 0 1 1 -189,0 A 94.5,132.5 0 1 1 706,623.5 Z"
         sodipodi:ry="132.5"
         sodipodi:rx="94.5"
         sodipodi:cy="623.5"
         sodipodi:cx="611.5"
         id="path8845"
         style="fill:#ffffff;stroke:none;display:inline"
         sodipodi:type="arc" />
    </clipPath>
    <clipPath
       clipPathUnits="userSpaceOnUse"
       id="clipPath8847">
      <path
         transform="matrix(1.0719906,0.07018502,-0.07018502,1.0719906,294.50493,-53.333567)"
         d="m 706,623.5 a 94.5,132.5 0 1 1 -189,0 A 94.5,132.5 0 1 1 706,623.5 Z"
         sodipodi:ry="132.5"
         sodipodi:rx="94.5"
         sodipodi:cy="623.5"
         sodipodi:cx="611.5"
         id="path8849"
         style="fill:#ffffff;stroke:none;display:inline"
         sodipodi:type="arc" />
    </clipPath>
    <clipPath
       clipPathUnits="userSpaceOnUse"
       id="clipPath8851">
      <path
         transform="matrix(1.0710143,0.08377349,-0.08377349,1.0710143,305.96898,-81.239078)"
         d="m 706,623.5 a 94.5,132.5 0 1 1 -189,0 A 94.5,132.5 0 1 1 706,623.5 Z"
         sodipodi:ry="132.5"
         sodipodi:rx="94.5"
         sodipodi:cy="623.5"
         sodipodi:cx="611.5"
         id="path8853"
         style="fill:#ffffff;stroke:none;display:inline"
         sodipodi:type="arc" />
    </clipPath>
    <clipPath
       clipPathUnits="userSpaceOnUse"
       id="clipPath8855">
      <path
         transform="matrix(1.0737683,0.03333644,-0.03333644,1.0737683,286.98493,-33.48124)"
         d="m 706,623.5 a 94.5,132.5 0 1 1 -189,0 A 94.5,132.5 0 1 1 706,623.5 Z"
         sodipodi:ry="132.5"
         sodipodi:rx="94.5"
         sodipodi:cy="623.5"
         sodipodi:cx="611.5"
         id="path8857"
         style="fill:#ffffff;stroke:none;display:inline"
         sodipodi:type="arc" />
    </clipPath>
    <clipPath
       clipPathUnits="userSpaceOnUse"
       id="clipPath8859">
      <path
         d="m 706,623.5 a 94.5,132.5 0 1 1 -189,0 A 94.5,132.5 0 1 1 706,623.5 Z"
         sodipodi:ry="132.5"
         sodipodi:rx="94.5"
         sodipodi:cy="623.5"
         sodipodi:cx="611.5"
         id="path8861"
         style="fill:#ffffff;stroke:none;display:inline"
         sodipodi:type="arc" />
    </clipPath>
    <clipPath
       clipPathUnits="userSpaceOnUse"
       id="clipPath8863">
      <path
         transform="matrix(0.99081634,0.41517783,-0.41517783,0.99081634,531.19324,-284.75705)"
         d="m 706,623.5 a 94.5,132.5 0 1 1 -189,0 A 94.5,132.5 0 1 1 706,623.5 Z"
         sodipodi:ry="132.5"
         sodipodi:rx="94.5"
         sodipodi:cy="623.5"
         sodipodi:cx="611.5"
         id="path8865"
         style="fill:#ffffff;stroke:none;display:inline"
         sodipodi:type="arc" />
    </clipPath>
    <clipPath
       clipPathUnits="userSpaceOnUse"
       id="clipPath8867">
      <path
         transform="matrix(1.0372835,0.27952216,-0.27952216,1.0372835,450.29529,-174.29729)"
         d="m 706,623.5 a 94.5,132.5 0 1 1 -189,0 A 94.5,132.5 0 1 1 706,623.5 Z"
         sodipodi:ry="132.5"
         sodipodi:rx="94.5"
         sodipodi:cy="623.5"
         sodipodi:cx="611.5"
         id="path8869"
         style="fill:#ffffff;stroke:none;display:inline"
         sodipodi:type="arc" />
    </clipPath>
    <clipPath
       clipPathUnits="userSpaceOnUse"
       id="clipPath8871">
      <path
         transform="matrix(1.0719906,0.07018502,-0.07018502,1.0719906,294.50493,-53.333567)"
         d="m 706,623.5 a 94.5,132.5 0 1 1 -189,0 A 94.5,132.5 0 1 1 706,623.5 Z"
         sodipodi:ry="132.5"
         sodipodi:rx="94.5"
         sodipodi:cy="623.5"
         sodipodi:cx="611.5"
         id="path8873"
         style="fill:#ffffff;stroke:none;display:inline"
         sodipodi:type="arc" />
    </clipPath>
    <clipPath
       clipPathUnits="userSpaceOnUse"
       id="clipPath8875">
      <path
         transform="matrix(1.0710143,0.08377349,-0.08377349,1.0710143,305.96898,-81.239078)"
         d="m 706,623.5 a 94.5,132.5 0 1 1 -189,0 A 94.5,132.5 0 1 1 706,623.5 Z"
         sodipodi:ry="132.5"
         sodipodi:rx="94.5"
         sodipodi:cy="623.5"
         sodipodi:cx="611.5"
         id="path8877"
         style="fill:#ffffff;stroke:none;display:inline"
         sodipodi:type="arc" />
    </clipPath>
    <clipPath
       clipPathUnits="userSpaceOnUse"
       id="clipPath8879">
      <path
         transform="matrix(1.0737683,0.03333644,-0.03333644,1.0737683,286.98493,-33.48124)"
         d="m 706,623.5 a 94.5,132.5 0 1 1 -189,0 A 94.5,132.5 0 1 1 706,623.5 Z"
         sodipodi:ry="132.5"
         sodipodi:rx="94.5"
         sodipodi:cy="623.5"
         sodipodi:cx="611.5"
         id="path8881"
         style="fill:#ffffff;stroke:none;display:inline"
         sodipodi:type="arc" />
    </clipPath>
    <clipPath
       clipPathUnits="userSpaceOnUse"
       id="clipPath8883">
      <path
         d="m 706,623.5 a 94.5,132.5 0 1 1 -189,0 A 94.5,132.5 0 1 1 706,623.5 Z"
         sodipodi:ry="132.5"
         sodipodi:rx="94.5"
         sodipodi:cy="623.5"
         sodipodi:cx="611.5"
         id="path8885"
         style="fill:#ffffff;stroke:none;display:inline"
         sodipodi:type="arc" />
    </clipPath>
    <clipPath
       clipPathUnits="userSpaceOnUse"
       id="clipPath8901">
      <path
         clip-path="url(#clipPath8855)"
         transform="matrix(0.92982214,0.04375589,-0.04375589,0.92982214,74.355553,-15.768484)"
         d="m 1034.3053,652.06018 a 81.17469,120.95566 0 1 1 -162.34938,0 A 81.17469,120.95566 0 1 1 1034.3053,652.06018 Z"
         sodipodi:ry="120.95566"
         sodipodi:rx="81.17469"
         sodipodi:cy="652.06018"
         sodipodi:cx="953.13062"
         id="path8903"
         style="fill:url(#linearGradient8905);fill-opacity:1;stroke:none"
         sodipodi:type="arc" />
    </clipPath>
    <linearGradient
       inkscape:collect="always"
       xlink:href="#linearGradient3824"
       id="linearGradient8905"
       gradientUnits="userSpaceOnUse"
       x1="923.03192"
       y1="558.68146"
       x2="943.94714"
       y2="756.97467" />
    <clipPath
       clipPathUnits="userSpaceOnUse"
       id="clipPath8907">
      <path
         clip-path="url(#clipPath8855)"
         transform="matrix(0.92982214,0.04375589,-0.04375589,0.92982214,74.355553,-15.768484)"
         d="m 1034.3053,652.06018 a 81.17469,120.95566 0 1 1 -162.34938,0 A 81.17469,120.95566 0 1 1 1034.3053,652.06018 Z"
         sodipodi:ry="120.95566"
         sodipodi:rx="81.17469"
         sodipodi:cy="652.06018"
         sodipodi:cx="953.13062"
         id="path8909"
         style="fill:url(#linearGradient8911);fill-opacity:1;stroke:none"
         sodipodi:type="arc" />
    </clipPath>
    <linearGradient
       inkscape:collect="always"
       xlink:href="#linearGradient3824"
       id="linearGradient8911"
       gradientUnits="userSpaceOnUse"
       x1="923.03192"
       y1="558.68146"
       x2="943.94714"
       y2="756.97467" />
    <clipPath
       clipPathUnits="userSpaceOnUse"
       id="clipPath3970">
      <path
         style="font-size:medium;font-style:normal;font-variant:normal;font-weight:normal;font-stretch:normal;text-indent:0;text-align:start;text-decoration:none;line-height:normal;letter-spacing:normal;word-spacing:normal;text-transform:none;direction:ltr;block-progression:tb;writing-mode:lr-tb;text-anchor:start;baseline-shift:baseline;color:#000000;fill:none;stroke:#000000;stroke-width:1;stroke-miterlimit:4;stroke-dasharray:none;marker:none;visibility:visible;display:inline;overflow:visible;enable-background:accumulate;font-family:Sans;-inkscape-font-specification:Sans"
         d="m 856.10119,515.69588 c 4.52688,3.42408 9.3491,6.64645 14.39941,9.7263 l 9.34375,5.71875 1.9375,-10.8125 c 1.54507,-8.68356 3.18394,-16.74936 4.8964,-24.227 L 1095.3044,374.33815 1160.9458,760.52848 810.85822,808.66551 760.53313,566.8863 z"
         id="path3972"
         inkscape:connector-curvature="0"
         sodipodi:nodetypes="ccccc" />
    </clipPath>
    <linearGradient
       inkscape:collect="always"
       xlink:href="#linearGradient4469"
       id="linearGradient3373"
       gradientUnits="userSpaceOnUse"
       x1="645.32965"
       y1="545.46844"
       x2="642.51398"
       y2="757.00696" />
    <linearGradient
       inkscape:collect="always"
       xlink:href="#linearGradient3824"
       id="linearGradient3375"
       gradientUnits="userSpaceOnUse"
       x1="923.03192"
       y1="558.68146"
       x2="943.94714"
       y2="756.97467" />
  </defs>
  <sodipodi:namedview
     pagecolor="#ffffff"
     bordercolor="#666666"
     borderopacity="1"
     objecttolerance="10"
     gridtolerance="10"
     guidetolerance="10"
     inkscape:pageopacity="0"
     inkscape:pageshadow="2"
     inkscape:window-width="1366"
     inkscape:window-height="706"
     id="namedview2987"
     showgrid="false"
     fit-margin-top="0"
     fit-margin-left="0.4"
     fit-margin-right="0"
     fit-margin-bottom="0"
     inkscape:zoom="0.22169811"
     inkscape:cx="819.5"
     inkscape:cy="1166"
     inkscape:window-x="-8"
     inkscape:window-y="-8"
     inkscape:window-maximized="1"
     inkscape:current-layer="layer2"
     showguides="false" />
  <g
     inkscape:groupmode="layer"
     id="layer2"
     inkscape:label="Drawing"
     style="display:inline">
    <g
       id="g3998">
      <path
         sodipodi:type="arc"
         style="fill:#a9b7bc;fill-opacity:1;stroke:none"
         id="path3211"
         sodipodi:cx="721.70215"
         sodipodi:cy="1905.7446"
         sodipodi:rx="266.12766"
         sodipodi:ry="74.425537"
         d="m 987.8298,1905.7446 a 266.12766,74.425537 0 1 1 -532.25531,0 A 266.12766,74.425537 0 1 1 987.8298,1905.7446 Z"
         transform="translate(-2.2553192,-18.042553)" />
      <g
         id="g3194">
        <path
           style="fill:#f3a4d9;fill-opacity:1;stroke:none"
           d="M 755.19004,1013.953 C 721.24891,741.00974 231.5953,797.53305 380.46508,1344.2271 l 40.61775,-61.1984 c 48.40039,229.2378 -86.64491,337.1586 -181.47056,189.2472 4.62742,399.0925 427.33126,329.2395 337.87022,-230.1192 C 539.96978,1007.607 614.63489,940.79287 718.42049,1013.953 Z"
           id="path4091"
           inkscape:connector-curvature="0"
           sodipodi:nodetypes="ccccscc" />
        <path
           sodipodi:nodetypes="cccccccccc"
           inkscape:connector-curvature="0"
           id="path4093"
           d="M 412.37172,1193.3987 C 366.89823,917.9448 663.36666,814.41386 734.42049,1013.953 l 20.76955,0 C 721.24891,741.00974 231.5953,797.53305 380.46508,1344.2271 l 40.61775,-61.1984 c 48.40039,229.2378 -86.64491,337.1586 -181.47056,189.2472 57.36963,262.1754 333.90245,205.381 281.4588,-208.7612 l -44,65.1716 L 454.10051,1125.4142 Z"
           style="fill:#961370;fill-opacity:1;stroke:none" />
        <path
           sodipodi:nodetypes="ccccscc"
           inkscape:connector-curvature="0"
           id="path4095"
           d="M 755.19004,1013.953 C 721.24891,741.00974 231.5953,797.53305 380.46508,1344.2271 l 40.61775,-61.1984 c 48.40039,229.2378 -86.64491,337.1586 -181.47056,189.2472 4.62742,399.0925 435.66533,325.7601 334.68072,-242.8772 C 536.74077,1017.9448 616.22964,934.41386 718.42049,1013.953 Z"
           style="fill:none;stroke:#d91e9b;stroke-width:15;stroke-linecap:butt;stroke-linejoin:miter;stroke-miterlimit:20;stroke-opacity:1;stroke-dasharray:none" />
      </g>
      <g
         id="g3303">
        <path
           sodipodi:nodetypes="ccsscc"
           inkscape:connector-curvature="0"
           id="path4101"
           d="m 649.06703,970.7772 c -70.90648,-7.27246 -151.35825,81.088 -80.90611,354.8962 C 508.52691,1289.1299 447.76955,1795.2426 459,1864 c 5.80828,35.5606 207.19031,26.1652 225,2 C 702.11772,1841.4168 552,1666 738,1256 Z"
           style="fill:#11a2f9;fill-opacity:1;stroke:none" />
        <path
           sodipodi:nodetypes="cccc"
           inkscape:connector-curvature="0"
           id="path4103"
           d="M 641.125,958.03125 C 466.33179,995.07927 552.94267,1279.7024 576.22706,1361.1562 563.39548,1263.2915 489.48572,1006.1057 642.0625,973 Z"
           style="font-size:xx-small;font-style:normal;font-variant:normal;font-weight:normal;font-stretch:normal;text-indent:0;text-align:start;text-decoration:none;line-height:normal;letter-spacing:normal;word-spacing:normal;text-transform:none;direction:ltr;block-progression:tb;writing-mode:lr-tb;text-anchor:start;baseline-shift:baseline;color:#000000;fill:#1c92cd;fill-opacity:1;stroke:none;stroke-width:1;marker:none;visibility:visible;display:inline;overflow:visible;enable-background:accumulate;font-family:Sans;-inkscape-font-specification:Sans" />
        <path
           sodipodi:nodetypes="csssc"
           inkscape:connector-curvature="0"
           id="path4105"
           d="m 569.32585,1325.6944 c -6.73697,0.2181 -21.65838,-0.4163 -27.42689,10.4402 -27.90601,52.5198 -96.81359,432.1139 -84.24855,525.5271 4.77376,35.4899 207.96529,30.0825 226.53428,4.2483 C 701.59233,1841.6916 554,1676 744,1238"
           style="fill:none;stroke:#1c92cd;stroke-width:15;stroke-linecap:butt;stroke-linejoin:miter;stroke-miterlimit:4;stroke-opacity:1;stroke-dasharray:none" />
      </g>
      <path
         style="fill:#11a2f9;fill-opacity:1;stroke:#1c92cd;stroke-width:15;stroke-linecap:butt;stroke-linejoin:miter;stroke-miterlimit:4;stroke-opacity:1;stroke-dasharray:none"
         d="m 762.38478,1238 c -32,298 -32,602.8284 -12,628.8284 20,26 198,26 216,2 18,-24 -94,-258 -88,-634"
         id="path4097"
         inkscape:connector-curvature="0"
         sodipodi:nodetypes="cssc" />
      <path
         sodipodi:nodetypes="sssss"
         inkscape:connector-curvature="0"
         id="path3973"
         d="m 921.41341,1143.9465 c 0,105.1018 -55.77187,181.7023 -176.32649,181.7023 -121.62977,0 -176.32648,-80.9012 -176.32648,-186.003 0,-144.88277 74.04961,-188.15317 187.07809,-188.15317 C 894.6709,951.49263 921.41341,1039.9198 921.41341,1143.9465 Z"
         style="fill:#6dc6fb;fill-opacity:1;stroke:#1c92cd;stroke-width:15;stroke-linecap:round;stroke-linejoin:round;stroke-miterlimit:4;stroke-opacity:1;stroke-dashoffset:0" />
      <g
         id="g3308">
        <path
           style="fill:#6dc6fb;fill-opacity:1;stroke:none"
           d="M 638.64591,809.57135 627.8943,1004.1756 863.35466,997.72465 859.05401,822.47329 C 808.52142,855.8033 673.05108,840.75103 638.64591,809.57135 Z"
           id="path3976"
           inkscape:connector-curvature="0" />
        <path
           sodipodi:nodetypes="cccc"
           inkscape:connector-curvature="0"
           id="path3971"
           d="m 865.96941,777.50885 c 3.30727,82.9725 6.46513,189.6568 -4.2491,253.75955 C 858.26597,963.28415 850.72413,782.31005 850.72413,782.31005 Z"
           style="fill:#1c92cd;fill-opacity:1;stroke:none" />
        <path
           style="fill:#1c92cd;fill-opacity:1;stroke:none"
           d="M 634.34527,775.16619 C 627.89429,857.95362 619.293,972.99585 628.96945,1028.9044 636.49558,978.37175 649.39753,780.542 649.39753,780.542 Z"
           id="path3969"
           inkscape:connector-curvature="0"
           sodipodi:nodetypes="cccc" />
      </g>
      <g
         id="g3983">
        <path
           style="fill:#961370;fill-opacity:1;stroke:none"
           d="m 853.22117,845.32579 c 11.32339,59.63418 1.56292,190.57061 -35.03245,250.02611 48.45983,-31.9229 64.42097,-68.9473 77.37484,-94.5488 0.4828,20.899 -2.20633,50.8114 -14.93184,66.7913 18.43849,-7.6529 48.27777,-26.262 65.99215,-44.0613 -11.14614,36.8559 -65.47873,81.1054 -104.24987,97.2695 198.0024,5.9155 222.0113,-255.64653 130.36162,-450.11074 z"
           id="path5286"
           inkscape:connector-curvature="0"
           sodipodi:nodetypes="cccccccc" />
        <path
           sodipodi:nodetypes="ccccc"
           inkscape:connector-curvature="0"
           id="path5288"
           d="m 923.64937,1045.4136 c 36.00397,10.2997 -46.85254,57.1693 -81.27537,75.389 198.0024,5.9155 222.0113,-255.64653 130.36162,-450.11074 l -27.1507,39.67247 c 19.97469,57.00028 18.78147,280.34097 -21.93555,335.04927 z"
           style="fill:#f3a4d9;fill-opacity:1;stroke:none" />
        <path
           style="fill:#d91e9b;fill-opacity:1;stroke:none"
           d="m 799.89362,1112.433 c 35.19841,-9.2831 74.26478,-56.0854 82.0007,-73.4912 -3.09437,15.085 -11.60388,34.8116 -18.5662,47.5759 15.85862,-5.4152 47.18908,-23.9814 58.79295,-31.7173 -12.76426,24.755 -71.17042,58.7929 -106.75562,69.6232 243.21955,34.6998 240.91435,-272.09051 185.66615,-398.45024 l -10.94025,14.76932 c 47.04305,118.70156 42.40145,345.36352 -109.66781,370.52612 42.42229,-24.5861 68.60305,-58.9768 79.42195,-108.5738 -17.48161,18.2551 -45.63994,42.4128 -67.52041,52.259 7.7795,-25.1511 9.39304,-51.4191 8.43175,-74.12812 -15.55901,24.81922 -41.31883,70.47062 -61.97255,89.12402 24.59943,-63.3869 30.44496,-157.0862 24.45532,-187.8516 l -14.14457,3.98931 c 0,0 11.13226,137.10389 -49.20141,226.34539 z"
           id="path3996"
           inkscape:connector-curvature="0"
           sodipodi:nodetypes="ccccccccccccccc" />
      </g>
      <g
         id="g3313">
        <path
           transform="matrix(14.607701,0,0,14.607701,-2972.1458,-7982.0156)"
           d="m 273.30054,588.83698 a 18.339643,20.649769 0 1 1 -36.67929,0 18.339643,20.649769 0 1 1 36.67929,0 z"
           sodipodi:ry="20.649769"
           sodipodi:rx="18.339643"
           sodipodi:cy="588.83698"
           sodipodi:cx="254.96089"
           id="path4125"
           style="fill:#6dc6fb;fill-opacity:1;stroke:#1c92cd;stroke-width:1.02685559;stroke-linecap:round;stroke-linejoin:round;stroke-miterlimit:4;stroke-opacity:1;stroke-dasharray:none;stroke-dashoffset:0"
           sodipodi:type="arc" />
        <g
           id="g4131">
          <path
             sodipodi:nodetypes="cscc"
             inkscape:connector-curvature="0"
             id="path4133"
             d="m 508.64013,621.9788 c -165.15895,-164.91135 -0.0541,-362.08054 21.01958,-362.08054 19.0729,0 75.32893,60.56029 78.55448,161.62546 z"
             style="fill:#6dc6fb;fill-opacity:1;stroke:none" />
          <path
             style="fill:#1c92cd;fill-opacity:1;stroke:none"
             d="m 508.64013,621.9788 c -145.80604,-160.6107 2.09627,-356.70473 23.1699,-356.70473 13.6971,0 65.65248,61.63545 76.40416,156.24965 10.5467,-107.6018 -55.03816,-171.03632 -78.69166,-171.03632 -33.33008,0 -194.43772,217.22884 -20.8824,371.4914 z"
             id="path4135"
             inkscape:connector-curvature="0"
             sodipodi:nodetypes="cscsc" />
          <path
             sodipodi:nodetypes="ccc"
             inkscape:connector-curvature="0"
             id="path4137"
             d="m 520.81958,358.48429 c -27.05165,40.67529 -26.2347,111.758 -1.23906,158.04753 -14.37419,-46.59342 -11.96637,-116.91254 1.23906,-158.04753 z"
             style="fill:#1c92cd;fill-opacity:1;stroke:none" />
        </g>
        <g
           id="g4141"
           transform="translate(7.071068,2.8284272)">
          <path
             transform="matrix(0.9974737,-0.0710367,0.0710367,0.9974737,-50.746553,55.01409)"
             d="M 706,623.5 C 706,696.67773 663.69091,756 611.5,756 559.30909,756 517,696.67773 517,623.5 517,550.32227 559.30909,491 611.5,491 c 52.19091,0 94.5,59.32227 94.5,132.5 z"
             sodipodi:ry="132.5"
             sodipodi:rx="94.5"
             sodipodi:cy="623.5"
             sodipodi:cx="611.5"
             id="path4143"
             style="fill:#ffffff;stroke:none"
             sodipodi:type="arc" />
          <path
             style="fill:#000000;stroke:none"
             d="m 541.67307,529.21801 -8.49266,8.9171 c -56.63402,-46.8259 -81.31157,-77.12032 8.49266,-8.9171 z"
             id="path4145"
             inkscape:connector-curvature="0" />
          <g
             transform="matrix(0.92756923,0,0,0.92756923,44.319847,42.8141)"
             id="g4147"
             clip-path="url(#clipPath4077)">
            <path
               transform="matrix(0.99906082,-0.04332995,0.04332995,0.99906082,-44.399144,12.060771)"
               d="m 731.15523,652.328 c 0,67.1283 -36.03958,121.54653 -80.49666,121.54653 -44.45708,0 -80.49666,-54.41823 -80.49666,-121.54653 0,-67.12829 36.03958,-121.54653 80.49666,-121.54653 44.45708,0 80.49666,54.41824 80.49666,121.54653 z"
               sodipodi:ry="121.54653"
               sodipodi:rx="80.496658"
               sodipodi:cy="652.328"
               sodipodi:cx="650.65857"
               id="path4149"
               style="fill:url(#linearGradient3373);fill-opacity:1;stroke:none"
               sodipodi:type="arc" />
            <g
               clip-path="url(#clipPath4483)"
               id="g4151">
              <path
                 style="fill:#8f4dd3;fill-opacity:1;stroke:none"
                 d="m 550.98663,689.40599 19.9344,48.63992 51.03204,-53.42417 -12.75801,-26.3134 z"
                 id="path4153"
                 inkscape:connector-curvature="0"
                 sodipodi:nodetypes="ccccc" />
              <path
                 style="fill:#62289e;fill-opacity:1;stroke:none"
                 d="m 533.44437,671.06635 88.5087,-27.11078 9.56851,17.54227 -90.10346,47.84254 z"
                 id="path4155"
                 inkscape:connector-curvature="0" />
            </g>
            <path
               sodipodi:type="arc"
               style="fill:#000000;stroke:none"
               id="path4157"
               sodipodi:cx="650.65857"
               sodipodi:cy="652.328"
               sodipodi:rx="70.937134"
               sodipodi:ry="105.51255"
               d="m 721.5957,652.328 c 0,58.27298 -31.75963,105.51255 -70.93713,105.51255 -39.1775,0 -70.93713,-47.23957 -70.93713,-105.51255 0,-58.27297 31.75963,-105.51255 70.93713,-105.51255 39.1775,0 70.93713,47.23958 70.93713,105.51255 z"
               transform="matrix(0.99961021,-0.02791795,0.02791795,0.99961021,-14.251592,-3.6618249)" />
            <path
               transform="matrix(0.96285991,-0.27000146,0.27000146,0.96285991,-143.13514,187.45365)"
               d="m 636.30582,592.92352 c 0,24.6612 -13.2089,44.65304 -29.5029,44.65304 -16.29401,0 -29.50291,-19.99184 -29.50291,-44.65304 0,-24.66119 13.2089,-44.65304 29.50291,-44.65304 16.294,0 29.5029,19.99185 29.5029,44.65304 z"
               sodipodi:ry="44.653042"
               sodipodi:rx="29.502903"
               sodipodi:cy="592.92352"
               sodipodi:cx="606.80292"
               id="path4159"
               style="fill:#ffffff;stroke:none"
               sodipodi:type="arc" />
            <path
               sodipodi:type="arc"
               style="fill:#ffffff;stroke:none"
               id="path4161"
               sodipodi:cx="606.80292"
               sodipodi:cy="592.92352"
               sodipodi:rx="7.5100708"
               sodipodi:ry="14.52354"
               d="m 614.31299,592.92352 c 0,8.02113 -3.36237,14.52354 -7.51007,14.52354 -4.1477,0 -7.51007,-6.50241 -7.51007,-14.52354 0,-8.02113 3.36237,-14.52354 7.51007,-14.52354 4.1477,0 7.51007,6.50241 7.51007,14.52354 z"
               transform="matrix(0.96285991,-0.27000146,0.27000146,0.96285991,-95.292596,220.14605)" />
          </g>
          <path
             sodipodi:nodetypes="cccc"
             inkscape:connector-curvature="0"
             id="path4163"
             d="M 676.01317,720.32083 C 766.27244,548.81054 600.3919,411.01977 534.08581,559.55217 c -91.32159,-44.213 -87.13139,-53.97068 -3.44776,-15.90682 105.48197,-167.89079 248.85177,63.35817 145.37512,176.67548 z"
             style="fill:#000000;stroke:none"
             transform="matrix(0.9974737,-0.0710367,0.0710367,0.9974737,-50.746553,55.01409)" />
          <path
             sodipodi:nodetypes="ccc"
             inkscape:connector-curvature="0"
             id="path4165"
             d="m 571.14315,506.84236 -11.26321,5.63391 c -42.16205,-60.1867 -57.19943,-95.24053 11.26321,-5.63391 z"
             style="fill:#000000;stroke:none" />
        </g>
        <g
           id="g3974">
          <path
             sodipodi:nodetypes="cccccccccc"
             inkscape:connector-curvature="0"
             id="path5052"
             d="m 500.56405,571.21934 c 0.13466,-56.99007 27.35145,-118.87056 58.84033,-141.66719 -0.42417,55.56186 11.69506,94.54542 64.26098,112.31617 -11.01573,-56.99178 20.0799,-121.32561 65.30884,-137.69329 -9.48523,73.03495 1.07897,94.03057 63.75641,119.07757 -12.38846,-75.66551 31.76141,-112.56731 74.16107,-132.55112 -10.15542,69.07886 -1.09102,95.16615 41.84566,125.48619 20.78947,-116.84025 56.68388,-126.67004 84.19533,-102.59185 l 26.82502,-83.82226 C 729.92027,71.215008 333.69802,333.642 500.56405,571.21934 z"
             style="fill:#f3a4d9;fill-opacity:1;stroke:none" />
          <path
             sodipodi:nodetypes="cccccccc"
             inkscape:connector-curvature="0"
             id="path5054"
             d="m 690.71194,401.79029 c -19.59059,77.41011 14.29491,108.49879 64.33797,123.88415 -7.72784,-62.40435 7.35334,-111.79754 74.87712,-135.26158 -15.94695,47.14075 -9.61946,110.889 39.69527,121.13569 21.30978,-111.67089 49.23761,-119.99706 85.24219,-102.87866 l 7.72045,-34.14684 C 809.09269,226.37131 508.54791,336.20621 619.83699,540.78006 612.16475,478.246 653.942,424.27845 690.71194,401.79029 z"
             style="fill:#961370;fill-opacity:1;stroke:none" />
          <path
             style="fill:none;stroke:#d91e9b;stroke-width:15;stroke-linecap:butt;stroke-linejoin:miter;stroke-miterlimit:4;stroke-opacity:1;stroke-dasharray:none"
             d="m 500.56405,571.21934 c 1.22868,-48.23788 17.50524,-110.11837 58.84034,-148.23133 -1.51819,57.7499 2.94286,95.63944 67.54304,121.06836 -16.27039,-60.16171 3.91819,-106.78964 65.73643,-145.15706 -18.63546,60.73547 -6.74203,102.72923 63.32882,128.72939 -11.29444,-69.10138 2.22277,-107.0972 74.16107,-140.2093 -23.28371,72.36093 -2.18505,103.91835 38.56359,128.76827 20.78947,-116.84025 56.68388,-126.67004 84.19533,-102.59185 l 26.82502,-83.82226 C 729.92027,71.215008 333.69802,333.642 500.56405,571.21934 z"
             id="path4173"
             inkscape:connector-curvature="0"
             sodipodi:nodetypes="cccccccccc" />
          <g
             id="g4175"
             clip-path="url(#clipPath4479)">
            <path
               sodipodi:nodetypes="cc"
               inkscape:connector-curvature="0"
               id="path4177"
               d="m 711.25915,416.70349 c 32.45941,-259.67521 61.92254,-263.17024 89.84146,-26.45752 z"
               style="fill:#6dc6fb;fill-opacity:1;stroke:#1c92cd;stroke-width:15;stroke-linecap:butt;stroke-linejoin:miter;stroke-miterlimit:4;stroke-opacity:1;stroke-dasharray:none" />
            <path
               sodipodi:nodetypes="cccccc"
               inkscape:connector-curvature="0"
               id="path4179"
               d="m 719.28302,363.91694 c 33.96305,16.36021 65.84336,-4.54007 74.18615,-35.48033 l -8.60129,-39.24339 c -7.37723,25.96373 -36.9228,45.68197 -60.20905,34.40516 l 8.06371,-44.08162 c 17.30303,9.91672 38.62575,-6.92945 45.15678,-24.72872"
               style="fill:none;stroke:#1c92cd;stroke-width:4;stroke-linecap:butt;stroke-linejoin:miter;stroke-miterlimit:4;stroke-opacity:1;stroke-dasharray:none" />
          </g>
          <path
             sodipodi:nodetypes="ccc"
             inkscape:connector-curvature="0"
             id="path5061"
             d="M 695.95293,349.65134 C 730.35506,335.97705 783.67068,333.17577 812.8462,339.43259 789.80515,321.10367 727.01189,322.8146 695.95293,349.65134 z"
             style="font-size:xx-small;font-style:normal;font-variant:normal;font-weight:normal;font-stretch:normal;text-indent:0;text-align:start;text-decoration:none;line-height:normal;letter-spacing:normal;word-spacing:normal;text-transform:none;direction:ltr;block-progression:tb;writing-mode:lr-tb;text-anchor:start;baseline-shift:baseline;color:#000000;fill:#d91e9b;fill-opacity:1;stroke:none;stroke-width:15;marker:none;visibility:visible;display:inline;overflow:visible;enable-background:accumulate;font-family:sans-serif;-inkscape-font-specification:sans-serif" />
        </g>
        <g
           clip-path="none"
           id="g4181">
          <path
             style="fill:#6dc6fb;fill-opacity:1;stroke:none"
             d="m 1004.6551,614.45267 c 186.6621,-161.68587 26.9331,-363.1557 5.8595,-363.1557 -16.92263,0 -78.55451,77.76287 -90.38129,176.67772 z"
             id="path4183"
             inkscape:connector-curvature="0"
             sodipodi:nodetypes="cscc" />
          <path
             sodipodi:nodetypes="cscsc"
             inkscape:connector-curvature="0"
             id="path4185"
             d="m 1004.6551,614.45267 c 168.3844,-157.38522 25.8579,-355.62957 4.7843,-355.62957 -16.92259,0 -66.7277,79.91319 -89.30609,169.15159 3.43039,-105.45148 67.94008,-183.93826 91.59359,-183.93826 29.0294,0 191.2122,224.75497 -7.0718,370.41624 z"
             style="fill:#1c92cd;fill-opacity:1;stroke:none" />
          <path
             style="fill:#1c92cd;fill-opacity:1;stroke:none"
             d="m 1026.2548,359.62575 c 23.8959,42.60583 17.702,113.42288 -10.725,157.68808 17.859,-45.37202 20.7796,-115.67171 10.725,-157.68808 z"
             id="path4187"
             inkscape:connector-curvature="0"
             sodipodi:nodetypes="ccc" />
        </g>
        <g
           id="g4189"
           transform="translate(-5.6568544,-2.8284272)"
           clip-path="url(#clipPath3970)">
          <path
             sodipodi:type="arc"
             style="fill:#ffffff;stroke:none;display:inline"
             id="path4191"
             sodipodi:cx="611.5"
             sodipodi:cy="623.5"
             sodipodi:rx="94.5"
             sodipodi:ry="132.5"
             d="M 706,623.5 C 706,696.67773 663.69091,756 611.5,756 559.30909,756 517,696.67773 517,623.5 517,550.32227 559.30909,491 611.5,491 c 52.19091,0 94.5,59.32227 94.5,132.5 z"
             transform="matrix(0.99695487,0.07798065,-0.07798065,0.99695487,348.32235,-31.514374)" />
          <g
             transform="matrix(0.93085111,0,0,0.93085111,63.51079,44.107112)"
             id="g4193"
             clip-path="url(#clipPath4003)">
            <path
               transform="matrix(0.99889459,0.04700632,-0.04700632,0.99889459,17.727451,-61.284956)"
               d="m 1034.3053,652.06018 c 0,66.80197 -36.34314,120.95566 -81.17468,120.95566 -44.83155,0 -81.1747,-54.15369 -81.1747,-120.95566 0,-66.80196 36.34315,-120.95566 81.1747,-120.95566 44.83154,0 81.17468,54.1537 81.17468,120.95566 z"
               sodipodi:ry="120.95566"
               sodipodi:rx="81.17469"
               sodipodi:cy="652.06018"
               sodipodi:cx="953.13062"
               id="path4195"
               style="fill:url(#linearGradient3375);fill-opacity:1;stroke:none"
               sodipodi:type="arc" />
            <g
               clip-path="url(#clipPath3834)"
               id="g4197">
              <path
                 style="fill:#8f4dd3;fill-opacity:1;stroke:none"
                 d="m 860.12917,690.22844 18.27775,44.08162 35.48033,-47.30711 -8.06371,-22.04081 z"
                 id="path4199"
                 inkscape:connector-curvature="0"
                 sodipodi:nodetypes="ccccc" />
              <path
                 style="fill:#62289e;fill-opacity:1;stroke:none"
                 d="m 845.61449,668.18763 60.74663,-15.58984 8.60129,18.81532 -60.20904,31.71726 z"
                 id="path4201"
                 inkscape:connector-curvature="0"
                 sodipodi:nodetypes="ccccc" />
            </g>
            <path
               sodipodi:type="arc"
               style="fill:#000000;stroke:none"
               id="path4203"
               sodipodi:cx="953.13062"
               sodipodi:cy="652.06018"
               sodipodi:rx="65.115639"
               sodipodi:ry="105.83748"
               d="m 1018.2463,652.06018 c 0,58.45243 -29.15331,105.83748 -65.11568,105.83748 -35.96238,0 -65.11564,-47.38505 -65.11564,-105.83748 0,-58.45242 29.15326,-105.83748 65.11564,-105.83748 35.96237,0 65.11568,47.38506 65.11568,105.83748 z"
               transform="matrix(0.99991959,0.01268119,-0.01268119,0.99991959,10.811394,-31.644473)" />
            <path
               transform="matrix(0.98290631,-0.18410647,0.18410647,0.98290631,-104.53984,172.98111)"
               d="m 953.45188,606.90344 c 0,24.97047 -13.14072,45.21304 -29.35062,45.21304 -16.2099,0 -29.35062,-20.24257 -29.35062,-45.21304 0,-24.97047 13.14072,-45.21303 29.35062,-45.21303 16.2099,0 29.35062,20.24256 29.35062,45.21303 z"
               sodipodi:ry="45.213036"
               sodipodi:rx="29.350618"
               sodipodi:cy="606.90344"
               sodipodi:cx="924.10126"
               id="path4205"
               style="fill:#ffffff;stroke:none"
               sodipodi:type="arc" />
            <path
               sodipodi:type="arc"
               style="fill:#ffffff;stroke:none"
               id="path4207"
               sodipodi:cx="924.10126"
               sodipodi:cy="606.90344"
               sodipodi:rx="6.1013927"
               sodipodi:ry="15.294286"
               d="m 930.20265,606.90344 c 0,8.4468 -2.73169,15.29429 -6.10139,15.29429 -3.36971,0 -6.1014,-6.84749 -6.1014,-15.29429 0,-8.4468 2.73169,-15.29428 6.1014,-15.29428 3.3697,0 6.10139,6.84748 6.10139,15.29428 z"
               transform="matrix(0.94963106,-0.31337016,0.31337016,0.94963106,-109.23426,355.63517)" />
          </g>
          <path
             sodipodi:nodetypes="ccscc"
             inkscape:connector-curvature="0"
             id="path4209"
             d="M 685.57163,552.75269 C 622.07009,418.95553 463.91449,547.23437 542.3478,713.80645 482.55144,624.11694 516.31293,532.49487 570.33362,499.5238 c 38.20679,-23.31921 86.54765,-17.30001 119.09045,39.49126 76.57655,-21.00973 78.93065,-12.14898 -3.85244,13.73763 z"
             style="fill:#000000;fill-opacity:1;stroke:none;display:inline"
             transform="matrix(0.99695487,0.07798065,-0.07798065,0.99695487,348.32235,-31.514374)" />
          <path
             style="fill:#000000;stroke:none;display:inline"
             d="m 954.53135,518.60378 -8.91633,-8.49344 c 46.831,-56.62971 77.12778,-81.30451 8.91633,8.49344 z"
             id="path4211"
             inkscape:connector-curvature="0" />
          <path
             inkscape:connector-curvature="0"
             id="path4213"
             d="m 978.95492,545.24957 -5.35437,-11.08919 c 63.77285,-36.51153 100.81795,-48.93726 5.35437,11.08919 z"
             style="fill:#000000;stroke:none;display:inline" />
        </g>
        <path
           sodipodi:nodetypes="ccc"
           inkscape:connector-curvature="0"
           id="path4127"
           d="m 726.31934,739.686 c 16.15602,-10.90925 47.8005,-11.07264 64.43741,0.0205 -18.34539,-21.96353 -47.62283,-21.36417 -64.43741,-0.0205 z"
           style="fill:#1c92cd;fill-opacity:1;stroke:none" />
        <path
           sodipodi:nodetypes="ccc"
           inkscape:connector-curvature="0"
           id="path4129"
           d="m 727.83436,769.58063 c -2.46031,9.27605 -0.29963,13.82158 8.98429,16.75269 -12.69295,7.12667 -21.50372,-4.45162 -8.98429,-16.75269 z"
           style="fill:#1c92cd;fill-opacity:1;stroke:none" />
        <g
           id="g4215"
           transform="matrix(1.1693562,-0.03971351,0.03971351,1.1693562,-169.47666,-96.017268)">
          <path
             sodipodi:nodetypes="ccc"
             inkscape:connector-curvature="0"
             id="path7212"
             d="m 714.1856,797.86712 c 28.79692,20.69995 74.694,20.94153 104.53686,3.03657 -6.29087,99.4994 -107.20493,87.76782 -104.53686,-3.03657 z"
             style="fill:#ffffff;stroke:none;display:inline" />
          <path
             style="fill:#b9e0f7;fill-opacity:1;stroke:none"
             d="m 710.64916,839.09519 2.40695,10.2295 c 9.62776,4.51923 23.46767,6.57979 37.90931,6.61909 -15.56218,-3.49277 -26.81596,-7.08179 -40.31626,-16.84859 z"
             id="path7214"
             inkscape:connector-curvature="0"
             transform="matrix(0.9994238,0.03394229,-0.03394229,0.9994238,34.400104,-39.911439)"
             sodipodi:nodetypes="cccc" />
          <path
             sodipodi:nodetypes="cccc"
             inkscape:connector-curvature="0"
             id="path7218"
             d="m 814.4186,826.15842 -2.75278,10.14191 c -9.77561,4.18984 -23.67748,5.77945 -38.11213,5.32855 15.67176,-2.96255 27.04088,-6.16752 40.86491,-15.47046 z"
             style="fill:#b9e0f7;fill-opacity:1;stroke:none" />
          <path
             style="fill:none;stroke:#1c92cd;stroke-width:6.83742931;stroke-linecap:butt;stroke-linejoin:miter;stroke-miterlimit:20;stroke-opacity:1;stroke-dasharray:none;display:inline"
             d="m 714.1856,797.86712 c 28.79692,20.69995 74.694,20.94153 104.53686,3.03657 -6.29087,99.4994 -107.20493,87.76782 -104.53686,-3.03657 z"
             id="path4221"
             inkscape:connector-curvature="0"
             sodipodi:nodetypes="ccc" />
        </g>
        <path
           style="fill:#1c92cd;fill-opacity:1;stroke:none"
           d="m 790.43177,770.6558 c 1.92273,7.66331 -1.31311,13.82158 -10.59703,17.29027 13.23053,3.90118 23.11646,-7.13953 10.59703,-17.29027 z"
           id="path5372"
           inkscape:connector-curvature="0"
           sodipodi:nodetypes="ccc" />
      </g>
      <g
         id="g3199">
        <path
           style="font-size:xx-small;font-style:normal;font-variant:normal;font-weight:normal;font-stretch:normal;text-indent:0;text-align:start;text-decoration:none;line-height:normal;letter-spacing:normal;word-spacing:normal;text-transform:none;direction:ltr;block-progression:tb;writing-mode:lr-tb;text-anchor:start;baseline-shift:baseline;color:#000000;fill:#6dc6fb;fill-opacity:1;stroke:none;stroke-width:1;marker:none;visibility:visible;display:inline;overflow:visible;enable-background:accumulate;font-family:Sans;-inkscape-font-specification:Sans"
           d="m 462.90908,1934.8879 c 33.65197,45.8688 205.36166,34.6308 240.67956,2.9869 48.08745,-43.0851 55.1549,-537.2815 39.62686,-690.4019 l -114.45363,-0.9232 C 615.26765,1546.6479 451.81902,1919.7718 462.90908,1934.8879 Z"
           id="path4225"
           inkscape:connector-curvature="0"
           sodipodi:nodetypes="ssccs" />
        <path
           sodipodi:nodetypes="sscsscs"
           inkscape:connector-curvature="0"
           id="path4227"
           d="m 454.30779,1937.5758 c 33.65197,45.8688 217.18843,37.3187 252.50633,5.6748 55.58047,-49.7987 62.90633,-650.8336 37.07556,-660.72 10.36322,157.8203 -7.10078,609.6202 -46.54431,649.0637 -22.95713,22.9571 -177.41962,37.407 -227.8125,0.875 -10.64425,-7.7165 177.95525,-474.5966 159.229,-685.9196 C 601.82813,1540.7345 443.21773,1922.4597 454.30779,1937.5758 Z"
           style="font-size:xx-small;font-style:normal;font-variant:normal;font-weight:normal;font-stretch:normal;text-indent:0;text-align:start;text-decoration:none;line-height:normal;letter-spacing:normal;word-spacing:normal;text-transform:none;direction:ltr;block-progression:tb;writing-mode:lr-tb;text-anchor:start;baseline-shift:baseline;color:#000000;fill:#1c92cd;fill-opacity:1;stroke:none;stroke-width:1;marker:none;visibility:visible;display:inline;overflow:visible;enable-background:accumulate;font-family:Sans;-inkscape-font-specification:Sans" />
      </g>
      <g
         id="g3203">
        <path
           sodipodi:nodetypes="ccsssccc"
           inkscape:connector-curvature="0"
           id="path4231"
           d="m 762.68794,1304.4771 c 0.32719,248.72 44.53385,290.9152 139.76283,236.2704 -18.38477,50.2046 -54.44722,65.7609 -53.74011,96.1665 0.7071,30.4056 133.64319,142.8357 207.18234,128.6935 33.229,-6.3902 65.9301,-409.4148 -60.81126,-409.4148 -66.51636,0 -94.63773,27.8734 -94.63773,27.8734 C 889.62513,1351.7696 872.23145,1294.0282 869.8409,1262.0329 Z"
           style="fill:#6dc6fb;fill-opacity:1;stroke:none" />
        <path
           sodipodi:nodetypes="cscscc"
           inkscape:connector-curvature="0"
           id="path4233"
           d="m 912.63959,1527.0044 c -28.67486,14.9611 -57.59491,26.5983 -77.39678,26.5983 -54.10538,0 -65.36903,-139.2786 -71.02805,-270.4385 -7.57943,11.3517 -23.41732,286.1635 70.70395,286.1635 C 856.0239,1569.3277 876.95509,1562.3117 905.83877,1544.4171 Z"
           style="font-size:xx-small;font-style:normal;font-variant:normal;font-weight:normal;font-stretch:normal;text-indent:0;text-align:start;text-decoration:none;line-height:normal;letter-spacing:normal;word-spacing:normal;text-transform:none;direction:ltr;block-progression:tb;writing-mode:lr-tb;text-anchor:start;baseline-shift:baseline;color:#000000;fill:#1c92cd;fill-opacity:1;stroke:none;stroke-width:1;marker:none;visibility:visible;display:inline;overflow:visible;enable-background:accumulate;font-family:Sans;-inkscape-font-specification:Sans" />
        <path
           sodipodi:nodetypes="scssscsss"
           inkscape:connector-curvature="0"
           id="path4235"
           d="m 983.95948,1346.9491 c -27.24885,0 -79.16875,18.0984 -120.91421,63.0197 49.79833,-29.656 91.28246,-47.625 121.46875,-47.625 141.18378,0 83.32648,386.7319 68.53128,392.6874 -45.6318,18.3681 -195.25003,-79.4363 -195.25003,-118.2187 0,-25.4317 54.09549,-63.8618 68.69854,-145.8205 -31.95617,78.5472 -94.85659,125.0387 -83.97979,153.2892 21.8641,56.7881 167.12498,149.9524 220.12498,124.4688 C 1084.346,1758.3128 1146.3926,1346.9491 983.95948,1346.9491 Z"
           style="font-size:xx-small;font-style:normal;font-variant:normal;font-weight:normal;font-stretch:normal;text-indent:0;text-align:start;text-decoration:none;line-height:normal;letter-spacing:normal;word-spacing:normal;text-transform:none;direction:ltr;block-progression:tb;writing-mode:lr-tb;text-anchor:start;baseline-shift:baseline;color:#000000;fill:#1c92cd;fill-opacity:1;stroke:none;stroke-width:1;marker:none;visibility:visible;display:inline;overflow:visible;enable-background:accumulate;font-family:Sans;-inkscape-font-specification:Sans" />
        <path
           sodipodi:nodetypes="cccc"
           inkscape:connector-curvature="0"
           id="path4237"
           d="m 895.86814,1386.0839 12.5,-6.1516 c 0,0 -30.97744,-58.0839 -39.43231,-132.9548 C 864.04233,1308.168 895.86814,1386.0839 895.86814,1386.0839 Z"
           style="fill:#1c92cd;fill-opacity:1;stroke:none" />
      </g>
    </g>
  </g>
</svg>
