<?xml version="1.0" encoding="UTF-8" standalone="no"?>
<!-- Created with Inkscape (http://www.inkscape.org/) -->

<svg
   xmlns:dc="http://purl.org/dc/elements/1.1/"
   xmlns:cc="http://creativecommons.org/ns#"
   xmlns:rdf="http://www.w3.org/1999/02/22-rdf-syntax-ns#"
   xmlns:svg="http://www.w3.org/2000/svg"
   xmlns="http://www.w3.org/2000/svg"
   xmlns:xlink="http://www.w3.org/1999/xlink"
   xmlns:sodipodi="http://sodipodi.sourceforge.net/DTD/sodipodi-0.dtd"
   xmlns:inkscape="http://www.inkscape.org/namespaces/inkscape"
   width="1024.0006"
   height="1023.998"
   id="svg2"
   version="1.1"
   inkscape:version="0.48.2 r9819"
   sodipodi:docname="Parcly Taxel.svg"
   inkscape:export-filename="G:\Pictures\Parcly Taxel 7.png"
   inkscape:export-xdpi="360.00085"
   inkscape:export-ydpi="360.00085">
  <defs
     id="defs4">
    <linearGradient
       inkscape:collect="always"
       id="linearGradient4190">
      <stop
         style="stop-color:#502080;stop-opacity:1;"
         offset="0"
         id="stop4192" />
      <stop
         style="stop-color:#502080;stop-opacity:0;"
         offset="1"
         id="stop4194" />
    </linearGradient>
    <linearGradient
       inkscape:collect="always"
       id="linearGradient4170">
      <stop
         style="stop-color:#502080;stop-opacity:1;"
         offset="0"
         id="stop4172" />
      <stop
         style="stop-color:#502080;stop-opacity:0;"
         offset="1"
         id="stop4174" />
    </linearGradient>
    <linearGradient
       inkscape:collect="always"
       xlink:href="#linearGradient4170"
       id="linearGradient4176"
       x1="622.91608"
       y1="245.61322"
       x2="625.70081"
       y2="313.7579"
       gradientUnits="userSpaceOnUse" />
    <linearGradient
       inkscape:collect="always"
       xlink:href="#linearGradient4190"
       id="linearGradient4196"
       x1="675.07312"
       y1="254.81129"
       x2="675.08942"
       y2="307.69647"
       gradientUnits="userSpaceOnUse" />
    <linearGradient
       inkscape:collect="always"
       xlink:href="#linearGradient4170"
       id="linearGradient4956"
       gradientUnits="userSpaceOnUse"
       x1="622.91608"
       y1="245.61322"
       x2="625.70081"
       y2="313.7579" />
    <linearGradient
       inkscape:collect="always"
       xlink:href="#linearGradient4190"
       id="linearGradient4958"
       gradientUnits="userSpaceOnUse"
       x1="675.07312"
       y1="254.81129"
       x2="675.08942"
       y2="307.69647" />
    <linearGradient
       inkscape:collect="always"
       xlink:href="#linearGradient4170"
       id="linearGradient3063"
       gradientUnits="userSpaceOnUse"
       x1="616.87195"
       y1="247.34778"
       x2="618.87604"
       y2="302.96838" />
    <linearGradient
       inkscape:collect="always"
       xlink:href="#linearGradient4190"
       id="linearGradient3120"
       gradientUnits="userSpaceOnUse"
       x1="675.07312"
       y1="254.81129"
       x2="675.08942"
       y2="307.69647" />
    <linearGradient
       inkscape:collect="always"
       xlink:href="#linearGradient4190"
       id="linearGradient3126"
       gradientUnits="userSpaceOnUse"
       x1="674.04388"
       y1="252.54733"
       x2="671.77753"
       y2="309.32932" />
    <clipPath
       clipPathUnits="userSpaceOnUse"
       id="clipPath3969">
      <path
         sodipodi:nodetypes="cscsccssccc"
         inkscape:connector-curvature="0"
         id="path3971"
         d="m 685.75219,300.07125 c 29.03431,-49.07956 -12.35763,-108.71863 -62.52224,-101.4607 -103.86058,15.0268 -46.11143,163.30655 -46.11143,163.30655 0,0 -53.41609,-31.67943 -83.06569,-8.10002 -46.04656,36.61943 8.80651,120.08082 8.80651,120.08082 l -16.37581,0.41673 c -11.09743,5.25357 -29.45688,83.5479 -7.45899,132.31212 3.31869,7.35675 55.67233,4.02873 52.49151,-1.19898 -34.65877,-56.96172 -14.15029,-119.85601 3.60969,-155.77066 97.24157,18.58469 96.4944,-48.45252 96.30607,-117.35118 73.08066,-1.30066 66.31911,-31.87158 63.9328,-32.93511"
         style="fill:#90d0f0;fill-opacity:1;stroke:none" />
    </clipPath>
    <clipPath
       clipPathUnits="userSpaceOnUse"
       id="clipPath3983">
      <path
         clip-path="none"
         transform="matrix(1.0376363,0.13241242,-0.12133318,1.1018308,-9.4593284,-112.11023)"
         d="m 697.76904,268.09698 a 14.260256,31.962643 0 1 1 -28.52051,0 14.260256,31.962643 0 1 1 28.52051,0 z"
         sodipodi:ry="31.962643"
         sodipodi:rx="14.260256"
         sodipodi:cy="268.09698"
         sodipodi:cx="683.50879"
         id="path3985"
         style="color:#000000;fill:#ffffff;stroke:none;stroke-width:1;marker:none;visibility:visible;display:inline;overflow:visible;enable-background:accumulate"
         sodipodi:type="arc" />
    </clipPath>
    <clipPath
       clipPathUnits="userSpaceOnUse"
       id="clipPath3987">
      <path
         sodipodi:type="arc"
         style="color:#000000;fill:#ffffff;stroke:none;stroke-width:1;marker:none;visibility:visible;display:inline;overflow:visible;enable-background:accumulate"
         id="path3989"
         sodipodi:cx="683.50879"
         sodipodi:cy="268.09698"
         sodipodi:rx="14.260256"
         sodipodi:ry="31.962643"
         d="m 697.76904,268.09698 a 14.260256,31.962643 0 1 1 -28.52051,0 14.260256,31.962643 0 1 1 28.52051,0 z"
         transform="matrix(0.86276446,0.09554851,-0.08718917,0.91618698,102.71562,-36.695933)"
         clip-path="none" />
    </clipPath>
    <linearGradient
       inkscape:collect="always"
       xlink:href="#linearGradient4170"
       id="linearGradient3992"
       gradientUnits="userSpaceOnUse"
       x1="619.71637"
       y1="245.81918"
       x2="618.9071"
       y2="302.70566" />
    <clipPath
       clipPathUnits="userSpaceOnUse"
       id="clipPath4452">
      <path
         sodipodi:type="arc"
         style="color:#000000;fill:#ffffff;stroke:none;stroke-width:1.08353782;marker:none;visibility:visible;display:inline;overflow:visible;enable-background:accumulate"
         id="path4454"
         sodipodi:cx="626.95953"
         sodipodi:cy="281.1279"
         sodipodi:rx="24.832514"
         sodipodi:ry="34.91304"
         d="m 651.79205,281.1279 a 24.832514,34.91304 0 1 1 -49.66503,0 24.832514,34.91304 0 1 1 49.66503,0 z"
         transform="matrix(1.1932846,-0.3398951,0.36709548,1.1334553,-247.32391,162.12122)" />
    </clipPath>
    <linearGradient
       inkscape:collect="always"
       xlink:href="#linearGradient4190"
       id="linearGradient3945"
       gradientUnits="userSpaceOnUse"
       x1="674.04388"
       y1="252.54733"
       x2="671.77753"
       y2="309.32932" />
    <linearGradient
       inkscape:collect="always"
       xlink:href="#linearGradient4170"
       id="linearGradient3947"
       gradientUnits="userSpaceOnUse"
       x1="619.71637"
       y1="245.81918"
       x2="618.9071"
       y2="302.70566" />
    <clipPath
       clipPathUnits="userSpaceOnUse"
       id="clipPath4236">
      <path
         inkscape:transform-center-y="-0.2083964"
         inkscape:transform-center-x="6.6534095"
         sodipodi:type="arc"
         style="color:#000000;fill:#502080;fill-opacity:1;stroke:none;stroke-width:1;marker:none;visibility:visible;display:inline;overflow:visible;enable-background:accumulate"
         id="path4238"
         sodipodi:cx="623.5174"
         sodipodi:cy="270.55566"
         sodipodi:rx="19.177586"
         sodipodi:ry="28.52051"
         d="m 642.69498,270.55566 a 19.177586,28.52051 0 1 1 -38.35517,0 19.177586,28.52051 0 1 1 38.35517,0 z"
         transform="matrix(1.6334375,-0.15850725,0.16035496,1.6957459,-285.77543,-33.645842)"
         clip-path="none" />
    </clipPath>
    <clipPath
       clipPathUnits="userSpaceOnUse"
       id="clipPath4242">
      <path
         inkscape:transform-center-y="-0.2083964"
         inkscape:transform-center-x="6.6534095"
         sodipodi:type="arc"
         style="color:#000000;fill:#502080;fill-opacity:1;stroke:none;stroke-width:1;marker:none;visibility:visible;display:inline;overflow:visible;enable-background:accumulate"
         id="path4244"
         sodipodi:cx="623.5174"
         sodipodi:cy="270.55566"
         sodipodi:rx="19.177586"
         sodipodi:ry="28.52051"
         d="m 642.69498,270.55566 a 19.177586,28.52051 0 1 1 -38.35517,0 19.177586,28.52051 0 1 1 38.35517,0 z"
         transform="matrix(1.6334375,-0.15850725,0.16035496,1.6957459,-285.77543,-33.645842)"
         clip-path="none" />
    </clipPath>
    <clipPath
       clipPathUnits="userSpaceOnUse"
       id="clipPath4248">
      <path
         transform="matrix(0.9549493,-0.28848833,0.29198657,0.95574804,-70.500408,179.7828)"
         d="m 651.79205,281.1279 a 24.832514,34.91304 0 1 1 -49.66503,0 24.832514,34.91304 0 1 1 49.66503,0 z"
         sodipodi:ry="34.91304"
         sodipodi:rx="24.832514"
         sodipodi:cy="281.1279"
         sodipodi:cx="626.95953"
         id="path4251"
         style="color:#000000;fill:#ffffff;stroke:none;stroke-width:1.08353782;marker:none;visibility:visible;display:inline;overflow:visible;enable-background:accumulate"
         sodipodi:type="arc" />
    </clipPath>
    <clipPath
       clipPathUnits="userSpaceOnUse"
       id="clipPath4259">
      <path
         clip-path="url(#clipPath3987)"
         inkscape:transform-center-y="-10.608482"
         inkscape:transform-center-x="-22.139356"
         transform="matrix(1.9928645,0.0579632,-0.06056419,1.8758612,-484.44824,-240.30982)"
         d="m 685.83945,276.07993 a 11.981905,25.73037 0 1 1 -23.96381,0 11.981905,25.73037 0 1 1 23.96381,0 z"
         sodipodi:ry="25.73037"
         sodipodi:rx="11.981905"
         sodipodi:cy="276.07993"
         sodipodi:cx="673.85754"
         id="path4261"
         style="color:#000000;fill:#502080;fill-opacity:1;stroke:none;stroke-width:0;marker:none;visibility:visible;display:inline;overflow:visible;enable-background:accumulate"
         sodipodi:type="arc" />
    </clipPath>
    <clipPath
       clipPathUnits="userSpaceOnUse"
       id="clipPath4265">
      <path
         clip-path="url(#clipPath3987)"
         inkscape:transform-center-y="-10.608482"
         inkscape:transform-center-x="-22.139356"
         transform="matrix(1.9928645,0.0579632,-0.06056419,1.8758612,-484.44824,-240.30982)"
         d="m 685.83945,276.07993 a 11.981905,25.73037 0 1 1 -23.96381,0 11.981905,25.73037 0 1 1 23.96381,0 z"
         sodipodi:ry="25.73037"
         sodipodi:rx="11.981905"
         sodipodi:cy="276.07993"
         sodipodi:cx="673.85754"
         id="path4267"
         style="color:#000000;fill:#502080;fill-opacity:1;stroke:none;stroke-width:0;marker:none;visibility:visible;display:inline;overflow:visible;enable-background:accumulate"
         sodipodi:type="arc" />
    </clipPath>
    <clipPath
       clipPathUnits="userSpaceOnUse"
       id="clipPath3851">
      <path
         style="font-size:medium;font-style:normal;font-variant:normal;font-weight:normal;font-stretch:normal;text-indent:0;text-align:start;text-decoration:none;line-height:normal;letter-spacing:normal;word-spacing:normal;text-transform:none;direction:ltr;block-progression:tb;writing-mode:lr-tb;text-anchor:start;baseline-shift:baseline;color:#000000;fill:none;stroke:#000000;stroke-width:0.7672767;stroke-miterlimit:4;stroke-dasharray:none;marker:none;visibility:visible;display:inline;overflow:visible;enable-background:accumulate;font-family:Sans;-inkscape-font-specification:Sans"
         d="m 635.59375,143.53125 c 5.3019,-5.23467 15.25805,-7.63446 28.28125,-7.125 13.0232,0.50946 28.92431,3.83639 45.75,9.28125 33.65137,10.88972 71.02727,30.23586 97.15625,51.84375 27.81154,458.21207 -503.32963,94.26324 -171.1875,-54 z"
         id="path3853"
         inkscape:connector-curvature="0"
         sodipodi:nodetypes="csscc" />
    </clipPath>
    <clipPath
       clipPathUnits="userSpaceOnUse"
       id="clipPath3856">
      <path
         inkscape:connector-curvature="0"
         id="path3858"
         d="m 734.54771,142.66494 38.80407,23.11777 c 0,0 72.549,-62.18152 59.04922,-73.604409 -13.49978,-11.422887 -97.85329,50.486639 -97.85329,50.486639 z"
         style="fill:none;stroke:#000000;stroke-width:0.7672767px;stroke-linecap:butt;stroke-linejoin:miter;stroke-opacity:1"
         sodipodi:nodetypes="ccsc" />
    </clipPath>
  </defs>
  <sodipodi:namedview
     id="base"
     pagecolor="#ffffff"
     bordercolor="#666666"
     borderopacity="1.0"
     inkscape:pageopacity="0.0"
     inkscape:pageshadow="2"
     inkscape:zoom="0.52245851"
     inkscape:cx="511.76111"
     inkscape:cy="511.5859"
     inkscape:document-units="px"
     inkscape:current-layer="g4925"
     showgrid="true"
     inkscape:window-width="1366"
     inkscape:window-height="706"
     inkscape:window-x="-8"
     inkscape:window-y="-8"
     inkscape:window-maximized="1"
     showguides="false"
     fit-margin-top="130.05"
     fit-margin-left="117.65"
     fit-margin-right="117.65"
     fit-margin-bottom="130.05" />
  <metadata
     id="metadata7">
    <rdf:RDF>
      <cc:Work
         rdf:about="">
        <dc:format>image/svg+xml</dc:format>
        <dc:type
           rdf:resource="http://purl.org/dc/dcmitype/StillImage" />
        <dc:title />
      </cc:Work>
    </rdf:RDF>
  </metadata>
  <g
     inkscape:groupmode="layer"
     id="layer2"
     inkscape:label="Drawing"
     style="display:inline"
     transform="translate(-157.08285,250.70949)">
    <g
       id="g4925"
       transform="matrix(1.3033108,0,0,1.3033108,-11.722854,-236.88297)">
      <path
         style="fill:#60c0f0;fill-opacity:1;stroke:#20a0e0;stroke-width:4.44375324;stroke-linecap:butt;stroke-linejoin:miter;stroke-miterlimit:4;stroke-opacity:1;stroke-dasharray:none"
         d="m 489.47842,613.53385 c 3.19833,10.21687 72.67336,14.17508 69.31739,6.78392 -36.56729,-80.53501 0.46066,-160.09349 29.57074,-204.56019 -94.1123,19.33471 -119.05137,125.11911 -98.88813,197.77627 z"
         id="path3912"
         inkscape:connector-curvature="0"
         sodipodi:nodetypes="cscc" />
      <path
         sodipodi:nodetypes="cscc"
         inkscape:connector-curvature="0"
         id="path4020-1"
         d="m 635.42262,631.86884 c 3.6684,7.6613 63.36904,15.29597 68.4677,6.55542 5.09865,-8.74057 -43.70279,-96.87455 -43.70279,-238.90862 -51.39395,0.60794 -77.68357,44.49348 -24.76491,232.3532 z"
         style="fill:#60c0f0;fill-opacity:1;stroke:#20a0e0;stroke-width:4.44375324;stroke-linecap:butt;stroke-linejoin:miter;stroke-miterlimit:4;stroke-opacity:1;stroke-dasharray:none" />
      <path
         sodipodi:nodetypes="cccccc"
         inkscape:connector-curvature="0"
         id="path3914-1"
         d="m 509.91441,316.09848 -10.90917,8.82795 C 354.73278,199.80331 367.7702,626.44522 222.01266,506.26433 c 30.43123,0.77695 65.47599,-73.71468 79.1214,-102.94102 l -18.72985,11.47771 C 306.7823,298.3957 395.89789,193.42068 509.91441,316.09848 z"
         style="fill:#801060;fill-opacity:1;stroke:#e020a0;stroke-width:4.44375324;stroke-linecap:butt;stroke-linejoin:miter;stroke-miterlimit:7.4000001;stroke-opacity:1;stroke-dasharray:none;display:inline" />
      <path
         sodipodi:nodetypes="cccccccc"
         inkscape:connector-curvature="0"
         id="path3914"
         d="m 503.79322,320.68625 -3.64006,7.7895 c -120.38825,-51.39357 -102.1586,331.63367 -272.8388,213.52967 30.43123,0.77695 75.86043,-64.36868 89.50584,-93.59502 l -20.80674,13.5546 54.12756,-105.44097 -22.52954,13.53379 C 365.0105,263.9739 438.5854,256.82785 503.79322,320.68625 z"
         style="fill:#f090d0;fill-opacity:1;stroke:#e020a0;stroke-width:4.44375324;stroke-linecap:butt;stroke-linejoin:miter;stroke-miterlimit:7.4000001;stroke-opacity:1;stroke-dasharray:none" />
      <path
         sodipodi:nodetypes="cscsccssccc"
         inkscape:connector-curvature="0"
         id="path4018"
         d="m 768.34345,273.35659 c 46.05473,-60.00745 1.04704,-145.14099 -66.17135,-143.57512 -139.16865,3.24198 -86.74214,207.71295 -86.74214,207.71295 0,0 -65.29684,-50.22899 -108.0992,-23.90085 -66.47313,40.88828 -7.53373,159.53817 -7.53373,159.53817 l -21.63179,-2.06018 c -15.45127,5.15043 -52.10266,105.33169 -30.90254,173.05424 3.19834,10.21688 72.67337,14.17509 69.31739,6.78392 -36.56728,-80.535 0.46067,-160.09348 29.57075,-204.5602 125.0971,39.96666 134.79341,-48.43407 145.52221,-139.19712 81.94532,10.11381 93.14804,-22.96167 90.54209,-28.59745"
         style="fill:#90d0f0;fill-opacity:1;stroke:none" />
      <path
         sodipodi:nodetypes="cccc"
         inkscape:connector-curvature="0"
         id="path3942"
         d="m 744.80137,290.03116 c -0.26566,6.49391 9.03345,13.82257 14.08199,13.58354 l 3.33775,-2.25382 c -8.43509,-0.0547 -11.84404,-3.2998 -17.41974,-11.32972 z"
         style="font-size:medium;font-style:normal;font-variant:normal;font-weight:normal;font-stretch:normal;text-indent:0;text-align:start;text-decoration:none;line-height:normal;letter-spacing:normal;word-spacing:normal;text-transform:none;direction:ltr;block-progression:tb;writing-mode:lr-tb;text-anchor:start;baseline-shift:baseline;color:#000000;fill:#20a0e0;fill-opacity:1;stroke:none;stroke-width:1px;marker:none;visibility:visible;display:inline;overflow:visible;enable-background:accumulate;font-family:Sans;-inkscape-font-specification:Sans" />
      <g
         id="g3889">
        <path
           sodipodi:type="arc"
           style="color:#000000;fill:#ffffff;stroke:none;stroke-width:1;marker:none;visibility:visible;display:inline;overflow:visible;enable-background:accumulate"
           id="path3904"
           sodipodi:cx="683.50879"
           sodipodi:cy="268.09698"
           sodipodi:rx="14.260256"
           sodipodi:ry="31.962643"
           d="m 697.76904,268.09698 c 0,17.65248 -6.38453,31.96265 -14.26025,31.96265 -7.87572,0 -14.26026,-14.31017 -14.26026,-31.96265 0,-17.65248 6.38454,-31.96264 14.26026,-31.96264 7.87572,0 14.26025,14.31016 14.26025,31.96264 z"
           transform="matrix(1.3169058,0.15931833,-0.15931833,1.3169058,-86.920734,-231.06187)"
           clip-path="url(#clipPath3969)" />
        <path
           sodipodi:type="arc"
           style="color:#000000;fill:#502080;fill-opacity:1;stroke:none;stroke-width:0;marker:none;visibility:visible;display:inline;overflow:visible;enable-background:accumulate"
           id="path3936"
           sodipodi:cx="673.85754"
           sodipodi:cy="276.07993"
           sodipodi:rx="11.981905"
           sodipodi:ry="25.73037"
           d="m 685.83945,276.07993 c 0,14.21049 -5.36448,25.73037 -11.98191,25.73037 -6.61742,0 -11.9819,-11.51988 -11.9819,-25.73037 0,-14.2105 5.36448,-25.73037 11.9819,-25.73037 6.61743,0 11.98191,11.51987 11.98191,25.73037 z"
           transform="matrix(1.5290785,0.04447381,-0.04646949,1.4393046,-242.3693,-194.67831)"
           inkscape:transform-center-x="-22.139356"
           inkscape:transform-center-y="-10.608482"
           clip-path="url(#clipPath3987)" />
        <path
           style="fill:#b082e0;fill-opacity:1;stroke:none"
           d="m 831.40573,329.452 4.30657,8.37387 -11.96268,18.66177 -6.45984,-21.53281 z"
           id="path4255"
           inkscape:connector-curvature="0"
           transform="matrix(0.76727669,0,0,0.76727669,129.33654,-10.294183)"
           clip-path="url(#clipPath4265)" />
        <path
           style="fill:#742fbb;fill-opacity:1;stroke:none"
           d="m 814.65799,325.62394 18.42252,-3.11029 1.67477,7.65611 -18.18326,11.72342 z"
           id="path4253"
           inkscape:connector-curvature="0"
           transform="matrix(0.76727669,0,0,0.76727669,129.33654,-10.294183)"
           clip-path="url(#clipPath4259)" />
        <path
           inkscape:transform-center-y="-8.8055372"
           inkscape:transform-center-x="-18.376838"
           transform="matrix(1.2692125,0.03691552,-0.03857202,1.1946957,-68.58549,-122.49032)"
           d="m 685.83945,276.07993 c 0,14.21049 -5.36448,25.73037 -11.98191,25.73037 -6.61742,0 -11.9819,-11.51988 -11.9819,-25.73037 0,-14.2105 5.36448,-25.73037 11.9819,-25.73037 6.61743,0 11.98191,11.51987 11.98191,25.73037 z"
           sodipodi:ry="25.73037"
           sodipodi:rx="11.981905"
           sodipodi:cy="276.07993"
           sodipodi:cx="673.85754"
           id="path3938"
           style="color:#000000;fill:#000000;stroke:none;stroke-width:0;marker:none;visibility:visible;display:inline;overflow:visible;enable-background:accumulate"
           sodipodi:type="arc"
           clip-path="url(#clipPath3983)" />
        <path
           sodipodi:type="arc"
           style="color:#000000;fill:#ffffff;stroke:none;stroke-width:1;marker:none;visibility:visible;display:inline;overflow:visible;enable-background:accumulate"
           id="path4021-0"
           sodipodi:cx="634.58136"
           sodipodi:cy="273.99777"
           sodipodi:rx="5.6919951"
           sodipodi:ry="9.5484419"
           d="m 640.27336,273.99777 c 0,5.27346 -2.5484,9.54844 -5.692,9.54844 -3.1436,0 -5.692,-4.27498 -5.692,-9.54844 0,-5.27346 2.5484,-9.54844 5.692,-9.54844 3.1436,0 5.692,4.27498 5.692,9.54844 z"
           transform="matrix(1.3265079,0,0,1.3265079,-74.53707,-141.94821)" />
        <path
           sodipodi:type="arc"
           style="color:#000000;fill:#ffffff;stroke:none;stroke-width:2.79620981;marker:none;visibility:visible;display:inline;overflow:visible;enable-background:accumulate"
           id="path4021-4-9"
           sodipodi:cx="634.58136"
           sodipodi:cy="273.99777"
           sodipodi:rx="5.1868668"
           sodipodi:ry="9.7545385"
           d="m 639.76823,273.99777 c 0,5.38729 -2.32224,9.75454 -5.18687,9.75454 -2.86463,0 -5.18687,-4.36725 -5.18687,-9.75454 0,-5.38728 2.32224,-9.75454 5.18687,-9.75454 2.86463,0 5.18687,4.36726 5.18687,9.75454 z"
           transform="matrix(0.49940738,0,0,0.45063535,457.12855,115.61753)" />
      </g>
      <path
         sodipodi:nodetypes="scssssccscssssccsccccssscss"
         inkscape:connector-curvature="0"
         id="path4116"
         d="m 578.29849,313.6275 c -90.21646,-36.40961 -132.82094,40.76146 -82.02427,156.92002 l -19.01533,-1.66641 c -13.3242,-1.16767 -53.7053,98.36677 -32.50127,177.00002 1.4944,5.54186 18.71928,8.65618 36.28534,10.08303 19.99635,1.62427 40.3805,0.79031 37.54261,-5.95381 -33.83834,-80.41526 1.29195,-155.94919 28.60665,-201.07982 127.082,32.82237 132.57854,-46.33971 146.41241,-139.37646 47.59248,3.78926 88.60489,-0.88452 91.15461,-32.44838 0.12713,-1.57384 -7.44555,-3.53891 -12.92453,-4.77289 39.91674,-58.04087 3.02782,-137.8767 -58.64068,-144.27365 C 538.92981,109.98249 643.34987,339.88097 578.29849,313.6275 z M 702.21442,131.98908 c 30.96489,1.59996 53.43935,16.37808 69.0355,39.31204 21.36498,31.41695 20.21245,68.43518 -2.1834,100.10973 -5.76556,-1.93426 -10.7905,-4.513 -14.66285,-9.58083 2.54418,15.39289 26.46994,14.40116 26.07936,17.78606 -2.36467,20.49332 -33.57513,30.40464 -90.76657,25.12391 -14.74307,90.4756 -15.99221,173.00715 -141.22055,139.90161 -4.21606,-1.22772 -7.1915,-17.41432 -6.15119,-40.06639 -4.52698,17.50138 -3.39419,32.27903 1.50837,42.09157 -25.1899,41.00391 -64.50779,116.72729 -30.31391,202.58186 2.47823,6.22238 -62.82215,1.10605 -64.67492,-5.37572 -21.04428,-73.62194 19.12511,-170.96116 29.25471,-170.15871 l 25.46904,2.01762 c -55.79485,-120.27154 -13.06352,-192.6007 72.95161,-158.03097 69.61701,27.97928 -23.76773,-193.43348 125.6748,-185.71178 z"
         style="font-size:medium;font-style:normal;font-variant:normal;font-weight:normal;font-stretch:normal;text-indent:0;text-align:start;text-decoration:none;line-height:normal;letter-spacing:normal;word-spacing:normal;text-transform:none;direction:ltr;block-progression:tb;writing-mode:lr-tb;text-anchor:start;baseline-shift:baseline;color:#000000;fill:#20a0e0;fill-opacity:1;stroke:none;stroke-width:0.7672767;marker:none;visibility:visible;display:inline;overflow:visible;enable-background:accumulate;font-family:Sans;-inkscape-font-specification:Sans" />
      <path
         sodipodi:nodetypes="zcccscccz"
         inkscape:connector-curvature="0"
         id="path3908"
         d="m 603.32056,138.35418 c -50.36151,64.38554 -14.88609,222.99249 -14.88609,222.99249 l 11.8418,-24.59249 29.05212,53.72041 c -26.32833,-217.58645 -15.7126,-228.37401 4.69054,-248.51842 24.0873,-23.78185 121.31623,10.16768 174.17007,53.87624 l -13.40506,-53.05995 27.93644,12.52223 C 755.38026,72.270359 653.68206,73.968647 603.32056,138.35418 z"
         style="fill:#f090d0;fill-opacity:1;stroke:#e020a0;stroke-width:4.44406652;stroke-linecap:butt;stroke-linejoin:miter;stroke-miterlimit:9;stroke-opacity:1;stroke-dasharray:none" />
      <path
         sodipodi:nodetypes="scccscccczs"
         inkscape:connector-curvature="0"
         id="path3908-0"
         d="m 612.89053,154.9504 c -26.44784,37.47858 -41.27193,129.18356 46.15311,231.0582 l -8.47981,-64.73295 28.70861,13.341 C 654.41061,292.48293 559.74299,215.43558 656.4303,144.07081 c 9.44474,-6.97115 20.59685,21.24297 27.48478,38.40681 l 15.53926,-23.89468 40.23761,50.72122 47.90908,-59.21577 c -21.10184,-20.7278 -47.34449,-31.28393 -79.51267,-33.3363 -32.16818,-2.05236 -74.06051,8.24514 -95.19783,38.19831 z"
         style="fill:#801060;fill-opacity:1;stroke:#e020a0;stroke-width:4.44406652;stroke-linecap:butt;stroke-linejoin:miter;stroke-miterlimit:9;stroke-opacity:1;stroke-dasharray:none;display:inline"
         clip-path="url(#clipPath3851)" />
      <path
         sodipodi:nodetypes="cssc"
         inkscape:connector-curvature="0"
         id="path4020"
         d="m 592.91115,430.04061 c -18.93788,169.71251 5.09867,225.79777 9.46894,233.08158 4.37027,7.28379 63.36904,15.29596 68.46771,6.55541 5.09866,-8.74056 -43.70278,-96.87454 -43.70278,-238.90861"
         style="fill:#90d0f0;fill-opacity:1;stroke:none" />
      <path
         sodipodi:nodetypes="sscsscs"
         inkscape:connector-curvature="0"
         id="path4224"
         d="m 601.02169,664.8181 c 20.45276,11.01898 66.47695,13.90672 71.75285,5.97604 2.88681,-4.33943 -40.85908,-101.06621 -45.76204,-240.00895 -6.07551,113.24923 43.45761,235.70687 40.66827,237.52943 -11.6588,7.61788 -60.44437,-3.25658 -63.18588,-7.04969 -4.78684,-6.62301 -25.88612,-85.38217 -11.7227,-231.23412 -20.82201,108.54809 1.13591,230.95483 8.2495,234.78729 z"
         style="font-size:medium;font-style:normal;font-variant:normal;font-weight:normal;font-stretch:normal;text-indent:0;text-align:start;text-decoration:none;line-height:normal;letter-spacing:normal;word-spacing:normal;text-transform:none;direction:ltr;block-progression:tb;writing-mode:lr-tb;text-anchor:start;baseline-shift:baseline;color:#000000;fill:#20a0e0;fill-opacity:1;stroke:none;stroke-width:0.7672767;marker:none;visibility:visible;display:inline;overflow:visible;enable-background:accumulate;font-family:Sans;-inkscape-font-specification:Sans" />
      <path
         sodipodi:nodetypes="csc"
         inkscape:connector-curvature="0"
         id="path3134"
         d="m 617.91476,213.18728 c -29.529,-48.21883 0.99094,-105.3623 15.79766,-105.43363 12.05371,-0.0581 31.6928,27.8069 29.49772,50.46359"
         style="fill:#90d0f0;fill-opacity:1;stroke:none" />
      <path
         sodipodi:nodetypes="scscs"
         inkscape:connector-curvature="0"
         id="path4242"
         d="m 633.70654,105.51172 c -17.18217,-0.85327 -48.4613,65.7749 -15.9055,107.74217 -26.98594,-48.22808 3.46711,-103.85771 15.9055,-103.29841 10.85265,0.48799 22.33199,13.03937 29.70442,48.27485 0.13585,-29.28789 -13.96156,-51.93682 -29.70442,-52.71861 z"
         style="font-size:medium;font-style:normal;font-variant:normal;font-weight:normal;font-stretch:normal;text-indent:0;text-align:start;text-decoration:none;line-height:normal;letter-spacing:normal;word-spacing:normal;text-transform:none;direction:ltr;block-progression:tb;writing-mode:lr-tb;text-anchor:start;baseline-shift:baseline;color:#000000;fill:#20a0e0;fill-opacity:1;stroke:none;stroke-width:0.7672767;marker:none;visibility:visible;display:inline;overflow:visible;enable-background:accumulate;font-family:Sans;-inkscape-font-specification:Sans" />
      <path
         inkscape:connector-curvature="0"
         id="path4248"
         d="m 627.55599,181.45389 c -8.53342,-16.33557 -5.62458,-35.99259 3.43274,-49.99127 -4.83917,14.94173 -7.16051,34.61694 -3.43274,49.99127 z"
         style="fill:#20a0e0;fill-opacity:1;stroke:none"
         sodipodi:nodetypes="ccc" />
      <g
         id="g3916"
         clip-path="url(#clipPath3856)"
         transform="matrix(0.99804171,-0.06255189,0.06255189,0.99804171,-12.556483,44.521302)">
        <path
           style="fill:#90d0f0;fill-opacity:1;stroke:#20a0e0;stroke-width:4.44375324;stroke-linecap:butt;stroke-linejoin:miter;stroke-miterlimit:4;stroke-opacity:1;stroke-dasharray:none"
           d="m 743.26204,148.12847 c 0,0 56.67973,-41.74351 62.34519,-36.59309 5.66547,5.15043 -46.86885,61.80509 -46.86885,61.80509 -13.88521,-1.84848 -20.83856,-11.49827 -15.47634,-25.212 z"
           id="path3910"
           inkscape:connector-curvature="0"
           sodipodi:nodetypes="cscc" />
        <path
           style="fill:none;stroke:#20a0e0;stroke-width:1.48125112px;stroke-linecap:butt;stroke-linejoin:miter;stroke-opacity:1"
           d="m 742.84269,148.18596 c 4.221,8.57008 18.92476,11.71031 29.42429,10.50196 l 13.12731,-15.96632 c -10.85358,2.72388 -19.72212,0.13365 -25.53013,-6.91755 l 18.80951,-12.63315 c 5.03797,4.76813 10.52997,6.18848 19.34544,4.09943"
           id="path4250"
           inkscape:connector-curvature="0"
           sodipodi:nodetypes="cccccc" />
      </g>
      <path
         sodipodi:nodetypes="ccc"
         inkscape:connector-curvature="0"
         id="path4319"
         d="m 764.44462,280.54062 c 0.92772,4.91509 5.65857,6.37977 8.01219,1.45677 -2.9007,1.61318 -5.70817,0.6727 -8.01219,-1.45677 z"
         style="fill:#20a0e0;fill-opacity:1;stroke:none" />
      <path
         transform="matrix(1.161342,-0.49149392,0.48353833,1.2080186,-156.17046,206.38088)"
         d="m 651.79205,281.1279 c 0,19.28194 -11.1179,34.91304 -24.83252,34.91304 -13.71461,0 -24.83251,-15.6311 -24.83251,-34.91304 0,-19.28194 11.1179,-34.91304 24.83251,-34.91304 13.71462,0 24.83252,15.6311 24.83252,34.91304 z"
         sodipodi:ry="34.91304"
         sodipodi:rx="24.832514"
         sodipodi:cy="281.1279"
         sodipodi:cx="626.95953"
         id="path3906"
         style="color:#000000;fill:#ffffff;stroke:none;stroke-width:1.08353782;marker:none;visibility:visible;display:inline;overflow:visible;enable-background:accumulate"
         sodipodi:type="arc" />
      <path
         sodipodi:type="arc"
         style="color:#000000;fill:#ffffff;stroke:none;stroke-width:1.08353782;marker:none;visibility:visible;display:inline;overflow:visible;enable-background:accumulate"
         id="path4188"
         sodipodi:cx="626.95953"
         sodipodi:cy="281.1279"
         sodipodi:rx="24.832514"
         sodipodi:ry="34.91304"
         d="m 651.79205,281.1279 c 0,19.28194 -11.1179,34.91304 -24.83252,34.91304 -13.71461,0 -24.83251,-15.6311 -24.83251,-34.91304 0,-19.28194 11.1179,-34.91304 24.83251,-34.91304 13.71462,0 24.83252,15.6311 24.83252,34.91304 z"
         transform="matrix(1.1613419,-0.49149389,0.48353834,1.2080187,-156.17047,206.38087)" />
      <path
         clip-path="url(#clipPath4248)"
         transform="matrix(1.2532985,-0.12161892,0.12303662,1.3011063,-89.932283,-36.109853)"
         d="m 642.69498,270.55566 c 0,15.75145 -8.5861,28.52051 -19.17758,28.52051 -10.59149,0 -19.17759,-12.76906 -19.17759,-28.52051 0,-15.75144 8.5861,-28.52051 19.17759,-28.52051 10.59148,0 19.17758,12.76907 19.17758,28.52051 z"
         sodipodi:ry="28.52051"
         sodipodi:rx="19.177586"
         sodipodi:cy="270.55566"
         sodipodi:cx="623.5174"
         id="path3918"
         style="color:#000000;fill:#502080;fill-opacity:1;stroke:none;stroke-width:1;marker:none;visibility:visible;display:inline;overflow:visible;enable-background:accumulate"
         sodipodi:type="arc"
         inkscape:transform-center-x="6.6534095"
         inkscape:transform-center-y="-0.2083964" />
      <path
         style="fill:#b082e0;fill-opacity:1;stroke:none"
         d="m 742.1642,350.98481 25.12161,-12.91969 5.02432,4.06731 -13.15894,31.3422 z"
         id="path4232"
         inkscape:connector-curvature="0"
         transform="matrix(0.76727669,0,0,0.76727669,129.33654,-10.294183)"
         sodipodi:nodetypes="ccccc"
         clip-path="url(#clipPath4242)" />
      <path
         style="fill:#742fbb;fill-opacity:1;stroke:none"
         d="m 739.29316,340.2184 27.99265,-7.89536 2.15328,5.74208 -22.48982,20.33655 z"
         id="path4230"
         inkscape:connector-curvature="0"
         transform="matrix(0.76727669,0,0,0.76727669,129.33654,-10.294183)"
         sodipodi:nodetypes="ccccc"
         clip-path="url(#clipPath4236)" />
      <path
         clip-path="url(#clipPath4452)"
         inkscape:transform-center-y="-0.3511894"
         inkscape:transform-center-x="0.90413085"
         sodipodi:type="arc"
         style="color:#000000;fill:#000000;stroke:none;stroke-width:1.18521047;marker:none;visibility:visible;display:inline;overflow:visible;enable-background:accumulate"
         id="path3934"
         sodipodi:cx="623.5174"
         sodipodi:cy="270.55566"
         sodipodi:rx="19.177586"
         sodipodi:ry="28.52051"
         d="m 642.69498,270.55566 c 0,15.75145 -8.5861,28.52051 -19.17758,28.52051 -10.59149,0 -19.17759,-12.76906 -19.17759,-28.52051 0,-15.75144 8.5861,-28.52051 19.17759,-28.52051 10.59148,0 19.17758,12.76907 19.17758,28.52051 z"
         transform="matrix(1.002283,-0.09915782,0.10199324,1.0978987,75.182812,3.8640908)" />
      <path
         transform="matrix(0.99137365,-0.11894135,0.11028445,1.0691926,52.999708,11.449281)"
         d="m 643.92429,273.99777 c 0,6.51784 -4.18297,11.80159 -9.34293,11.80159 -5.15996,0 -9.34293,-5.28375 -9.34293,-11.80159 0,-6.51784 4.18297,-11.80159 9.34293,-11.80159 5.15996,0 9.34293,5.28375 9.34293,11.80159 z"
         sodipodi:ry="11.801591"
         sodipodi:rx="9.342926"
         sodipodi:cy="273.99777"
         sodipodi:cx="634.58136"
         id="path4021"
         style="color:#000000;fill:#ffffff;stroke:none;stroke-width:1;marker:none;visibility:visible;display:inline;overflow:visible;enable-background:accumulate"
         sodipodi:type="arc" />
      <path
         transform="matrix(0.3826411,-0.04473473,0.03840952,0.36285921,470.96611,173.70575)"
         d="m 643.92429,273.99777 c 0,6.51784 -4.18297,11.80159 -9.34293,11.80159 -5.15996,0 -9.34293,-5.28375 -9.34293,-11.80159 0,-6.51784 4.18297,-11.80159 9.34293,-11.80159 5.15996,0 9.34293,5.28375 9.34293,11.80159 z"
         sodipodi:ry="11.801591"
         sodipodi:rx="9.342926"
         sodipodi:cy="273.99777"
         sodipodi:cx="634.58136"
         id="path4021-4"
         style="color:#000000;fill:#ffffff;stroke:none;stroke-width:2.79620981;marker:none;visibility:visible;display:inline;overflow:visible;enable-background:accumulate"
         sodipodi:type="arc" />
      <path
         sodipodi:nodetypes="ccsccscsssc"
         inkscape:connector-curvature="0"
         id="path4329"
         d="m 740.79841,242.80271 c -4.79958,-40.47423 -56.1953,-71.2955 -65.31317,-21.99048 0,0 -17.9279,-1.90687 -17.86731,-2.35367 0.0561,-0.41346 16.92534,0.7365 16.92534,0.49357 0.96401,-5.72029 1.19018,-5.61629 2.16179,-7.96562 0.0937,-0.22562 -15.48374,-8.91586 -15.36426,-9.15909 0.11949,-0.24323 16.11944,7.5934 16.21881,7.37843 1.3232,-2.86262 3.354,-6.72413 5.12096,-8.67995 0.25656,-0.28398 -10.95607,-11.29775 -10.69144,-11.5634 0.27074,-0.2718 12.01892,10.20495 12.29776,9.95213 18.63855,-16.89933 54.96302,8.36152 56.51152,43.88808 z"
         style="fill:#000000;stroke:none" />
      <path
         sodipodi:nodetypes="ccsccsccscc"
         inkscape:connector-curvature="0"
         id="path4329-4"
         d="m 754.32692,261.66559 c -11.38128,-38.4687 15.25364,-97.21719 32.56824,-59.53889 0,0 10.04379,-1.79624 9.96146,-2.28105 -0.0892,-0.52514 -9.65268,1.30598 -9.65268,1.30598 -0.90707,-2.91807 -1.72235,-4.28293 -2.62942,-5.91174 0,0 7.79958,-5.82391 7.5608,-6.23346 -0.24466,-0.41963 -8.23047,5.27579 -8.23047,5.27579 -1.4253,-1.83356 -3.79464,-4.05428 -5.0618,-4.76652 0,0 4.90416,-7.59994 4.47718,-7.98929 -0.37891,-0.34552 -5.48211,7.42053 -5.48211,7.42053 -14.26987,-7.80819 -36.0135,33.64066 -23.5112,72.71865 z"
         style="fill:#000000;stroke:none;display:inline" />
      <path
         style="fill:#f4b3df;fill-opacity:1;stroke:none"
         d="m 732.0954,143.43784 c 10.93463,1.5387 25.62524,11.34137 38.32698,18.51926 -13.67145,-5.05124 -27.72325,-15.8813 -38.32698,-18.51926 z"
         id="path4015"
         inkscape:connector-curvature="0"
         sodipodi:nodetypes="ccc" />
      <g
         transform="matrix(0.08770432,0.01150117,-0.01150117,0.08770432,476.16361,317.34005)"
         id="g4285">
        <path
           transform="translate(0,28.362168)"
           d="m 576,512 c 0,35.34622 -28.65378,64 -64,64 -35.34622,0 -64,-28.65378 -64,-64 0,-35.34622 28.65378,-64 64,-64 35.34622,0 64,28.65378 64,64 z"
           sodipodi:ry="64"
           sodipodi:rx="64"
           sodipodi:cy="512"
           sodipodi:cx="512"
           id="path3761-1"
           style="color:#000000;fill:none;stroke:#000000;stroke-width:8;stroke-linecap:round;stroke-linejoin:round;stroke-miterlimit:4;stroke-opacity:1;stroke-dasharray:none;marker:none;visibility:visible;display:inline;overflow:visible;enable-background:accumulate"
           sodipodi:type="arc" />
        <path
           style="fill:none;stroke:#000000;stroke-width:8;stroke-linecap:round;stroke-linejoin:round;stroke-miterlimit:4;stroke-opacity:1;stroke-dasharray:none"
           d="m 512,476.36217 0,-320"
           id="path3011"
           inkscape:connector-curvature="0" />
        <path
           style="fill:none;stroke:#000000;stroke-width:8;stroke-linecap:round;stroke-linejoin:round;stroke-miterlimit:4;stroke-opacity:1;stroke-dasharray:none"
           d="m 567.42563,508.36217 277.12813,-160"
           id="path3781"
           inkscape:connector-curvature="0" />
        <path
           style="fill:none;stroke:#000000;stroke-width:8;stroke-linecap:round;stroke-linejoin:round;stroke-miterlimit:4;stroke-opacity:1;stroke-dasharray:none"
           d="m 567.42563,572.36217 277.12813,160"
           id="path3783"
           inkscape:connector-curvature="0" />
        <path
           style="fill:none;stroke:#000000;stroke-width:8;stroke-linecap:round;stroke-linejoin:round;stroke-miterlimit:4;stroke-opacity:1;stroke-dasharray:none"
           d="m 512,604.36217 0,320"
           id="path3785"
           inkscape:connector-curvature="0" />
        <path
           style="fill:none;stroke:#000000;stroke-width:8;stroke-linecap:round;stroke-linejoin:round;stroke-miterlimit:4;stroke-opacity:1;stroke-dasharray:none"
           d="m 456.57437,572.36217 -277.12813,160"
           id="path3787"
           inkscape:connector-curvature="0" />
        <path
           style="fill:none;stroke:#000000;stroke-width:8;stroke-linecap:round;stroke-linejoin:round;stroke-miterlimit:4;stroke-opacity:1;stroke-dasharray:none"
           d="m 456.57437,508.36217 -277.12813,-160"
           id="path3789"
           inkscape:connector-curvature="0" />
      </g>
    </g>
    <g
       id="g3930"
       transform="matrix(0.2,0,0,0.2,573.08112,-41.549113)" />
  </g>
</svg>
