<svg xmlns="http://www.w3.org/2000/svg" xmlns:inkscape="http://www.inkscape.org/namespaces/inkscape" xmlns:xlink="http://www.w3.org/1999/xlink" height="960" viewBox="0 0 799.99996 960" width="800">
  <defs>
    <inkscape:path-effect bendpath1="m -40.092731,-38.5 h 80.023042" bendpath2="m 23.459532,-38.437554 c 21.867153,24.54095 25.834382,50.629009 16.571192,76.598919" bendpath3="m -40.092731,38.475625 h 80.023042" bendpath4="m -48.742424,-39.299546 c 18.939706,25.287756 21.233201,52.444498 11.045879,78.454511" effect="envelope" id="path-effect6029" yy="false" />
    <inkscape:path-effect effect="powerstroke" end_linecap_type="zerowidth" id="path-effect5496" interpolator_type="CubicBezierSmooth" offset_points="0.43,4.5 | 6.69,4.5" start_linecap_type="zerowidth" />
    <inkscape:path-effect effect="powerstroke" end_linecap_type="zerowidth" id="path-effect5374" interpolator_type="CubicBezierSmooth" offset_points="0.19,4.5 | 2.82,4.5" start_linecap_type="zerowidth" />
    <inkscape:path-effect effect="powerstroke" end_linecap_type="zerowidth" id="path-effect1229" interpolator_type="CubicBezierSmooth" offset_points="0.41,4.5 | 3,3.75 | 1.62,4.5 | 4,4.5 | 4.63,4.5" start_linecap_type="zerowidth" />
    <inkscape:path-effect effect="powerstroke" id="path-effect1084" interpolator_type="CubicBezierSmooth" miter_limit="20" offset_points="0.22,4.5 | 9,4.5" start_linecap_type="zerowidth" />
    <inkscape:path-effect effect="powerstroke" end_linecap_type="zerowidth" id="path-effect960" interpolator_type="CubicBezierSmooth" offset_points="0.2,4.5 | 1.58,4.5" start_linecap_type="zerowidth" />
    <linearGradient id="linearGradient844">
      <stop offset="0" stop-color="#287916" />
      <stop offset="1" stop-color="#61ba4e" />
    </linearGradient>
    <clipPath id="clipPath858">
      <use xlink:href="#path21" />
    </clipPath>
    <clipPath id="clipPath1004">
      <use xlink:href="#path884" />
    </clipPath>
    <clipPath id="clipPath1175">
      <use xlink:href="#ellipse1151" />
    </clipPath>
    <clipPath id="clipPath1213">
      <use xlink:href="#path1191" />
    </clipPath>
    <linearGradient gradientUnits="userSpaceOnUse" id="linearGradient3060" x1="377.45892" x2="373.3537" y1="536.16681" y2="640.13934" xlink:href="#linearGradient844" />
    <linearGradient gradientUnits="userSpaceOnUse" id="linearGradient3123" x1="532.31525" x2="530.06244" y1="540.82452" y2="612.42926" xlink:href="#linearGradient844" />
  </defs>
  <g inkscape:groupmode="layer" inkscape:label="Drawing">
    <g>
      <path d="m 21.61377,975.9119 c 7.267065,17.04 17.137002,28.2498 29.388454,36.1979 -17.365153,-50.46399 19.32861,-53.39304 76.207936,-38.52 27.27672,7.1324 51.55859,25.9436 51.55859,57.5244 0,43.1252 -15.54556,43.7278 -26.79264,-1.6051 -12.14689,32.0278 -34.11817,58.0486 -83.658723,49.334 -28.378388,-4.992 -34.064881,-18.778 -9.371196,-23.4339 -36.186079,-11.2373 -41.709501,-47.1577 -37.332421,-79.4973 z" style="stroke-width:9;stroke-miterlimit:20;stroke:#e7d462;fill:#faf5ab" />
      <path d="m 138.96309,977.05115 c -54.357392,7.04266 -75.394221,31.80415 -29.0516,60.24595 -28.8492,12.6274 -66.253571,5.5592 -86.847151,-19.4047" style="stroke-width:4.5;stroke-miterlimit:20;stroke:#e7d462;fill:none" />
      <path d="m 111.38709,960.91558 c -10.59303,39.10112 52.88487,46.29752 58.95557,8.20315 z" fill="#ec3f41" />
      <path d="m 308.4715,668.2708 c -81.98756,-47.27346 -151.36139,35.26092 -104.34122,132.01244 43.99975,90.53653 31.97613,170.97861 -58.88069,170.97861 -157.10431,0 -191.602649,-373.26475 9.88282,-440.3997 74.97187,-24.98062 156.00821,35.77843 188.5416,108.33026 z" fill="#faf5ab" stroke="#e7d462" stroke-width="9" />
      <path d="m 324.04883,655.71372 c -123.9841,-99.69079 -245.100801,-16.85413 -157.64035,146.77087 37.43216,70.02978 43.43162,115.23651 -3.42112,167.71266 m 177.06781,-328.75695 c -105.39884,-140.29231 -230.12076,-101.33433 -275.270573,34.41209 -30.241169,90.92243 -23.061334,217.74869 42.358693,287.85063" fill="none" stroke="#e7d462" stroke-width="4.5" />
    </g>
    <path d="m 485.52602,777.40921 c -49.17982,83.84141 -66.84851,176.27242 -21.57282,277.05439 13.01527,28.9714 -122.83769,33.3351 -126.29769,-0.8769 -8.9422,-88.41938 3.78545,-168.73674 37.3701,-239.11828 z" fill="#f0aa52" stroke="#ef6f2f" stroke-width="9" />
    <path d="m 475.94278,767.89359 c -31.45305,100.04446 -33.7874,207.69345 -18.02953,308.18411 5.2369,33.3966 137.04721,28.1205 126.8676,-3.3946 -32.08991,-99.34716 -49.55197,-193.22088 -51.03748,-300.19724 z" fill="#faba62" stroke="#ef6f2f" stroke-width="9" />
    <g>
      <path d="m 341.48338,439.08063 c -61.78541,-33.98717 -82.96375,-52.19947 -77.49169,-126.97601 5.24307,-71.6473 35.47974,-95.99954 100.90558,-115.11201 z" fill="#ca9a56" stroke="#b2884d" stroke-width="9" />
      <path d="m 412.25825,567.22985 c -109.85206,-49.09636 -163.2234,-289.68497 7.08364,-508.900155 1.7212,98.026245 147.12907,59.832525 70.74151,-33.915363 127.90247,36.922825 158.0195,68.103284 110.641,146.174248 z" fill="#ca9a56" stroke="#b2884d" stroke-width="9" />
    </g>
    <path d="m 431.59959,827.80839 c 212.09145,-15.35247 133.51467,-207.65037 169.56505,-285.39251 l 129.52399,-127.07827 c -15.34917,-266.40205 -335.92374,-230.47733 -314.23597,-10.66982 9.86242,99.95657 45.24151,135.1711 24.61418,231.38713 -40.1116,-38.51448 -132.36019,-36.6652 -153.07747,53.2508 -18.0056,78.14691 12.14329,110.15124 15.39722,153.91083 -11.52539,-1.43564 -23.90198,1.78664 -27.62661,9.59215 -33.58465,70.38154 -46.3123,150.6989 -37.3701,239.1182 3.46,34.212 139.31296,29.8483 126.29769,0.8769 -45.27569,-100.78189 -27.607,-193.2129 21.20812,-276.57024 12.59011,9.09696 28.28221,12.83592 45.7039,11.57483 z" fill="#faba62" />
    <g transform="matrix(-.60787222-.09144509-.19422849 1.2911147 325.32766 695.77282)" inkscape:path-effect="#path-effect6029">
      <path fill="#ec3f41" inkscape:original-d="m -26.3,8.2 c -24.1,-14.4 -13.2,30.1 6.6,20.4 17.7,1.5 11,-43.7 -6.6,-20.4 z m 28.7,-14.7 c -21.3,6.8 -18.2,-43.1 5.1,-17.5 22.6,-16.1 14.5,27.9 -5.1,17.5 z m 19.6,23.9 c -16.8,-23.8 -24.6,19 -2.9,18.6 21.1,13.5 32.5,-33.3 2.9,-18.6 z" />
      <path fill="#6bb944" inkscape:original-d="m -27.5,5 c -5.7,0.5 -7.9,-3.7 -9,-8.9 4,1.1 7.6,5 9,8.9 z m 0.9,2.3 c -0.6,-5.6 0.4,-9.9 2.3,-13.4 1.6,0.2 2.5,1 2.7,2.4 -2.4,2.5 -4,6 -5,11 z m 34.4,-36.3 c -3.9,0.3 -6.2,-4 -5.6,-9.5 4.8,1.5 6.1,4.3 5.6,9.5 z m 0.4,2.5 c 0.5,-3.6 2.3,-9 5.3,-11 1.1,0.4 1.9,1.4 2.1,2.8 -3.1,1.7 -5.9,4.4 -7.4,8.2 z m 14.5,41.5 c 0.4,-6.2 0.2,-10.8 -1.9,-15.5 0.9,-1.3 2.2,-1.7 3.8,-1.2 0.6,5.9 0,11.6 -1.9,16.7 z m 1.1,0.3 c 0.7,-5.3 2.4,-7.6 5.8,-11 1.8,6 -0.9,9.1 -5.8,11 z" />
    </g>
    <path fill="#ef6f2f" inkscape:original-d="m 348.62753,740.24849 c 4.72056,60.90276 38.11248,90.80711 82.97206,87.5599 212.09145,-15.35247 133.51467,-207.65037 169.56505,-285.39251 l 129.52399,-127.07827 c -15.34917,-266.40205 -335.92374,-230.47733 -314.23597,-10.66982 9.86242,99.95657 45.24151,135.1711 24.61418,231.38713 -40.1116,-38.51448 -132.3602,-36.6652 -153.07747,53.2508 -19.74505,85.69639 18.41785,115.90424 15.38921,167.00683" inkscape:path-effect="#path-effect5496" />
    <path d="m 386.26039,815.74949 c -49.17982,83.84141 -66.84851,176.27242 -21.57282,277.05431 13.01527,28.9714 -122.83769,33.3351 -126.29769,-0.8769 -8.9422,-88.4193 3.78545,-168.73666 37.3701,-239.1182 3.72463,-7.80551 16.10122,-11.02779 27.72548,-9.61665" fill="none" stroke="#ef6f2f" stroke-width="9" />
    <g>
      <path d="m 409.17421,799.85929 c -44.34,89.44181 -60.02491,206.77591 -46.09331,313.98681 4.45911,34.3152 137.90071,29.9738 126.9154,-1.5426 -32.17493,-92.3086 -35.81584,-201.11726 -23.11276,-306.82018 z" fill="#faba62" />
      <path fill="#ef6f2f" inkscape:original-d="m 409.17421,799.85929 c -44.34,89.44181 -60.02491,206.77591 -46.09331,313.98681 4.45911,34.3152 137.90071,29.9738 126.9154,-1.5426 -32.17493,-92.3086 -35.81584,-201.11726 -23.11276,-306.82018" inkscape:path-effect="#path-effect5374" />
    </g>
    <g>
      <g clip-path="url(#clipPath1213)">
        <path d="m 705.88371,406.28952 c -33.85811,-39.35967 -44.85773,-89.64026 -20.37332,-121.14213 26.68122,30.78482 43.94456,84.53385 45.0856,128.54456 -8.96768,0.27786 -17.58381,-2.19768 -24.71228,-7.40243 z" fill="#fff" id="path1191" />
        <g clip-path="url(#clipPath1175)">
          <ellipse cx="524.28894" cy="577.11481" fill="url(#linearGradient3123)" id="ellipse1151" rx="14.236662" ry="51.527325" transform="rotate(339.83359)" />
          <path d="m 690.09837,369.97836 30.95256,29.64556 -1.05617,-25.37868 z" fill="#caecc4" />
          <path d="m 690.09837,369.97836 28.21242,-4.17132 1.79476,17.37083 z" fill="#78d863" />
          <ellipse cx="528.42194" cy="571.80933" rx="10.49921" ry="38.455952" transform="rotate(340.29539)" />
          <ellipse cx="601.73627" cy="466.32916" fill="#fff" rx="7.3521271" ry="20.804306" transform="rotate(348.92059)" />
          <ellipse cx="628.07758" cy="480.71912" fill="#fff" rx="3.0709958" ry="5.0210743" transform="rotate(350.98927)" />
        </g>
      </g>
      <path d="m 727.94544,463.74765 c -4.79817,12.11672 -6.5116,24.89792 -4.49183,37.45562 -62.65416,26.23294 -62.69648,-39.72493 4.49183,-37.45562 z" fill="#bb1c76" />
      <path d="m 689.26085,501.93271 c 6.47905,-7.21234 20.62174,-8.85399 31.20868,-3.74499 -8.61821,8.08733 -23.39226,10.40022 -31.20868,3.74499 z" fill="#e6636b" />
      <path d="m 705.88371,406.28952 c 22.02405,18.1032 53.11654,-4.77811 52.51962,21.14131 -0.52263,22.69341 -9.03916,38.42675 -39.242,43.45855 -23.43861,3.90488 -30.69367,16.52691 -28.10342,37.61705 14.38722,-7.02632 27.32987,-11.18003 44.26291,-13.94047 -29.15691,35.25431 -93.60673,53.42048 -168.79934,48.04355 z" fill="#faba62" />
      <path fill="#ef6f2f" inkscape:original-d="m 705.88371,406.28952 c 22.02405,18.1032 53.11654,-4.77811 52.51962,21.14131 -0.52263,22.69341 -9.03916,38.42675 -39.242,43.45855 -23.43861,3.90488 -30.69367,16.52691 -28.10342,37.61705 14.38722,-7.02632 27.32987,-11.18003 44.26291,-13.94047 -29.15691,35.25431 -93.60673,53.42048 -168.79934,48.04355" inkscape:path-effect="#path-effect1229" />
      <path d="m 723.67514,432.64432 c 4.46008,5.74025 8.76202,6.27773 13.76698,1.46621 -3.79645,10.86826 -11.28761,10.40984 -13.76698,-1.46621 z" fill="#ef6f2f" />
      <g clip-path="url(#clipPath1004)">
        <ellipse cx="72.235207" cy="708.59851" fill="#fff" id="path884" rx="61.538296" ry="83.374649" transform="rotate(311.77751)" />
        <g clip-path="url(#clipPath858)">
          <ellipse cx="358.89447" cy="587.20905" fill="url(#linearGradient3060)" id="path21" rx="46.110195" ry="68.52375" transform="rotate(338.99886)" />
          <path d="m 603.58941,459.15014 -56.90009,-20.93512 59.0809,-13.32 z" fill="#caecc4" />
          <path d="m 605.05471,412.29305 -58.36539,25.92197 63.57114,-1.47244 z" fill="#78d863" />
          <ellipse cx="380.5267" cy="569.14569" rx="33.950241" ry="55.540253" transform="rotate(341.46248)" />
          <ellipse cx="486.55945" cy="440.19412" fill="#fff" rx="20.072369" ry="30.699656" transform="rotate(355.77401)" />
          <ellipse cx="636.30304" cy="294.66034" fill="#fff" rx="7.2321138" ry="9.2631617" transform="rotate(13.429846)" />
        </g>
      </g>
      <ellipse cx="233.37434" cy="647.5166" fill="#fff" rx="4.3994226" ry="8.6811247" transform="rotate(332.52041)" />
      <ellipse cx="105.23974" cy="703.90784" fill="#fff" rx="4.4857044" ry="8.3963184" transform="rotate(321.65465)" />
      <ellipse cx="84.865494" cy="696.15863" fill="#fff" rx="4.1624918" ry="7.2620454" transform="rotate(321.21311)" />
      <path d="m 500.40214,399.57833 c -11.83193,2.50004 -21.82015,0.31484 -29.83524,-9.00041 4.72409,13.34719 15.59774,18.07953 30.55285,15.68205 m 2.97208,-25.48601 c -12.00324,-1.47222 -20.74289,-6.77859 -25.3038,-18.18976 0.14017,14.15788 8.89139,22.16087 23.81569,24.74303 m -30.63654,30.44446 c 7.80765,11.71286 20.2524,12.82858 35.24129,5.9272 -14.15482,-60.66827 28.09625,-79.07876 58.23658,-74.23063 43.51885,7.00009 76.12862,39.86133 85.57716,88.81001 0.59016,-51.62578 -41.86854,-89.34828 -84.41053,-95.35411 -32.75221,-4.62377 -77.45121,13.32552 -66.65459,76.12937 -8.64537,4.70485 -18.75774,4.33594 -27.98991,-1.28184 z m 209.95814,-133.79445 c -26.28073,33.27675 -8.24001,91.74697 23.95839,122.31228 -25.14462,-34.29967 -44.27266,-85.60294 -18.95839,-118.14213 z" />
    </g>
    <g>
      <path d="m 384.45271,368.5634 c 51.01668,179.87614 -24.51885,185.59785 -8.10284,268.66173 11.17075,56.52325 90.40228,60.3079 121.35672,13.33278 67.26743,-102.08213 -69.93073,-184.21686 -113.25388,-281.99451 z" fill="#faf5ab" stroke="#e7d462" stroke-width="9" />
      <path d="m 400.75656,500.51619 c 14.77271,65.95059 -16.24148,113.19165 28.25279,152.59259 73.03506,-36.22552 34.40891,-150.16699 -37.79738,-256.09607" fill="none" stroke="#e7d462" stroke-width="4.5" />
      <path d="m 404.36355,650.09659 c 5.41263,-28.86213 39.61635,-30.2908 45.65547,3.47164 z" fill="#ec3f41" />
      <path d="m 370.52736,692.74628 c 16.52571,-100.30448 190.57638,-23.58935 118.52153,70.91771 0.69675,-10.5958 0.0237,-19.60677 -1.89268,-31.03323 -18.034,36.38555 -51.0414,46.02843 -89.63347,37.9806 15.933,-4.98157 22.97696,-11.64101 28.68324,-20.00911 -41.6506,9.20945 -94.03433,-26.78369 -76.0821,-86.57574 5.44833,9.91147 12.14669,19.35483 20.40348,28.71977 z" style="stroke-width:9;stroke-miterlimit:20;stroke:#e7d462;fill:#faf5ab" />
      <path d="m 385.66014,660.03683 c -4.36422,32.96474 13.59023,48.76245 34.48607,58.94755 -19.12303,15.44451 -47.34504,10.71014 -72.04416,-14.00103" fill="none" stroke="#e7d462" stroke-width="4.5" />
      <path d="m 780.82526,214.22623 c -10.08544,91.14947 -72.40408,131.65268 -187.92019,93.39346 l 17.01712,22.59169 c -23.18424,-8.75511 -46.0457,-20.35607 -67.35466,-37.56844 6.43468,12.23859 10.58882,22.90576 12.93038,34.98561 -31.30636,-17.05672 -72.40942,-23.72337 -106.3617,-16.26824 l -52.7098,-44.05944 c 76.8433,-170.032591 209.78349,-152.72179 282.02026,-91.03901 20.88364,17.83248 15.34792,21.10499 -30.56695,10.63957 47.36045,31.98079 52.83966,84.7276 132.94554,27.3248 z" fill="#faf5ab" />
      <path fill="#e7d462" inkscape:original-d="m 614.59691,171.42095 c 81.32883,22.82638 70.56921,111.35334 166.22835,42.80528 -10.08544,91.14947 -72.40408,131.65268 -187.92019,93.39346 l 17.01712,22.59169 c -23.18424,-8.75511 -46.0457,-20.35607 -67.35466,-37.56844 6.43468,12.23859 10.58882,22.90576 12.93038,34.98561 -31.30636,-17.05672 -72.40942,-23.72337 -106.3617,-16.26824 l -52.7098,-44.05944 c 76.8433,-170.032591 209.78349,-152.72179 282.02026,-91.03901 20.88364,17.83248 15.34792,21.10499 -30.50397,10.73302" inkscape:path-effect="#path-effect1084" />
      <path d="m 430.33701,206.85812 c 221.31833,-97.46854 183.46573,119.23576 336.54723,59.48902 m -365.92735,-8.53332 c 133.642,-108.27575 206.86457,39.25641 311.23472,58.11839" style="stroke-width:4.5;stroke-miterlimit:20;stroke:#e7d462;fill:none" />
      <path d="m 446.28055,443.35947 c -115.77381,-61.21683 -84.43976,-191.69383 -71.53021,-197.5618 12.95297,-5.88771 69.96674,31.605 89.51667,70.37722 z" fill="#faba62" />
      <path fill="#ef6f2f" inkscape:original-d="m 446.28055,443.35947 c -115.77381,-61.21683 -84.43976,-191.69383 -71.53021,-197.5618 12.95297,-5.88771 69.96674,31.605 89.51667,70.37722" inkscape:path-effect="#path-effect960" />
      <path d="m 389.86629,302.79972 c 2.20865,37.10791 18.14824,68.4819 46.39209,86.70659 -25.00648,-24.65625 -38.01383,-52.72542 -46.39209,-86.70659 z" fill="#ef6f2f" />
    </g>
  </g>
</svg>