<svg xmlns="http://www.w3.org/2000/svg" xmlns:inkscape="http://www.inkscape.org/namespaces/inkscape" xmlns:xlink="http://www.w3.org/1999/xlink" height="1080" viewBox="0 0 1920 1080" width="1920">
  <defs>
    <inkscape:path-effect effect="powerstroke" id="path-effect1923" interpolator_type="CubicBezierSmooth" offset_points="0.55,4 | 11,4" start_linecap_type="zerowidth" />
    <inkscape:path-effect effect="powerstroke" end_linecap_type="zerowidth" id="path-effect1199" interpolator_type="CubicBezierSmooth" offset_points="0.24,4 | 2.75,4" start_linecap_type="zerowidth" />
    <inkscape:path-effect effect="powerstroke" id="path-effect1171" interpolator_type="CubicBezierSmooth" offset_points="0.32,4" start_linecap_type="zerowidth" />
    <inkscape:path-effect effect="powerstroke" end_linecap_type="zerowidth" id="path-effect1138" interpolator_type="CubicBezierSmooth" offset_points="0.44,4 | 1.76,4" start_linecap_type="zerowidth" />
    <inkscape:path-effect effect="powerstroke" end_linecap_type="zerowidth" id="path-effect1129" interpolator_type="CubicBezierSmooth" offset_points="0.5,1.9 | 1.4,1.9" start_linecap_type="zerowidth" />
    <inkscape:path-effect effect="powerstroke" end_linecap_type="zerowidth" id="path-effect1118" interpolator_type="CubicBezierSmooth" offset_points="0.57,2.25 | 1.52,2.25" start_linecap_type="zerowidth" />
    <inkscape:path-effect effect="powerstroke" id="path-effect888" interpolator_type="CubicBezierSmooth" miter_limit="20" offset_points="0.57,4 | 5,4" start_linecap_type="zerowidth" />
    <inkscape:path-effect effect="powerstroke" id="path-effect943" interpolator_type="CubicBezierSmooth" offset_points="0.9,3" start_linecap_type="zerowidth" />
    <inkscape:path-effect effect="powerstroke" id="path-effect875" interpolator_type="CubicBezierSmooth" offset_points="0.5,3 | 5,3" start_linecap_type="zerowidth" />
    <inkscape:path-effect effect="powerstroke" id="path-effect873" interpolator_type="CubicBezierSmooth" offset_points="0.31,3 | 2,3" start_linecap_type="zerowidth" />
    <inkscape:path-effect effect="powerstroke" id="path-effect1133" interpolator_type="CubicBezierSmooth" offset_points="0.14,3" start_linecap_type="zerowidth" />
    <inkscape:path-effect effect="powerstroke" id="path-effect1131" interpolator_type="CubicBezierSmooth" offset_points="0.46,3" start_linecap_type="zerowidth" />
    <inkscape:path-effect effect="powerstroke" end_linecap_type="zerowidth" id="path-effect1023" interpolator_type="CubicBezierSmooth" offset_points="0.37,4 | 11.46,4" start_linecap_type="zerowidth" />
    <inkscape:path-effect effect="powerstroke" id="path-effect920" interpolator_type="CubicBezierSmooth" offset_points="0.54,4" start_linecap_type="zerowidth" />
    <inkscape:path-effect effect="powerstroke" id="path-effect918" interpolator_type="CubicBezierSmooth" offset_points="0.44,4 | 6,4" start_linecap_type="zerowidth" />
    <inkscape:path-effect effect="powerstroke" end_linecap_type="zerowidth" id="path-effect854" interpolator_type="CubicBezierSmooth" offset_points="0.26,4 | 2.77,4" start_linecap_type="zerowidth" />
    <inkscape:path-effect effect="powerstroke" end_linecap_type="zerowidth" id="path-effect839" interpolator_type="CubicBezierSmooth" offset_points="0.58,2.5 | 1.35,2.5" start_linecap_type="zerowidth" />
    <inkscape:path-effect effect="powerstroke" end_linecap_type="zerowidth" id="path-effect823" interpolator_type="CubicBezierSmooth" offset_points="0.32,4 | 1.83,4" start_linecap_type="zerowidth" />
    <clipPath id="clipPath950">
      <path d="m 1024.107,244.86334 c 3.5397,12.62822 9.3676,22.62222 16.3408,30.22081 63.2099,-44.14668 133.9973,-50.06616 189.609,-5.93754 l 12.1823,-29.81456 c -51.3322,-56.14704 -153.722,-54.29059 -218.1321,5.53129 z" />
    </clipPath>
    <clipPath id="clipPath954">
      <path d="m 1031.9402,263.53093 11.2797,-5.03079 260.0704,-182.697131 -311.58797,-8.081159 14.81497,177.06561 z" />
    </clipPath>
    <clipPath id="G">
      <use xlink:href="#H" />
    </clipPath>
  </defs>
  <g inkscape:groupmode="layer" inkscape:label="Drawing">
    <path d="m 936.86578,718.27133 c -68.43468,52.53296 -65.72239,136.47975 -31.37185,212.53974 8.99169,19.90967 -98.24559,25.43298 -102.4292,-1.39841 -10.70085,-68.62934 -2.76669,-140.04309 37.27907,-202.61168 z" fill="#adb2c0" stroke="#727b93" stroke-width="8" />
    <path d="m 820.19868,602.84545 c -86.44908,-24.16639 -110.41977,31.0341 -63.57548,154.13014 50.55462,132.84594 -11.16803,220.09108 -93.82978,216.91959 14.6769,-9.33891 24.38641,-21.25979 31.81094,-35.17159 -47.72746,33.84067 -118.75428,33.6767 -162.32834,-17.46175 38.50622,10.68608 67.80513,5.67247 88.75866,-6.99841 -15.69069,-1.02764 -29.33762,-6.14653 -41.67945,-18.89518 81.95199,5.2655 98.85859,-80.113 61.43023,-151.65143 -4.11373,24.28478 -5.82464,49.4909 -6.54032,72.59226 -122.84095,-215.40372 47.17869,-339.11793 204.38554,-236.50802 z" style="stroke-miterlimit:20;fill:#fffaad;stroke-width:8;stroke:#e8dc64" />
    <path d="m 858.60016,742.77133 c -66.25171,58.03297 -87.05227,142.47975 -62.72359,218.53974 6.25587,19.55804 -102.87562,25.3709 -102.68059,-1.39841 0.5,-68.62934 24.80779,-141.04309 69.47692,-203.61168 8.47008,-11.86414 31.69374,-2.0069 33.43934,-8.08578 6.59619,-22.97057 -16.47006,-55.64435 -5.27309,-106.19641 9.62345,-43.44793 45.25261,-77.48828 86.48944,-76.96572 44.62418,0.56548 59.37568,34.81886 113.61514,32.60944 2.29398,-55.12198 -30.45229,-87.72109 -88.58249,-96.78301 -74.1038,-193.50771 199.89626,-261.20295 210.40976,-59.68397 13.6688,261.99819 -44.6988,320.57105 -242.66608,290.52956 -3.57974,3.76239 -7.41423,7.46315 -11.50476,11.04624 z" fill="#c2c5d5" />
    <g transform="matrix(1.4760993 0-.05147015 1.4760993 855.54303 653.91285)">
      <path d="m -20.7,28.2 a 6.2,5.3 73 0 1 9,2.6 6.2,5.3 73 1 1 -9,-2.6 z m -4.9,-14.1 a 5.5,5.1 28 0 1 9.1,2.2 5.5,5.1 28 1 1 -9.1,-2.2 z m 16.1,-7.3 c -5.2,4.5 -5.9,12.8 0.9,17.5 6.8,4.7 14.1,-1 13.4,-9.2 -0.7,-8.2 -9.1,-12.8 -14.3,-8.3 z m -11.4,-15.2 a 7.9,7.1 63 0 1 13.1,2.6 7.9,7.1 63 1 1 -13.1,-2.6 z m 20.3,-0.2 a 7.5,6.4 49 0 0 2.9,10.4 7.5,6.4 49 1 0 -2.9,-10.4 z m 1.6,-6.7 c 8.1,-0.3 12.1,-6.6 11.7,-14.2 -0.4,-7.6 -12.6,-13.5 -20.1,-5.9 -7.5,7.6 0.3,20.4 8.4,20.1 z m 20.6,-1.7 c 2.8,0.4 6.8,-2 4.8,-7.9 -2,-5.9 -8.4,-6 -9.6,-2.1 -1.2,3.9 2,9.6 4.8,10 z" fill="#dedeff" />
      <path d="m -18.8,30.8 a 2.1,1.5 -10 0 1 1.5,-2.2 2.1,1.5 -10 1 1 -1.5,2.2 z m -3.7,-14.6 a 1.8,1.4 9 0 0 2.7,0.3 1.8,1.4 9 1 0 -2.7,-0.3 z m 17.8,-5 c 1.5,0.9 4,0.9 4.5,-0.1 0.5,-1 -1.2,-2.8 -3.3,-2.9 -2.1,-0.1 -2.7,2.1 -1.2,3 z m -12.4,-18.3 c -0.1,1.4 0.6,1.5 2.9,1.4 2.3,-0.1 2.7,-1.4 1,-2.6 -1.7,-1.2 -3.8,-0.2 -3.9,1.2 z m 24.6,-0.8 a 2.8,1.6 19 0 1 -0.3,2.7 2.8,1.6 19 1 1 0.3,-2.7 z m -5.4,-29 c 4.5,0.1 5.3,3.8 3.3,4.1 -2,0.3 -4.3,0.2 -6.2,-0.2 -1.9,-0.4 -1.6,-4 2.9,-3.9 z m 18.5,9.6 a 2.1,1.4 4 0 0 -0.6,2.1 2.1,1.4 4 1 0 0.6,-2.1 z" fill="#e4ffff" />
    </g>
    <path fill="#808aa7" inkscape:original-d="m 909.31999,651.26264 c -5.25735,34.14213 -21.4204,65.84395 -50.71983,91.50869 -66.25171,58.03296 -87.05227,142.47975 -62.72359,218.53974 6.25587,19.55804 -102.87562,25.3709 -102.68059,-1.39841 0.5,-68.62934 24.80779,-141.04309 69.47692,-203.61168 8.47008,-11.86414 31.69374,-2.0069 33.43934,-8.08578 6.59619,-22.97057 -16.47006,-55.64435 -5.27309,-106.19641 9.62345,-43.44793 45.25261,-77.48828 86.48944,-76.96572 44.62418,0.56548 59.37568,34.81886 113.61514,32.60944 2.29398,-55.12198 -30.45229,-87.72109 -88.58249,-96.78301 -74.1038,-193.50771 199.89626,-261.20295 210.40976,-59.68397 13.6688,261.99819 -44.6988,320.57105 -242.67084,290.5758" inkscape:path-effect="#path-effect1923" />
    <g>
      <path d="m 938.34537,716.33588 c -38.31363,65.67117 -65.47225,146.80464 -60.94086,244.55809 1.1776,25.40395 114.08,20.30173 105.87177,-1.18716 -24.08235,-63.04683 -18.98319,-171.01902 6.71878,-246.90943 z" fill="#c2c5d5" />
      <path fill="#808aa7" inkscape:original-d="m 938.34537,716.33588 c -38.31363,65.67117 -65.47225,146.80464 -60.94086,244.55809 1.1776,25.40395 114.08,20.30173 105.87177,-1.18716 -24.08235,-63.04683 -18.98319,-171.01902 6.71878,-246.90943" inkscape:path-effect="#path-effect1199" />
      <path d="m 981.64836,621.4893 c 51.21664,26.57144 24.31704,108.96387 -52.28854,88.43747 -66.67991,-17.86683 -97.23057,-94.08399 -86.76713,-113.86742 6.67912,-12.62833 51.8274,-11.49261 111.39634,16.96829 z" fill="#c2c5d5" />
      <path fill="#808aa7" inkscape:original-d="m 981.64836,621.4893 c 51.21664,26.57144 24.31704,108.96387 -52.28854,88.43747 -66.67991,-17.86683 -97.23057,-94.08399 -86.76713,-113.86742 6.67912,-12.62833 51.8274,-11.49261 111.39634,16.96829 -10.62079,3.18743 -18.6416,7.5189 -23.1416,18.7689 -30.45807,-1.82732 -39.53558,21.63956 -24.76371,39.09489 -3.53554,15.2028 4.89132,29.48941 23.2761,39.03534" inkscape:path-effect="#path-effect1171" />
      <path d="m 846.87695,634.60582 58.76838,44.12557 m -65.01838,-77.62557 64.26838,39.62557 m -46.51838,-52.12557 76.01838,36.87557" fill="none" stroke="#808aa7" stroke-width="4" />
    </g>
    <path d="m 1043.3055,347.19569 c -87.1151,5.59751 -155.69273,32.00039 -217.88057,125.15334 -1.58027,-38.16685 8.62633,-69.67763 29.50851,-99.09993 -22.80278,13.58579 -43.56094,35.10012 -64.23768,64.27916 28.13822,-162.23488 160.19721,-218.71031 261.58754,-153.52485 z" style="stroke-miterlimit:20;fill:#fffaad;stroke-width:8;stroke:#e8dc64" />
    <g>
      <path d="m 969.08478,544.56593 c 0.49112,61.21625 14.48389,111.43875 60.83572,140.46694 -11.0167,-20.5029 -18.219,-38.66298 -21.0848,-61.24134 14.5528,16.45339 27.2067,23.4097 43.9419,28.00298 -20.5797,-27.77244 -38.2536,-61.06003 -40.9032,-101.46247 z" fill="#fffaad" stroke="#e8dc64" stroke-width="8" />
      <ellipse cx="1106.0605" cy="102.3293" fill="#c2c5d5" rx="40.724052" ry="50.630466" transform="rotate(18.648843)" />
      <path transform="rotate(18.648843)" inkscape:original-d="m 1145.2768,88.632036 c 6.7178,28.105714 -9.4772,63.941274 -39.2163,64.327734 -28.2246,0.36678 -47.1287,-35.43223 -38.8971,-65.670563" inkscape:path-effect="#path-effect1118" />
      <ellipse cx="518.52898" cy="-874.68017" fill="#c2c5d5" rx="49.117239" ry="16.918757" transform="rotate(85.682774)" />
      <path inkscape:original-d="m 923.55063,424.06917 c 8.01175,29.18468 5.60272,74.68972 -8.52533,76.1139 -11.9505,1.20466 -20.13297,-30.94704 -20.87182,-50.93647" inkscape:path-effect="#path-effect1129" />
      <path d="m 895.26404,459.8365 c -17.5998,8.13418 -16.60894,11.30199 0.56611,4.63566 m 1.78528,8.25804 c -18.46857,10.77603 -17.07072,13.75645 1.21978,4.49053 m 2.78471,6.50228 c -15.95368,13.76426 -14.02575,16.60932 1.71802,4.22588" />
      <path d="m 928.72315,479.03517 c -11.46014,19.13477 -38.20617,13.78561 -35.32385,29.57904 7.62467,41.77865 86.36613,73.07935 164.6056,38.16318 z" fill="#c2c5d5" />
      <path d="m 911.62504,510.20313 c 3.88759,2.54441 6.75996,1.65369 7.62953,-2.88533 2.08865,7.68113 -3.41249,10.19113 -7.62953,2.88533 z m 4.35923,30.61822 c 18.75069,-2.57781 25.59139,-11.80235 27.28125,-26.07035 2.36949,15.08662 -1.27887,25.29757 -20.21793,31.20997 z" fill="#808aa7" />
      <path fill="#808aa7" inkscape:original-d="m 928.72315,479.03517 c -11.46014,19.13477 -38.20617,13.78561 -35.32385,29.57904 7.62467,41.77865 86.36613,73.07935 164.6056,38.16318" inkscape:path-effect="#path-effect1138" />
      <path d="m 1054.2108,462.18046 c 21.3155,9.25104 20.2969,12.15571 -1.2703,4.93983 m -4.0378,7.5095 c 21.5781,13.19774 20.0146,16.47692 -2.5417,4.11453 m -5.1735,6.30665 c 18.705,15.55803 16.8164,19.04786 -3.1582,3.7784" />
    </g>
    <g>
      <g>
        <path d="m 1212.9273,785.35951 9.6515,-30.2778 66.6104,-2.25178 5.4681,32.62123 z" fill="#636b77" />
        <path d="m 1709.611,880.02572 34.7964,-0.20706 20.2192,67.5631 -51.7703,-1.41671 z" fill="#ab7948" />
        <path d="m 1222.3963,843.4927 85.3168,-5.04468 c 6.5145,18.88364 15.1862,32.33487 31.0642,33.67806 l -70.0936,58.62746 c -22.6147,-22.72563 -34.4583,-53.16384 -46.2874,-87.26084 z m 493.2903,36.303 c 5.0144,20.13207 7.4177,43.71527 7.8764,66.23119 l -48.2725,0.84652 -0.6157,-64.76419 z" fill="#5b2740" />
        <path d="m 1734.6026,879.86013 c 13.6898,0.41315 26.863,1.56368 39.0213,3.62588 19.5888,18.00158 26.5797,42.51357 25.7921,66.70147 -15.8406,-1.57684 -31.3348,-2.84414 -46.7978,-3.66576 -2.3405,-22.95489 -8.1575,-44.86695 -18.0156,-66.66159 z m -513.8017,-120.42624 c 10.5603,-18.34541 32.7671,-30.30581 64.8248,-34.09111 1.3824,11.43263 2.7777,22.55308 4.1939,32.36761 z" fill="#e0dbc1" />
        <path d="m 1331.8601,870.52405 -71.6476,51.88283 c 32.0889,36.24052 74.123,39.50103 119.9658,10.32215 l -10.4927,-66.5375 c -12.0782,2.90248 -25.217,9.87 -37.8255,4.33252 z m 356.1409,10.47093 c 1.5187,22.32253 2.4733,43.21962 2.5791,65.07119 -101.295,14.39903 -52.0879,-23.88639 -115.678,-15.84061 l 7.3446,-72.31756 c 60.1232,-9.39958 22.6034,36.94035 105.7543,23.08698 z" fill="#f1b334" />
        <path d="m 1602.146,856.65808 -12.2483,72.80648 -52.1377,6.37442 -5.7374,-59.31483 c 29.4751,-12.28385 53.9569,-20.94909 70.1234,-19.86607 z m -308.566,-77.45336 c 3.317,22.88933 8.85,45.20668 16.4119,66.51438 l -85.2283,5.61471 c -7.2597,-24.74003 -10.9658,-45.5039 -10.614,-70.84904 z" fill="#d8524e" />
        <path d="m 1379.466,932.72241 c -58.5759,36.45957 -112.0246,22.26435 -142.6229,-50.84898 -41.0989,-98.20427 -28.2015,-147.44054 48.7826,-156.53065 19.1684,158.52475 40.8165,156.22285 86.1653,139.35665 174.4431,-52.52674 103.6987,36.97738 174.6154,6.55986 94.2964,-40.44545 60.2583,18.29944 117.4291,11.90878 37.4997,-4.19177 77.2734,-5.19702 109.7884,0.31794 19.5888,18.00158 26.5797,42.51357 25.7921,66.70147 -51.1576,-5.09242 -98.7015,-6.95645 -153.253,-1.00629 -39.2387,4.27992 -14.0941,-33.36836 -91.3026,-14.89305 -66.7294,15.96775 -84.9389,-57.86824 -175.3944,-1.56573 z" style="stroke-miterlimit:20;fill:none;stroke-width:6;stroke:#50192d" />
        <path d="m 1779.223,890.21713 75.5941,-6.77142 -80.2739,0.14271 z m 9.625,13.125 67.8441,-6.89642 -71.6489,-0.10729 z m 6.375,16 62.4691,-5.89642 -64.2739,-0.98229 z m 3.2928,17.85983 60.3838,-5.63815 -61.9386,-1.11556 z m 3.7947,16.28827 49.2825,1.03021 -51.9904,-8.06456 z" fill="#50192d" />
        <path d="m 1080.1814,676.71807 -3.3113,156.11943 c 12.1589,8.11493 26.6536,15.65991 39.3526,21.05243 l 8.6891,-163.23051 z" fill="#5b2740" />
        <path d="m 1077.7465,791.5159 -0.8764,41.3216 c 12.1589,8.11493 26.6536,15.65991 39.3526,21.05243 l 3.2732,-61.48849 z" fill="#d8524e" />
        <path d="m 1078.1873,757.51663 43.5503,2.24024 -1.4254,27.08739 -42.5577,-0.63002 z" fill="#f1b334" />
        <path d="m 1077.4453,800.12958 c 11.7719,6.38065 29.5263,8.1609 42.0343,3.59516 l 0.8326,-20.88048 -42.5577,-0.63002 z" fill="#7a753d" />
        <path d="m 1080.1814,676.71807 -3.3113,156.11943 c 12.1589,8.11493 26.6536,15.65991 39.3526,21.05243 l 8.6891,-163.23051 z" style="stroke-miterlimit:20;fill:none;stroke-width:6;stroke:#50192d" />
        <path d="m 1086.9045,840.08716 0.6696,46.68147 c 2.7887,-13.45524 5.2433,-29.93056 5.4206,-45.16342 z m -13.0647,-6.39899 -1.0305,48.59249 c 3.5726,-14.23989 6.5903,-31.84895 7.1466,-47.92595 z" fill="#50192d" />
      </g>
      <g>
        <path d="m 1518.3439,433.94899 c -51.6936,-2.21126 -91.8225,34.0016 -108.4889,96.16973 l 24.7215,24.82748 c 27.7241,-22.79539 75.445,0.49636 79.9596,59.02991 6.1625,-13.7816 7.726,-23.33622 8.5148,-36.67606 37.2216,42.77258 53.4138,91.04746 60.9126,147.37043 18.4248,-51.78616 22.5303,-94.89205 10.3058,-150.98833 12.9874,10.1795 23.6388,20.74753 32.7914,35.45212 4.8267,-63.20621 -23.8921,-110.45246 -75.8368,-127.14395 15.9128,-3.67569 31.9573,-4.01453 51.052,0.72992 -23.8426,-20.35293 -63.1866,-35.11656 -103.3686,-21.94949 5.0404,-9.96719 11.5818,-18.85635 19.4366,-26.82176 z" fill="#524226" />
        <path fill="#332919" inkscape:original-d="m 1486.7203,492.86652 c 5.7447,-23.89666 16.1288,-43.20444 31.6236,-58.91753 -51.6936,-2.21126 -91.8225,34.0016 -108.4889,96.16973 l 24.7215,24.82748 c 27.7241,-22.79539 75.445,0.49636 79.9596,59.02991 6.1625,-13.7816 7.726,-23.33622 8.5148,-36.67606 37.2216,42.77258 53.4138,91.04746 60.9126,147.37043 18.4248,-51.78616 22.5303,-94.89205 10.3058,-150.98833 12.9874,10.1795 23.6388,20.74753 32.7914,35.45212 4.8267,-63.20621 -23.8921,-110.45246 -75.8368,-127.14395 15.9128,-3.67569 31.9573,-4.01453 51.052,0.72992 -23.8426,-20.35293 -63.1866,-35.11656 -103.1196,-21.92472" inkscape:path-effect="#path-effect888" />
      </g>
      <g>
        <path d="m 1034.4573,596.75366 c -8.5013,-25.10444 1.603,-54.33036 33.4146,-53.93704 9.2228,24.13083 -5.0372,50.65195 -33.4146,53.93704 z" fill="#e0dbc1" />
        <path d="m 1313.486,338.78248 c 2.8862,48.15399 -7.6858,91.55297 -32.083,122.90723 2.9536,-18.39957 2.6179,-34.73782 -1.8246,-53.52517 -4.881,43.03789 -19.3428,60.48835 -54.5871,80.26805 l -7.938,-174.1138 c 14.5337,-62.07746 104.3712,-42.39864 96.4327,24.46369 z" style="stroke-miterlimit:20;fill:#524226;stroke-width:8;stroke:#332919" />
        <path d="m 1075.5049,459.49688 c -2.4145,13.5211 8.3009,23.38167 13.0977,11.66592 4.0742,-9.95103 -1.5353,-12.2227 -13.0977,-11.66592 z m 161.8938,-40.7109 c 37.0166,2.8645 35.58,33.43312 11.169,48.13385 -10.3111,-10.07127 -14.5312,-24.35051 -11.169,-48.13385 z" fill="#636b77" />
      </g>
      <path d="m 1104.7014,658.20434 c 6.1977,113.79724 -3.8634,202.53412 -42.3357,302.26859 -8.8308,22.8925 134.4148,24.97379 136.6425,2.05675 9.4711,-97.43068 -3.9798,-203.82699 -33.1031,-296.19755 z m 305.6099,71.83088 c 39.7781,68.76344 62.7954,148.97622 66.4941,240.99415 0.8509,21.1696 -138.8841,20.86024 -130.0545,-3.17598 31.8814,-86.78848 12.0466,-152.89831 -55.8933,-258.9131 z" fill="#af9a66" stroke="#98824c" stroke-width="8" />
      <path d="m 1091.7889,460.96684 c -29.4265,-2.17814 -64.6342,-8.33308 -108.9354,-17.64316 l -27.2818,-83.36282 c 25.0259,-18.50784 41.1665,-38.51809 54.7361,-73.57644 54.4627,-140.70923 266.6616,-105.74626 240.4124,57.38635 -8.3167,51.68601 -27.5738,140.53381 -22.1186,199.0161 102.5699,-59.85724 216.9436,-47.88853 230.9754,46.7959 14.0318,94.68443 -10.7605,138.94736 -2.9356,156.54097 3.3863,7.61384 22.9069,-10.40649 30.7931,1.55501 45.6517,69.24302 80.8076,149.81291 97.1569,237.51457 4.2465,22.77908 -128.1297,22.93898 -126.8079,1.90568 5.6045,-89.18638 -16.6006,-144.90039 -99.6149,-260.99477 -265.5754,83.74033 -350.092,-48.28299 -266.3797,-265.13739 z" fill="#bfaa7a" />
      <g transform="rotate(171.9952 676.28994 351.76439)scale(1.8796754-1.8796754)">
        <path d="m -12.8,27 c -11.1,-16.6 9.6,-19.15 9.6,-26.8 0,-7.65 -21.9,-10.5 -5.4,-26.6 h 20.1 c 12.7,20.6 -7.6,19.3 -7.6,26.8 0,7.5 20.9,7 10.7,26.9 z" fill="#bae9fa" />
        <path d="m -10.7,26.1 c -8.4,-18.2 10,-16 10,-24.9 0,-7.6 -10.2,-9.5 -10.8,-18.9 0,0 10.9,-2.1 22.9,0.6 -1.5,10 -9.7,10.1 -9.7,17.4 0,10.3 17.1,8.2 10.1,25 z" fill="#e2d678" />
        <ellipse cx="-14.5" cy="-11.5" fill="#f6f5eb" rx="3.2" ry="3.7" transform="rotate(30)" />
        <ellipse cx="5.6999998" cy="14.5" fill="#f6f5eb" rx="3.0999999" ry="3.5" transform="rotate(56)" />
        <g clip-path="url(#G)">
          <path d="m 16.9,-21.6 c 0,0 -15.8,-3 -31.8,-1.3 v -9.2 c 0,0 13.2,-2.9 31.8,2 z m 3,45.8 c 0,0 -28.5,-0.1 -39.8,1 l 1,7.4 c 0,0 24.3,0.7 37.6,-0.1 z" fill="#f2e257" id="H" />
          <path d="m -6.9,-22.3 c 0,0 -4.4,-4.5 -1.1,-11 h 11 c 0,0 -4,6.1 -0.6,11.2 z m -2.9,46.3 c 0,0 -3.7,5.1 0.5,9.6 h 10 c 0,0 -4.3,-3.7 0.2,-9.8 z" fill="#f7ec9b" />
        </g>
      </g>
      <path d="m 1091.9913,460.95712 c -83.9147,216.86412 0.6019,348.88744 266.1773,265.14711" fill="none" stroke="#98824c" stroke-width="8" />
      <g>
        <path d="m 1155.7714,686.1634 c 13.6578,113.79724 9.4769,203.49329 -22.4572,303.22781 -7.33,22.89249 136.4192,24.10249 137.1626,0.61798 3.0842,-97.43069 -17.79,-203.34744 -52.9688,-295.718 z" fill="#bfaa7a" />
        <path fill="#98824c" inkscape:original-d="m 1155.7714,686.1634 c 13.6578,113.79724 9.4769,203.49329 -22.4572,303.22781 -7.33,22.89249 136.4192,24.10249 137.1626,0.61798 3.0842,-97.43069 -17.79,-203.34744 -52.9688,-295.718" inkscape:path-effect="#path-effect854" />
      </g>
      <path fill="#98824c" inkscape:original-d="m 1196.9522,438.85231 c -46.508,31.48263 -100.3028,28.38603 -214.0987,4.47137 l -27.2818,-83.36282 c 25.0259,-18.50784 41.1665,-38.51809 54.7361,-73.57644 54.4627,-140.70923 266.6616,-105.74626 240.4124,57.38635 -8.3167,51.68601 -27.5738,140.53381 -22.1186,199.0161 102.5699,-59.85724 216.9436,-47.88853 230.9754,46.7959 14.0318,94.68443 -10.7605,138.94736 -2.9356,156.54097 3.3863,7.61384 22.9069,-10.40649 30.7931,1.55501 45.6517,69.24302 80.8076,149.81291 97.1569,237.51457 4.2465,22.77908 -128.1297,22.93898 -126.8079,1.90568 5.6045,-89.18638 -16.6006,-144.90039 -99.6149,-260.99477 -27.7974,-38.87422 -42.5741,-76.72454 -49.6009,-118.50184" inkscape:path-effect="#path-effect1023" />
      <g>
        <path d="m 1266.1771,565.47222 c -7.8334,9.48972 -74.3132,57.71877 -104.0505,37.83892 -30.7749,-20.57354 11.8571,-59.01498 70.7548,-59.00751 8.9927,-27.91663 52.3498,-4.73135 33.2957,21.16859 z" fill="#636b77" />
        <path fill="#50192d" inkscape:original-d="m 1210.5183,574.6742 c 12.1092,-8.8575 18.6161,-18.73812 22.3631,-30.37057 8.9927,-27.91663 52.3498,-4.73135 33.2957,21.16859 -7.8334,9.48972 -74.3132,57.71877 -104.0505,37.83892 -30.7749,-20.57354 11.8571,-59.01498 70.7548,-59.00751" inkscape:path-effect="#path-effect943" />
        <path d="m 1029.8393,637.71912 c -7.5049,-16.87785 -6.5916,-38.39665 1.8447,-56.90874 21.3283,14.88021 21.2895,48.00475 -1.8447,56.90874 z m 133.5877,-98.7212 c 14.7754,-12.77752 35.2169,-25.5672 67.7847,-35.84684 l 20.4618,35.05278 c -36.505,16.08596 -55.864,44.11786 -75.9147,69.96274 z" fill="#e0dbc1" />
        <path d="m 1173.7731,530.22846 c 14.1979,8.62356 19.5695,37.68959 14.9582,60.84402 -19.8939,26.77552 -37.6322,52.09875 -68.5212,66.53505 -39.4548,-7.3154 -95.3682,-41.73515 -88.3204,-84.85947 6.9706,-13.79577 17.6556,-16.47302 25.3098,-3.71506 0.8736,21.18659 14.0192,29.2938 35.9138,26.32793 35.6483,-4.82897 41.8187,-36.52974 80.6598,-65.13247 z" fill="#f1b334" />
        <path d="m 1118.9401,624.03848 c 6.5735,6.85193 11.5776,19.52626 11.2704,29.23519 -36.209,16.57856 -68.4167,21.48402 -92.5565,-2.68061 l 15.5185,-28.27811 c 22.3207,15.37176 44.0903,11.12398 65.7676,1.72353 z" fill="#d8524e" />
        <path d="m 1046.7797,617.79958 c 0.6785,-18.20766 5.8972,-27.00837 15.5913,-31.52233 8.0855,9.86819 17.5344,11.76673 29.9705,9.02255 10.5082,8.63641 17.5988,18.75802 16.4951,33.241 -16.1258,4.5566 -30.0426,5.79436 -46.4924,-0.98507 -9.4677,6.961 -16.1029,17.74234 -16.9396,30.11781 -8.7062,-7.63293 -15.7519,-17.1515 -19.303,-29.56079 2.4221,-11.3957 5.5935,-19.33853 11.0547,-24.48845 z" fill="#636b77" />
        <path fill="#50192d" inkscape:original-d="m 1168.1651,579.45872 c -23.2466,13.17558 -33.6006,54.96757 -87.3091,52.52941 -58.1686,-2.64064 -67.7813,-89.84903 -12.9841,-89.17151" inkscape:path-effect="#path-effect873" />
        <path fill="#50192d" inkscape:original-d="m 1057.1324,561.60101 c -1.6201,27.75232 12.5061,37.48692 35.9703,33.41513 51.5668,-8.94851 41.6447,-61.4173 138.109,-91.86506 l 20.4618,35.05278 c -70.0231,30.85578 -76.9593,105.66566 -146.7023,124.68222 -72.0652,19.64974 -92.8007,-39.25625 -73.2872,-82.0757" inkscape:path-effect="#path-effect875" />
        <path d="m 1069.3528,533.91976 c -1.2787,5.66609 -2.4141,11.24754 -3.4057,16.74114" fill="none" stroke="#98824c" stroke-width="8" />
        <path d="m 1251.0412,464.93331 c 1.716,-1.39113 3.3725,-2.776 4.9638,-4.14984 l -10.4368,-31.27618 c -10.5888,10.85818 -21.6135,20.04897 -32.73,27.70232 l 12.6486,26.00715 -20.2623,11.80677 6.0835,31.54184 c 29.3516,-19.38888 53.3749,-47.62895 39.7332,-61.63206 z" fill="#636b77" />
        <path d="m 1055.0084,521.66837 c -11.7299,-16.56291 -13.0146,-34.26738 4.3385,-41.06517 -4.0853,-8.01858 -6.0467,-17.82678 0.029,-23.18427 l 18.1289,1.95701 c -3.5898,5.72079 -1.2402,13.28588 2.5654,16.35421 z" fill="#7a753d" />
        <path d="m 1076.7993,462.47845 c -10.9507,2.13961 -16.009,10.89029 -10.2998,32.70846 -7.943,1.47764 -14.3293,9.14548 -14.5283,21.31491 5.518,10.49264 15.0306,18.63562 24.327,25.97966 l 10.7507,-63.60653 c -7.5535,-2.51781 -13.3193,-7.92481 -10.2496,-16.3965 z" fill="#f1b334" />
        <path d="m 1181.0328,507.01589 30.7932,-15.4827 9.2617,28.44112 -34.373,20.41115 z m -100.9626,-31.28574 c -1.5052,10.0081 -1.0118,19.13306 1.1125,28.66899 10.3341,6.48566 21.2897,10.26063 32.9745,12.24372 l 5.2842,-28.83806 c -14.461,-1.5733 -27.6231,-5.52783 -39.3712,-12.07465 z" fill="#5b2740" />
        <path d="m 1224.9304,448.30677 c 10.7793,1.41105 15.6992,12.11316 11.5524,27.48752 -15.142,10.18921 -30.9108,19.59503 -47.8575,27.52838 l -8.3533,-28.11803 c 17.3137,-7.61729 31.3779,-17.03991 44.6584,-26.89787 z m -142.6286,56.51638 c -7.4215,6.67303 -11.516,20.84863 -8.8831,36.56777 16.4901,10.46616 34.3225,15.56309 53.5255,15.17752 l 4.1603,-38.13881 c -18.3651,0.52667 -34.3095,-4.05674 -48.8027,-13.60648 z" fill="#d8524e" />
        <path d="m 1122.0929,517.59306 c -7.1821,10.43707 -8.5281,23.8049 -2.2704,39.10019 21.3038,-1.20793 48.5171,-6.3019 71.464,-19.06821 3.722,-12.91261 2.6463,-24.63323 -4.7665,-34.0241 -24.1055,12.55089 -46.5105,16.56317 -64.4271,13.99212 z" fill="#ab7948" />
        <path d="m 1111.8631,487.59493 c -5.5813,6.35106 -5.761,17.92355 -3.7263,28.60574 27.513,5.84126 48.3523,1.34571 87.2117,-15.87284 -0.3601,-10.54123 -4.1981,-20.23876 -10.1326,-27.36022 -24.5508,11.23002 -48.7249,18.77036 -73.3528,14.62732 z" fill="#e0dbc1" />
        <path fill="#50192d" inkscape:original-d="m 1073.1643,496.59571 c 12.6768,14.03689 34.0569,21.62301 57.9489,21.8006 37.8026,0.28099 93.8007,-30.77013 124.8918,-57.61284 21.981,-18.97739 6.6367,-40.49735 -20.1091,-41.43171" inkscape:path-effect="#path-effect1131" />
        <path fill="#50192d" inkscape:original-d="m 1245.5682,429.50729 c -51.1653,52.46712 -112.5098,66.00325 -145.1987,55.2682 -21.7444,-7.14087 -27.6963,-12.62092 -22.8647,-25.39955" inkscape:path-effect="#path-effect1133" />
        <path d="m 1250.9952,464.87162 c 22.0531,24.73843 -60.4134,91.81094 -132.1108,91.28708 -51.2983,-0.37481 -95.5481,-61.44896 -59.5375,-75.5555 -4.0853,-8.01858 -6.0467,-17.82678 0.029,-23.18427" style="fill:none;stroke-linejoin:round;stroke-width:6;stroke:#50192d" />
        <path d="m 1083.7051,460.30497 c -10.7736,-1.02455 -22.3382,-2.54144 -34.8335,-4.51417 m 190.3741,-45.48947 c -0.8718,5.23964 -1.7334,10.55316 -2.5697,15.91177" fill="none" stroke="#98824c" stroke-width="8" />
        <path d="m 1200.7341,505.54543 c 0,-22.09306 85.767,-43.07311 106.9437,-21.11039 21.1837,21.97002 15.5323,63.64853 -25.2174,78.242 -32.112,11.50007 -81.7263,-30.21811 -81.7263,-57.13161 z" style="stroke-miterlimit:20;fill:#c2c5d5;stroke-width:8;stroke:#808aa7" />
        <path d="m 1223.8972,505.21074 c 24.7715,0.76913 47.9362,16.02668 54.1467,39.49967 1.2738,-25.59238 -26.4687,-46.55425 -54.1467,-39.49967 z" fill="#808aa7" />
      </g>
      <g>
        <path d="m 1303.1824,335.11269 c 14.5321,19.76416 22.6832,38.6366 28.0241,63.49544 13.1738,-67.68451 11.5597,-122.64986 -24.4403,-170.90085 11.1014,6.69548 20.4631,14.37295 29.834,23.35367 -17.0978,-43.53249 -42.9343,-67.59243 -92.7044,-86.91026 16.8724,-3.0088 34.2773,-2.29558 53.1368,2.12844 -32.0607,-24.98267 -79.6255,-31.2848 -130.1533,-28.19461 18.0939,-18.55242 40.9077,-31.56136 62.9051,-39.634739 -43.2265,-12.612221 -88.343,-3.771734 -125.9062,40.243259 2.1417,-13.61082 7.005,-27.47489 17.6249,-40.534599 -33.8251,18.175809 -58.1107,51.678739 -71.1545,93.006959 -1.6363,-16.32874 -1.4376,-33.64013 0.3429,-49.62975 -27.4266,34.68322 -35.3263,88.82278 -13.7986,122.30643 74.1575,-78.27632 235.6537,-55.7176 213.8273,79.92869 z" fill="#524226" />
        <path clip-path="url(#clipPath954)" fill="#332919" inkscape:original-d="m 1153.6069,154.37242 c 18.9391,-27.42562 48.2177,-45.66098 76.1775,-55.922639 -43.2265,-12.612221 -88.343,-3.771734 -125.9062,40.243259 2.1417,-13.61082 7.005,-27.47489 17.6249,-40.534599 -33.8251,18.175809 -58.1107,51.678739 -71.1545,93.006959 -1.6363,-16.32874 -1.4376,-33.64013 0.3429,-49.62975 -29.9383,37.85949 -36.6094,98.90211 -7.2966,130.84396" inkscape:path-effect="#path-effect918" />
        <path fill="#332919" inkscape:original-d="m 1303.1824,335.11269 c 14.5321,19.76416 22.6832,38.6366 28.0241,63.49544 13.1738,-67.68451 11.5597,-122.64986 -24.4403,-170.90085 11.1014,6.69548 20.4631,14.37295 29.834,23.35367 -17.0978,-43.53249 -42.9343,-67.59243 -92.7044,-86.91026 16.8724,-3.0088 34.2773,-2.29558 53.1368,2.12844 -32.0607,-24.98267 -79.6255,-31.2848 -130.2945,-28.17913" inkscape:path-effect="#path-effect920" />
        <path d="m 1031.3078,270.38442 c 71.0351,-85.93714 241.8185,-65.8625 219.4124,73.38635" style="fill:none;stroke-width:8;clip-path:url(#clipPath950);stroke:#98824c" />
        <path d="m 1219.079,275.78481 c -2.9336,-62.44054 22.6874,-101.30465 33.7611,-99.19538 14.2429,2.71295 84.7311,90.33538 -19.6704,209.50321 z" fill="#bfaa7a" />
        <path fill="#98824c" inkscape:original-d="m 1219.079,275.78481 c -2.9336,-62.44054 22.6874,-101.30465 33.7611,-99.19538 14.2429,2.71295 84.7311,90.33538 -19.6704,209.50321" inkscape:path-effect="#path-effect823" />
        <path d="m 1260.6247,232.44543 c 0.4879,33.06776 -2.89,57.07453 -13.5651,87.13283 15.9708,-26.65836 19.15,-56.28415 13.5651,-87.13283 z" fill="#98824c" />
      </g>
      <g>
        <ellipse cx="1138.6752" cy="-293.62021" fill="#bfaa7a" rx="48.102497" ry="62.680603" transform="rotate(31.500409)" />
        <path transform="rotate(31.500409)" inkscape:original-d="m 1184.5886,-312.36998 c 9.1971,38.97636 -12.1897,80.92748 -45.9134,81.43037 -32.8203,0.48942 -51.5153,-40.8818 -47.791,-69.85266" inkscape:path-effect="#path-effect839" />
        <path d="m 1005.0679,377.27392 c 5.284,0.63805 8.222,-1.29133 8.222,-7.64978 3.8236,9.20205 -1.6164,14.34928 -8.222,7.64978 z m -36.17846,26.21523 c 38.38866,9.89664 55.93516,6.56913 69.08266,-13.51465 -7.8968,22.75674 -24.472,31.23082 -68.00363,19.54775 z" fill="#98824c" />
      </g>
    </g>
  </g>
</svg>