<svg xmlns="http://www.w3.org/2000/svg" xmlns:inkscape="http://www.inkscape.org/namespaces/inkscape" xmlns:xlink="http://www.w3.org/1999/xlink" height="1080" viewBox="0 0 1920 1080" width="1920">
  <defs>
    <clipPath id="clipPath1167">
      <use xlink:href="#path1146" />
    </clipPath>
  </defs>
  <g inkscape:groupmode="layer" inkscape:label="Drawing">
    <ellipse cx="976.24139" cy="792.29999" fill="#94b1b4" rx="602.72406" ry="238.24794" />
    <ellipse cx="973.48212" cy="614.56812" fill="#adcdd2" rx="769.70813" ry="390.05582" />
    <ellipse cx="966.81555" cy="598.56812" fill="#92bac1" rx="690.5799" ry="362.51767" />
    <path d="m 1228,329 65.3333,120.66667 45.6667,-18.33334 -47.6667,-99.66666 z m 80.9119,293.97331 c 26.149,-36.30649 48.8439,-67.17867 78.1387,-95.5166 l 61.5755,36.35534 -89.5669,140.24284 z m -239.7166,208.49809 85.6666,-65.31658 167.4714,28.17851 -102.6666,94 z M 373.94223,681.84863 C 415.0803,622.85437 483.73042,545.83743 525.06375,535.17076 L 773.58701,632.5366 591.25397,795.07066 Z" fill="#874c2c" />
    <g>
      <path d="m 759.82149,221 c 50.26433,-37.52597 101.49692,-62.12657 164.51184,-75.33333 l -24.66666,67 -114.33334,29 z" fill="#dd953d" />
      <path d="m 379.18601,346.80349 c 100.76998,-108.8939 152.68463,-138.03806 197.83761,-148.97435 56.30363,-13.63703 170.06281,-5.91033 261.60503,28.12394 L 771,350 C 729.59424,334.00175 679.85936,339.27044 627.46566,334.5286 L 465.33334,454 310.66667,546.33334 c -49.85559,-78.16856 32.20466,-130.00202 68.51934,-199.52985 z" fill="#be7027" />
      <path d="m 681.16667,261.5 13.5,-5.5 93.83333,15.16667 -5.16666,30.5 C 748.66773,286.99787 712.35866,279.11603 681.16667,261.5 Z M 436,343.83333 C 463.66666,325.5 497.16667,305.83333 497.83334,292 465.00001,301.83333 447.33333,312.83333 436,343.83333 Z" fill="#ad631f" />
      <path d="m 692.80473,306.2357 32.66667,103 -57.80473,100.09763 C 633.09451,492.75427 615.3296,450.08307 604.17851,399.91912 L 528,467.66667 l -91.80474,3 c 15.33333,-56.33333 99.20971,-178.54046 127.13807,-188 45.50898,-15.41422 93.05719,-8.78105 129.4714,23.56903 z" fill="#f39e3e" />
      <path d="m 626.5538,310.43906 c 39.33804,-19.55117 78.79243,19.35856 90.45248,97.8095 l -16.49916,21.4489 z" fill="#e9ae63" />
      <path d="m 661.28833,457.36144 c -17.10947,14.88511 -66.14379,-99.78569 -50.71929,-103.93047 9.1968,-2.47131 22.56903,15.90236 34.43096,40.40236 z" fill="#c58233" />
      <path d="m 340.7643,585.13807 c 38.09475,-91.31371 100.96199,-145.19874 120.13807,-151.43097 36.80755,-11.96245 121.77411,21.29291 176.5286,70.72386 l 86.08522,-68.19516 c 40.31351,48.47199 40.90602,83.35035 -126.48236,126.16204 L 488.61079,538.1205 c -44.85523,29.66839 -85.86425,53.27266 -123.68649,85.85282 z" fill="#cb8347" />
      <path d="M 495.33333,655.66666 C 500.66666,605.11438 532.10879,564.50507 541,542.33333 567.33334,476.66667 661.03349,478.5286 742.41421,508.5286 Z" fill="#dd953d" />
      <path d="m 569.62129,597.71968 c -57.68564,28.64193 -109.54682,60.15428 -164.05164,96.70492 l 55.15432,44.10695 C 540.0261,705.56894 603.59245,660.16742 666.89932,612.26909 l 82.35773,50.1237 173.2816,-54.74012 -7.54247,-20.27039 c -156.33333,-71 -274.49026,-99.55368 -345.37489,10.3374 z" fill="#be7027" />
      <path d="m 796.43794,643.95082 c -18.80677,-22.4044 -7.20795,-54.48107 25.79205,-87.64774 l 88.05214,35.79324 2.59273,11.54941 z" fill="#bc7c2e" />
    </g>
    <g>
      <path d="m 1120.0357,571.73239 c 45.0875,44.62868 90.3853,89.21532 137.8695,133.36467 l 83.4679,-34.4929 c 7.494,-47.03143 -52.0651,-131.98248 -155.1725,-152.65564 z" fill="#dd953d" />
      <path d="m 1039.6015,592.37189 24.5493,90.70348 166.9021,38.76217 -89.8946,-112.15188 -12.4038,-43.41364 z" fill="#bc7c2e" />
      <path d="m 1057.1737,600.38274 c 19.5102,24.93699 37.9869,26.61669 33.9815,-12.53311 z" fill="#ad631f" />
      <path d="m 1158.2136,563.17105 c 1.2921,28.16718 55.8877,67.67455 102.1052,92.7708 8.5985,4.66901 22.5766,-15.6943 11.0752,-36.30694 -15.9346,-28.55771 -62.3247,-53.6034 -113.1804,-56.46386 z" fill="#ad631f" />
      <path d="m 1292.6082,253.77289 c 152.0718,-61.09297 205.2761,-42.9645 284.9265,86.18427 -163.6072,64.95247 -187.1176,52.11123 -284.9265,-86.18427 z" fill="#be7027" />
      <path d="m 1313.0735,430.22412 -26.3126,-74.00429 -59.5689,-15.89722 -89.9651,-107.38228 c 44.6081,-19.87872 71.8388,-29.62934 93.7311,-28.88011 39.8855,1.365 107.4922,46.84401 190.9257,166.16847 z" fill="#cb8347" />
      <path d="m 1214.3255,309.55803 c 22.1337,3.79293 36.9858,8.1344 59.0742,15.67165 11.9893,4.09114 17.5746,-14.94992 20.6458,-39.38177 -39.6964,-34.89764 -107.236,-12.22051 -107.236,-12.22051 z" fill="#ad631f" />
      <path d="m 1694.4237,517.69009 c 44.0447,-189.03149 -45.6733,-198.34512 -232.0876,-207.00065 -36.8199,23.08563 -57.8962,53.19508 -70.7428,93.66374 z" fill="#dd953d" />
      <path d="m 1509.1392,333.01355 c 61.0307,-4.38544 149.3953,18.17273 161.8958,56.64525 9.7522,30.0143 -6.5644,30.95574 -19.1435,11.17849 -7.0028,-11.01015 -19.2911,-23.53897 -32.2134,-30.42748 -45.7409,-12.18602 -104.1121,-19.85989 -110.5389,-37.39626 z" fill="#e9ae63" />
      <path d="m 1315.147,428.41939 c 22.8408,-18.45539 94.6221,-52.70495 131.7156,-69.88126 47.161,8.26751 91.5391,28.8615 132.5413,52.35803 -54.0539,14.42305 -98.9797,38.37112 -137.1927,69.32384 -32.613,-29.73633 -77.5488,-49.71524 -127.0642,-51.80061 z" fill="#f39e3e" />
      <path d="m 1415.2069,392.48829 c -1.1628,12.79151 14.2158,20.07891 25.2182,17.21823 67.2377,-17.48218 62.3694,-32.72846 48.42,-32.57285 -21.2198,0.23671 -39.6833,3.49746 -73.6382,15.35462 z" fill="#e9ae63" />
      <path d="m 1492.6667,521.83333 c 26.3333,-12.33333 71.1666,-4.5 75,42.33334 29.7367,22.16936 52.8604,65.85034 55.4999,108.83333 58.9256,-36.06245 96.0119,-91.46853 92.362,-122.4714 -4.2035,-35.70485 -78.5636,-135.72364 -118.3905,-141.86193 -20.7246,-3.19417 -83.2138,0.35871 -161.3738,71.66666 z" fill="#be7027" />
      <path d="m 1586.931,483.38215 c 36.6095,5.6297 108.1262,34.14297 109.9023,49.11785 1.4756,12.44054 -6.8368,49.12622 -15,49.5 -6.0452,0.2768 -15.4866,-16.07928 -40.1435,-42.40786 -17.0503,-18.20622 -69.1962,-4.15221 -54.7588,-56.20999 z" fill="#ad631f" />
      <path d="m 1247.1831,849.88886 c 41.5363,-7.69106 78.2234,-20.39566 98.3169,-49.63886 154,-77.25 172.1716,-159.12868 163.0858,-269.93934 43.7226,13.14466 73.2771,36.69501 96.9081,69.16495 29.9607,41.16716 28.1732,142.07334 15.8848,167.24166 -28.2758,57.91312 -113.0052,106.6546 -215.9467,146.32018 z" fill="#dd953d" />
      <path d="m 1320.041,862.10801 c 64.8951,-21.08572 129.3385,-71.29774 159.0496,-107.37713 l 20.3293,-12.37437 C 1518.6186,709.20349 1523.1208,670.07783 1517.5,635.5 l -220.1358,159.88952 c -19.207,17.23778 -39.2734,33.83105 -62.2255,48.26004 z" fill="#e9ae63" />
      <path d="m 1603.1879,690.73771 c 7.6013,-79.5495 -33.9412,-79.01918 -39.2445,-7.42461 6.8729,14.53122 7.0052,27.19571 3.1302,47.78148 -5.6569,30.05203 22.8764,29.75441 36.1143,-40.35687 z" fill="#c58233" />
      <path d="m 1286.6457,425.69455 c 93.1998,-10.2058 137.8305,27.50844 169.0618,59.55911 21.3232,17.2625 43.9474,34.11614 62.8117,48.97497 9.3605,47.01381 10.3256,104.26032 -0.5169,154.74594 -42.6048,58.95578 -78.9474,92.86082 -168.9273,120.67956 -90.6687,2.95623 -179.4182,-13.88373 -259.858,-43.3693 l -32.7231,-98.3267 46.2143,-8.51701 c 50.7467,18.91645 109.3134,35.09382 158.6755,39.83866 80.0904,-36.7954 151.2332,-79.96814 160.7469,-131.60865 -53.1804,-38.66637 -89.5979,-63.84207 -137.628,-74.57474 z" fill="#cb8347" />
      <path d="m 1433.232,672.80939 c 33.1974,-10.20134 35.7787,2.45038 28.055,18.90418 -7.5976,16.18535 -83.2622,60.23862 -122.4733,60.23862 -31.11,0 -26.0338,-27.94931 6.9287,-37.2999 54.1121,-15.35014 71.6649,-23.4081 87.4896,-41.8429 z m 42.7023,-72.42665 c -8.1401,-35.40279 -19.1227,-52.19973 -44.3181,-64.73283 l 10.7242,-16.28011 c 41.4755,19.89791 51.6829,40.82948 33.5939,81.01294 z" fill="#ad631f" />
      <path d="m 1212.0257,513.91291 90.8152,58.47252 c 2.3754,-44.21984 -4.1828,-79.03426 -33.419,-104.79872 z" fill="#f39e3e" />
      <path d="m 1269.7803,471.79331 c 7.1064,22.9539 16.6248,58.97908 29.7715,54.23307 10.9914,-3.96794 -4.3542,-38.57453 -20.0136,-64.45965 z" fill="#e9ae63" />
    </g>
    <g>
      <path d="M 940.98235,751.19535 C 960.73235,767.69535 968.25,783.25 961,816 l 119.8535,35.81066 c 17.9126,-50.869 24.3956,-100.49995 7.2666,-141.45142 -18.9616,-45.33318 -54.2896,-87.53638 -118.50818,-130.7911 -77,7.75 -155.69827,57.11144 -188.19827,60.61144 -88.25,1.75 -151.17619,46.22592 -185.92619,122.47592 l 117.57643,65.61449 c 42,-73.75 81.88582,-86.26882 132.63582,-121.26882 z" fill="#f39e3e" />
      <g clip-path="url(#clipPath1167)">
        <path d="m 379.18601,346.80349 c 33.61621,12.10883 41.58053,32.60301 37.12311,58.33631 -36.59798,26.91044 -70.73273,70.38336 -104.82859,109.17478 l 115.25841,190.3885 c 169.48075,29.24138 249.12646,74.44811 263.39728,125.56691 25.22487,49.24747 -108.95474,88.56675 -149.20474,21.06675 C 478.3405,840.17188 419.76972,823.28647 364.6171,794.78597 L 332.75,717.25 C 275.61704,649.06318 235.30613,573.74232 215.20711,485.85355 235.7088,440.40164 257.03337,404.60229 279,371 c 33.65629,-10.15316 67.1901,-19.32642 100.18601,-24.19651 z" fill="#dd953d" id="path1146" />
        <path d="m 322.38003,453.97306 c -15.6701,-9.78022 43.72451,-79.66563 56.45243,-71.5339 12.09811,7.72935 -40.38908,81.55957 -56.45243,71.5339 z m 318.08194,346.36621 c 8.08133,1.61867 7.94759,12.68533 -8.11611,12.08668 -28.46105,-1.06067 -47.37506,-61.40738 -172.89282,-61.58416 -24.14586,-0.034 -52.33631,-15.73312 -93.87884,-83.61537 -6.45785,-10.5524 -0.12965,-25.02845 17.67767,-7.30331 21.52997,21.4306 41.54253,49.55294 63.81639,68.99837 158.74547,10.96016 162.43024,65.21589 193.39371,71.41779 z" fill="#e9ae63" />
        <path d="m 223,458.5 c -7.75,62.75 24.58055,83.81487 49.25,148.25 16.75,43.75 58.43134,87.56165 46,27.75 -13.59047,-65.38864 -69,-94.25 -53.25,-181.5 8.45259,-46.82468 4.5,-62.75 -11.25,-75.25 z m 290.75,330.75 c 67.28756,-0.68554 59.38241,61.00277 31.14645,50.07322 -65.78984,-25.46588 -61.57437,-40.00051 -128.18934,-47.67678 -40.74463,-4.69514 -45.67967,-47.67529 -6.60991,-40.42272 29.96583,5.56259 78.46512,38.2829 103.6528,38.02628 z" fill="#c58233" />
      </g>
      <path d="m 948.22386,604.06904 c 42.79683,35.53845 87.83584,100.25689 116.82494,158.76429 5.5673,11.23633 12.1672,2.58129 9.9546,-7.61438 C 1056.895,671.77396 1009.6667,617.5 955.33333,593.5 c -14.18413,-6.26538 -20.0321,-0.1619 -7.10947,10.56904 z" fill="#e9ae63" />
      <path d="M 967.66666,680.33333 910.33333,660.5 l -5.04881,12.45118 c -0.7357,33.06904 39.54882,9.38216 59.54881,46.21549 20.2279,37.25304 29.24822,51.97653 37.61517,49.12933 12.6168,-4.29336 -14.39744,-66.54868 -34.78184,-87.96267 z" fill="#ad631f" />
      <path d="m 781.0601,792.20754 c -77.42819,-67.88225 -174.71602,-2.82844 -79.96373,113.49064 32.42834,39.80943 166.57406,79.3546 197.92925,74.89266 48.01535,-6.83274 103.03048,-35.08758 137.94648,-58.06855 l -9.8995,-44.75483 z" fill="#be7027" />
      <path d="m 998,893.5 c -27.5,38.25 -73.31991,30.24939 -101.25,8 -44.25,-35.25 -104,-8 -154,-66.75 l -11.25,0.75 -8.75,19.5 c 10.0917,25.83125 51.24633,32.73377 87.63707,49.10598 L 878.5,934.75 c 28.19675,12.68573 83.25,22.25 124.5,-39.5 z" fill="#90551c" />
      <path d="M 1405.432,913.03745 C 1240.3218,976.65797 1035.6836,1026.6275 987.5,887 833.19367,871.02411 789.63953,855.93458 775.65452,821.84157 c -13.66252,-33.30682 18.10529,-74.96515 70.04519,-114.8404 40.19236,-14.98503 77.56381,-3.21469 95.28264,44.19418 -4.75333,11.26657 -11.3964,23.16706 -10.78338,35.88567 37.12311,12.02082 80.40273,10.27469 114.87423,16.81543 43.4268,48.95554 81.1357,58.23611 202.1099,45.99241 55.6308,10.77373 117.1102,34.88501 158.2489,63.14859 z" fill="#dd953d" />
      <path d="m 1102,936.25 c 60,-24.75 127.9123,-15.60575 291.25,-56.75 0.8953,55.78202 -198.9167,69.25 -283.5,65.75 z" fill="#c58233" />
      <path d="m 810.52115,795.5663 c 27.22361,15.73313 48.61359,12.55115 87.32769,34.64823 0.875,7.25 -0.8413,11.92005 -8.01041,12.6547 -50.02781,5.12654 -97.11609,-27.28597 -97.40028,-47.3207 -0.39206,-27.63948 39.22297,-51.9509 37.17488,-26.49874 -1.15884,14.40122 -18.708,4.11612 -19.09188,26.51651 z m 424.61755,48.08326 c -98.098,20.67462 -140.6898,-1.71326 -190.0655,-39.75311 24.7573,40.56241 56.4172,56.09285 133.4268,54.35355 58.2124,10.73606 102.2635,16.62004 141.541,3.85801 -24.9126,-13.30562 -53.0124,-20.5216 -84.9023,-18.45845 z" fill="#e9ae63" />
    </g>
    <path d="m 1267.5,253.375 c 32.375,-18 -0.875,-41.125 -32.625,-41.125 -28.5,0 -30.25,33.375 -3.25,38.5 z M 1249.375,277 c 15.394,5.20935 29.7572,16.37513 45.8358,27.375 25.5985,17.51274 53.8096,-56.57322 -51.659,-56.57322 -121.742,0 -97.1762,55.883 -74.5518,46.19822 29.08,-12.44822 43.0101,-16.52145 80.375,-17 z m -108.3698,-53.36697 c 14.0838,-4.23976 27.3865,-4.65336 29.4169,-0.55012 2.2688,4.58507 -0.6448,8.38607 -20.9317,15.48775 z m 48.702,10.31371 12.7279,0.0884 5.8336,-11.31371 c -2.1213,-14.31891 -33.0573,-3.71231 -18.5615,11.22533 z m 147.8737,114.02096 c -5.3033,-20.77127 -22.5391,-23.33453 -23.6881,-12.46275 -2.1866,20.68892 18.65,20.59448 23.6881,12.46275 z m -74.7766,-28.37266 -1.5026,6.27558 -12.4627,2.82842 -3.3588,-2.47487 c 2.0626,9.05346 -5.4622,12.9166 -11.4972,6.52881 -6.5459,-6.92856 -0.078,-16.49647 7.9621,-10.85984 -3.4747,-11.84098 9.9963,-9.10449 20.8592,-2.2981 z m 90.6865,-43.84062 c -14.1728,-11.36629 -23.4104,-6.31615 -18.7384,5.74525 6.3079,5.76439 16.6162,2.98998 18.7384,-5.74525 z m -7.0711,71.41779 c 3.1894,-0.81347 5.3777,-2.73924 7.0711,-5.21491 l -0.2652,-10.16466 c -9.125,-3.8125 -14.3445,-1.70583 -14.8492,1.41421 -0.8083,4.99651 1.6309,8.97792 8.0433,13.96536 z M 1505.75,355.625 c 5.3382,-28.41167 84.75,-9 81.375,10.75 -1.2926,7.56437 -5.7952,14.85643 -23.8669,15.15344 -43.0775,0.70799 -60.3408,-10.82697 -57.5081,-25.90344 z m -18.4375,-23.75 c 7,-1.1875 11.3062,-0.78977 12,1.625 1.1312,3.93688 -6.4372,12.09197 -10.25,10.6875 -2.1251,-0.7828 -3.375,-3.9375 -1.75,-12.3125 z m -28.9375,24.6875 c 2.7078,-4.33456 5.6708,-7.11542 9.5625,-9.125 3.7785,1.29278 5.5331,3.9867 7.1875,6.75 -2.2576,3.54328 -5.4756,5.65551 -9.125,7.125 -3.4299,-0.97815 -5.6934,-2.60653 -7.625,-4.75 z m -18.8824,21.8108 c -2.8816,-7.92235 -21.7151,9.38258 -12.9046,16.08667 7.5207,5.72264 15.5675,-8.7655 12.9046,-16.08667 z M 1636.875,347 c -10.7781,-2.5161 5.5062,-20.63086 10.5,-8.5 1.3918,3.38086 -3.9316,10.03335 -10.5,8.5 z m -22.5502,-12.46733 c 33.4346,2.85414 18.9151,25.54424 -0.6188,14.23053 z m 13.685,123.14014 c -23.6296,-28.70661 -91.1728,-61.77298 -98.2638,-34.22406 -3.508,13.62872 11.3701,26.39721 43.53,42.81917 32.6537,16.67408 54.307,15.81263 54.7338,-8.59511 z m -48.6839,16.33668 -2.8831,-7.54962 c -4.6485,0.37955 -8.9261,0.18417 -12.9118,-1.05352 l -5.3623,6.24611 c 2.7263,4.06232 15.3284,5.2177 21.1572,2.35703 z m 58.1124,-91.7913 18.6058,-0.13259 3.3587,7.29204 c -8.3085,6.70278 -20.1176,8.67902 -21.8761,2.60746 z M 1592.1875,383 c -0.1499,-10.80488 10.0043,-16.08723 19.4375,-9.5625 l -1,13.875 -6.375,4.375 z m -45.0625,0.9375 8.6875,14.0625 c -0.6338,3.75561 -3.292,6.30597 -7.0625,6.1875 l -11.5625,-9.75 c -0.184,-7.0173 5.8154,-7.78875 9.9375,-10.5 z m -52.0625,24.375 14.25,2.5 4.9375,-5.4375 c -3.2316,-5.0802 -3.9065,-9.66608 -3.5411,-15.66161 -13.3878,-0.85628 -17.5094,3.51022 -15.6464,18.59911 z m -36.125,-13.625 c 0.9375,13.3125 -1.25,14.3125 14.875,13.5 5.875,-4.0625 5.8125,-14.6875 -14.875,-13.5 z m 212.7219,52.03945 c -0.9794,-10.8011 0.8544,-13.34582 7.4246,-14.20106 3.7817,2.71971 6.9897,6.01312 9.6048,9.89949 -2.1531,3.07167 -4.3842,6.12498 -9.3102,8.54421 -3.0947,-0.63169 -5.6241,-2.11155 -7.7192,-4.24264 z m 9.8405,26.63436 c 1.616,-7.86508 10.1338,-8.43701 18.9741,-4.89083 l -0.7661,11.78511 -7.0121,3.77124 z m -25.8683,-3.88909 c 3.0976,-1.46205 4.9533,-3.78388 6.0104,-6.65859 l -9.6638,-11.31371 c -5.6362,-0.29815 -7.2395,3.60591 -7.071,8.66206 3.1956,3.40676 6.7433,6.53186 10.7244,9.31024 z m 17.442,15.20279 -12.3744,11.78512 c 3.4702,3.95122 7.1998,7.77274 11.6083,11.25478 6.6906,-2.78773 7.7401,-5.96909 5.6613,-11.41468 -1.1771,-3.08326 -0.4887,-8.27032 -4.8952,-11.62522 z m -1.4731,35.06072 c 4.3873,7.7974 5.4636,9.10107 -1.2375,15.20279 l -12.4922,-3.12305 c 0.4125,-6.83537 -6.7176,-9.01561 1.7088,-12.49222 z m -69.8858,-5.36223 c 5.9515,-1.17851 10.6058,0.77603 13.9064,5.42289 3.4317,4.83138 -0.4714,5.47834 -0.4124,10.54594 -12.0208,2.06239 -15.085,-2.12133 -13.494,-15.96883 z m -67.0573,-22.33279 c -0.059,-13.78858 6.0104,-11.49049 6.0104,-18.09015 0,-7.48354 -5.0216,-9.14793 -16.6725,-0.53379 -12.067,8.92177 2.2947,23.16121 10.6621,18.62394 z m -16.9764,12.16047 c -3.2343,-7.95982 -11.6253,-7.27365 -11.3232,0.69108 0.2507,6.60914 0.9417,8.92085 6.8922,8.44107 3.5055,-0.28264 5.9325,-5.43673 4.431,-9.13215 z m -77.8348,-64.5453 c -1.2903,-10.1539 0.4336,-14.86485 7.4835,-19.09188 10.7233,13.62823 13.8436,21.6481 3.6534,26.2808 -4.6914,-1.1267 -8.5014,-3.52005 -11.1369,-7.18892 z m -2.1802,24.92552 -0.2947,-13.43503 h 18.6794 c 0.7618,2.41004 1.7774,3.85808 3.5945,5.42115 -0.3241,6.66717 -1.7356,9.12491 -7.3657,10.78338 -5.1246,-0.17225 -9.886,-1.14079 -14.6135,-2.7695 z M 1423.5,438 c -12.7819,-1.77576 -16.1271,3.93111 -13.1307,12.45761 2.1571,6.1381 15.3799,5.15895 17.1307,-5.12428 -1.8243,-2.18524 -3.0775,-4.38309 -4,-7.33333 z m -43.9167,0.33333 c 0.4167,11.75 18.1667,10.16667 21.75,2.75 1.75,-7.66667 -16.5,-8.75 -21.75,-2.75 z m 41.0417,73.54167 c -11.75,-28.875 20.7257,-37.531 31.25,-14.25 12.094,26.75332 -18.2639,46.16265 -31.25,14.25 z m 10.625,54.25 C 1397.25,531 1351,478.625 1342.625,476 c -3.25,-23 28,-24.87501 74.25,21.75 42.6167,42.9623 34.75,64 14.375,68.375 z m 160.8125,81.625 c 6.2178,0 10.6254,-3.69949 8.5991,-9.1888 -3.4375,-9.3125 -13.4979,-10.31751 -17.0991,-1.7487 -2.2922,5.45424 0.1389,10.9375 8.5,10.9375 z m -8.1875,-10.4375 c 2.9984,-5.16101 -7.3282,-14.52912 -12.5625,-9.75 -2.9138,2.66044 -2.1644,9.63596 0.2665,11.79496 2.7443,2.43742 9.7312,2.36974 12.296,-2.04496 z m -9.625,47.875 c -2.6121,5.1621 -7.5103,7.94402 -13.9375,6.875 -4.089,-17.07447 8.5508,-19.88931 13.9375,-6.875 z m -15.625,4 c 5.8467,-0.1826 12.1324,1.32886 16.5625,5.9375 -1.3626,2.23507 -2.4966,3.45478 -4.875,4.375 -10.125,-3.875 -12.375,-5.6875 -11.6875,-10.3125 z m -111.1774,-72.87277 c 3.5355,-42.95674 -25.2791,-44.72451 -98.1111,54.44722 -2.2981,24.92551 43.6639,36.416 98.1111,-54.44722 z m -110.0435,46.31549 14.6725,11.31371 c 10.6453,-14.68466 -2.0045,-31.47297 -14.6725,-11.31371 z m -144.254,-124.35877 c 15.9991,4.82917 32.8285,11.86127 45.1292,17.62982 17.9799,8.43188 38.0786,28.69787 84.3639,70.84328 37.1036,-5 13.6723,-67.92477 -93.7189,-118.0513 z m 27.0115,12.85355 c -2.5525,-6.4934 -10.9683,-8.78561 -13.7563,-4.94822 -2.4576,3.38254 -1.8059,12.5413 4.3295,13.16161 4.6271,0.46781 7.8928,-2.32583 9.4268,-8.21339 z m 247.5884,-0.5625 7.5625,2 4.9375,-3.6875 -3.875,-13.0625 c -9.3902,-0.69693 -11.178,5.06674 -8.625,14.75 z m 22.375,10.25 c 9.9103,1.81919 13.9564,-0.52121 13.9564,-5.05738 0,-4.95605 -1.5348,-5.67582 -14.2689,-5.44262 z m 50.5,17.1875 h 19.625 l 2.4375,5.5625 c -4.0099,5.44504 -9.0528,6.92977 -18.125,6.5 -3.0866,-2.77622 -4.4811,-7.10399 -3.9375,-12.0625 z m -4.875,52.1875 6.25,-2.1875 1.125,-14.9375 c -7.3464,0.18337 -14.0077,1.52501 -17.6875,5.8125 2.7593,4.37367 6.056,8.26969 10.3125,11.3125 z m 44.625,118.625 c -2.3125,-12.5625 -12.4269,-12.53485 -13.25,-2.0625 -0.9694,12.33352 9.9375,11.8125 13.25,2.0625 z m -53.9966,-31.11634 5.0381,-4.68458 -3.6694,-11.18871 c -16.4195,-4.10831 -20.1477,6.95714 -12.5057,14.54747 z m 4.5962,-43.84062 -2.9169,4.41942 -9.0156,-0.0884 c -4.3944,-7.23229 -3.2013,-15.48191 4.0659,-16.35184 3.6074,3.02178 6.1441,7.11421 7.8666,12.02081 z M 1480.1875,665 c -2.2398,3.07269 -5.1183,5.50674 -9.1875,6.75 -2.8763,-2.062 -4.2487,-4.70883 -4.125,-7.9375 -12.0152,-2.46339 -20.4739,-23.79174 0.5483,-40.5151 31.9074,-25.38266 45.4591,12.4329 11.0486,39.42121 z m -29.4375,59.625 c 5.2299,-2.43495 7.8919,-6.85154 9.8125,-11.4375 0.125,-7.0625 -7.75,-8.3125 -20.875,1.0625 -0.8189,5.61462 1.8985,7.69337 11.0625,10.375 z m 3.6875,-38.0625 1.25,6.9375 4.75,-0.4375 0.4375,-5.8125 c -2.1458,-0.85731 -4.2917,-0.8823 -6.4375,-0.6875 z m -146,-236.875 11.5,-4.8125 0.1255,-9.1875 c -7.2594,-3.03946 -15.1378,-3.5985 -23.0625,-2.8125 L 1296.563,442 Z m -1.8809,22.731 c -2.1011,3.56147 -4.4913,6.93931 -8.246,9.34327 -5.0955,0.27283 -10.1486,0.0109 -14.9118,-1.21155 l -1.6794,-16.35184 c 10.2727,-3.37383 18.087,0.0845 24.8372,8.22012 z M 1243.75,616.375 c 29.625,45 62.375,48.625 64.125,18.125 -31.375,-39 -67.875,-47.375 -64.125,-18.125 z m -45.5576,101.7631 c 3.6603,-25.82533 118.2637,-20.50609 117.203,5.30331 -0.3907,9.50822 -5.4896,17.12065 -55.5081,15.50442 -42.6162,-1.37704 -63.6453,-7.04685 -61.6949,-20.80773 z m 188.2672,65.40738 c -1.9018,-11.22834 -0.6296,-13.63369 5.0382,-12.99309 4.7706,5.16057 3.228,12.99562 -5.0382,12.99309 z M 1368.34,770.81756 c -2.5633,-11.49049 4.2426,-12.9047 14.2305,-12.37437 8.5388,13.90682 -5.8418,20.7493 -14.2305,12.37437 z m -30.3172,-62.13701 c 9.5881,-3.02214 10.0767,-11.54271 7.0195,-17.55306 -2.1619,-4.25027 -11.631,-5.00565 -13.5602,3.5877 -12.0595,-5.67025 -14.4685,2.54583 -10.5717,13.36951 2.5908,7.19618 15.4134,6.53137 17.1124,0.59585 z m -13.6118,33.05724 c -0.7774,16.88155 31.6464,5.78625 12.728,-10.07627 0.6185,-6.99123 -1.3808,-8.89267 -8.3449,-7.73186 -10.2749,1.71267 -9.0825,16.0289 -4.3831,17.80813 z M 1292.875,665.875 c 3.6271,3.42752 7.4811,6.67342 11.9375,9.4375 3.3738,-1.91759 5.9178,-4.49907 7.625,-7.75 -2.9383,-4.24117 -6.0867,-7.71273 -11.75,-9.5625 -3.8292,1.26661 -6.601,4.32156 -7.8125,7.875 z m -40.375,11.5 11.5,0.1875 c 5.2304,6.15906 -10.2804,14.95528 -11.625,8.9375 z m -4.1875,-23.4375 c 5.3342,1.37344 3.6753,12.1283 -2,10.75 -4.375,-1.0625 -8.3715,-13.42043 2,-10.75 z m 25.1875,113 c 6.9419,-2.7658 9.4548,-5.16116 10.6875,-10.0625 7.5398,-3.11912 11.5669,13.88453 -3.4375,20.875 -5.9944,-0.83037 -8.8591,-3.70068 -7.25,-10.8125 z m 37.5,101.8125 -9,-10.3125 c -13.3125,-3.8125 -17.7055,20.78445 -1.75,17.0625 4.6217,-1.07811 8.1883,-3.54668 10.75,-6.75 z m -49.5215,-9.74676 c 3.7761,-1.89783 8.2414,-1.94638 12.5511,-1.47671 2.9136,5.29624 3.3611,10.33383 -3.1819,13.6118 -4.2071,-3.34315 -7.6532,-7.13119 -9.3692,-12.13509 z m -47.916,33.18426 c -1.4047,-8.60131 -0.2444,-15.53188 5.9375,-16.875 3.9498,3.07434 6.9657,6.92533 6.5,16.25 -2.7145,4.1018 -9.7023,4.64845 -12.4375,0.625 z m 2.75,-119.9375 c 2.9984,-5.85488 6.9484,-11.28682 12.9375,-15.8125 5.9754,0.15728 7.4391,1.69856 7.375,7.4375 -3.6977,5.04356 -8.1794,9.43382 -13.875,12.8125 -2.9242,-0.7873 -5.0129,-2.31726 -6.4375,-4.4375 z m -27.1875,-179.875 5.625,-2.6875 1.5625,-6.6875 -3.8125,-7.625 c -5.5815,-0.61177 -9.9035,0.32176 -11.5,5.6875 2.1971,4.54237 4.7023,8.14205 8.125,11.3125 z m 17.1875,28.1875 0.1875,-6.3125 7.625,-0.125 8.6875,8.5 c -0.5905,4.09937 -2.2242,6.5703 -6.8277,7.20267 z m -13.6885,144.95176 c 2.2888,-4.10407 5.6345,-7.42157 9.4575,-9.28078 3.3049,1.32832 5.776,3.56634 7.2479,6.89429 -2.6694,3.15949 -5.5831,5.92803 -9.8995,6.45235 -2.9377,-0.5906 -5.029,-2.14854 -6.8059,-4.06586 z M 1110.9375,594.625 c 4.7212,6.8852 11.4039,5.01385 15.75,-1.1875 -2.5141,-9.66499 -15.1539,-7.21724 -15.75,1.1875 z M 1077,614.75 c 3.7486,-1.58443 6.1658,-4.20441 8.4375,-6.9375 -0.5,-10.0625 -6.375,-11.3125 -16.75,-6.375 1.2926,5.71909 4.0229,10.25743 8.3125,13.3125 z m 58.967,123.98259 c 20.4177,28.90299 33.3898,32.09484 43.7522,23.62742 12.5974,-10.29366 4.8882,-26.44192 -22.097,-42.01219 -13.2453,-7.64247 -23.6881,-6.45236 -25.8094,4.59618 -16.9706,-2.91682 -16.617,21.21321 4.1542,13.78859 z m 29.0539,70.86157 c 0.7051,-6.23895 3.0928,-9.6684 6.6077,-12.16098 3.6122,2.51264 6.7325,5.76294 9.6817,9.27005 -0.6398,4.23547 -2.4254,5.77706 -9.0156,7.24784 -3.0366,-0.88202 -5.2294,-2.48275 -7.2738,-4.35691 z M 1140.75,653 c -2.5504,-1.23139 -4.2346,-2.52149 -5.625,-4.5625 1.2083,-3.43749 3.2526,-6.03908 6.625,-7.3125 2.3772,1.32147 3.8168,2.86811 4.9375,5.5625 -0.7935,2.95566 -2.579,5.09506 -5.9375,6.3125 z m 1.5,7.125 c 1.4663,5.6875 1.6161,11.375 0.75,17.0625 -7.8651,5.90272 -13.6269,4.36056 -15,-0.875 -1.772,-6.7564 4.3333,-14.35417 14.25,-16.1875 z M 1012.25,831 c 19.5493,35.82743 46.738,51.18341 75.9975,51.18341 11.816,0 18.0093,-6.55384 19.7525,-16.68341 -68,-62 -99.125,-62.25 -95.75,-34.5 z m 26.1311,-91.77001 -81.90306,-88.38835 c -10.28992,-11.10471 4.52261,-48.62946 67.58416,19.79898 52.3663,56.82309 27.6257,67.53853 14.3189,68.58937 z m 56.4314,-42.19338 9.4375,0.0625 2.4375,5.02589 c -2.1537,4.18735 -4.89,6.14274 -11.1875,5 -0.7878,-3.33333 -0.9591,-6.44256 -0.6875,-10.08839 z m -31,33.08839 c -1.3482,-9.57294 1.1426,-11.6856 8,-11.0625 2.7956,1.54747 4.9504,3.97803 6.6875,6.625 -1.8154,4.06607 -9.7461,6.50626 -14.6875,4.4375 z m 54.0349,133.6771 c 2.3813,-3.88171 5.3907,-6.94708 9.2808,-8.92722 3.4499,1.46731 5.8504,3.55878 7.6014,6.8059 -2.5508,3.33799 -5.8044,5.52002 -9.9879,6.71752 -3.0725,-1.08953 -4.9546,-2.48435 -6.8943,-4.5962 z m -10.0762,42.16124 c 12.8163,-17.58928 -1.6705,-24.30694 -10.7834,-17.94283 -5.6109,3.91839 -8.9272,23.77647 10.7834,17.94283 z m 2.74,6.62913 c 13.0556,4.91942 3.6354,11.01162 6.0104,17.32412 -9.8125,0.375 -11.4924,-0.0174 -12.0404,-5.06403 -0.5485,-5.05078 1.9087,-9.4816 6.03,-12.26009 z M 983.58553,837.10882 c 1.16745,1.69026 3.90055,1.87496 5.17386,0.74372 l 10.43427,-9.27005 -0.0518,-8.88617 c -16.08668,-1.23744 -17.05894,1.32582 -15.55635,17.4125 z M 1029.25,775.75 c 1.9407,-3.6485 4.7521,-6.89069 9.1875,-9.375 3.386,1.18133 5.6961,3.34068 7.25,6.1875 -2.0017,3.73773 -5.1118,6.35845 -10,7.1875 -2.7909,-0.4267 -4.8347,-1.472 -6.4375,-4 z m -10.5625,20.0625 c -2.145,-4.20833 -2.7716,-7.72917 -2.9375,-12.5625 5.5,-1.125 11.25,1.0625 16.0625,7.9375 -1.4276,4.18155 -2.4085,5.56605 -13.125,4.625 z m -68.60115,60.65337 0.48614,-8.22012 5.70105,0.26517 8.75044,9.89949 -6.09879,3.27037 z M 1052.8125,878.75 c 6.6872,-0.0863 8.0807,18.99391 -0.125,19.125 -8.697,0.13893 -7.4897,-19.02669 0.125,-19.125 z M 988,902.375 c 1.93572,-2.69832 4.35647,-4.71761 7.125,-6.25 6.071,-0.13404 11.1972,0.58745 16.5,2.8125 -2.125,2.79167 -18.02491,5.90807 -23.625,3.4375 z m 9.3125,-175.9375 c -9.44202,-1.85274 -9.75,-11.85417 0.8125,-16.125 4.25,1.1875 8.5625,5.125 8.5625,7.125 0,2.56935 -6.3692,9.58981 -9.375,9 z m -50.125,6.6875 c 4.60417,3.37945 10.02083,3.23274 13.8125,-0.0625 2.53477,-13.54447 -3.89862,-16.375 -6.75,-16.375 -3.74124,0 -9.27083,3.8125 -7.0625,16.4375 z m -21.87577,-28.14604 c -2.33704,-15.14943 0.18286,-16.20302 16.11256,-14.41802 4.44888,7.00204 3.74322,15.79478 -4.83547,17.93211 z m 40.41936,5.9113 c 11.83037,3.39751 15.29033,-6.76263 6.71751,-16.88218 -7.22503,1.26025 -10.07268,8.40049 -6.71751,16.88218 z M 884.5,716.125 c 26.91089,6.95721 32.75,20.375 26.75,31.75 -6,11.375 -28.34404,11.53768 -44.75,1.75 -13.24907,-7.9043 -11.06998,-41.01539 18,-33.5 z m -52.94243,-64.10138 c 12.76203,-3.28434 43.31029,-21.38998 63.99317,-19.79899 16.36092,1.25853 20.23472,21.56082 5.05546,28.94112 -49.42472,24.03076 -112.53569,43.53733 -169.98812,43.89088 -18.97413,0.11676 -21.05309,-28.72571 -1.94454,-35.88567 19.68714,-7.37676 91.37421,-14.18526 102.88403,-17.14734 z M 654.64645,521 c 28.625,14.5 100.40353,56.25579 141.20223,70.35888 23.20164,8.02023 36.09557,-21.94849 14.97057,-26.19849 C 713.85095,497.93347 651.50681,494.75318 654.64645,521 Z m 64.47855,88.125 c 9.72997,26.81797 35.12726,38.38148 65.50048,38.38148 13.48334,0 19.70652,-8.06995 19.87452,-17.88148 C 769.75,598 717.75,578 719.125,609.125 Z m -75.5,120.1875 c 5.35447,-0.21326 16.0625,-12.1875 12.9375,-18 -2.52816,-4.70237 -13.81054,0.64699 -18.5625,7.1875 -3.60262,4.95858 0.14239,11.03087 5.625,10.8125 z m 230.75,-55.625 18.25,-0.1875 c 2.32053,7.61914 2.05112,16.25189 -6,18.6875 -12.89584,-6.54166 -14.90038,-8.98139 -12.25,-18.5 z m -43.17097,28.89426 10.51821,9.36916 c 2.92236,-1.54494 4.95382,-3.72624 6.71751,-6.0988 -0.56596,-12.69419 -10.44856,-14.73487 -17.23572,-3.27036 z M 787.75,728 c 3.13968,-1.21681 5.21136,-3.18122 6.6875,-5.5625 l -9.625,-11.75 c -5.37606,0.57777 -9.23948,2.39097 -9.0625,8.875 z m -146.66931,24.52117 c 8.39689,7.86656 7.15945,17.76606 -1.67938,24.66035 -7.51301,1.76777 -10.8015,0.34854 -11.04855,-5.74524 -0.26517,-6.54074 5.12652,-14.49569 12.72793,-18.91511 z m 82.54431,9.79133 c -0.83897,-8.07879 0.60987,-10.817 7.9375,-10.9375 l 6.0625,15.125 -3.25,3.0625 z m 9.8125,-20.625 9.3125,-0.25 2.25,-12.75 c -7,-11.0625 -11.94191,-13.25986 -17.5625,-8.5625 -4.76063,3.97866 -5.75,10.0625 6,21.5625 z m -14.8125,-4.5 0.6875,-14.5 c -13.19403,-2.74683 -15.39374,0.89469 -13.75,12.875 2.88671,4.83114 8.45968,4.28131 13.0625,1.625 z m -50.3207,28.85709 c 15.36994,1.99005 19.4111,-4.7589 14.23052,-11.57888 -20.4921,-1.64482 -20.97154,3.51035 -14.23052,11.57888 z m 13.6118,-63.90478 c 10.13919,-7 15.75476,-16.87272 14.49569,-28.46105 -18.14216,-0.20781 -29.10775,18.14078 -14.49569,28.46105 z m 56.03822,-118.79394 h 24.2184 c 9.40712,-2.9379 10.13321,-16.96073 -18.56155,-14.76085 -10.24529,0.78546 -9.81111,9.8995 -5.65685,14.76085 z m 118.88233,11.04855 14.26085,9.89949 10.75305,-0.7071 2.56326,-8.57367 c -8.96491,-10.79275 -21.62759,-11.50477 -27.57716,-0.61872 z m -41.18898,7.86656 1.41421,13.16987 19.26867,0.0884 c 8.75045,-5.92202 5.83362,-13.16986 -20.68288,-13.25825 z m -280.44945,-9.73953 c 3.93865,32.61893 40.98224,19.9571 97.80178,-42.35724 4.94975,-25.63261 -10.65086,-49.74342 -97.80178,42.35724 z M 672.9375,611.75 c 3.9375,-4.4375 8.375,-3.8125 10.5,3.8125 -0.99334,2.42683 -2.71559,4.19763 -5.375,5.125 -3.34517,-1.91016 -5.13648,-5.77806 -5.125,-8.9375 z m -18.06823,-11.61034 6.36396,-0.60355 5.48008,-8.1469 c 1.59099,-14.93763 -5.56846,-12.90469 -14.14213,-2.65165 -1.75108,2.09407 -1.50813,9.13693 2.29809,11.4021 z m -146.45949,77.51658 7.07106,-2.65165 3.00521,-7.15946 c -11.04854,-24.30679 -26.60489,10.07628 -10.07627,9.81111 z M 470.3125,649.25 475,645.5 474.25,636 c -5.3074,1.91071 -9.16981,5.32017 -11.8125,9.5625 1.80881,1.78719 4.56653,2.90009 7.875,3.6875 z m 76.36943,-9.86591 c 6.15905,0 9.19895,-21.81342 6.27557,-23.42291 -3.56558,-1.96308 -19.20799,4.45786 -18.50089,11.97087 0.33958,3.60798 9.42148,11.45204 12.22532,11.45204 z m 54.624,-24.74874 c 2.78966,-0.22265 5.04998,0.10571 7.42462,1.06066 4.33103,12.73955 -15.11441,24.7325 -23.06936,15.64474 -1.7147,-8.04422 2.07244,-11.82928 15.64474,-16.7054 z M 621.2817,509.62999 c 9.54594,-12.37437 21.38998,-9.01561 26.87006,-4.06586 -12.81631,11.75565 -24.04164,12.1092 -26.87006,4.06586 z m 28.00999,43.82599 c 1.27343,-3.00589 3.17662,-5.27708 5.84927,-6.65056 4.90724,0.14989 9.05185,1.93572 10.73705,5.04801 -1.59258,5.41906 -12.63203,9.19277 -16.58632,1.60255 z M 545.75,473.875 c 0.029,-9.58591 -70.87668,-45.69398 -83,-24.375 -9.49071,16.6895 8.02942,40.18399 57,41.5 21.73027,0.58397 25.97031,-7.29525 26,-17.125 z m 74.06066,-65.74111 c 23.56871,35.35188 43.58814,69.30141 55.93934,69.68933 15.99573,0.50238 52.69797,-35.79102 49.92678,-41.46967 C 649.42671,280.10358 615.06405,294.69379 620.75,331.5 c 1.28797,8.33729 23.88388,34.82323 38.25,58.28033 -38.48617,-21.82411 -47.06735,6.53693 -39.18934,18.35356 z M 576.39818,222.8492 c 55.01459,-23.48947 107.8125,-22.65671 109.08119,-5.58013 0.71231,9.58771 -61.33154,33.64038 -96.16545,41.0003 -33.97171,7.17775 -41.98705,-23.00765 -12.91574,-35.42017 z M 426.125,479.125 c 0.99197,-5.14882 3.36402,-9.01615 6.6875,-12 4.71904,3.47897 7.27918,7.98055 8.0625,14.625 -4.43493,3.93891 -9.51315,2.95077 -14.75,-2.625 z m -8.932,50.48076 c -0.62533,-11.3093 -2.25965,-20.14871 -8.22011,-27.75394 -6.35723,5.83699 -6.77668,13.00011 -5.83363,23.68807 2.53605,6.36945 8.638,8.38946 14.05374,4.06587 z M 404.96952,489.581 402.7857,470.03201 c -7.07107,4.59619 -11.87799,11.11321 -8.30851,20.5061 1.21995,3.21024 6.69607,3.37576 10.49233,-0.95711 z m 47.5168,11.05631 c -9.52681,-8.41904 -23.10488,-8.07403 -19.86597,3.471 2.07416,7.39327 18.1674,6.72046 19.86597,-3.471 z m 23.11543,0.96006 c 0.0337,3.56284 0.98641,5.46338 2.86228,6.88084 3.95117,-0.51588 6.75051,-2.16781 8.0677,-5.40381 -3.08319,-1.51926 -6.63567,-2.07354 -10.92998,-1.47703 z m -123.0361,-59.45022 c 3.67438,-0.62906 7.00908,-1.51287 9.89605,-2.73249 l -0.0738,-10.11761 c -10.83754,-2.43198 -14.61594,6.46957 -9.82225,12.8501 z m 94.18233,-95.06449 c 5.43095,-2.81992 6.76092,-4.2991 6.78869,-10.28748 0.0287,-6.19291 -0.10445,-7.15423 -6.94536,-9.50416 -5.48317,1.61884 -6.52758,2.90106 -6.52758,9.71305 0,6.85165 2.71548,8.51197 6.68425,10.07859 z m -31.63036,50.16296 c -3.48161,-1.03293 -3.346,-7.84442 3.13567,-14.50875 7.25964,-7.46423 12.00836,-5.8779 12.15152,-2.03392 0.11533,3.09662 -11.69139,17.60948 -15.28719,16.54267 z m 28.06345,-36.03938 c 3.36791,2.33216 2.57159,14.30604 -2.43708,16.69037 -5.45888,2.59865 -13.5235,1.36825 -14.91795,-3.09574 -3.11814,-9.98198 13.54136,-16.23546 17.35503,-13.59463 z m 44.53228,-10.11762 c -3.69256,1.25547 -17.42889,-8.04978 -11.52079,-14.99179 3.59409,-4.22305 14.9918,0.51695 11.52079,14.99179 z m -19.64442,-42.31674 c 3.80311,0.64656 6.95472,-0.11568 9.00985,-2.14168 -2.54994,-3.27437 -4.41443,-7.07602 -9.37911,-8.49289 -1.06255,3.66342 -0.6655,7.68307 0.36926,10.63457 z m 28.87582,21.343 15.5826,0.44311 c 0.59076,-6.03504 -0.0934,-13.32593 -6.72046,-15.73031 -5.02188,3.84026 -13.58862,3.39716 -8.86214,15.2872 z m 35.74398,80.64552 c 4.80033,0.22155 7.90208,3.24945 11.00383,2.21553 3.19068,-1.06357 8.71445,-7.31127 12.70241,-17.872 -18.7582,-0.81236 -25.92178,6.05581 -23.70624,15.65647 z m -2.64876,-130.05023 c 7.10927,5.38741 17.33087,5.99153 27.2592,1.14885 1.14886,-11.90632 0.73654,-13.52644 -12.1152,-13.89071 -14.62693,-0.41457 -17.02394,5.32651 -15.144,12.74186 z m 28.49668,84.33633 c -0.14359,-2.50889 0.29325,-4.94911 1.40318,-6.94202 l 16.39496,-0.0739 4.57878,5.53884 -11.55138,10.23998 z m 68.73824,6.21434 8.0864,-3.65545 0.37335,-13.3685 c -8.18492,-3.70756 -19.67861,-1.59683 -17.54615,8.25087 z m -21.82825,-31.33241 c 0.58103,-5.80523 0.65158,-11.38359 -1.25329,-16.08398 -8.04199,-1.14886 -15.24844,2.5066 -15.35289,7.62422 -0.10444,5.11763 5.63984,8.5642 5.63984,8.5642 z m 113.94612,-58.42876 9.01561,-0.0884 10.78338,8.39689 c 0.92018,8.46848 -15.94303,7.71069 -18.82672,1.94454 z M 663.25,240.875 666,238.5 h 7.625 l 7.375,6.125 c -2.94417,7.19408 -9.18553,10.17644 -16.875,7 z m -65,23.5 c 7.66437,1.38651 15.38101,1.88662 22.625,1.5 l 2.625,6.875 c 0.39476,11.90181 -20.36518,15.39935 -26.5,0.375 z m 87.6165,51.42747 0.31332,8.98196 18.69501,5.01319 6.47537,-4.69987 c -0.68112,-8.12868 -10.92854,-10.14243 -25.4837,-9.29528 z m 36.39828,-91.59022 7.38511,4.57877 6.94201,-5.16957 c -0.25657,-2.89961 -1.47034,-5.32064 -3.39715,-7.38513 -4.67268,1.33519 -8.20557,4.13582 -10.92997,7.97593 z" fill="#f3d1b0" />
    <g>
      <path d="m 763.70711,540.40236 c -60.04744,-32.11583 -61.97698,-85.47038 -48.70777,-168.10534 22.14564,-21.83976 43.04351,-38.46372 68.69738,-57.40837 -17.63964,-59.2067 33.8371,-94.55773 77.96994,-117.38865 34.46507,-77.0907 146.87614,-45.82237 166.97984,-167.030477 25.8281,22.677465 48.0316,62.114644 36.2112,84.637427 -44.7161,85.20266 79.8202,66.24102 91.2402,151.94208 33.8545,16.02781 60.8639,30.90819 80.7354,62.59742 46.8737,58.99821 62.707,96.1621 50.8133,120.15804 -22.2452,44.88054 -172.3525,157.33703 -269.7847,161.73003 -66.63269,-11.46226 -191.64709,-37.70049 -254.15479,-71.13216 z" fill="#f1fbfc" />
      <path d="m 956.59416,478.61089 c -13.61181,68.05902 -6.73591,107.04622 52.19934,133.04698 L 892.19198,583.78782 890.07066,461.8119 Z M 1143.4168,281.76743 c 23.762,25.59957 46.8166,38.0443 61.3164,71.52502 l -55.3311,38.3391 -44.0174,-93.51487 z M 1027.7797,104.54619 c 9.9069,37.27907 -55.36322,124.0168 11.6672,193.74726 -28.0272,-3.97575 -51.92546,-13.31915 -75.3068,-23.33452 -27.25,-78.5 41.3896,-109.91274 63.6396,-170.41274 z" fill="#ddf5f9" />
      <path d="m 1033.0728,38.638155 c 8.0429,71.308725 -1.5227,94.728705 -38.41333,142.047875 C 972.17428,209.52753 962.80023,246.48626 990.25,287 970.26328,277.83938 951.37992,267.79606 933.75,256.75 931,125.5 1039.0728,144.38816 1033.0728,38.638155 Z M 843.75,420.75 c 19.76023,20.88679 42.53191,38.88761 73.5481,48.98744 -16.08093,24.62582 -20.6306,49.37232 -17.50472,77.63438 19.22871,25.19241 51.27312,44.08893 88.55992,60.98796 L 803.62686,558.15519 C 786.96055,507.92054 798.2402,447.03579 843.75,420.75 Z M 780.2263,305.02871 c 40.56661,94.12455 89.257,155.64992 156.45492,155.64992 117.20568,0 232.46198,-67.77344 300.00068,-130.83165 l 13.4829,16.88329 C 1207.3849,398.34906 1067.4716,484.6967 934.5,490.25 863.17462,464.93934 802.13332,401.49409 780.21911,314.355 Z m 302.9123,2.61812 c -27.9124,9.74885 -60.4977,15.25828 -87.70496,12.19203 C 956.9771,315.50482 921.93928,303.4434 842,208.75 l 20.04006,-9.96058 C 966.38342,304.40042 1050.9089,313 1116.1635,294.20153 c 29.5774,20.1763 44.7222,51.73792 50.9163,85.58598 -32.8221,23.48229 -74.6864,42.12542 -113.1153,58.13191 50.2045,-44.19418 56.7478,-93.64125 29.1741,-130.27259 z" fill="#cdf0f6" />
      <path d="m 1146.8116,273.64714 c 4.8784,-76.97756 -121.6102,-71.99901 -94.6395,-142.69326 l 10.8075,-28.32793 c 5.0182,-13.153564 -9.7979,-44.802235 -29.9068,-63.987795 C 975.8531,186.51302 888.45813,122.73548 872.68651,205.78942 997.29656,318.84806 1082.8916,307.01269 1146.8116,273.64714 Z M 859.95428,204.33231 c -50.35349,27.41037 -84.21969,61.4638 -75.16446,101.2021 33.164,81.48141 88.72756,150.19405 148.67682,150.19405 114.83436,0 228.44996,-67.66858 294.62236,-129.45071 -15.6866,-22.97261 -38.7994,-39.52196 -65.2774,-50.13061 -83.9957,54.63155 -173.408,50.90138 -302.85732,-71.81483 z m 382.37902,123.96058 c 48.8737,59.35177 68.7407,94.46747 51.0204,130.21871 -22.2452,44.88055 -90.1713,95.41493 -234.7275,153.89077 -26.8038,4.2445 -53.5292,5.2668 -82.52857,4.2643 C 854.20913,576.2022 820.37378,579.56903 759.70711,542.90236 700.72033,507.251 696.19459,463.6599 712.29223,369.35768 734.43787,347.51792 758.04285,329.0833 782.0601,311.61063 l 3.13517,7.2513 C 761.40292,334.78488 737.50724,354.81218 716.33334,377 c -9.39131,84.48868 3.62398,138.29256 44.36641,157.07958 66.24569,30.547 175.73626,54.96969 255.41265,73.14212 81.6667,0 224.0136,-103.21813 261.5542,-154.88836 12.648,-17.40847 4.6668,-44.00001 -44.3332,-116.66667 z m -81.7354,-69.24386 c 33.8545,16.02781 63.8639,37.90819 85.7354,69.95097 -36.912,49.78967 -181.6106,137.75498 -297.36231,137.75498 -89.5604,0 -138.86174,-73.68367 -172.63766,-158.58831 C 768.9817,251.38906 805.03382,221.33092 849.16666,198.5 875.5,117.16666 1027.5238,148.4558 1023.5858,19.11597 c 19.1106,12.070863 52.416,65.499082 52.416,85.95343 0,5.97509 -6.1934,16.52379 -8.2883,20.66089 -35.5193,70.14397 86.7677,53.62809 92.8844,133.31874 z" fill="#ddf7f9" />
    </g>
  </g>
</svg>