<svg xmlns="http://www.w3.org/2000/svg" height="667" viewBox="0 0 476 667" width="476">
  <path d="m 367.32706,156.42204 c -79.85488,29.71247 -173.36915,32.0243 -255.49666,3.24346 m 0,0 -10.19872,-47.21655 272.31219,0.30726 -6.61681,43.66583 c 42.92669,12.34768 70.58143,31.76699 77.02796,69.46301 17.76432,103.8767 14.53042,189.14525 -37.56258,370.14925 C 367.60588,658.69508 125.2534,666.25312 70.251163,590.99302 42.281801,521.34382 17.441341,379.95575 36.115673,236.35985 41.370267,195.95475 66.755961,174.50423 111.8304,159.6655 Z" style="fill:#86f1fa;fill-opacity:.304;stroke:#9ad0ec;stroke-width:8" />
  <path d="m 66.358683,263.36372 c -6.740882,105.9541 1.083516,210.76643 27.146733,312.32454 59.941994,52.57193 239.129134,56.01471 294.775144,3.29051 28.17241,-106.01236 39.15754,-210.33397 24.40464,-316.9861 z" fill="#bed07d" />
  <path d="M 66.358683,263.36372 C 108.31182,306.07011 350.45431,318.3207 412.6852,261.99267 342.7064,207.97349 116.23771,221.42971 66.358683,263.36372 Z" fill="#c6dda6" />
  <path d="m 380.74746,110.79013 -2.43528,29.00197 c -96.1381,30.52755 -205.14933,18.14987 -286.645696,-3.11314 l -2.548419,-32.90513 z" fill="#79939a" />
  <path d="m 60.777656,111.08064 2.016304,-58.309768 347.42335,1.645256 3.56472,60.874502 C 304.46237,158.68268 186.42928,157.47716 60.777656,111.08064 Z" fill="#abbbcf" />
  <path d="M 62.79396,52.770872 C 130.05,12.940801 345.6998,22.070519 410.21731,54.416128 303.32173,88.485367 170.23821,85.69768 62.79396,52.770872 Z" fill="#dde3eb" />
</svg>