<svg xmlns="http://www.w3.org/2000/svg" xmlns:inkscape="http://www.inkscape.org/namespaces/inkscape" xmlns:xlink="http://www.w3.org/1999/xlink" height="1080" viewBox="0 0 1920 1080" width="1920">
  <defs>
    <clipPath id="clipPath5085">
      <use xlink:href="#path5024" />
    </clipPath>
    <clipPath id="clipPath5160">
      <use xlink:href="#path5142" />
    </clipPath>
  </defs>
  <g inkscape:groupmode="layer" inkscape:label="Drawing">
    <g>
      <path d="m 397.51089,610.91626 -18.58978,118.95838 c 65.04141,54.18966 407.44671,38.37546 469.49827,-8.17253 L 824.00046,610.91626 Z" fill="#b27637" />
      <g>
        <ellipse cx="610.75568" cy="610.91626" fill="#c48848" rx="213.24478" ry="24.805046" />
      </g>
      <path d="m 738.61809,667.54015 c 4.73799,6.09006 -3.71643,14.44569 -10.28687,13.73278 -4.51934,-0.49036 -5.21282,-4.52792 10.28687,-13.73278 z m -335.6579,11.08251 c -6.34329,10.35409 -3.45418,16.6719 3.17591,15.59925 1.13265,-6.51775 0.58681,-12.08451 -3.17591,-15.59925 z" fill="#855412" />
      <path d="m 779.73015,714.78417 c -1.72044,-1.57539 7.92921,-13.74394 13.18916,-10.01841 4.73054,3.35056 -9.90217,13.02828 -13.18916,10.01841 z m -337.41299,-16.5392 c 4.83936,-1.58683 9.51105,-4.7861 12.82567,-8.02724 9.66306,10.42462 -11.32135,19.64519 -12.82567,8.02724 z" fill="#787622" />
      <path d="m 807.71987,673.83695 c 1.34241,1.34241 2.74684,2.13437 4.60882,2.59297 3.19974,0.78809 2.31568,4.13977 -0.92003,3.49515 -2.83103,-0.564 -5.63733,-1.77245 -7.72425,-3.56643 -3.30822,-2.84385 0.70611,-5.85104 4.03546,-2.52169 z M 629.23931,658.44126 c 3.89197,-2.80741 15.52592,-4.82421 16.58941,-2.33103 1.09426,2.56535 -8.16659,11.61908 -16.58941,2.33103 z" fill="#70301c" />
      <path d="m 730.79092,661.78644 c -2.47958,-2.14817 5.22454,-10.33286 7.72803,-7.10887 1.81512,2.33751 -6.21627,8.41857 -7.72803,7.10887 z m -330.03259,-0.96457 c 7.4568,-1.15506 14.13212,-8.86093 9.7432,-10.29604 -3.35638,-1.09748 -6.25087,-0.084 -9.7432,10.29604 z" fill="#8b4d74" />
      <circle cx="647.80719" cy="650.40704" fill="#70301c" id="path35" r="1.3778014" />
      <use transform="translate(131.34225 141.31742)scale(.78361276)" xlink:href="#path35" />
      <use transform="translate(-126.06638-249.75666)scale(1.4497449)" xlink:href="#path35" />
      <use transform="translate(229.6107 105.61246)scale(.89414034)" xlink:href="#path35" />
      <use transform="translate(287.2641 143.16106)scale(.83923066)" xlink:href="#path35" />
      <use transform="translate(208.69322 117.44742)scale(.89414034)" xlink:href="#path35" />
      <use transform="translate(84.22292 9.1806326)scale(1.0882753)" xlink:href="#path35" />
      <use transform="translate(418.03783 337.48874)scale(.57815939)" xlink:href="#path35" />
      <use transform="translate(-8.3514893 259.8139)scale(.68797875)" xlink:href="#path35" />
      <use transform="translate(24.394213 288.7751)scale(.63306907)" xlink:href="#path35" />
      <use transform="translate(12.476731 288.85762)scale(.63306907)" xlink:href="#path35" />
      <use transform="translate(-167.08764 86.220788)scale(.8660311)" xlink:href="#path35" />
      <use transform="translate(-133.04332 113.31361)scale(.82183927)" xlink:href="#path35" />
      <use transform="translate(-38.433671 222.14393)scale(.66653125)" xlink:href="#path35" />
      <use transform="translate(-206.43724 64.832577)scale(1.023178)" xlink:href="#path35" />
      <use transform="translate(-212.51976 72.924859)scale(1.023178)" xlink:href="#path35" />
      <path d="m 475.2251,726.16826 c 3.78527,-2.74547 -5.5429,-12.00092 -7.47963,-10.44788 -1.79676,1.4408 4.59127,12.54281 7.47963,10.44788 z m 181.19438,-56.36145 c -3.122,-6.97138 0.33487,-11.84185 6.55473,-8.31834 -1.7267,3.16593 -3.60293,5.84186 -6.55473,8.31834 z" fill="#8f8e2b" />
      <path d="m 494.04215,723.77632 c -5.243,-0.60329 -1.15405,-14.02039 3.17795,-13.34028 4.55864,0.71569 2.41494,13.98383 -3.17795,13.34028 z" fill="#70301c" />
    </g>
    <g clip-path="url(#clipPath5085)">
      <path d="M 773.61492,601.29979 C 680.75958,628.3178 511.007,624.9023 434.57178,604.67013 444.56354,534.97609 453.76405,467.41171 461.12663,395.61395 H 759.32144 Z" fill="#b27637" id="path5024" />
      <path d="m 454.53693,443.94624 c 10.48084,2.42648 10.89926,-27.7504 21.99317,-27.75039 12.27173,0 0.75944,115.41878 19.58604,116.29926 18.30746,0.8562 7.01602,-85.77969 24.22653,-86.97679 6.19446,-0.43086 6.82787,15.33003 17.66489,14.93456 7.62278,-0.27818 5.02422,-16.76908 11.11507,-16.76908 15.42271,0 17.79969,54.62527 29.49418,54.62527 12.9064,0 22.37497,-77.90758 39.02081,-78.18444 32.00447,-0.53231 25.69632,78.22173 45.78186,77.7519 17.28408,-0.4043 12.33885,-82.54785 40.33006,-82.01576 21.10239,0.40115 13.05325,37.73374 26.6788,37.73374 10.66486,0 7.49084,-25.39779 15.51086,-23.24883 17.78628,4.76582 -13.67178,76.04129 26.99004,77.63046 L 767.08431,390.76458 452.21777,386.3019 Z" fill="#956631" />
      <use transform="translate(22.858236-153.34476)scale(1.1098194)" xlink:href="#path35" />
      <use transform="translate(281.40031 93.800921)scale(.71894389)" xlink:href="#path35" />
      <use transform="translate(188.10027-8.1749651)scale(.88367296)" xlink:href="#path35" />
      <use transform="translate(246.15951 11.582385)scale(.7738536)" xlink:href="#path35" />
      <use transform="translate(357.87215 112.20866)scale(.60912456)" xlink:href="#path35" />
      <use transform="translate(6.0604647 104.87365)scale(.71894392)" xlink:href="#path35" />
      <use transform="translate(121.43326 218.93205)scale(.55421488)" xlink:href="#path35" />
      <use transform="translate(-102.90951 6.2376216)scale(.88367296)" xlink:href="#path35" />
    </g>
    <g>
      <path d="m 579.71575,631.18073 c -30.4815,-45.26613 2.42639,-65.39676 6.67124,-47.17208 2.87874,12.35946 -1.8786,22.42598 2.08199,45.66349 z m 69.61812,-2.44132 c -9.44415,-19.17264 -11.85309,-51.7358 5.1841,-51.7358 14.51907,0 9.97698,38.4344 3.58607,51.65481 z m -110.07799,-0.38805 c -13.40778,-28.44286 -14.79424,-48.63366 -1.61739,-49.86607 12.17282,-1.13849 14.67607,13.3433 10.58062,48.38399 z m 150.94135,-0.30169 c -15.25201,-33.39663 -12.56542,-48.31107 -0.52593,-49.78817 12.5167,-1.53566 13.32358,23.92987 9.46675,48.47335 z m 43.30167,-2.01606 c 20.94961,-49.70051 -8.94179,-62.81288 -12.21986,-49.01535 -2.34941,9.88877 5.25931,24.50767 3.76918,48.08692 z m -271.00001,-4.36633 c -29.10302,-44.66764 0.19462,-61.57965 5.62437,-48.81193 3.89171,9.15073 -1.92413,24.2828 3.06276,46.69749 z m 32.75157,6.53687 c -9.074,-18.98765 -10.68286,-50.75636 5.19322,-50.75636 13.56,0 9.74861,37.68366 3.19706,50.68495 z m 264.72032,-7.86814 c -2.01607,-13.67421 -9.53959,-25.311 -9.3791,-37.5683 0.26102,-19.93531 31.25711,-24.89409 19.42366,36.72755 z m -327.1711,-5.79489 c 13.44184,-30.53996 10.94526,-44.06543 0.24522,-45.26472 -11.12441,-1.24686 -11.63521,21.91149 -8.12995,44.17601 z m 354.60718,-5.24967 c -9.99269,-24.28049 -10.54849,-44.71217 0.43829,-45.23009 9.58392,-0.45179 11.44702,22.38786 7.50256,44.21403 z m -172.99462,20.81274 c -11.12942,-27.69375 -11.51851,-50.90106 1.04603,-51.35404 10.96026,-0.39514 12.81463,25.56249 8.04289,50.29794 z" fill="#fbac30" stroke="#ca772a" stroke-width="1.5" />
      <path d="m 569.31741,584.98976 c 3.34615,4.3012 11.25865,5.8847 17.72088,3.72967 m -19.91858,4.04866 c 5.24108,4.07059 14.35677,3.29565 20.18883,-1.11941 m -19.60651,12.83472 c 4.86068,4.19109 14.93745,5.40936 19.17859,1.82525 m -11.64538,17.70796 c 4.25285,1.08225 8.75434,0.94256 12.29528,-1.99971 m 56.77293,-7.06807 c 4.47442,2.92419 12.48975,3.52622 17.45924,2.09894 m -18.82368,-29.20311 c 7.85617,5.37616 14.86394,7.12921 21.13741,6.07002 m -19.31931,-10.99997 c 5.03605,1.70151 11.90163,2.09933 17.51466,0.8057 m -128.58553,31.72418 c 4.21136,3.43075 11.05493,3.73815 15.55422,1.17196 m -19.52604,-15.26133 c 7.61507,0.5722 15.02969,-1.59637 20.17899,-5.97995 m -20.84187,-9.13835 c 5.27836,4.00845 15.17198,3.6338 19.05249,-0.39758 m 137.16127,30.55628 c 4.50246,2.41203 10.57878,2.86686 15.21959,0.69354 m -19.66677,-15.59903 c 7.71381,0.76015 14.60486,-1.73689 20.16069,-5.69758 m -20.73149,-9.13284 c 4.98,3.28106 13.29429,3.76683 18.91516,-0.0857 m 26.02228,30.29945 c 3.46056,2.10885 7.46944,2.79657 11.46659,0.99171 m -12.89218,-16.36314 c 5.82628,2.23134 12.4583,1.42558 17.16891,-4.83457 m -19.71016,-9.66912 c 7.06591,3.09907 13.88389,3.16105 18.65647,-1.67351 m -18.96637,-1.11567 c 7.25185,1.42557 11.96245,-0.86774 15.99125,-5.82627 m -267.0537,33.28927 c -2.87192,2.52492 -7.32887,3.4554 -12.01236,2.30184 m 11.32574,-17.19912 c -6.00567,3.41891 -12.79854,2.42798 -18.6892,-2.21653 m 19.10764,-12.07139 c -6.9256,3.99725 -13.97233,4.98178 -19.65823,1.03265 m 19.57586,-3.75449 c -6.61945,1.86019 -12.55267,0.83685 -17.48014,-3.3388 m 38.64915,38.81921 c 4.19909,2.78135 11.94024,3.18724 16.63729,1.78655 m -17.97846,-28.11844 c 7.371,5.11579 14.27763,6.8191 20.20185,5.76408 m -18.57589,-10.44766 c 4.73749,1.60376 11.64366,2.00636 17.0707,0.66817 m 248.71386,22.73998 c 4.83457,3.78087 10.90877,3.78087 14.93757,1.85944 m -19.71014,-16.30116 c 7.60575,0.57183 15.25665,-1.51487 20.51591,-4.83457 M 751.34099,577.6928 c 5.90095,4.73623 14.40425,4.31858 19.15231,1.06198 m -333.34975,25.13379 c -3.99208,2.24623 -9.3886,2.73213 -13.51837,0.81179 m 17.42114,-14.41414 c -6.85029,0.78289 -12.98012,-1.40481 -17.92848,-4.939 m 18.38782,-8.54896 c -4.41357,3.04189 -11.79822,3.58249 -16.80391,0.1477 m 358.31183,20.03141 c 3.93937,3.49399 9.18048,4.15757 13.51199,3.09909 m -14.62766,-7.00394 c 4.60867,2.17388 11.48046,0.0673 15.43343,-3.03708 m -17.66476,-12.95416 c 4.75193,4.97627 11.98311,4.01949 17.04494,0.74378 m -16.67305,-4.46268 c 6.50807,2.47926 12.21037,0.37189 15.12351,-2.3553 M 609.5389,616.0673 c 4.46077,4.01598 10.4436,4.8339 15.40743,3.68527 m -16.63555,-8.13299 c 5.24165,2.52517 13.12178,0.21747 17.67759,-3.25884 m -20.03542,-14.9269 c 5.37167,5.70911 13.64872,4.71157 19.47409,1.05421 m -19.00417,-5.27246 c 7.40909,2.89528 13.95244,0.57245 17.31514,-2.48849" fill="none" stroke="#ca772a" />
      <path d="m 623.53888,568.12004 -2.64395,-0.88644 c -2.63135,4.89103 -4.07042,8.93676 -5.06514,15.14314 0.0252,-5.08035 -0.27061,-9.01398 -1.64044,-12.96091 l -2.71651,0.50756 c 1.75359,3.97558 2.61209,7.82923 2.87831,12.38324 l 3.75051,0.17783 c 1.55514,-3.24662 3.65084,-6.61886 5.73133,-9.23845 l -2.41872,-1.50598 c 0.65966,-1.23257 1.37034,-2.43598 2.12461,-3.61999 z m -78.04791,4.16912 c -2.06327,2.75584 -3.67289,5.65703 -4.83324,9.18628 l -5.29402,-2e-5 c -1.95833,-3.59791 -3.98333,-6.5237 -6.44435,-9.29002 l 2.31477,-2.06192 c -0.90712,-1.59932 -1.90119,-3.24264 -2.99771,-4.96706 l 3.03363,-0.70396 c 0.43697,0.8326 0.85017,1.64689 1.22341,2.41038 l 2.98406,-0.61983 c 0,0 1.87412,8.4268 2.57161,15.23241 0.35467,-5.55315 1.63269,-10.1096 3.94504,-14.25146 l 2.63629,1.12374 c -0.49941,0.83995 -0.95432,1.65097 -1.3466,2.42372 z m 142.05638,10.18936 c -0.39078,-3.71745 -1.28184,-7.55525 -2.47964,-10.95534 l 2.18651,-0.0222 c 1.09076,3.24339 1.7326,6.49678 1.87509,10.98269 -0.0101,-5.36379 1.10408,-9.65232 2.59324,-13.89097 l 6.97934,0.0268 c -3.60602,4.56515 -6.03337,9.02612 -7.36588,13.87106 z m -106.32961,-0.75727 c 0.39516,-3.7593 1.29621,-7.6403 2.50747,-11.07868 l -2.21112,-0.0226 c -1.10302,3.27991 -1.75205,6.56993 -1.89612,11.10632 0.01,-5.42416 -1.11658,-9.76096 -2.62253,-14.04731 l -7.0579,0.0272 c 3.64664,4.6165 6.10135,9.12766 7.4489,14.02713 z m 68.16938,-19.15871 3.85054,0.01 c 1.87462,5.53012 2.7743,10.68889 3.155,17.01484 0.53148,-5.42834 1.67797,-9.43547 3.45306,-13.90053 l 2.11058,0.61767 c -2.25352,4.22325 -3.75718,8.46093 -4.75263,13.28286 h -5.59141 c -1.5883,-5.24048 -3.99109,-10.11814 -7.2762,-14.93636 l 3.00216,-0.12376 0.69607,1.27119 2.74894,-0.49463 z m -151.50064,19.02653 c -0.37619,-3.76205 -1.26871,-7.64947 -2.48169,-11.09653 l 2.26086,-0.007 c 1.10348,3.2878 1.7427,6.58243 1.85644,11.11975 0.03,-5.4241 1.21385,-9.75262 2.78528,-14.02796 l 7.21594,0.0783 c -3.76257,4.58999 -6.30569,9.08326 -7.71971,13.97285 z m 266.76213,-20.47375 2.69719,1.13033 c -0.50482,0.83478 -0.96521,1.64114 -1.37019,2.42342 l 2.25058,1.54123 c -2.11096,2.77208 -3.75777,5.69031 -4.94489,9.24036 h -5.41635 c -2.00355,-3.61912 -4.07534,-6.56213 -6.59318,-9.34472 l 2.33042,-2.13954 c -0.93174,-1.6107 -1.93014,-3.23164 -3.02912,-4.93088 l 3.10371,-0.70809 c 0.43691,0.81849 0.85059,1.61938 1.24717,2.39441 l 3.05746,-0.59335 c 0,0 1.91742,8.47648 2.63097,15.32217 0.36293,-5.58581 1.67044,-10.16913 4.03623,-14.33534 z m -304.67195,-5.68715 3.65257,0.95974 c 0.29295,5.8376 -0.23978,11.07373 -1.57892,17.31627 1.96377,-5.14503 4.1293,-8.75697 7.01466,-12.6589 l 1.8375,1.12109 c -3.27452,3.54886 -5.84109,7.29675 -8.08228,11.73791 l -5.30784,-1.37954 c -0.099,-5.48544 -1.06873,-10.81919 -2.892,-16.31286 l 2.88317,0.62042 0.31905,1.40729 2.74249,0.19746 z m 260.272,6.9601 2.68864,-1.19939 c 2.53655,4.92006 4.04089,9.15749 5.04619,15.32755 -0.28667,-4.98986 0.15426,-8.37488 1.50644,-12.30386 l 2.45508,0.74707 c -1.73425,3.8031 -2.33137,6.92249 -2.49111,11.48325 l -3.72965,0.18652 c -1.55505,-3.22499 -3.27346,-5.95282 -5.34934,-8.55282 l 2.33525,-1.49779 c -0.7637,-1.4312 -1.58492,-2.82236 -2.4615,-4.19053 z m 74.39863,-10.71935 2.30534,2.17717 c -3.38611,3.77429 -5.41145,7.74835 -6.7363,12.95219 l -3.92692,5e-5 c -0.72026,-3.8491 -1.75096,-7.06481 -3.2141,-10.57054 l 2.67331,-1.19485 c 1.24502,3.64607 1.77397,7.53863 1.74615,11.76539 0.30603,-5.82281 1.20142,-9.95336 3.2209,-14.41154 l 3.14498,0.51871 c 0.25464,-0.40714 0.51506,-0.81974 0.78664,-1.23658 z m -354.50567,7.24343 -2.75171,-0.92579 c -2.73465,4.97102 -4.22928,9.12223 -5.26009,15.41582 0.0232,-5.14694 -0.22574,-9.1302 -1.65376,-13.12041 l -2.82624,0.53073 c 1.82737,4.0169 2.66128,7.91572 2.94137,12.52766 l 3.90264,0.15732 c 1.61595,-3.29854 3.82528,-6.69665 5.9883,-9.36315 l -2.69655,-1.29017 c 0.73407,-1.33961 1.51921,-2.64686 2.35604,-3.93201 z" fill="#80b330" />
      <path d="m 433.23013,573.44677 c 1.89451,-5.69572 4.11419,-10.23853 6.91149,-14.53442 l -2.75171,-0.92579 c -2.73465,4.97102 -4.22928,9.12223 -5.26009,15.41582 0.0232,-5.14694 -0.22574,-9.1302 -1.65376,-13.12041 l -2.82624,0.53073 c 1.82737,4.0169 2.66128,7.91572 2.94137,12.52766 l 3.90264,0.15732 c 1.61595,-3.29854 3.82528,-6.69665 5.9883,-9.36315 l -2.69041,-1.30415 m 350.97393,3.9679 c 1.04376,-5.92785 2.69369,-10.23628 5.88164,-15.12936 l 2.30534,2.17717 c -3.38611,3.77429 -5.41145,7.74835 -6.7363,12.95219 l -3.92692,5e-5 c -0.72026,-3.8491 -1.75096,-7.06481 -3.2141,-10.57054 l 2.67331,-1.19485 c 1.24502,3.64607 1.77397,7.53863 1.74615,11.76539 0.30603,-5.82281 1.20142,-9.95336 3.2209,-14.41154 l 3.14018,0.51613 m -176.96861,29.52397 c 1.82438,-5.61123 3.96055,-10.08256 6.65164,-14.30685 l -2.64395,-0.88644 c -2.63135,4.89103 -4.07042,8.93676 -5.06514,15.14314 0.0252,-5.08035 -0.27061,-9.01398 -1.64044,-12.96091 l -2.71651,0.50756 c 1.75359,3.97558 2.61209,7.82923 2.87831,12.38324 l 3.75051,0.17783 c 1.55514,-3.24662 3.65084,-6.61886 5.73133,-9.23845 l -2.40594,-1.5159 m 105.50487,4.8389 c -1.82889,-5.57601 -3.99594,-9.98635 -6.68326,-14.18074 l 2.68864,-1.19939 c 2.53655,4.92006 4.04089,9.15749 5.04619,15.32755 -0.28667,-4.98986 0.15426,-8.37488 1.50644,-12.30386 l 2.45508,0.74707 c -1.73425,3.8031 -2.33137,6.92249 -2.49111,11.48325 l -3.72965,0.18652 c -1.55505,-3.22499 -3.27346,-5.95282 -5.34934,-8.55282 l 2.32677,-1.51369 m -264.87911,-8.32331 2.74249,0.19746 m 0.18439,14.92903 c 0.74859,-6.66549 0.50306,-12.40296 -0.77279,-17.93791 l 3.65257,0.95974 c 0.29295,5.8376 -0.23978,11.07373 -1.57892,17.31627 1.96377,-5.14503 4.1293,-8.75697 7.01466,-12.6589 l 1.8375,1.12109 c -3.27452,3.54886 -5.84109,7.29675 -8.08228,11.73791 l -5.30784,-1.37954 c -0.099,-5.48544 -1.06873,-10.81919 -2.892,-16.31286 l 2.88317,0.62042 c 1.30462,5.48067 1.76729,10.42394 1.69087,16.12961 m 78.85474,8.51349 c 0.35467,-5.55313 1.63269,-10.10958 3.94504,-14.25144 l 2.63629,1.12374 c -2.46204,4.1409 -3.84268,7.57851 -3.97273,13.1277 m -3.92818,4e-5 c -2.55155,-6.16474 -5.00352,-10.83117 -8.49313,-16.31902 l 3.03363,-0.70396 c 2.97905,5.67624 4.85316,10.5012 6.77908,17.02298 -0.69749,-6.80563 -2.57161,-15.23243 -2.57161,-15.23243 l -3.0039,0.57931 m 10.82696,3.91628 2.19039,1.55056 c -2.06327,2.75584 -3.67289,5.65703 -4.83324,9.18628 l -5.29402,-2e-5 c -1.95833,-3.59791 -3.98333,-6.5237 -6.44435,-9.29002 l 2.29499,-2.09678 m 229.39803,5.36204 c 0.36293,-5.58581 1.67044,-10.16913 4.03623,-14.33534 l 2.69719,1.13033 c -2.51891,4.16529 -3.93147,7.62318 -4.0645,13.20501 m -4.01895,0 c -2.61046,-6.20107 -5.1191,-10.89496 -8.68928,-16.41514 l 3.10371,-0.70809 c 3.04786,5.70969 4.9652,10.56303 6.9356,17.12323 -0.71355,-6.84569 -2.63097,-15.32217 -2.63097,-15.32217 l -3.07327,0.58273 m 11.07705,3.93938 2.241,1.5597 c -2.11096,2.77208 -3.75777,5.69031 -4.94489,9.24036 h -5.41635 c -2.00355,-3.61912 -4.07534,-6.56213 -6.59318,-9.34472 l 2.34798,-2.10916 m -253.05426,17.61926 c 0.9013,-5.29045 2.71121,-9.4357 5.14887,-14.00159 m -7.82788,13.97462 c -0.37619,-3.76205 -1.26871,-7.64947 -2.48169,-11.09653 l 2.26086,-0.007 c 1.10348,3.2878 1.7427,6.58243 1.85644,11.11975 0.03,-5.4241 1.21385,-9.75262 2.78528,-14.02796 l 7.21594,0.0783 c -3.76257,4.58999 -6.30569,9.08326 -7.71971,13.97285 z m 192.25201,0.89735 c 0.83379,-5.23775 2.55451,-9.34943 4.87934,-13.88147 m -7.47048,13.87357 c -0.39078,-3.71745 -1.28184,-7.55525 -2.47964,-10.95534 l 2.18651,-0.0222 c 1.09076,3.24339 1.7326,6.49678 1.87509,10.98269 -0.0101,-5.36379 1.10408,-9.65232 2.59324,-13.89097 l 6.97934,0.0268 c -3.60602,4.56515 -6.03337,9.02612 -7.36588,13.87106 z m -108.94992,-0.74927 c -0.8432,-5.2967 -2.58333,-9.45465 -4.93436,-14.03768 m 7.55467,14.02968 c 0.39516,-3.7593 1.29621,-7.6403 2.50747,-11.07868 l -2.21112,-0.0226 c -1.10302,3.27991 -1.75205,6.56993 -1.89612,11.10632 0.01,-5.42416 -1.11658,-9.76096 -2.62253,-14.04731 l -7.0579,0.0272 c 3.64664,4.6165 6.10135,9.12766 7.4489,14.02713 z m 66.81655,-15.9228 2.74894,-0.49463 m 4.23907,14.28356 c -1.07604,-6.58459 -2.87685,-12.03042 -5.63518,-17.02484 l 3.85054,0.01 c 1.87462,5.53012 2.7743,10.68889 3.155,17.01484 0.53148,-5.42834 1.67797,-9.43547 3.45306,-13.90053 l 2.11058,0.61767 c -2.25352,4.22325 -3.75718,8.46093 -4.75263,13.28286 h -5.59141 c -1.5883,-5.24048 -3.99109,-10.11814 -7.2762,-14.93636 l 3.00216,-0.12376 c 2.77186,4.93514 4.57019,9.56449 6.04594,15.06012" fill="none" stroke="#648f3b" stroke-width="0.60000002" />
      <path d="m 422.11325,610.78643 c 2.01404,-1.04117 3.41707,-0.79974 3.8863,0.60166 1.36505,-0.16864 2.95613,0.11726 4.18376,1.17765 2.51284,-1.71407 4.8986,-0.97723 6.80419,1.09679 l 20.40672,6.71445 c 2.03541,-2.41078 4.14509,-2.44484 6.29716,-1.12217 l 2.12189,-0.42959 c 2.04235,-2.66611 4.90571,-2.65733 7.24183,-0.98262 l 16.96297,8.49848 c 3.59741,-3.06925 6.60637,-1.5846 8.01862,-0.0144 l 3.3942,0.005 c 1.62993,-3.22732 4.91195,-2.56362 6.62494,-0.96642 l 25.6356,2.10623 c 3.23607,-3.48398 6.23895,-3.41359 8.05768,-1.94267 1.12941,-0.88612 2.45605,-1.024 3.65121,-0.69151 1.37667,-1.97042 4.07184,-1.91601 6.44089,-0.59106 l 23.07835,6.76097 c 2.25684,-3.19986 4.5167,-3.21453 6.27221,-1.34894 0.81429,-0.3913 1.65049,-0.46996 2.44286,-0.47683 1.93753,-2.1896 4.19415,-2.79054 7.17248,-1.5911 l 18.14138,0.34606 c 1.89405,-2.27667 4.72085,-1.83299 5.69556,-0.34463 1.62199,-1.00317 3.5363,-1.0184 5.41842,-0.18264 2.8419,-1.7692 5.70464,-1.49376 7.5106,0.88742 l 16.45463,-2.44361 c 3.32843,-1.69181 6.00388,-1.30562 7.62284,0.58883 1.27164,-0.16541 2.51158,-0.0455 3.7248,0.31493 1.43645,-3.27947 5.11977,-2.85452 7.29016,-0.74448 l 22.48986,1.71974 c 2.51828,-3.1969 5.49872,-3.30968 7.81293,-1.98427 1.14184,-0.68502 2.37299,-0.97354 3.69015,-0.66514 1.43882,-1.93316 3.83025,-1.84636 6.15597,-0.53082 l 20.39093,-1.07502 c 2.82323,-2.60699 4.78938,-1.52717 5.23049,0.0683 1.34477,-0.30422 2.53613,-0.16582 3.77133,0.42633 1.24953,-1.84653 3.53603,-1.75871 5.58727,-0.30418 l 18.11954,-4.75354 c 3.4195,-2.76496 6.08184,-2.68528 7.91247,-1.19916 1.06552,-0.48035 2.20489,-0.43175 3.50415,-0.0355 1.51498,-1.62917 3.84974,-1.86692 6.57957,-0.31463 l 8.24765,-10.01293 c 2.37385,-2.69455 4.1151,-2.33543 5.00869,-0.54492 1.64867,-0.68358 3.40869,-0.80562 5.26797,-0.14786 2.09586,-1.47035 4.23687,-1.67361 6.07719,0.23185 l 2.30646,10.64056 c -56.07563,23.36132 -342.15858,20.79662 -378.59944,0.82998 z" fill="#c48848" />
      <path d="m 625.19977,626.5864 c 0.87881,-1.66841 2.31764,-1.95553 4.84526,-1.07532 -1.96748,-0.16623 -3.4252,0.25276 -4.54376,1.2831 z m -16.25128,1.3502 c 1.58196,-2.72098 4.7409,-2.53715 5.89309,-0.42484 l -0.25951,0.14219 c -1.50025,-1.16165 -3.62542,-1.27189 -5.63358,0.28265 z m 2.18546,2.89896 c 2.37561,-4.79443 6.3071,-5.3884 8.97479,-3.54969 l -0.35067,0.36168 c -2.76921,-0.85777 -5.92725,-0.0703 -8.62412,3.18801 z m 6.30443,-1.23399 c 3.80219,-4.88174 8.02751,-5.28269 10.13469,-1.30482 -2.68758,-2.22867 -5.96956,-2.11211 -10.13469,1.30482 z m 78.65189,-4.48839 c 1.49972,-2.36906 4.06511,-2.65212 6.72414,-0.56125 -2.43791,-0.77904 -4.30872,-0.63888 -6.1232,0.77497 z m -3.44186,0.4636 c 1.78865,-1.80581 4.35644,-1.27228 6.04529,0.90181 -1.83651,-1.0816 -3.70376,-1.27009 -5.47561,-0.3939 z m -7.49305,2.15538 c 2.41704,-4.50683 7.09284,-4.85654 9.87938,0.16354 -3.00821,-3.06771 -6.65487,-3.40526 -9.87938,-0.16354 z m 43.17215,-4.37331 c 1.26853,-0.77225 2.7102,-0.50074 3.86973,0.50417 l -0.24206,0.40657 c -1.22278,-0.49351 -2.31335,-0.54473 -3.40691,-0.197 z m 2.90522,2.46106 c 0.6271,-4.50556 4.24314,-4.61962 6.5617,-2.15258 -2.74137,-1.26438 -4.94155,-0.79406 -6.5617,2.15258 z m -8.02739,-2.343 c 2.97046,-3.66904 6.83788,-2.1668 5.37892,3.03053 0.21692,-4.02093 -2.36922,-5.24815 -5.37892,-3.03053 z m 58.95247,-16.12539 c 2.02783,-2.92392 4.35788,-3.18112 5.11713,-0.5852 l -0.27353,0.16571 c -1.00826,-1.59579 -2.68045,-1.60312 -4.8436,0.41949 z m 10.36501,-0.77574 -0.17115,0.21157 c -3.11436,-0.77091 -5.74665,0.16642 -8.10557,3.16427 1.63643,-4.1171 4.77078,-5.04996 8.27672,-3.37584 z m -2.3038,2.45646 c 2.07344,-4.02042 5.99828,-5.60394 8.29264,-2.14165 -2.15436,-1.57429 -5.34783,-1.19648 -8.29264,2.14165 z m -23.25451,8.51661 c 1.76058,-2.13869 4.05281,-2.23806 6.94565,-0.1844 -2.78629,-0.93878 -4.54782,-0.74369 -6.43644,0.44856 z m -3.51473,-0.10271 c 2.31779,-1.32278 5.01221,-0.39514 6.34077,2.21537 -1.61834,-1.47122 -3.59307,-2.02777 -5.62654,-1.66378 z m 2.55752,2.44394 c -3.05062,-3.23233 -6.02989,-3.5407 -10.09333,-0.97629 4.11654,-4.07869 7.19924,-3.61915 10.09333,0.97629 z m -221.05235,4.77647 c 1.4491,-2.24769 4.50758,-2.50692 6.88626,-0.42011 -2.76959,-0.68927 -4.57333,-0.55651 -6.29832,0.63199 z m -2.79016,1.02365 -0.82763,-0.26829 c 2.25078,-2.34304 5.03045,-1.90677 6.60445,1.72868 -1.72345,-2.05577 -3.75532,-2.47867 -5.77682,-1.46039 z m -8.47336,1.78148 c 3.29447,-4.7552 7.71003,-4.78979 10.19295,0.37133 -3.103,-3.54765 -6.53363,-3.36429 -10.19295,-0.37133 z m 48.90027,3.50364 c 1.42156,-4.25458 4.39536,-5.5966 8.21541,-3.38478 -3.36042,-0.83898 -6.14033,0.22255 -8.21541,3.38478 z m 0.7161,-1.23225 c -0.67917,-0.0851 -1.37415,-0.0338 -2.06075,0.16658 L 580.8,629.33313 c 0.98663,-0.64524 2.05599,-0.80913 3.05806,-0.43937 z m -8.38824,1.26434 c 2.06222,-4.35312 6.02811,-4.10707 7.15069,0.24388 -1.99469,-2.83556 -4.48095,-3.09021 -7.15069,-0.24388 z M 465.61188,618.77554 c 1.63319,-3.10749 5.13032,-3.40042 7.44322,-0.93294 -2.46108,-1.15662 -4.85994,-0.91535 -7.01644,1.00508 z m -3.15971,1.70464 c 1.69685,-2.91162 4.60355,-2.94728 5.43634,-0.0875 -1.58356,-1.54849 -3.15189,-1.60163 -5.43634,0.0875 z m -5.05795,-0.1032 c 1.6749,-3.24337 4.78234,-3.26053 6.70852,-1.12599 l -0.63766,0.31963 c -2.0009,-1.13465 -4.10178,-0.74718 -6.07086,0.80636 z m 186.63348,5.47616 c 4.28802,-3.21482 8.68088,-1.95853 9.70668,4.22565 -2.37921,-4.7135 -5.6113,-5.46582 -9.70668,-4.22565 z m 7.38771,0.23985 c 2.05465,-0.85477 4.69224,-0.22367 5.43393,2.23957 -1.34324,-1.23582 -3.10033,-1.69862 -4.76505,-1.35378 z m 3.68956,0.67913 c 0.75832,-3.77889 5.60764,-3.9286 7.56053,-0.7597 -2.68655,-1.61019 -5.52555,-1.4703 -7.10872,0.93129 z M 425.9532,611.21956 c 1.73259,-0.71867 3.45488,-0.2936 4.54893,1.18715 l -0.55403,0.54148 c -1.13975,-0.85207 -2.50898,-1.22108 -3.95251,-0.98164 z m 2.43947,3.52208 c 2.07473,-4.93348 6.46636,-4.78517 8.59483,-1.07911 -3.04015,-2.29961 -5.64534,-2.09672 -8.59483,1.07911 z m -6.27942,-3.95521 c 2.41062,-2.32332 5.69136,-0.69182 3.6119,2.97161 0.30651,-2.65862 -0.6786,-3.76998 -3.6119,-2.97161 z m 79.05304,15.66447 c 0.50032,-3.50206 4.93662,-3.8889 6.88954,-1.08545 -2.54499,-1.33728 -5.13955,-1.06291 -6.4667,1.21938 z m -3.41619,-0.43241 c 1.83895,-0.88907 4.2886,-0.44655 5.09509,1.77262 -1.29459,-1.06337 -2.92873,-1.39703 -4.43653,-0.99526 z m -7.73203,0.32259 c 3.6232,-4.19393 7.95987,-2.66259 9.79223,2.57762 -2.91761,-4.19361 -6.0318,-4.63852 -9.79223,-2.57762 z" fill="#95590f" />
    </g>
    <g>
      <path d="m 761.82652,376.13692 c -50.08112,-26.77608 -287.95105,-18.73606 -302.04699,-7.5104 -7.38865,5.88413 -15.07817,64.99871 -4.87071,67.35551 8.9907,2.07587 12.94294,-28.02316 21.70893,-27.04915 11.04456,1.22718 -4.322,117.52394 12.49839,119.36514 19.30993,2.11372 14.14828,-86.83053 31.85464,-87.53177 6.20456,-0.24573 3.37629,20.16254 11.61354,19.86194 8.23726,-0.3006 6.59848,-21.30747 17.26082,-20.79035 14.92619,0.72392 13.25249,54.24406 24.94698,54.24406 11.29853,0 24.54529,-83.4404 48.72153,-83.97906 18.04149,-0.40197 25.60904,83.31208 50.02979,82.07245 24.07103,-1.22188 4.24861,-81.57519 34.33006,-83.51161 19.30645,-1.2428 10.10358,43.8577 29.80277,43.98166 10.40168,0.0655 6.55561,-24.69739 11.64311,-24.48846 7.70789,0.31654 4.39367,49.70303 9.35409,66.29175 3.85611,12.89564 15.16851,15.10789 15.82116,1.65295 1.62936,-33.59071 -1.24088,-113.85504 -12.66811,-119.96466 z" fill="#eef0dd" />
      <path d="m 525.28145,392.13316 c 46.28365,11.18133 115.18085,10.69346 174.03192,0.0513 -75.86169,8.55078 -119.62188,6.68574 -174.03192,-0.0513 z" fill="#aaad89" />
      <ellipse cx="762.10077" cy="323.84964" fill="#e8ddac" rx="2.3476017" ry="3.8228893" transform="rotate(11.879225)" />
      <ellipse cx="761.89404" cy="333.43304" fill="#e8ddac" rx="1.9786344" ry="2.3069568" transform="rotate(11.879225)" />
      <ellipse cx="543.98993" cy="453.71957" fill="#e8ddac" rx="2.586916" ry="4.994544" transform="rotate(5.8893148)" />
      <ellipse cx="245.63293" cy="670.14655" fill="#e8ddac" rx="1.3510516" ry="1.5326266" transform="rotate(336.4004)" />
      <ellipse cx="613.68909" cy="335.20752" fill="#e8ddac" rx="1.5272559" ry="2.27267" transform="rotate(11.40669)" />
      <ellipse cx="644.75006" cy="496.03531" fill="#e8ddac" rx="2.084681" ry="1.6781114" transform="rotate(351.19244)" />
      <path d="m 721.21214,388.6827 c 6.3522,-4.60426 14.03987,-7.06012 14.9784,-3.08114 1.073,4.54905 -9.30101,6.61409 -14.9784,3.08114 z" fill="#e8ddac" />
    </g>
    <g>
      <g clip-path="url(#clipPath5160)">
        <path d="m 709.31021,367.74525 c -6.90182,6.85676 -19.37894,-9.33884 -32.43224,0.60983 -12.41889,9.46515 -21.6311,-2.04811 -30.43332,5.44974 -11.69525,9.96217 -104.17205,2.42726 -123.52294,-2.7578 -6.80372,-1.82305 -2.9674,-6.80739 -15.64582,-6.16053 l 8.21097,-62.77717 186.12265,-0.45711 z" fill="#b27637" id="path5142" />
        <path d="m 510.6135,318.59848 c 1.31044,8.3773 4.38977,11.84594 7.48593,11.95301 6.67538,0.23084 6.25842,-16.22706 11.33812,-16.0632 6.39783,0.20639 3.26958,26.52144 9.77124,26.64976 9.46625,0.18682 4.49532,-33.10356 15.84086,-33.44024 5.83557,-0.17317 5.79408,13.97526 11.75318,11.93884 19.60726,-6.70045 5.06184,47.54333 21.65412,48.98157 12.23165,1.06026 12.9222,-47.88511 39.89019,-31.44415 10.79073,6.57854 13.48676,-10.57269 27.9806,-10.98167 13.71301,-0.38695 9.11197,23.89109 19.87458,24.42922 11.77967,0.58898 3.93952,-25.21133 13.28928,-27.71659 9.18045,-2.4599 7.52229,9.82496 21.72203,4.76674 l -6.05139,-33.09063 -192.03495,1.06066 z" fill="#956631" />
      </g>
      <path d="m 612.00547,264.85643 c -76.2462,1.52272 -98.80923,8.37545 -100.3016,20.8885 -3.52605,29.56482 -0.88825,39.46157 4.28664,39.80656 6.57414,0.43827 6.40377,-18.45171 12.09642,-18.26807 6.39783,0.20638 0.37754,31.51977 8.01242,31.85463 10.25515,0.44979 5.81483,-35.31518 19.2641,-35.65186 5.83631,-0.1461 7.38192,15.51462 12.26407,11.53687 10.38006,-8.4572 0.88653,52.98161 17.47881,54.41985 14.50123,1.25699 10.99316,-49.77937 40.34819,-35.67132 14.93822,7.17932 12.20215,-11.96161 34.22008,-10.66758 13.77943,0.80984 5.41744,26.55267 19.44227,27.25391 11.77966,0.58899 4.2061,-26.61745 15.1125,-29.53981 6.92157,-1.85463 16.36524,16.43376 15.16435,-23.66691 -0.80721,-26.95494 -44.3953,-30.81671 -96.88298,-30.81671 z" fill="#eef0dd" />
      <path d="m 592.58199,274.45404 c -0.77531,2.41418 -6.06532,2.35172 -6.269,4.43545 -0.17252,1.76093 -8.50796,2.86756 -11.41316,1.97774 -6.74301,-2.0654 -12.31534,-4.50087 -9.67619,-5.24116 3.0941,-0.86802 7.84403,5.23204 16.11721,4.19616 2.77411,-0.34738 2.45828,-1.828 -1.45764,-2.31759 -7.72801,-0.96623 4.9725,-3.79235 5.65823,-1.70297 0.55746,1.69811 3.43997,-0.27661 4.46883,-1.8217 z m -20.28576,4.63503 c -5.60505,-0.98222 -10.71613,-0.5411 -10.71613,-0.12722 0,0.63435 11.32278,4.96224 14.53102,3.98545 3.02705,-0.92136 0.35178,-5.15704 -4.6705,-5.96459 -9.19374,-1.47826 -0.87297,-2.65471 3.40747,-1.24835 6.07281,1.99533 7.19517,7.16943 4.20086,8.05318 -4.5825,1.35221 -14.71117,0.82615 -19.75141,-3.48436 -2.477,-2.11814 -0.54613,-3.1031 7.43881,-3.132 z m 26.69406,-2.84517 c -3.88677,-2.85975 -6.16407,-0.17421 -9.75887,-1.9807 -1.79966,-0.90438 -0.56939,-1.78777 1.75529,-0.99389 2.19241,0.74871 3.03258,-1.44761 8.2044,0.15983 z m 40.5546,6.59355 c -1.5357,-0.89319 -3.988,-0.36442 -2.19245,0.64858 6.45272,3.64161 -2.90476,4.52288 -6.82396,1.24754 -1.65866,-1.38633 -4.50739,-0.18034 -2.10031,0.84505 -2.90119,-0.23887 -3.44802,-1.49638 -4.67279,-1.36202 -0.745,0.0817 -0.91655,3.06826 8.14899,2.51151 5.8061,1.45726 12.0762,1.01208 10.01705,-1.72145 4.08091,-0.36196 6.34812,-0.71063 4.09005,-5.04647 -0.75524,-1.45027 -3.66982,-1.93933 -3.57886,1.07945 0.1161,3.85361 6.81953,3.87928 9.27163,-0.42173 0.89082,2.35548 5.31185,1.25254 7.70163,-1.1057 2.06095,0.1613 3.42239,-0.0993 5.06893,-1.46899 2.90944,-2.42079 -1.34425,-3.00696 -1.72801,-1.98635 -0.32054,0.85359 -1.09111,1.55191 -2.66712,1.9367 -3.425,-1.22898 -6.12266,-4.05962 -8.91133,-3.12842 -1.54912,0.51724 1.94015,2.70642 6.18328,4.07199 -2.48639,2.35873 -2.80484,1.87047 -4.30457,0.92566 -3.00174,-1.89104 -5.16965,-1.0978 -4.69239,-0.0748 1.8442,3.95346 -4.72681,3.74401 -4.18447,0.49058 2.91946,2.44107 -0.92076,4.71336 -4.6253,2.5588 z" fill="#c99259" />
      <ellipse cx="652.41028" cy="220.81476" fill="#e8ddac" rx="1.6406766" ry="2.6393492" transform="rotate(12.46287)" />
      <ellipse cx="652.50098" cy="227.58279" fill="#e8ddac" rx="1.2035613" ry="1.1657435" transform="rotate(12.46287)" />
      <ellipse cx="579.35681" cy="478.96817" fill="#e8ddac" rx="0.95736194" ry="1.2412434" transform="rotate(346.79444)" />
      <ellipse cx="554.18835" cy="511.02435" fill="#e8ddac" rx="0.68360901" ry="0.83159828" transform="rotate(343.84584)" />
      <ellipse cx="567.88885" cy="164.38243" fill="#e8ddac" rx="1.1639103" ry="2.5616629" transform="rotate(13.014865)" />
      <ellipse cx="475.22116" cy="358.9343" fill="#e8ddac" rx="1.0257175" ry="1.2034135" transform="rotate(352.73136)" />
      <path d="m 634.875,278 c 63.26587,-79.3075 4.82107,-120.1896 -7.71967,-84.98223 -8.39461,23.56736 2.34467,48.10723 -11.53033,82.10723 5.82621,2.72374 13.26961,4.1875 19.25,2.875 z" fill="#fbac30" stroke="#ca772a" stroke-width="2.5" />
      <path d="m 613.84375,272.18746 c 5.41875,-2.23974 9.68751,-1.29808 11.20096,3.13723 2.08729,-0.12996 3.75513,0.50906 5.14182,1.66355 4.44807,-3.2324 8.51621,-2.33039 11.12597,2.76176 -10.59781,2.40624 -33.37311,-0.16313 -27.46875,-7.56254 z" fill="#eef0dd" />
      <path d="m 613.84375,272.18746 c 6.59729,-3.40952 10.39152,-1.40964 11.6008,3.1861 l -0.55006,0.0341 c -2.11343,-3.53788 -5.79031,-4.89271 -11.05074,-3.22016 z m 9.5356,3.58527 c 2.44791,-1.43846 5.37689,-1.05025 7.03418,1.0567 l -0.48442,0.50608 c -1.86401,-1.40388 -3.95312,-1.9212 -6.54976,-1.56278 z m 4.80815,3.53977 c 4.28683,-7.15946 11.10432,-6.23591 13.125,0.4375 -3.2088,-4.96229 -8.87164,-5.29391 -13.125,-0.4375 z" fill="#aaad89" />
      <path d="m 620.24836,260.1607 c 5.34696,7.27538 13.97298,9.99269 23.17676,6.31118 m -20.02117,-35.2374 c 7.10007,7.97662 24.36815,9.4149 37.86706,-1.19138 M 624.468,203.39419 c 7.21743,9.17537 28.35657,13.41807 39.37331,6.13541 m -38.33924,-11.52545 c 8.32415,6.90559 26.47769,4.70954 35.12397,-2.87811" fill="none" stroke="#ca772a" stroke-width="1.60000002" />
      <path d="m 601.75,281.25 c -18.625,-32.5 -19.55211,-73.66515 1.125,-75.75 22.11043,-2.22937 20.75,49.625 14.875,74.375 -4.60997,2.93725 -10.72457,3.57889 -16,1.375 z" fill="#fbac30" stroke="#ca772a" stroke-width="2.5" />
      <path d="m 594.05809,264.97104 c 7.51301,3.00521 19.71059,3.53553 26.33972,-0.17678 m -32.25872,-41.93031 c 8.93078,7.51159 21.10175,9.65723 32.43347,7.48889 m -30.05111,-14.97156 c 6.83363,3.29182 19.87804,2.96707 26.04549,-0.38128" fill="none" stroke="#ca772a" stroke-width="1.60000002" />
      <path d="m 592.08507,190.85786 c -0.80624,-1.03848 -1.64277,-2.05991 -2.509,-3.07006 l -2.77569,2.67456 c 4.86878,5.49993 9.71237,12.67553 13.01656,19.97137 h 8.35147 c 0.94452,-7.70516 2.40931,-13.63729 5.11119,-20.27114 l -2.80842,-1.64143 c -2.65978,6.64673 -3.52402,13.80765 -3.99391,21.91257 -0.61592,-10.15823 -2.73593,-18.09717 -7.1247,-25.99168 l -5.53582,0.19114 c 0.79774,1.15751 1.52904,2.30852 2.27102,3.53069 z m 65.0514,-30.18274 3.58741,4.97228 c -7.62982,5.47008 -12.44506,13.02549 -14.41292,22.90751 l -7.71451,-1.27593 c -0.29193,-6.99194 -1.65789,-13.15085 -3.83535,-19.18862 l 4.55345,-2.69841 c 2.2518,7.23441 2.79259,14.36083 1.86109,22.31361 1.58865,-10.33386 4.15749,-18.76622 8.81479,-26.49516 l 4.32386,2.77285 c 0.91128,-1.12289 1.84242,-2.22457 2.82218,-3.30813 z" fill="#80b330" />
      <path d="m 643.72289,188.12686 c 1.98737,-11.21979 6.48491,-19.78902 13.41358,-27.45174 l 3.58741,4.97228 c -7.62982,5.47008 -12.44506,13.02549 -14.41292,22.90751 l -7.71451,-1.27593 c -0.29193,-6.99194 -1.65789,-13.15085 -3.83535,-19.18862 l 4.55345,-2.69841 c 2.2518,7.23441 2.79259,14.36083 1.86109,22.31361 1.58865,-10.33386 4.15749,-18.76622 8.81479,-26.49516 l 4.29488,2.77101 m -62.17836,26.90466 3.98478,-2.7423 m 6.42594,22.28996 c -2.95841,-9.07445 -7.32574,-16.09703 -12.9416,-22.64593 l -2.77569,2.67456 c 4.86878,5.49993 9.71237,12.67553 13.01656,19.97137 h 8.35147 c 0.94452,-7.70516 2.40931,-13.63729 5.11119,-20.27114 l -2.80842,-1.64143 c -2.65978,6.64673 -3.52402,13.80765 -3.99391,21.91257 -0.61592,-10.15823 -2.73593,-18.09717 -7.1247,-25.99168 l -5.53582,0.19114 c 5.21587,7.5682 9.35566,16.6225 10.90497,25.80054" fill="none" stroke="#648f3b" />
      <path d="m 591.53902,283.93034 c 1.88303,-5.48053 7.27268,-7.46039 8.85501,-5.30936 2.69238,-0.57657 5.07454,0.36661 6.81653,2.17934 1.62824,-0.8607 3.28747,-1.03954 4.97463,-0.60395 2.58967,-4.90538 7.73987,-4.8559 11.68981,-1.94637 -3.90324,10.45053 -30.32003,12.43413 -32.33598,5.68034 z" fill="#eef0dd" />
      <path d="m 585.60313,283.97133 c 1.96616,-0.98905 4.14025,-1.28055 6.31045,-0.96165 l 0.18763,-0.4572 c -2.21964,-0.89066 -4.99513,-0.39165 -6.49808,1.41885 z m 18.02863,-4.78623 c -5.24617,-3.87966 -10.91819,-1.5645 -12.09274,4.74524 2.64407,-4.80924 6.99968,-7.07681 12.09274,-4.74524 z m 8.67381,1.05337 c 2.84149,-3.86449 7.23051,-4.17729 11.56943,-1.98847 -4.04248,-4.13142 -9.7463,-3.48529 -11.82463,1.86844 z m 2.61216,1.96831 c -1.51749,-3.07735 -5.44262,-3.77555 -7.97314,-1.66703 l 0.59892,0.63776 c 2.42503,-1.25962 5.23156,-1.05547 7.37422,1.02927 z m -4.81862,2.8008 c -1.77869,-7.43511 -9.77618,-10.19878 -14.69822,-3.63258 5.28498,-3.75169 10.18854,-2.74983 14.69822,3.63258 z m -74.70101,-4.70122 c 28.29438,12.44188 112.84882,17.85135 144.70374,1.68048 -33.91926,11.29432 -106.61882,9.49953 -144.70374,-1.68048 z" fill="#aaad89" />
    </g>
  </g>
</svg>