<svg xmlns="http://www.w3.org/2000/svg" viewBox="-38 -63 84 84">
  <g>
    <path d="M12.3 5.1h-24l1.4 14.7h20.6z" fill="#cb945a"/>
    <path d="M5 19.1L7.8 4m-9.4 14.9L-1 4.5m-6.4 13.1L-7.8 3" fill="#eda6d9" stroke="#a16b32" stroke-linecap="round"/>
    <path d="M-8.1 5.6c3.5 6.9 12.1 6.7 14.3.3C20.8 18.2 28.9-6.9-.5-12.7-26-8.3-20.1 14.9-8.1 5.6z" fill="#eda6d9"/>
    <path d="M-8.7-3.3a1.13.75 48 1 0 1.1-1 1.13.75 48 0 0-1.1 1zm6.1 8a.7.47 46 1 1 .9.5.7.47 46 0 1-.9-.5zm.7-7.1a1.43.93 50 1 0 1.3-.3 1.43.93 50 0 0-1.3.3zm3.7-4.7a1.74.86 60 1 0 .7-1.6 1.74.86 60 0 0-.7 1.6zm8.1 4.4a1.21.78 55 1 0 1.3-.5 1.21.78 55 0 0-1.3.5z" fill="#de65b5"/>
    <path d="M-6.3-13.4a6.78 6.5 70 1 0 8.4-7.5 6.78 6.5 70 0 0-8.4 7.5z" fill="#ce2b5d"/>
    <path d="M-4.2-17.1a1.09 1.63 52 1 0 1.5-1.4 1.09 1.63 52 0 0-1.5 1.4z" fill="#fff"/>
  </g>
  <g transform="matrix(1 0 0 1.08 24.1-37.6)">
    <path d="M12.3 5.1h-24l1.4 14.7h20.6z" fill="#cb945a"/>
    <path d="M5 19.1L7.8 4m-9.4 14.9L-1 4.5m-6.4 13.1L-7.8 3" fill="#eda6d9" stroke="#a16b32" stroke-linecap="round"/>
    <path d="M-8.1 5.6c3.5 6.9 12.1 6.7 14.3.3C20.8 18.2 28.9-6.9-.5-12.7-26-8.3-20.1 14.9-8.1 5.6z" fill="#eda6d9"/>
    <path d="M-8.7-3.3a1.13.75 48 1 0 1.1-1 1.13.75 48 0 0-1.1 1zm6.1 8a.7.47 46 1 1 .9.5.7.47 46 0 1-.9-.5zm.7-7.1a1.43.93 50 1 0 1.3-.3 1.43.93 50 0 0-1.3.3zm3.7-4.7a1.74.86 60 1 0 .7-1.6 1.74.86 60 0 0-.7 1.6zm8.1 4.4a1.21.78 55 1 0 1.3-.5 1.21.78 55 0 0-1.3.5z" fill="#de65b5"/>
    <path d="M-6.3-13.4a6.78 6.5 70 1 0 8.4-7.5 6.78 6.5 70 0 0-8.4 7.5z" fill="#ce2b5d"/>
    <path d="M-4.2-17.1a1.09 1.63 52 1 0 1.5-1.4 1.09 1.63 52 0 0-1.5 1.4z" fill="#fff"/>
  </g>
  <g transform="matrix(.97.19-.22.99-17.4-40.7)">
    <path d="M12.3 5.1h-24l1.4 14.7h20.6z" fill="#cb945a"/>
    <path d="M5 19.1L7.8 4m-9.4 14.9L-1 4.5m-6.4 13.1L-7.8 3" fill="#eda6d9" stroke="#a16b32" stroke-linecap="round"/>
    <path d="M-8.1 5.6c3.5 6.9 12.1 6.7 14.3.3C20.8 18.2 28.9-6.9-.5-12.7-26-8.3-20.1 14.9-8.1 5.6z" fill="#eda6d9"/>
    <path d="M-8.7-3.3a1.13.75 48 1 0 1.1-1 1.13.75 48 0 0-1.1 1zm6.1 8a.7.47 46 1 1 .9.5.7.47 46 0 1-.9-.5zm.7-7.1a1.43.93 50 1 0 1.3-.3 1.43.93 50 0 0-1.3.3zm3.7-4.7a1.74.86 60 1 0 .7-1.6 1.74.86 60 0 0-.7 1.6zm8.1 4.4a1.21.78 55 1 0 1.3-.5 1.21.78 55 0 0-1.3.5z" fill="#de65b5"/>
    <path d="M-6.3-13.4a6.78 6.5 70 1 0 8.4-7.5 6.78 6.5 70 0 0-8.4 7.5z" fill="#ce2b5d"/>
    <path d="M-4.2-17.1a1.09 1.63 52 1 0 1.5-1.4 1.09 1.63 52 0 0-1.5 1.4z" fill="#fff"/>
  </g>
</svg>
