<svg xmlns="http://www.w3.org/2000/svg" xmlns:xlink="http://www.w3.org/1999/xlink" viewBox="-21 -21 42 42">
  <clipPath id="B"><use xlink:href="#A"/></clipPath>
  <g clip-path="url(#B)">
    <path d="m0-11.9c13.8-22.8 38.1 5 0 32.5-38.1-27.5-13.8-55.3 0-32.5z" fill="#dc1da2" id="A"/>
    <path d="M-16-21V7.5c10.6.7 21.4.7 32 0V-21m-37 12c14 1.6 28 1.6 42 0M0-15v36" fill="none" stroke="#fce191"/>
    <path d="m-21-14.8c14.1 1.3 27.9 1.3 42 0M-19.7.5c13.2 1.4 26.2 1.4 39.4 0M-9-21V16M9-21v37" fill="none" stroke="#912d9f" stroke-width="2"/>
  </g>
</svg>
