<svg xmlns="http://www.w3.org/2000/svg" viewBox="-35 -56 70 96">
  <path d="M-10-11.3c-3.8-10-12.1-18.6-24.1-21.3 2.1 12.3 9.3 22.3 19.7 24.9z" fill="#ff3131"/>
  <path d="M-1.8-13.2c2.2-11.7-8.6-25.6-18.6-34-2.4 13.4 0 30.3 9.7 36.1z" fill="#f9ecb0"/>
  <path d="M-5.1-14.2C-10.3-25.4-9.7-43.5 0-54.8c9.7 11.3 10.3 29.4 5.1 40.6z" fill="#ff3131"/>
  <path d="M1.8-13.2c-2.2-11.7 8.6-25.6 18.6-34 2.4 13.4 0 30.3-9.7 36.1z" fill="#f9ecb0"/>
  <path d="M10-11.3c3.8-10 12.1-18.6 24.1-21.3C32-20.3 24.8-10.3 14.4-7.7z" fill="#ff3131"/>
  <path d="M5.9 0A5.9 5.9 0 0 1-5.9 0 5.9 5.9 0 0 1 5.9 0zm14.4 20.2c.5 9.8-6.5 13.5-12.4 7.6-2.1 14.5-13.7 14.5-15.8 0-5.9 5.9-12.9 2.2-12.4-7.6-9.3 1.4-13.3-6.3 3.9-16.9C-9 13 9 13 16.4 3.3c17.2 10.6 13.2 18.3 3.9 16.9zM-17.2-3c7.7-8.9 26.7-8.9 34.4 0-.7-18.6-33.7-18.6-34.4 0z" fill="#fb6531"/>
</svg>
