<svg xmlns="http://www.w3.org/2000/svg" viewBox="-24 -38 47 76">
  <path d="M16.2-38L10.6-3.8l6.1-1.8H23L13.5 38H4.1v-48z" fill="#f5a830"/>
  <path d="M6.6-5.6h10.1L4.1 38H-9.7L3.4-.5H-4L16.2-38z" fill="#fafa8a"/>
  <path d="M-.5 1h-8.2l24.9-39L-.2-1.9h7.9L-9.7 38H-24z" fill="#fab92b"/>
</svg>
