<svg xmlns="http://www.w3.org/2000/svg" xmlns:inkscape="http://www.inkscape.org/namespaces/inkscape" viewBox="-5 14 210 120">
  <defs>
    <inkscape:path-effect effect="skeletal" id="path-effect4135" pattern="m -51.252722,301.03655 0,2.5 102,0 c 5.273631,0 11.532526,-0.40502 16,-1.25 -3.440893,-0.83626 -7.238754,-1.25 -16,-1.25 z"/>
    <inkscape:path-effect effect="skeletal" id="path-effect4077" pattern="m 12.5,276.5 0,2.5 12,0 c 7.819526,0 11.905096,-0.40502 16,-1.25 -4.744888,-0.64998 -13.510349,-1.25 -16,-1.25 z"/>
    <inkscape:path-effect effect="skeletal" id="path-effect3991" pattern="m 32.852384,330.91818 0,2.5 12,0 c 7.819526,0 11.905096,-0.40502 16,-1.25 -4.744888,-0.64998 -13.510349,-1.25 -16,-1.25 z"/>
    <clipPath id="clipPath4008">
      <path d="m 29.776731,313.42161 c -5.842022,-0.55508 -12.040252,-1.66972 -18.682981,-4.01536 l 18.505043,21.23449 27.484594,1.74652 z"/>
    </clipPath>
    <clipPath id="clipPath4012">
      <path d="m 13.675489,307.08489 c 3.410832,4.39759 7.071414,8.69176 11.229682,12.47877 l 18.253813,2.74211 -4.029905,5.39487 -8.289343,-4.59748 -32.4943269,2.1142 -0.1653663,21.46284 104.7775372,-1.42997 -1.16998,-35.48917 z"/>
    </clipPath>
    <clipPath id="clipPath4164">
      <path d="m 79.963497,331.5159 c -0.322691,-1.40095 -0.671347,-2.80323 -1.057154,-4.19897 -0.390037,-1.41104 -0.848171,-2.85997 -1.37962,-4.30872 L 55.933204,312.41986 39.709394,290.58764 c -7.40135,-4.89139 -15.039213,-9.42205 -22.867822,-13.59107 l 16.145582,44.34401 z M 22.236494,264.11157 c 1.406956,4.71563 3.018341,9.50425 5.085405,14.06638 l 42.275939,32.55144 4.257542,6.87177 8.979346,-25.81387 z"/>
    </clipPath>
    <clipPath id="clipPath4168">
      <path d="M 81.5,330.21875 C 72.38557,321.62119 60.779224,320.04153 49.40625,314.75 38.033276,309.45847 27.173674,300.23005 20.46875,276.65625 l 11.975886,8.33164 c 1.55917,2.84447 3.579017,5.46955 6.303992,7.98137 l 41.478109,16.08044 z"/>
    </clipPath>
    <clipPath id="clipPath4172">
      <path d="M 54.9375,287.75 C 42.915012,276.99164 28.007703,267.43041 19.5625,264.3125 l 8.752819,38.15513 z"/>
    </clipPath>
  </defs>
  <g id="Spitfire" transform="matrix(1.0000052,0,0,1.0000052,-4.015799,-234.64705)">
    <g>
      <path d="m 38.538402,249.63904 c 1.919216,10.52668 9.14011,22.96899 14.468763,19.9908 7.884813,-4.40683 -15.043236,-20.1766 -4.594116,-33.73401 1.971406,24.28473 31.942964,27.37885 21.666882,77.23814 C 54.258432,286.50784 28.850575,271.83685 38.538402,249.63904 z" style="fill:#ff740b"/>
      <path d="m 70.079931,313.13397 c -6.652913,-11.19624 -15.000875,-20.27859 -21.711798,-28.67638 -1.671097,-4.33849 -2.840041,-8.85722 -3.732017,-13.65874 15.494165,15.53153 19.533825,12.67017 15.664344,-2.25966 7.097393,8.50034 9.911299,17.8598 11.743436,30.69387 -0.283329,4.19384 -0.913261,8.80292 -1.963965,13.90091 z" style="fill:#ffbc20"/>
      <path style="fill:none;stroke:#b53f0e;stroke-width:2.5" d="m 38.538402,249.63904 c 1.919216,10.52668 9.14011,22.96899 14.468763,19.9908 7.884813,-4.40683 -15.043236,-20.1766 -4.594116,-33.73401 1.971406,24.28473 31.942964,27.37885 21.666882,77.23814 C 54.258432,286.50784 28.850575,271.83685 38.538402,249.63904 z"/>
    </g>
    <g>
      <path style="fill:#ff740b" d="m 23.43079,282.18826 c 13.516028,36.39194 35.183902,31.29957 53.314998,42.73493 -1.457432,-4.85214 -3.147794,-8.55604 -5.017756,-11.43736 -1.270206,-14.35741 -30.182152,-36.73684 -46.883361,-45.38335 3.363683,9.92705 7.042343,16.66086 10.857477,21.38833 -4.188969,-2.68549 -8.056008,-4.94051 -12.271358,-7.30255 z"/>
      <path style="fill:#f7e764" d="m 24.831,268.121 c 14.449966,42.65652 34.24783,26.16632 46.901,45.464 -1.219282,-14.36285 -30.182634,-36.80861 -46.901,-45.464 z"/>
      <path style="fill:none;stroke:#b53f0e;stroke-width:2.5" d="M 82.370788,329.29819 C 63.489692,311.48783 34.946818,322.9552 21.68079,276.31326 M 70.75,318.625 C 78.995695,303.62606 35.33541,271.48477 19.125,265.5" clip-path="url(#clipPath4164)"/>
      <path style="fill:#b53f0e" d="m 24.629622,263.38843 -2.393128,0.72314 c 1.406956,4.71563 3.018341,9.50425 5.085405,14.06638 2.020433,4.45922 4.066461,7.58873 6.061403,9.97727 1.994941,2.38854 3.937604,4.05481 6.074344,5.42927 -0.963729,-1.09743 -2.069472,-2.44594 -3.135849,-3.93964 -1.066376,-1.4937 -2.093969,-3.13245 -2.99448,-4.74942 -1.801023,-3.23393 -3.095526,-6.37758 -3.712541,-7.75175 -1.982657,-4.41565 -3.560625,-9.10056 -4.985154,-13.75525 z" inkscape:path-effect="#path-effect4077" inkscape:original-d="m 23.433058,263.75 c 4.832354,15.99185 10.341959,24.65941 16.024588,29.83449" clip-path="url(#clipPath4172)"/>
      <path style="fill:#b53f0e" d="m 38.331002,292.67332 1.378392,-2.08568 c -7.40135,-4.89139 -15.039213,-9.42205 -22.867822,-13.59107 -1.474108,-0.84853 -3.363657,-1.42102 -5.360876,-0.99416 -1.706702,0.49436 -2.9588867,1.72433 -3.6406112,3.12946 -1.4e-6,0 -2.7e-6,0 -4.1e-6,0 -0.9126287,1.82132 -1.2448764,3.77958 -1.3459715,5.62876 -10e-8,0 -3e-7,1e-5 -5e-7,1e-5 -0.1561185,2.4796 0.042938,4.94037 0.4196626,7.334 0.9501301,6.07006 2.9984375,11.92084 5.7592577,17.36206 3.084883,6.09925 7.167849,11.75985 12.308526,16.34475 5.010228,4.45432 10.798369,7.91057 16.807999,10.70974 5.929688,2.7715 12.186323,4.95693 18.67642,6.12501 3e-6,0 5e-6,0 8e-6,0 2.689773,0.48589 5.452035,0.78876 8.244601,0.70997 3e-6,0 5e-6,0 8e-6,0 2.196125,-0.0503 4.492378,-0.36687 6.648637,-1.30705 2e-6,-1e-5 5e-6,-1e-5 8e-6,-1e-5 1.761886,-0.76076 3.345745,-2.10813 4.238059,-3.96711 0.942984,-2.16319 0.878805,-4.50265 0.366202,-6.5561 -0.322691,-1.40095 -0.671347,-2.80323 -1.057154,-4.19897 -1.109658,-4.01443 -2.770497,-8.33544 -5.102667,-12.08697 -1.105888,-1.78025 -2.385732,-3.412 -3.75753,-4.78698 -1.371798,-1.37498 -2.834248,-2.49166 -4.268243,-3.3127 1.083437,1.12469 2.092242,2.33463 3.128848,3.7839 1.036606,1.44927 2.102844,3.14405 3.177103,5.27286 1.479963,2.93266 2.992617,6.6747 4.407722,11.79718 0.37431,1.35495 0.716083,2.723 1.036503,4.09626 0.370292,1.75513 0.489231,3.55808 -0.201921,4.94657 -0.510907,1.19082 -1.676118,2.12498 -2.982112,2.72746 -1.70126,0.77394 -3.683587,1.01909 -5.706858,1.09274 -2e-6,0 -5e-6,0 -7e-6,0 -2.559033,0.0784 -5.149598,-0.21172 -7.729512,-0.67173 -2e-6,0 -5e-6,0 -7e-6,0 -6.22923,-1.11503 -12.280621,-3.23535 -18.06069,-5.92969 -5.851323,-2.73724 -11.437736,-6.0607 -16.202817,-10.3114 -4.872323,-4.33178 -8.766123,-9.74667 -11.741029,-15.60762 -1e-6,-1e-5 -2e-6,-1e-5 -4e-6,-1e-5 -2.654343,-5.24668 -4.62264,-10.84926 -5.5192247,-16.61749 -0.3514483,-2.27428 -0.5422677,-4.55309 -0.3949504,-6.7881 10e-8,0 3e-7,-10e-6 5e-7,-10e-6 0.1264412,-1.68614 0.368284,-3.31706 1.0747566,-4.64674 1e-6,0 2e-6,-10e-6 3e-6,-10e-6 0.5046,-0.90361 1.219795,-1.70653 2.029642,-1.84827 1.013041,-0.33404 2.306667,0.16606 3.573105,0.77699 7.760768,4.13304 15.330873,8.62338 22.664548,13.47015 z" inkscape:path-effect="#path-effect4135" inkscape:original-d="m 39.020198,291.63048 c -6.773426,-4.47646 -14.465435,-9.11008 -22.766185,-13.53061 -14.0940965,-7.50575 -10.705994,28.72201 9.558842,46.76807 18.068703,16.09038 57.284241,25.70066 52.932933,6.93025 -3.246669,-14.00528 -7.763032,-20.75568 -12.967885,-24.66791" clip-path="url(#clipPath4168)"/>
    </g>
    <g>
      <path d="M 5.2657781,339.91527 C 37.113111,324.9289 61.56643,354.06763 96.283289,332.27863 83.703487,328.21401 78.496573,320.87985 62.326349,316.92459 c -12.620794,-3.08706 -26.626056,-0.084 -41.836633,-3.69873 5.2574,5.86452 10.212214,9.93316 15.129596,12.52748 C 21.11218,323.5614 12.143096,329.2381 5.2657781,339.91527 z" style="fill:#ff740b"/>
      <path style="fill:#ffbc20" d="m 62.326349,316.92459 c -12.620793,-3.08706 -26.626056,-0.084 -41.836633,-3.69873 18.600142,20.74807 33.412866,19.01716 56.788284,9.46214 -4.053048,-2.17105 -8.658282,-4.22404 -14.951651,-5.76341 z"/>
      <path style="fill:#f7e764" d="m 59.875,335.5 c 8.312911,-8.10891 16.958743,-9.14326 26.260092,-7.7722 l 5.248506,2.68704 C 85.274828,337.16274 73.288555,337.37438 59.875,335.5 z"/>
      <path style="fill:#b53f0e" d="m 15.649353,305.55067 -1.973864,1.53422 c 3.410832,4.39759 7.071414,8.69176 11.229682,12.47877 1.556215,1.41727 3.049489,2.62285 4.480761,3.65775 3.033794,2.19555 5.816308,3.56311 8.359952,4.44306 2.543644,0.87995 4.864922,1.28296 7.177134,1.35053 -2.131144,-0.60415 -4.760962,-1.59872 -7.289524,-2.96343 -2.528563,-1.36471 -4.950422,-3.0781 -6.881827,-4.65748 -1.88953,-1.54568 -3.349933,-2.93154 -4.165675,-3.67517 -3.999722,-3.64612 -7.562623,-7.83679 -10.936639,-12.16825 z" inkscape:path-effect="#path-effect3991" inkscape:original-d="M 14.662421,306.31778 C 25.580228,320.3641 34.844511,327.2077 44.923018,329.015" clip-path="url(#clipPath4008)"/>
      <path style="fill:none;stroke:#b53f0e;stroke-width:2.5" d="M 38.639617,326.16007 C 21.836204,322.72508 12.459231,328.74729 5.2657781,339.91527 37.113111,324.9289 61.56643,354.06763 96.283289,332.27863 83.703487,328.21401 78.496574,320.87984 62.326349,316.92459 c -14.203195,-3.47412 -30.743066,1.04134 -51.65279,-6.34218" clip-path="url(#clipPath4012)"/>
    </g>
    <path d="m 95.716998,328.6268 c -5.524271,-4.94975 -15.192835,-1.82811 -19.349465,-14.28544 14.816625,10.33417 14.303208,7.00412 9.830713,-1.88963 6.629126,4.77298 8.855839,9.76691 9.518752,16.17507 z M 19.345024,303.16782 c 9.501747,-0.44194 10.902097,0.4375 13.421165,5.7408 -5.745243,-0.39775 -10.194991,-2.11688 -13.421165,-5.7408 z" style="fill:#ffbc20;stroke:#b53f0e;stroke-width:1.5;stroke-miterlimit:5"/>
    <path d="m 44.570083,256.14644 c 10.050475,8.34912 2.958947,13.49556 0,0 z" style="fill:#ffbc20;stroke:#b53f0e;stroke-width:1.1"/>
  </g>
  <g id="Soarin" transform="translate(-103.58542,-333.00898)">
    <path d="m 268.80763,428.25141 c 27.40084,14.34549 41.57296,-10.99399 18.78283,-14.7922 2.44705,-1.47481 2.57497,-3.83282 0.33459,-5.01199 22.33605,-15.427 20.4055,-43.95788 7.21626,-51.34853 -15.38291,-8.61987 -36.51011,20.18377 -25.38191,37.51494 -0.0546,-15.59548 15.17072,-28.10464 17.33268,-13.90861 -4.41811,-3.75503 -10.3,-1.8869 -12.57656,6.49101 14.38041,-10.24635 11.26117,21.67809 -16.89526,23.00106 -32.67225,1.53514 -34.54468,-25.61182 -23.14886,-22.75106 -2.9989,-6.59367 -6.8139,-9.7485 -10.41311,-1.10467 0.59019,-17.84267 17.35772,-8.48894 12.80364,10.57205 10.98709,-10.42273 0.72194,-39.19288 -12.8689,-36.8722 -13.26612,2.26523 -22.87192,38.85768 1.25449,54.18266 -6.74715,-0.61892 -10.18675,5.03224 -4.30448,6.48395 -5.51817,1.67321 -9.88801,4.84922 -13.83962,9.83891 24.16283,-9.84031 52.63796,-7.04188 61.70421,-2.29532 z" style="fill:#356ac1"/>
    <path d="m 260.5,430.18198 -17.42678,-59.6302 10.42678,5.57322 -5.32322,-34.15533 14.79289,8.13388 0.60355,41.75 -5.29289,-3.14644 z" style="fill:#ffff75;stroke:#ffe422;stroke-width:2.5;stroke-miterlimit:9"/>
  </g>
</svg>
