<svg xmlns="http://www.w3.org/2000/svg" viewBox="-32 -41 64 82">
  <clipPath id="U1"><path d="m12.242-22.084c-20-10-31.29 20.58-14.49 28.98 19.3 9.65 33.29-19.58 14.49-28.98z"/></clipPath>
  <clipPath id="U2"><path d="m-16.6-2.7c-20 0-16.8 31.5 0 31.5 19.3 0 18.8-31.5 0-31.5z"/></clipPath>
  <clipPath id="U3"><path d="m18.578 16.522c-14.6-7.4-27.384 15.204-15.12 21.42 14.089 7.141 28.844-14.464 15.12-21.42z"/></clipPath>
  <g clip-path="url(#U1)">
    <path d="m12.242-22.084c-20-10-31.29 20.58-14.49 28.98 19.3 9.65 33.29-19.58 14.49-28.98z" fill="#ffd44f"/>
    <path d="m-7.672-19.506c5.608-2.716 12.632 1.486 13.4 6.7 10.566-2.882 18.928 7.394.888 25.974l-23-11.5z" fill="#ffb932"/>
  </g>
  <path d="m-24.4 21.4a.8.8 0 0 1-1.6 0 .8.8 0 0 1 1.6 0zM-17.1 24.8a.8.8 0 0 1-1.6 0 .8.8 0 0 1 1.6 0zM-6.5 21.9a.8.8 0 0 1-1.6 0 .8.8 0 0 1 1.6 0zm-3.5.6a.8.8 0 0 1-1.6 0 .8.8 0 0 1 1.6 0zm.1-7.9a.8.8 0 0 1-1.6 0 .8.8 0 0 1 1.6 0zM-8.6 8.5a.8.8 0 0 1-1.6 0 .8.8 0 0 1 1.6 0zM-15.8 10.7a.8.8 0 0 1-1.6 0 .8.8 0 0 1 1.6 0zm-6.2-2.8a.8.8 0 0 1-1.6 0 .8.8 0 0 1 1.6 0zm-4.3.1a.8.8 0 0 1-1.6 0 .8.8 0 0 1 1.6 0zM-23.4 15.9a.8.8 0 0 1-1.6 0 .8.8 0 0 1 1.6 0zM-18.6 16.4a.8.8 0 0 1-1.6 0 .8.8 0 0 1 1.6 0z" fill="#e09712" transform="matrix(1 .5-.46.92 27.6-11.3)"/>
  <g transform="matrix(1.07.63-.57.95 28-9.8)">
    <path d="m-15.8 3.1-11.4-16.9c7 2.4 11 8.2 11.4 16.9l9.1-12.7c-5.1 1.8-8.9 6-9.1 12.7z" fill="#9ccf4d"/>
    <path d="m-15.8 3.1c-6.4-3.1-10.7-8.7-11.4-16.9 4.3 5.7 7.8 11 11.4 16.9 2-4.3 5.3-8.7 9.1-12.7-.5 5.6-3.4 9.9-9.1 12.7z" fill="#54a62b"/>
  </g>
  <g clip-path="url(#U2)">
    <path d="m-16.6-2.7c-20 0-16.8 31.5 0 31.5 19.3 0 18.8-31.5 0-31.5z" fill="#ffd44f"/>
    <path d="m-31.5 8.2c3.4-4.8 10.7-4.2 13.4 0 7.3-7.1 18.1-1.8 11.1 22.2h-23z" fill="#ffb932"/>
  </g>
  <path d="m-24.4 21.4a.8.8 0 0 1-1.6 0 .8.8 0 0 1 1.6 0zM-17.1 24.8a.8.8 0 0 1-1.6 0 .8.8 0 0 1 1.6 0zM-6.5 21.9a.8.8 0 0 1-1.6 0 .8.8 0 0 1 1.6 0zm-3.5.6a.8.8 0 0 1-1.6 0 .8.8 0 0 1 1.6 0zm.1-7.9a.8.8 0 0 1-1.6 0 .8.8 0 0 1 1.6 0zM-8.6 8.5a.8.8 0 0 1-1.6 0 .8.8 0 0 1 1.6 0zM-15.8 10.7a.8.8 0 0 1-1.6 0 .8.8 0 0 1 1.6 0zm-6.2-2.8a.8.8 0 0 1-1.6 0 .8.8 0 0 1 1.6 0zm-4.3.1a.8.8 0 0 1-1.6 0 .8.8 0 0 1 1.6 0zM-23.4 15.9a.8.8 0 0 1-1.6 0 .8.8 0 0 1 1.6 0zM-18.6 16.4a.8.8 0 0 1-1.6 0 .8.8 0 0 1 1.6 0z" fill="#e09712"/>
  <g>
    <path d="m-15.8 3.1-11.4-16.9c7 2.4 11 8.2 11.4 16.9l9.1-12.7c-5.1 1.8-8.9 6-9.1 12.7z" fill="#9ccf4d"/>
    <path d="m-15.8 3.1c-6.4-3.1-10.7-8.7-11.4-16.9 4.3 5.7 7.8 11 11.4 16.9 2-4.3 5.3-8.7 9.1-12.7-.5 5.6-3.4 9.9-9.1 12.7z" fill="#54a62b"/>
  </g>
  <g clip-path="url(#U3)">
    <path d="m18.578 16.522c-14.6-7.4-27.384 15.204-15.12 21.42 14.089 7.141 28.844-14.464 15.12-21.42z" fill="#ffd44f"/>
    <path d="m2.469 18.421c4.786-2.006 9.827 1.103 9.782 4.958 8.737-2.127 14.077 5.473-2.553 19.203l-16.79-8.51z" fill="#ffb932"/>
  </g>
  <path d="m-24.4 21.4a.8.8 0 0 1-1.6 0 .8.8 0 0 1 1.6 0zM-17.1 24.8a.8.8 0 0 1-1.6 0 .8.8 0 0 1 1.6 0zM-6.5 21.9a.8.8 0 0 1-1.6 0 .8.8 0 0 1 1.6 0zm-3.5.6a.8.8 0 0 1-1.6 0 .8.8 0 0 1 1.6 0zm.1-7.9a.8.8 0 0 1-1.6 0 .8.8 0 0 1 1.6 0zM-8.6 8.5a.8.8 0 0 1-1.6 0 .8.8 0 0 1 1.6 0zM-15.8 10.7a.8.8 0 0 1-1.6 0 .8.8 0 0 1 1.6 0zm-6.2-2.8a.8.8 0 0 1-1.6 0 .8.8 0 0 1 1.6 0zm-4.3.1a.8.8 0 0 1-1.6 0 .8.8 0 0 1 1.6 0zM-23.4 15.9a.8.8 0 0 1-1.6 0 .8.8 0 0 1 1.6 0zM-18.6 16.4a.8.8 0 0 1-1.6 0 .8.8 0 0 1 1.6 0z" fill="#e09712" transform="matrix(.73.37-.48.68 29.4 24.5)"/>
  <g transform="rotate(-142 5.2 4.5)scale(.84-.84)">
    <path d="m-15.8 3.1-11.4-16.9c7 2.4 11 8.2 11.4 16.9l9.1-12.7c-5.1 1.8-8.9 6-9.1 12.7z" fill="#9ccf4d"/>
    <path d="m-15.8 3.1c-6.4-3.1-10.7-8.7-11.4-16.9 4.3 5.7 7.8 11 11.4 16.9 2-4.3 5.3-8.7 9.1-12.7-.5 5.6-3.4 9.9-9.1 12.7z" fill="#54a62b"/>
  </g>
</svg>
