<?xml version="1.0" encoding="UTF-8" standalone="no"?>
<!-- Created with Inkscape (http://www.inkscape.org/) -->

<svg
   xmlns:dc="http://purl.org/dc/elements/1.1/"
   xmlns:cc="http://creativecommons.org/ns#"
   xmlns:rdf="http://www.w3.org/1999/02/22-rdf-syntax-ns#"
   xmlns:svg="http://www.w3.org/2000/svg"
   xmlns="http://www.w3.org/2000/svg"
   xmlns:sodipodi="http://sodipodi.sourceforge.net/DTD/sodipodi-0.dtd"
   xmlns:inkscape="http://www.inkscape.org/namespaces/inkscape"
   id="svg3112"
   version="1.1"
   inkscape:version="0.48.2 r9819"
   width="512"
   height="580.19812"
   sodipodi:docname="Zecora Pseudo-Cutie Mark.svg">
  <metadata
     id="metadata3118">
    <rdf:RDF>
      <cc:Work
         rdf:about="">
        <dc:format>image/svg+xml</dc:format>
        <dc:type
           rdf:resource="http://purl.org/dc/dcmitype/StillImage" />
        <dc:title></dc:title>
      </cc:Work>
    </rdf:RDF>
  </metadata>
  <defs
     id="defs3116" />
  <sodipodi:namedview
     pagecolor="#ffffff"
     bordercolor="#666666"
     borderopacity="1"
     objecttolerance="10"
     gridtolerance="10"
     guidetolerance="10"
     inkscape:pageopacity="0"
     inkscape:pageshadow="2"
     inkscape:window-width="1366"
     inkscape:window-height="706"
     id="namedview3114"
     showgrid="false"
     fit-margin-top="0"
     fit-margin-left="0"
     fit-margin-right="0"
     fit-margin-bottom="0"
     inkscape:zoom="0.89107493"
     inkscape:cx="256"
     inkscape:cy="290.09906"
     inkscape:window-x="-8"
     inkscape:window-y="-8"
     inkscape:window-maximized="1"
     inkscape:current-layer="layer1" />
  <g
     inkscape:groupmode="layer"
     id="layer1"
     inkscape:label="Drawing"
     transform="translate(-123.31713,-75.75121)">
    <path
       inkscape:connector-curvature="0"
       id="path4020"
       style="fill:#3d3f40;fill-opacity:1;stroke:none"
       d="m 569.52146,455.6224 39.8189,42.68216 -72.0791,2.49026 z m -117.5889,121.53546 64.3969,41.31218 -10.1997,-85.91834 z M 340.97068,655.94932 313.727,575.7575 l 65.30691,4.91881 z m -152.24737,-64.21185 24.09415,-72.75516 47.90766,38.79029 z m 446.59385,-211.291 -52.7653,39.25787 5.337,-64.78534 z m -23.684,-143.14494 -60.2803,6.29117 20.7334,52.56359 z m -81.5286,-105.33193 -12.2109,79.30022 -52.1797,-57.07458 z m -164.97009,-56.21839 -32.12992,79.54651 59.78182,-3.05443 z m -164.61533,81.34621 23.32042,70.19211 45.44628,-47.67458 z m -20.68981,177.39933 16.6152,-58.40978 -68.32166,0.41401 z m -56.5122,128.14517 51.09947,-56.41321 17.86902,60.40631 z M 248.62989,238.92034 c 18.93195,-70.87134 232.91987,-104.23771 290.28827,74.32473 30.6941,95.53748 -32.7992,194.21463 -122.65031,223.08191 -51.99317,16.70433 -173.02407,12.72511 -213.40528,-112.96375 -20.80489,-64.75643 1.99007,-155.14974 83.7253,-181.40957 81.5925,-26.21398 170.01769,-1.61059 191.29159,64.60568 21.222,66.0547 0.1801,145.81533 -84.49097,173.01844 -163.6719,52.58438 -193.57467,-148.83157 -79.20155,-185.57725 136.06452,-43.71472 161.85342,114.42527 74.10166,142.61809 -98.59753,31.67737 -103.79201,-92.83249 -50.54934,-109.93824 58.17252,-18.68963 79.67747,51.63135 40.23842,64.30232 -29.91756,9.61186 -28.48103,-29.69 -28.48103,-29.69 31.67692,49.2715 49.49066,-34.13624 -6.2845,-16.21685 -38.34541,12.31957 -28.8204,94.63547 38.10975,73.13219 69.02186,-22.17526 45.75766,-140.07303 -60.91237,-105.80217 -94.12065,30.239 -66.70437,192.18284 67.85328,148.95225 93.25185,-29.95984 81.71135,-116.37437 71.21005,-149.06012 -18.303,-56.96932 -100.95362,-73.6683 -167.44061,-52.3074 -72.13836,23.17657 -89.57033,103.67675 -72.19,157.77401 33.66569,104.78632 132.71929,119.67254 201.17968,97.67764 C 481.98166,495.85718 550.45256,411.08576 521.04016,319.5379 482.81966,200.57445 350.4191,163.75865 248.62989,238.92034 z" />
  </g>
</svg>
