<svg xmlns="http://www.w3.org/2000/svg" xmlns:inkscape="http://www.inkscape.org/namespaces/inkscape" xmlns:xlink="http://www.w3.org/1999/xlink" height="380" viewBox="0 0 470 380" width="470">
  <defs>
    <inkscape:path-effect effect="powerstroke" end_linecap_type="zerowidth" id="path-effect1368" interpolator_type="CubicBezierSmooth" offset_points="0.3,2 | 0.64,2" start_linecap_type="zerowidth" />
    <inkscape:path-effect effect="powerstroke" id="path-effect1366" interpolator_type="CubicBezierSmooth" offset_points="0.56,2 | 4,2" start_linecap_type="zerowidth" />
    <inkscape:path-effect effect="powerstroke" id="path-effect1347" interpolator_type="CubicBezierSmooth" offset_points="0.22,2" start_linecap_type="zerowidth" />
    <inkscape:path-effect effect="powerstroke" id="path-effect1328" interpolator_type="CubicBezierSmooth" offset_points="0.32,2" start_linecap_type="zerowidth" />
    <inkscape:path-effect effect="powerstroke" id="path-effect1299" interpolator_type="CubicBezierSmooth" offset_points="0.53,2 | 1,2" start_linecap_type="zerowidth" />
    <inkscape:path-effect effect="powerstroke" end_linecap_type="zerowidth" id="path-effect1297" interpolator_type="CubicBezierSmooth" offset_points="0.3,2 | 2,2 | 3.68,2" start_linecap_type="zerowidth" />
    <inkscape:path-effect effect="powerstroke" end_linecap_type="zerowidth" id="path-effect1016" interpolator_type="CubicBezierSmooth" offset_points="0.51,2 | 3.52,2" start_linecap_type="zerowidth" />
    <linearGradient id="linearGradient878">
      <stop offset="0" stop-color="#580d36" />
      <stop offset="1" stop-color="#bc1d75" />
    </linearGradient>
    <inkscape:path-effect effect="powerstroke" end_linecap_type="zerowidth" id="path-effect851" interpolator_type="CubicBezierSmooth" offset_points="0.4,2 | 1.8,2" start_linecap_type="zerowidth" />
    <clipPath id="clipPath892">
      <use xlink:href="#ellipse868" />
    </clipPath>
    <clipPath id="clipPath1010">
      <use xlink:href="#ellipse986" />
    </clipPath>
    <clipPath id="clipPath1103">
      <use xlink:href="#use1059" />
    </clipPath>
    <linearGradient gradientUnits="userSpaceOnUse" id="linearGradient1125" x1="394.47479" x2="392.46786" y1="211.65346" y2="256.51257" xlink:href="#linearGradient878" />
    <linearGradient gradientUnits="userSpaceOnUse" id="linearGradient1260" x1="331.51144" x2="329.29987" y1="214.14868" y2="249.75229" xlink:href="#linearGradient878" />
    <clipPath id="clipPath1274">
      <use xlink:href="#path1211" />
    </clipPath>
  </defs>
  <g transform="translate(0-126.66666)" inkscape:groupmode="layer" inkscape:label="Drawing">
    <g>
      <path d="m 199.74798,256.1361 c -62.43311,-66.93957 -159.079764,-46.98864 -167.983057,25.14525 7.800771,-10.93885 16.386842,-18.11654 28.410992,-23.85717 -25.879581,40.08257 -6.954832,105.66466 -17.616551,161.36081 10.338944,-12.79398 14.235438,-24.1532 17.20589,-41.97219 8.015391,35.39953 2.51282,79.87475 -36.44816,99.43748 21.186319,-4.1462 33.885382,-11.97668 46.501761,-27.71466 -0.803208,7.80642 -2.408002,13.87889 -6.32048,20.78076 22.661573,-17.24825 35.87128,-42.91932 42.229595,-67.70247 2.94468,17.32979 4.02488,33.19893 2.51072,51.44208 16.22306,-26.22856 17.07372,-53.25712 12.5585,-100.45683 4.04918,10.39106 7.71084,17.07188 12.81679,23.78088 -15.12786,-64.4324 3.38901,-129.69679 54.53612,-113.01664 z" fill="#5fbb4e" />
      <path d="m 80.761731,293.63556 c -6.586993,60.96802 19.709059,103.70289 -0.486806,159.37894 12.736506,-15.23274 20.872575,-33.54706 25.453045,-51.40059 2.94468,17.32979 4.02488,33.19893 2.51072,51.44208 16.22306,-26.22856 17.07372,-53.25712 12.5585,-100.45683 4.04918,10.39106 7.71084,17.07188 12.81679,23.78088 -15.12786,-64.4324 3.38901,-129.69679 54.53612,-113.01664 l 11.59788,-7.2273 c -3.67226,-3.93733 -7.4629,-7.57405 -11.03827,-10.85969 -50.00063,-25.24873 -101.111652,-14.91665 -107.947979,48.35915 z" fill="#faf5ab" />
      <path d="m 96.57239,302.63556 c 5.81025,-53.77862 48.42957,-79.46143 98.62355,-43.70093 l -7.04584,4.42877 c -51.14711,-16.68015 -69.66398,48.58424 -54.53612,113.01664 -5.10595,-6.709 -8.76761,-13.38982 -12.81679,-23.78088 4.51522,47.19971 3.66456,74.22827 -12.5585,100.45683 1.51416,-18.24315 0.43396,-34.11229 -2.51072,-51.44208 -2.51933,9.81972 -6.114288,19.77884 -11.205828,29.81863 8.775268,-46.0898 -3.552531,-76.93871 2.050248,-128.79698 z" fill="#ef7135" />
      <path d="m 66.511731,293.38556 c 5.487945,-50.79542 42.049029,-75.89619 88.368449,-69.17956 -55.837827,-23.70753 -116.170387,0.80848 -123.115257,57.07535 7.800771,-10.93885 16.386842,-18.11654 28.410992,-23.85717 -25.879581,40.08257 -6.954832,105.66466 -17.616551,161.36081 10.338944,-12.79398 14.235438,-24.1532 17.20589,-41.97219 8.015391,35.39953 2.51282,79.87475 -36.44816,99.43748 21.186319,-4.1462 33.885382,-11.97668 46.501761,-27.71466 -0.0979,0.95146 -0.2077,1.87716 -0.474346,2.84956 19.956214,-27.92619 -9.336056,-97.80647 -2.832778,-157.99962 z" fill="#1b98d1" />
      <path d="m 59.765254,376.8128 c -2.496595,-24.96087 -5.907369,-53.29977 -3.003523,-80.17724 5.383305,-49.82688 35.006742,-81.02879 82.852149,-77.73088 -51.195079,-13.63928 -101.541401,11.27327 -107.848957,62.37667 7.800771,-10.93885 16.386842,-18.11654 28.410992,-23.85717 -25.879581,40.08257 -6.954832,105.66466 -17.616551,161.36081 10.338944,-12.79398 14.235438,-24.1532 17.20589,-41.97219" fill="#632e86" />
      <path d="m 105.72797,401.61391 c 2.94468,17.32979 4.02488,33.19893 2.51072,51.44208 16.22306,-26.22856 17.07372,-53.25712 12.5585,-100.45683 4.04918,10.39106 7.71084,17.07188 12.81679,23.78088 -15.12786,-64.4324 3.38901,-129.69679 54.53612,-113.01664 l 3.09488,-1.79238 c -48.09657,-24.64689 -80.11234,14.57881 -84.42259,64.35743 -2.76061,31.88201 -0.83519,54.45047 -1.09442,75.68546" fill="#ec4141" />
      <path d="m 199.74798,256.1361 c -62.43311,-66.93957 -159.079764,-46.98864 -167.983057,25.14525 7.800771,-10.93885 16.386842,-18.11654 28.410992,-23.85717 -25.879581,40.08257 -6.954832,105.66466 -17.616551,161.36081 10.338944,-12.79398 14.235438,-24.1532 17.20589,-41.97219 8.015391,35.39953 2.51282,79.87475 -36.44816,99.43748 21.186319,-4.1462 33.885382,-11.97668 46.501761,-27.71466 -0.803208,7.80642 -2.408002,13.87889 -6.32048,20.78076 22.661573,-17.24825 35.87128,-42.91932 42.229595,-67.70247 2.94468,17.32979 4.02488,33.19893 2.51072,51.44208 16.22306,-26.22856 17.07372,-53.25712 12.5585,-100.45683 4.04918,10.39106 7.71084,17.07188 12.81679,23.78088 -15.12786,-64.4324 3.38901,-129.69679 54.53612,-113.01664 z" style="fill:none;stroke:#1b98d1;stroke-width:3.97399473;stroke-miterlimit:20" />
    </g>
    <g>
      <path d="m 429.64536,255.35817 c 7.56039,66.51735 -53.82205,107.17127 -111.81893,117.34024 z" fill="#1b98d1" />
      <path d="m 429.64536,255.35817 c 2.09678,18.44777 -1.10926,34.90623 -8.07523,49.27678 -2.31173,-15.13637 -6.96944,-29.14222 -15.52731,-42.54004 z" fill="#5fbb4e" />
      <path d="m 429.64536,255.35817 c 7.56039,66.51735 -53.82205,107.17127 -111.81893,117.34024" style="fill:none;stroke:#1b98d1;stroke-width:4;stroke-miterlimit:20" />
    </g>
    <path d="m 212.9999,348.38559 c -9.51766,32.72028 -12.87668,68.60504 -8.12641,106.44848 1.71503,13.66295 62.17207,11.76103 57.56623,-1.01732 -12.4715,-34.60065 -16.74359,-67.60521 -12.75118,-99.48073 z" style="fill:#88c4e9;stroke:#6babda;stroke-width:4;stroke-miterlimit:20" />
    <path d="m 299.38408,307.81632 c -54.42488,-4.35036 -49.77716,-54.88555 -90.82308,-54.88555 -24.80067,0 -44.07251,22.1103 -44.07251,49.87005 0,27.86458 10.23254,37.98128 9.98676,45.78361 -0.22446,7.12533 -13.24605,2.96423 -15.52565,10.80116 -9.51766,32.72028 -12.87668,68.60504 -8.12641,106.44848 1.71503,13.66295 62.17207,11.76103 57.56623,-1.01732 -12.4715,-34.60065 -16.74359,-67.60521 -12.75118,-99.48073 z" style="fill:#9bdbf5;stroke:#6babda;stroke-width:4;stroke-miterlimit:20" />
    <g>
      <path d="m 387.43113,464.10908 c 3.11837,13.80934 -54.52499,14.39524 -58.75878,0.78029 -8.02839,-25.81755 -39.26307,-30.43798 -42.26372,-41.24817 -3.07962,-11.0947 2.59028,-39.48287 21.6102,-64.14016 l 24.40076,1.90846 c -4.70741,14.07331 -6.11836,28.94563 -7.11389,43.20126 32.19111,5.70133 53.87338,22.95511 62.12543,59.49832 z" fill="#88c4e9" />
      <path fill="#6babda" inkscape:original-d="m 315.76149,403.43629 c 37.45939,3.74812 62.62734,20.63006 71.66964,60.67279 3.11837,13.80934 -54.52499,14.39524 -58.75878,0.78029 -8.02839,-25.81755 -39.26307,-30.43798 -42.26372,-41.24817 -3.07962,-11.0947 2.59028,-39.48287 21.6102,-64.14016 l 24.40076,1.90846 c -4.70741,14.07331 -6.11836,28.94563 -7.10674,43.08539" inkscape:path-effect="#path-effect1328" />
    </g>
    <g>
      <path d="m 189.6281,368.12228 c 7.08612,-1.9773 13.33791,-5.08204 18.77846,-8.98831 102.36247,65.45021 205.597,-39.53672 231.11863,-108.39902 32.80195,-88.50601 -157.63738,-122.68229 -135.79415,21.83682 l 18.42293,19.95109 c -9.95952,7.77033 -24.0037,16.40328 -37.77862,17.04734 l -91.99381,-2.24478 z" fill="#9bdbf5" />
      <path fill="#6babda" inkscape:original-d="m 189.6281,368.12228 c 24.43464,-6.8182 38.94883,-27.04207 45.29805,-51.59831" inkscape:path-effect="#path-effect1368" />
      <path fill="#6babda" inkscape:original-d="m 284.37535,309.5702 c 13.77492,-0.64406 27.8191,-9.27701 37.77862,-17.04734 l -18.42293,-19.95109 c -21.84323,-144.51911 168.5961,-110.34283 135.79415,-21.83682 -25.52163,68.8623 -128.75616,173.84923 -231.13836,108.50364" inkscape:path-effect="#path-effect1366" />
    </g>
    <g transform="rotate(190.2657 113.68986 143.99781)scale(.80076777-.80076777)">
      <path d="m 5.4,-14.7 c -4.2,2.7 -7.4,6 -10.5,10.6 l 8.1,-4.1 c -8.4,12.9 -9.5,30.5 -7.1,54.5 -22.6,-75.8 13.6,-77.2 9.5,-61 z" fill="#1b98d1" />
      <path d="m 3.9,-26.6 c -7.9,7.3 -12,16.6 -15.2,27.6 l 8.2,-4.3 c -5.9,14 -5,29.6 -1,49.6 -16.4,-39.2 4.8,-50 -17.1,-35.5 9.4,-50.5 24.2,-46.3 25.1,-37.4 z" fill="#fde85f" />
      <path d="m -8.4,-36.9 c -10.5,15 -15.3,31.5 -15.1,51.5 l 11.7,-8 c -1.9,12.2 0.7,24.8 7.7,39.7 -6,-17.9 -7.4,-31.8 -3.9,-45.5 l -10.5,6.8 c 2.6,-16.4 7.6,-29.3 17,-40.7 z" fill="#ec4141" />
      <path d="m -3.1,-27.4 c -10.5,9.8 -1.1,18.9 7,8.4 -2,14.5 8.6,16.2 15,10.8 6.4,-5.4 5.8,-15.8 -2.2,-19.9 8.8,-8.6 -2.5,-19.8 -10.6,-14.6 -10.1,-10 -26,8.3 -9.2,15.3 z" fill="#fff" />
      <path d="m 5.9,-42.4 c -9.8,-9.4 -25.3,8.3 -8.1,14.8 -11.2,10 -1.6,19.3 6.9,6.6 -3.2,15.6 7.5,17.9 13.9,12.5 6.4,-5.4 5.4,-15.6 -2.6,-19.5 8,-8 0.3,-15.6 -5.4,-15.6 -5.7,0 -9.9,6.8 -3.5,9 -12.5,12.4 8.3,18 3.7,7.7 6.4,11.5 -17.1,6.3 -5.3,-7.4 -5.1,-2.3 -2.3,-10.2 5.1,-10.2 7.4,0 13.8,9.3 6.8,16.2 7.6,4.3 8.6,14.8 1.8,20.5 -6.8,5.7 -17.3,3.4 -15.9,-9.8 -8.6,9.5 -17.1,-0.5 -7.2,-9.7 -16.5,-7.2 -0.6,-26.1 10.5,-15.7 z" fill="#1b98d1" />
    </g>
    <g>
      <path d="m 303.80519,296.55756 c 2.33059,2.60092 3.33342,6.11332 3.1813,10.0658 l 6.92688,-8.35706 z" fill="#bb1c76" />
      <path d="m 316.48442,266.47732 c -8.72487,9.24003 -23.08244,3.249 -23.15179,14.7317 -0.0529,8.75341 6.57082,16.85175 20.09001,17.31756 -6.83446,6.92763 -8.5429,11.8444 4.875,12.31694 18.07136,0.63642 50.43703,5.77004 77.4435,0.22507 -45.68637,-5.0252 -64.60844,-14.61475 -79.25672,-44.59127 z" fill="#9bdbf5" />
      <path fill="#6babda" inkscape:original-d="m 316.48442,266.47732 c -8.72487,9.24003 -23.08244,3.249 -23.15179,14.7317 -0.0529,8.75341 6.57082,16.85175 20.09001,17.31756 -6.83446,6.92763 -8.5429,11.8444 4.875,12.31694 18.07136,0.63642 50.43703,5.77004 77.4435,0.22507" inkscape:path-effect="#path-effect1016" />
      <path d="m 304.08638,282.70555 c 2.13759,1.80875 3.95005,1.51266 5.21069,-1.22785 0.347,4.64117 -3.20847,5.64961 -5.21069,1.22785 z" fill="#6babda" />
    </g>
    <g>
      <path d="m 404.83445,270.40358 c 18.6892,5.98622 17.70959,8.56537 -0.6031,2.7455 m 1.92268,-7.91434 c 19.20866,4.01856 18.50139,6.68529 -0.31552,2.79318" />
      <g clip-path="url(#clipPath1103)">
        <path d="m 345.85613,283.22294 c -2.32035,-9.91572 -2.10808,-19.06011 1.6843,-27.82216 l 59.40645,5.88265 c 0.69257,13.19165 -4.57118,24.44487 -14.79708,31.16002 -15.2178,-1.16991 -31.16272,-4.55118 -46.29367,-9.22051 z" fill="#fff" id="use1059" />
        <g clip-path="url(#clipPath892)">
          <ellipse cx="387.1286" cy="234.29669" fill="url(#linearGradient1125)" id="ellipse868" rx="23.024731" ry="29.243023" transform="rotate(5.807992)" />
          <path d="m 360.18757,279.38067 18.02047,18.63956 8.31427,-11.53348 z" fill="#fcb6df" />
          <path d="m 360.18757,279.38067 27.51231,2.44882 -4.05257,8.03226 z" fill="#d9539d" />
          <ellipse cx="384.2178" cy="234.09019" rx="18.136959" ry="23.035175" transform="rotate(5.807992)" />
          <ellipse cx="237.71165" cy="387.81732" fill="#fff" rx="8.3696241" ry="11.932394" transform="rotate(336.83956)" />
          <ellipse cx="151.8015" cy="427.15305" fill="#fff" rx="2.8121622" ry="3.8596601" transform="rotate(327.07069)" />
        </g>
      </g>
      <path d="m 407.00753,260.01826 c 19.51582,2.06237 19.08092,4.78679 -0.0326,2.81075 l -60.38837,-6.24322 c -5.90509,-0.6105 -6.2285,-8.17474 -2.0738,-12.84576 -1.96759,5.54902 -0.46322,9.62505 2.73032,9.96253 z m -61.1514,23.20468 c -3.56164,-9.0315 -3.21348,-18.86189 0.39135,-27.99894 l 2.84207,0.43818 c -3.83624,9.09415 -4.70774,18.31528 -3.23342,27.56076 z" />
      <path d="m 348.7266,289.33656 c 4.94849,1.6034 9.05511,3.80515 12.66401,7.21451 -4.82077,-1.47308 -8.90084,-3.82688 -12.66401,-7.21451 z m -7.38068,-7.76148 c 13.24154,6.86233 39.15936,12.60741 54.78644,10.95104 -18.52278,-2.0377 -35.27004,-5.66838 -54.78644,-10.95104 z" fill="#6babda" />
    </g>
    <g>
      <g clip-path="url(#clipPath1274)">
        <path d="m 316.48442,266.47732 c -4.90751,1.00346 -10.12872,0.18627 -14.24313,-2.29444 -1.28676,-7.93956 -1.38116,-16.79885 -0.26443,-25.63931 l 18.80535,4.21274 c -0.36675,7.81504 -1.35602,15.90597 -4.29779,23.72101 z" fill="#fff" id="path1211" />
        <g clip-path="url(#clipPath1010)">
          <ellipse cx="327.41452" cy="230.53241" fill="url(#linearGradient1260)" id="ellipse986" rx="9.8055296" ry="22.628157" transform="rotate(4.4059765)" />
          <path d="m 306.93318,257.08427 11.6953,16.51443 5.86744,-9.65125 z" fill="#fcb6df" />
          <path d="m 306.93318,257.08427 18.63587,1.96622 -2.92929,8.07894 z" fill="#d9539d" />
          <ellipse cx="326.46289" cy="231.99103" rx="7.9634743" ry="18.377232" transform="rotate(4.4059765)" />
          <ellipse cx="302.9288" cy="-256.18149" fill="#fff" rx="8.8622684" ry="3.8043888" transform="rotate(78.454661)" />
          <ellipse cx="339.08032" cy="-218.29657" fill="#fff" rx="2.8951213" ry="1.6104271" transform="rotate(72.618981)" />
        </g>
      </g>
      <path d="m 316.48442,266.47732 c 1.94976,-8.75553 2.87049,-15.88607 3.38061,-24.0166 l 2,0.375 c -0.40786,8.58379 -1.89741,15.56423 -5.38061,23.6416 z m -14.2576,-28.9176 18.5878,3.90959 c 2.49358,0.52448 3.91381,-1.64188 3.68736,-5.39147 2.17892,4.43931 -0.42068,8.40327 -3.7982,7.65651 l -18.74483,-4.1444 z" />
      <path d="m 302.24129,264.18288 c 3.56425,3.31485 9.71691,4.12062 14.24313,2.29444 -4.96052,0.0535 -9.76861,-0.74761 -14.24313,-2.29444 z" fill="#6babda" />
    </g>
    <g>
      <path d="m 280.66528,369.81169 c -19.01992,24.65729 -24.68982,53.04546 -21.6102,64.14016 3.00065,10.81019 31.98533,15.43062 40.01372,41.24817 4.23379,13.61495 61.83426,13.02905 58.71589,-0.78029 -8.30751,-36.78879 -28.3555,-54.87209 -58.99628,-61.18221 1.03427,-14.07174 3.32022,-27.69406 8.02763,-41.76737 z" fill="#9bdbf5" />
      <path fill="#6babda" inkscape:original-d="m 280.66528,369.81169 c -19.01992,24.65729 -24.68982,53.04546 -21.6102,64.14016 3.00065,10.81019 31.98533,15.43062 40.01372,41.24817 4.23379,13.61495 61.83426,13.02905 58.71589,-0.78029 -9.0423,-40.04273 -32.41736,-57.92467 -67.37675,-62.67279" inkscape:path-effect="#path-effect1297" />
      <path fill="#6babda" inkscape:original-d="m 306.81604,371.47015 c -4.70741,14.07331 -6.99336,27.69563 -7.98174,41.83539" inkscape:path-effect="#path-effect1299" />
    </g>
    <g transform="translate(0 126.66666)">
      <path d="m 414.42126,64.542623 c -26.01723,0.927696 -50.41721,22.056452 -71.05617,53.972317 0.0809,-9.9814 1.7323,-18.760533 5.06004,-29.158957 -24.65216,22.241937 -54.77975,42.964767 -81.7066,50.220437 17.46609,-18.97297 16.71101,-49.452763 25.43681,-74.043355 -10.71587,8.524918 -18.13553,16.432998 -25.10267,26.790264 4.00668,-31.060382 23.06651,-50.013464 49.47612,-64.668586 -14.7283,1.787361 -25.48485,4.257508 -39.41414,9.233003 46.40776,-34.9481652 101.47387,-26.807988 144.09827,12.095899 z" fill="#ef7135" />
      <path d="m 384.51366,24.72828 c -34.77775,-15.9195186 -73.41052,-13.436156 -107.39901,12.159466 13.92929,-4.975495 24.68584,-7.445642 39.41414,-9.233003 -19.63421,10.895344 -35.20608,24.166245 -43.56886,43.289404 31.29304,-24.856149 75.20836,-41.566682 111.55373,-46.215867 z" fill="#faf5ab" />
      <path d="m 398.67087,31.886534 c 7.7348,4.792447 15.31715,10.502847 22.54205,17.097111 l -6.79166,15.558978 c -26.01723,0.927696 -50.41721,22.056452 -71.05617,53.972317 0.0809,-9.9814 1.7323,-18.760533 5.06004,-29.158957 -6.88724,6.21388 -14.20184,12.309187 -21.70766,17.882577 17.11877,-41.562676 42.43706,-72.000217 71.9534,-75.352026 z" fill="#ec4141" />
      <path d="m 414.42126,64.542623 c -26.01723,0.927696 -50.41721,22.056452 -71.05617,53.972317 0.0809,-9.9814 1.7323,-18.760533 5.06004,-29.158957 -24.65216,22.241937 -54.77975,42.964767 -81.7066,50.220437 17.46609,-18.97297 16.71101,-49.452763 25.43681,-74.043355 -10.71587,8.524918 -18.13553,16.432998 -25.10267,26.790264 4.00668,-31.060382 23.06651,-50.013464 49.47612,-64.668586 -14.7283,1.787361 -25.48485,4.257508 -39.41414,9.233003 46.40776,-34.9481652 101.47387,-26.807988 144.09827,12.095899 z" style="fill:none;stroke:#1b98d1;stroke-width:4;stroke-miterlimit:20" />
    </g>
    <g>
      <path d="m 404.01525,199.92581 c 7.04077,-20.78432 24.76816,-45.58961 33.74105,-44.82135 9.10405,0.7795 38.6554,68.90227 -7.74919,107.31671 z" fill="#9bdbf5" />
      <path fill="#6babda" inkscape:original-d="m 404.01525,199.92581 c 7.04077,-20.78432 24.76816,-45.58961 33.74105,-44.82135 9.10405,0.7795 38.6554,68.90227 -7.74919,107.31671" inkscape:path-effect="#path-effect851" />
      <path d="m 435.91059,185.80657 c 3.57363,16.44573 0.66418,31.22269 -6.97133,45.22146 10.76146,-11.27118 13.92964,-31.4761 6.97133,-45.22146 z" fill="#6babda" />
    </g>
    <g>
      <path d="m 276.72798,307.96221 c 22.77384,34.21153 -12.84388,64.28901 -44.52181,45.99974 -34.60103,-19.97691 -43.95043,-65.56874 -35.31716,-74.73864 8.00699,-8.5047 38.53123,3.40468 61.12499,23.24378 z" fill="#9bdbf5" />
      <path fill="#6babda" inkscape:original-d="m 276.72798,307.96221 c 22.77384,34.21153 -12.84388,64.28901 -44.52181,45.99974 -34.60103,-19.97691 -43.95043,-65.56874 -35.31716,-74.73864 8.00699,-8.5047 38.53123,3.40468 61.12499,23.24378 -7.27942,0.58539 -10.60264,2.5048 -15.35264,7.5048 -15.03215,-4.60174 -24.49062,3.62047 -19.94783,19.4993 -3.18198,7.65318 -0.36637,16.65775 7.44581,23.26283" inkscape:path-effect="#path-effect1347" />
      <path d="m 221.82804,332.36891 -26.52795,-30.93451 m 50.26396,5.47937 -37.36159,-30.36203 m 18.30776,34.503 -30.75393,-30.51897" style="fill:none;stroke:#6babda;stroke-width:2;stroke-miterlimit:20" />
    </g>
  </g>
</svg>