<?xml version="1.0" encoding="UTF-8" standalone="no"?>
<!-- Created with Inkscape (http://www.inkscape.org/) -->

<svg xmlns:dc="http://purl.org/dc/elements/1.1/" xmlns:cc="http://creativecommons.org/ns#" xmlns:rdf="http://www.w3.org/1999/02/22-rdf-syntax-ns#" xmlns:svg="http://www.w3.org/2000/svg" xmlns="http://www.w3.org/2000/svg" xmlns:sodipodi="http://sodipodi.sourceforge.net/DTD/sodipodi-0.dtd" xmlns:inkscape="http://www.inkscape.org/namespaces/inkscape" id="svg2" version="1.1" inkscape:version="0.92pre1 unknown" width="820" height="190" viewBox="0 0 820 190" sodipodi:docname="Albumin Flask Header.svg" inkscape:export-filename="/home/parclytaxel/Pictures/Selwyn/Albumin Flask/Albumin Flask Header.png" inkscape:export-xdpi="96" inkscape:export-ydpi="96">
  <sodipodi:namedview pagecolor="#ffffff" bordercolor="#666666" borderopacity="1" objecttolerance="10" gridtolerance="10" guidetolerance="10" inkscape:pageopacity="0" inkscape:pageshadow="2" inkscape:window-width="1364" inkscape:window-height="698" id="namedview4" showgrid="true" fit-margin-top="0" fit-margin-left="0" fit-margin-right="0" fit-margin-bottom="0" inkscape:zoom="1.7768293" inkscape:cx="410" inkscape:cy="95" inkscape:window-x="0" inkscape:window-y="0" inkscape:window-maximized="1" inkscape:current-layer="svg2" showguides="true" inkscape:object-nodes="false" inkscape:snap-nodes="false" />
  <metadata id="metadata8">
    <rdf:RDF>
      <cc:Work rdf:about="">
        <dc:format>image/svg+xml</dc:format>
        <dc:type rdf:resource="http://purl.org/dc/dcmitype/StillImage" />
        <dc:title />
      </cc:Work>
    </rdf:RDF>
  </metadata>
  <defs id="defs6" />
  <rect y="0" x="0" height="190" width="820" id="rect3336" style="opacity:1;fill:#58153e;fill-opacity:1;fill-rule:nonzero;stroke:none;stroke-width:1;stroke-linecap:butt;stroke-linejoin:miter;stroke-miterlimit:20;stroke-dasharray:none;stroke-dashoffset:7.80000019;stroke-opacity:1" />
  <text sodipodi:linespacing="125%" id="text3623" y="144.32906" x="463.25247" style="font-style:normal;font-variant:normal;font-weight:300;font-stretch:normal;font-size:36.1971283px;line-height:125%;font-family:Junction;-inkscape-font-specification:'Junction Light';text-align:center;letter-spacing:0px;word-spacing:0px;writing-mode:lr-tb;text-anchor:middle;fill:#ffffff;fill-opacity:1;stroke:none;stroke-width:1.05325139px;stroke-linecap:butt;stroke-linejoin:miter;stroke-opacity:1" xml:space="preserve"><tspan style="stroke-width:1.05325139px" y="144.32906" x="463.25247" id="tspan3625" sodipodi:role="line">The Albumin Flask</tspan></text>
  <g id="g363" transform="matrix(-0.0604953,0.10478093,-0.10478093,-0.0604953,332.67186,79.960002)">
    <path sodipodi:nodetypes="scs" style="opacity:1;fill:#6dc6fb;fill-opacity:1;stroke:none;stroke-width:6.19644594" inkscape:connector-curvature="0" id="path56" d="m 512.00005,971.99995 c 474.89756,-10e-6 657.34655,-432.8682 -10e-6,-919.999972 -657.3465,487.131762 -474.897559,919.999972 10e-6,919.999972 z" />
    <g id="g239" transform="matrix(13.69412,0,0,13.69412,512.00005,588.99996)">
      <g style="fill:#54a2e1" id="use224">
        <path id="path313" d="M 20.3,-9 C 14.8,5 5.8,5.6 0.4,5.3 L -0.1,7.2 C 6.5,9 15.6,8.4 21.6,-0.4 Z" inkscape:connector-curvature="0" />
        <path inkscape:connector-curvature="0" d="M -2.3557714,22.080316 C -11.730127,10.317176 -7.7497423,2.2229473 -4.7899346,-2.3035898 L -6.1853829,-3.6866025 C -11.044229,1.1291651 -15.074613,9.3099963 -10.45359,18.906149 Z" id="path315" />
        <path inkscape:connector-curvature="0" d="m -17.944229,-13.080316 c 14.874356,-2.23686 19.8939713,5.2573687 22.3341636,10.0839058 L 6.2853829,-3.5133975 C 4.5442286,-10.129165 -0.52538661,-17.709996 -11.14641,-18.506149 Z" id="path317" />
      </g>
      <g transform="scale(-1)" style="fill:#5a318e" id="use226">
        <path id="path321" d="M 20.3,-9 C 14.8,5 5.8,5.6 0.4,5.3 L -0.1,7.2 C 6.5,9 15.6,8.4 21.6,-0.4 Z" inkscape:connector-curvature="0" />
        <path inkscape:connector-curvature="0" d="M -2.3557714,22.080316 C -11.730127,10.317176 -7.7497423,2.2229473 -4.7899346,-2.3035898 L -6.1853829,-3.6866025 C -11.044229,1.1291651 -15.074613,9.3099963 -10.45359,18.906149 Z" id="path323" />
        <path inkscape:connector-curvature="0" d="m -17.944229,-13.080316 c 14.874356,-2.23686 19.8939713,5.2573687 22.3341636,10.0839058 L 6.2853829,-3.5133975 C 4.5442286,-10.129165 -0.52538661,-17.709996 -11.14641,-18.506149 Z" id="path325" />
      </g>
      <path d="M -10.18,4.52 -9,-6.55 1.17,-11.07 10.18,-4.52 9,6.55 -1.17,11.07 Z" id="path228" inkscape:connector-curvature="0" style="fill:none;stroke:#576ab7" />
    </g>
  </g>
</svg>
