<svg xmlns="http://www.w3.org/2000/svg" xmlns:xlink="http://www.w3.org/1999/xlink" viewBox="0 0 840 200">
  <defs>
    <g id="H">
      <path d="m 420,120 c -90,-60 -40,-130 0,-80 40,-50 90,20 0,80 z" stroke-width="4"/>
      <path d="m 420,121 c 8,-18 8,-36 -9,-31 -17,5 -35,-32 -16,-41 19,-9 20,18 35,16 15,-2 4,-31 21,-32 17,-1 11,29 -6,17 m -15,15 c 15,-2 17,14 5,29" stroke-width="2" stroke-linecap="round"/>
    </g>
    <clipPath id="PT"><path d="m 394,18 26,54 26,-54"/></clipPath>
    <clipPath id="TS"><path d="m 420,72 25,-54 h 32 v 41"/></clipPath>
    <clipPath id="FS"><path d="m 420,72 -25,-54 h -32 v 41"/></clipPath>
    <clipPath id="RY"><path d="m 420,72 -54,-14 v 57"/></clipPath>
    <clipPath id="AJ"><path d="m 420,72 54,-14 v 57"/></clipPath>
    <clipPath id="RD"><path d="m 420,127 v -55 l -35,25"/></clipPath>
    <clipPath id="PP"><path d="m 410,137 v -86 l 53,46"/></clipPath>
  </defs>
  <rect height="200" width="840"/>
  <rect height="130" width="130" x="355" y="5"/>
  <text font-family="Dancing Script" font-size="48px" text-anchor="middle" x="420" y="173" xml:space="preserve"><tspan fill="#faba62">Ain’t </tspan><tspan fill="#9bdbf5">Never </tspan><tspan fill="#f5b7d0">Had </tspan><tspan fill="#cc9cdf">Friends </tspan><tspan fill="#faf5ab">Like </tspan><tspan fill="#eaeef0">Us</tspan></text>
  <use xlink:href="#H" fill="#f5b7d0" stroke="#e880b0" clip-path="url(#PP)"/>
  <use xlink:href="#H" fill="#9bdbf5" stroke="#6babda" clip-path="url(#RD)"/>
  <use xlink:href="#H" fill="#eaeef0" stroke="#bdc1c2" clip-path="url(#RY)"/>
  <use xlink:href="#H" fill="#faba62" stroke="#ef6f2f" clip-path="url(#AJ)"/>
  <use xlink:href="#H" fill="#cc9cdf" stroke="#a46bbd" clip-path="url(#TS)"/>
  <use xlink:href="#H" fill="#faf5ab" stroke="#e9d461" clip-path="url(#FS)"/>
  <use xlink:href="#H" fill="#6dc6fb" stroke="#1c92cd" clip-path="url(#PT)"/>
</svg>
