<svg xmlns="http://www.w3.org/2000/svg" width="50" height="50">
  <path d="M0 0h50v50H0z" fill="#230f38"/>
  <path d="M18 45L2 25 18 5z" fill="#5a318e"/>
  <path d="M18 22c6 0 8 20 14 20m0-20c-6 0-8 20-14 20m0-34c6 0 8 20 14 20m0-20c-6 0-8 20-14 20" fill="none" stroke="#576ab7"/>
  <path d="M32 5l16 20-16 20z" fill="#54a2e1"/>
</svg>
