<svg xmlns="http://www.w3.org/2000/svg" viewBox="0 0 820 190">
  <defs><path d="m-10 0c6-6 4-14-4-18 17-2 22-10 12-21 10 2 19-3 20-14 18 33-13 37-13 53" id="A"/></defs>
  <rect fill="#10393a" height="190" width="820"/>
  <text fill="#fff" font-family="Junction" font-size="47.10552979" x="260.84" y="113.71102">Parcly Taxel Later</text>
  <g transform="translate(215.32 95)scale(1.37)">
    <rect fill="#10393a" width="72" height="72" x="-36" y="-36"/>
    <path fill="none" stroke="#fff" stroke-width="1.8" d="m0-30 25.980762 15v30l-25.980762 15-25.980762-15v-30z"/>
    <use xlink:href="#A" fill="#5a318e"/>
    <use xlink:href="#A" fill="#54a2e1" transform="scale(1-1)"/>
    <path d="m-20 0 40-7-9 7 9 7z" fill="#576ab7"/>
  </g>
</svg>
