<svg xmlns="http://www.w3.org/2000/svg" xmlns:inkscape="http://www.inkscape.org/namespaces/inkscape" xmlns:sodipodi="http://sodipodi.sourceforge.net/DTD/sodipodi-0.dtd" xmlns:xlink="http://www.w3.org/1999/xlink" height="1080" width="1920">
  <defs>
    <inkscape:path-effect effect="skeletal" id="path-effect5904" pattern="m 1448,573.25 c -3.5608,0 -7.8128,0.15901 -14,1.75 6.0104,1.41421 10.4392,1.75 14,1.75 l 122.5,0 c 3.3333,0 5.5,-0.25 8,-1.75 -2.5,-1.25 -4.4167,-1.75 -8,-1.75 z" />
    <inkscape:path-effect effect="skeletal" id="path-effect5823" pattern="m 1439.1822,620.63535 c -2.1356,0 -3.5697,0.12288 -7.5201,2.75 3.9107,2.54762 5.3283,2.75 7.5201,2.75 l 165.5,0 c 6.104,0 10.6313,-1.17873 14,-2.75 -3.3919,-1.7303 -8.0318,-2.75 -14,-2.75 z" />
    <inkscape:path-effect effect="skeletal" id="path-effect4675" pattern="m 1331.8658,530.36066 c -20.5622,0 -41.0526,0.76374 -66,2.75 24.9474,1.89447 45.4378,2.75 66,2.75 l 165.5,0 0,-5.5 z" />
    <inkscape:path-effect effect="skeletal" id="path-effect4303" pattern="m 1347.4286,752.17582 c -9.4736,0 -18.2445,0.5 -28,2.75 9.7555,2.25 18.5264,2.75 28,2.75 l 165.5,0 c 6.9994,0 18.8297,-0.5 28,-2.75 -9.1703,-2.51373 -21.0006,-2.75 -28,-2.75 z" />
    <inkscape:path-effect effect="skeletal" id="path-effect4287" pattern="m 1342.9451,748.21978 c -19.4956,0 -47.4533,0.76374 -82,2.75 34.5467,2.25 62.5044,2.75 82,2.75 l 165.5,0 0,-5.5 z" />
    <inkscape:path-effect effect="skeletal" id="path-effect3858" pattern="m 1573.6547,706.43276 c -25.6795,0 -51.6958,0.31351 -84,2.75 32.1178,1.87702 58.3204,2.75 84,2.75 l 165.5,0 c 30.5766,0 63.3943,-0.87298 94,-2.75 -30.6057,-2.06351 -63.2369,-2.75 -94,-2.75 z" />
    <inkscape:path-effect effect="skeletal" id="path-effect4301" pattern="m 1187.3452,384.98365 0,5.5 165.5,0 c 14.9115,0 31.2778,-0.77778 44,-2.75 -12.7222,-2.25 -29.0885,-2.75 -44,-2.75 z" />
    <inkscape:path-effect effect="skeletal" id="path-effect4256" pattern="m 1254.25,308 c -11.3198,0 -28.75,0.5 -48,2.75 19.25,2.25 36.6802,2.75 48,2.75 l 165.5,0 c 14.9115,0 40.5,-0.5 56,-2.75 -15.5,-2.25 -41.0885,-2.75 -56,-2.75 z" />
    <linearGradient id="linearGradient4190">
      <stop offset="0" stop-color="#007a96" />
      <stop offset="1" stop-color="#00d2b5" />
    </linearGradient>
    <linearGradient gradientUnits="userSpaceOnUse" id="linearGradient4196" x1="1307.563" x2="1264.8467" y1="418.01898" y2="418.11966" xlink:href="#linearGradient4190" />
    <clipPath id="clipPath4200">
      <path d="m 1313.9396,417.75464 a 27.91856,20.795223 0 1 1 -55.8372,0 27.91856,20.795223 0 1 1 55.8372,0 z" transform="matrix(0.27994775,-0.96001525,0.96001525,0.27994775,525.4848,1535.5828)" sodipodi:cx="1286.021" sodipodi:cy="417.75464" sodipodi:rx="27.91856" sodipodi:ry="20.795223" sodipodi:type="arc" />
    </clipPath>
    <clipPath id="clipPath4215">
      <path d="m 1305.2307,380.98606 c 19.0999,0.0275 39.5871,2.75573 55.0215,8.5775 -7.1105,42.48566 -51.3738,50.84058 -90.8375,39.64143 1.7146,-10.89341 6.4639,-24.52147 12.0734,-34.55237 z" />
    </clipPath>
    <clipPath id="clipPath4339">
      <path d="m 1222.0625,452.25 c 11.5079,-9.52665 30.6576,-10.61012 44.1285,-0.19444 -12.8975,0.51427 -23.7208,7.38321 -31.191,18.50694 L 1396.1111,510 l 11.6667,-207.22222 -127.2222,-10 -82.7778,105.55555 z" />
    </clipPath>
    <clipPath id="clipPath4344">
      <path d="m 1222.3874,431.13616 c 1.7031,6.82938 4.4812,13.33438 7.9993,19.353 l 0,2e-5 c 3.4189,5.89225 7.6543,11.4827 13.0114,16.00598 l 76.5346,-16.40945 z" />
    </clipPath>
    <inkscape:path-effect effect="skeletal" id="path-effect4303-4" pattern="m 1248.8555,702.10364 c -7.3367,0 -13.1244,0.5 -22,2.75 8.8756,2.3757 14.789,2.75 22,2.75 l 165.5,0 c 6.9994,0 18.8297,-0.5 28,-2.75 -9.1703,-2.51373 -21.0006,-2.75 -28,-2.75 z" />
    <clipPath id="clipPath4712">
      <path d="m 1399.1875,604.40625 -3.5,-26.46875 -118.3411,-23.6079 -7.7933,50.78213 z" />
    </clipPath>
    <clipPath id="clipPath4716">
      <path d="m 1406.0574,594.23098 c -5.9869,-4.81081 -12.4999,-9.16768 -19.691,-12.32441 l -93.6848,-76.59931 -78.9386,170.94972 203.6313,-3.51955 z" />
    </clipPath>
    <clipPath id="clipPath4954">
      <path d="m 1307.1908,547.72462 c -5.3339,8.6325 -11.1048,17.1266 -16.6139,25.65429 -2.742,4.24444 -5.4171,8.49225 -7.929,12.76686 l 8.211,4.4478 116.3231,-31.4429 -0.3555,57.59563 -127.9903,63.28408 -39.1081,-48.70741 40.5302,-83.54921 z" />
    </clipPath>
    <clipPath id="clipPath5856">
      <path d="m 1517.7188,612.34375 c -7.82,2.04026 -22.3085,-0.0968 -42.4063,-6 C 1464.9937,494.72617 1582.505,425.92623 1663.5,414.5 c 9.5929,7.42652 19.7954,9.44085 29.4688,8.34375 l 76.2124,-60.55713 -51.6188,-106.77312 -294.1565,154.14927 -49.4974,239.7092 150.6137,30.40559 z" />
    </clipPath>
    <clipPath id="clipPath5860">
      <path d="m 1497.065,624.12753 c 0.1287,-3.68019 -0.6203,-7.57622 -1.8343,-11.56955 -0.059,-0.19351 -0.1184,-0.3869 -0.1794,-0.58014 -1.8075,-5.68444 -4.5214,-11.13381 -7.5777,-16.44394 l 180.3512,-168.38124 c 12.0382,-6.30158 23.3551,-13.99995 32.9917,-23.42405 L 1780,365 l 1,251 z" />
    </clipPath>
    <clipPath id="clipPath5925">
      <path d="m 1545.7732,475.52258 c -7.6137,4.27848 -16.2891,6.59353 -25.0745,8.0745 l -16.218,46.76272 c 3.6785,2.75347 7.0974,5.81572 9.7416,9.41458 1.7224,2.41432 3.2243,4.9828 3.5249,7.59129 42.7472,15.61567 73.7528,-53.11567 28.026,-71.84309 z" />
    </clipPath>
    <clipPath id="clipPath5929">
      <path d="m 1534.2504,534.6875 c -4.1203,3.98033 -13.9896,5.92374 -30.375,-0.3125 C 1477.0008,518.5 1492,481.75 1516.7192,481.25 c 21.7667,0.22895 34.7956,9.46808 37.625,17.96875 L 1602.5,433.5 l -141,-36 -24,232.5 107,13 z" />
    </clipPath>
  </defs>
  <g inkscape:groupmode="layer" inkscape:label="Drawing">
    <g>
      <path d="m 1435.4496,690.83799 c 21.3614,60.34132 65.7537,47.06818 52.7323,106.39618 -13.8355,63.03707 -61.4625,152.49756 -55.0336,155.36801 18.4002,8.21553 51.7177,8.71384 69.4286,0.96397 7.9038,-3.45854 35.7463,-109.47438 24.9079,-186.89348 -2.9294,-20.92524 -66.078,-25.99877 -30.2526,-90.61961 z" fill="#284282" stroke="#071b42" stroke-width="5.5" />
      <g>
        <path d="m 1457.0127,924.59068 c 3.4248,-12.77055 3.3016,-29.05688 -4.3661,-36.42485 -12.7654,24.57393 -27.0765,59.09317 -25.022,66.76052 2.8312,10.56604 81.6465,18.32875 83.6867,-6.44367 -40.2101,6.47628 -52.5485,-18.10669 -37.0007,-27.21805 -5.5837,-1.21357 -11.608,-0.26361 -17.2979,3.32605 z" style="fill:#a5a8d9;stroke:#8182d3;stroke-miterlimit:20;stroke-width:5.5" />
        <use transform="matrix(0.83315748,0.02005648,-0.02005648,0.83315748,110.78807,163.49376)" xlink:href="#path3874" />
        <use transform="matrix(1.1402454,0.16129529,-0.16129529,1.1402454,-248.68261,-298.60351)" xlink:href="#path3874" />
        <use transform="matrix(0.51320791,-0.65663635,0.65663635,0.51320791,69.616883,1545.6571)" xlink:href="#path3874" />
      </g>
      <g>
        <path d="m 1362.5698,491.14278 c -135.7368,-28.61481 -66.2449,163.43867 -265.3024,90.55334 -204.61337,-74.91968 -92.3796,52.02556 -149.12124,52.70702 7.03911,-30.16759 -129.79094,-129.22869 17.71976,-158.76068 49.41328,-9.89266 -100.96039,-133.43928 44.24578,-118.15642 126.7461,13.33994 -10.0274,-74.01193 18.6034,-136.75979 35.2013,-77.14776 156.7158,62.93741 179.1764,-9.76855 15.9472,-51.62188 156.2596,4.07182 193.3934,105.29928 z" style="fill:#4641d1;fill-opacity:.5;stroke-width:5.5;stroke:#885de4" />
        <path d="m 1355.1528,480.94323 c -174.5853,-25.51231 -72.8748,126.69396 -275.9403,77.22083 -99.28064,-24.18788 -97.6482,4.22863 -126.2814,4.22863 -24.4565,0 -21.25521,-56.15098 30.52199,-71.51219 68.63391,-20.36225 -62.19358,-126.47601 50.37121,-113.50147 125.5568,14.47205 27.7964,-87.04343 53.8428,-125.10963 39.8683,-58.26676 113.8343,64.71858 145.3545,-10.92602 27.0246,-64.85573 137.0682,20.62181 158.793,78.15801 z" fill="#1558ce" />
        <g>
          <use transform="matrix(0.40166,0.77287524,-0.77287524,0.40166,1177.6787,-1271.6929)" xlink:href="#path3874" />
          <use transform="matrix(0.00906934,0.43215461,-0.43215461,0.00906934,1469.9567,-434.90002)" xlink:href="#path3874" />
          <use transform="matrix(0.53803081,0.06498411,-0.06498411,0.53803081,380.31842,-250.3057)" xlink:href="#path3874" />
          <use transform="matrix(0.16418269,0.45826584,-0.45826584,0.16418269,1383.6597,-575.0704)" xlink:href="#path3874" />
          <use transform="matrix(0.35257765,0.22233672,-0.22233672,0.35257765,789.4637,-309.92691)" xlink:href="#path3874" />
          <use transform="matrix(0.09617669,0.36116582,-0.36116582,0.09617669,1324.0644,-290.34866)" xlink:href="#path3874" />
          <use transform="matrix(0.42172586,0.55548745,-0.55548745,0.42172586,1017.0532,-890.55884)" xlink:href="#path3874" />
          <use transform="matrix(0.47420517,0.62461198,-0.62461198,0.47420517,901.10563,-1044.1323)" xlink:href="#path3874" />
          <use transform="matrix(0.6080844,0.43197359,-0.43197359,0.6080844,554.9011,-829.03428)" xlink:href="#path3874" />
          <use transform="matrix(0.43093132,-0.02421857,0.02421857,0.43093132,505.59973,47.563801)" xlink:href="#path3874" />
          <use transform="matrix(0.14428905,0.32396457,-0.32396457,0.14428905,1256.4574,-250.09759)" xlink:href="#path3874" />
          <use transform="matrix(0.51071388,0.27419114,-0.27419114,0.51071388,611.3434,-469.71476)" xlink:href="#path3874" />
          <use transform="matrix(0.19898407,0.26209716,-0.26209716,0.19898407,1041.574,-196.32659)" xlink:href="#path3874" />
          <use transform="matrix(-0.0402083,0.91352205,-0.91352205,-0.0402083,2028.2545,-992.2066)" xlink:href="#path3874" />
          <use transform="matrix(0.08985722,0.82980293,-0.82980293,0.08985722,1697.7171,-995.32892)" xlink:href="#path3874" />
          <use transform="matrix(0.27329272,0.78634554,-0.78634554,0.27329272,1374.5454,-1042.2821)" xlink:href="#path3874" />
          <use transform="matrix(0.98133326,0.2501515,-0.2501515,0.98133326,-272.5982,-792.94531)" xlink:href="#path3874" />
          <use transform="matrix(0.13344234,0.38395383,-0.38395383,0.13344234,1237.0403,-271.44247)" xlink:href="#path3874" />
          <use transform="matrix(0.43531865,0.25555894,-0.25555894,0.43531865,630.90758,-323.66127)" xlink:href="#path3874" />
          <use transform="matrix(0.6522319,0.0050954,-0.0050954,0.6522319,80.26444,-140.10185)" xlink:href="#path3874" />
          <use transform="matrix(0.27867159,0.80182215,-0.80182215,0.27867159,1347.0621,-1121.034)" xlink:href="#path3874" />
          <use transform="matrix(0.11730576,0.33752402,-0.33752402,0.11730576,1211.6994,-233.79844)" xlink:href="#path3874" />
          <use transform="matrix(0.18384522,0.22658724,-0.22658724,0.18384522,1005.1976,-86.93448)" xlink:href="#path3874" />
          <use transform="matrix(0.04719549,0.2354986,-0.2354986,0.04719549,1251.8534,68.07008)" xlink:href="#path3874" />
          <use transform="matrix(0.20757399,0.19776405,-0.19776405,0.20757399,977.84614,-5.7138096)" xlink:href="#path3874" />
          <use transform="matrix(0.04901697,0.24458751,-0.24458751,0.04901697,1310.1183,80.326342)" xlink:href="#path3874" />
          <use transform="matrix(0.07157192,0.3571334,-0.3571334,0.07157192,1304.7815,-146.02705)" xlink:href="#path3874" />
          <use transform="matrix(-0.41563853,-0.00968503,0.00968503,-0.41563853,1776.2219,879.49401)" xlink:href="#path3874" />
          <use transform="matrix(0.48008538,0.85793207,-0.85793207,0.48008538,1022.3332,-1307.2311)" xlink:href="#path3874" />
          <use transform="matrix(-0.00872994,0.24315909,-0.24315909,-0.00872994,1279.6542,101.55437)" xlink:href="#path3874" />
          <use transform="matrix(0.07817534,0.29222429,-0.29222429,0.07817534,1173.4268,-9.4555011)" xlink:href="#path3874" />
          <use transform="matrix(0.09239041,0.72573073,-0.72573073,0.09239041,1546.326,-729.88229)" xlink:href="#path3874" />
          <use transform="matrix(-0.20609032,0.22631423,-0.22631423,-0.20609032,1550.5348,293.15773)" xlink:href="#path3874" />
          <use transform="matrix(0.16586139,0.35274101,-0.35274101,0.16586139,1128.8659,-158.7445)" xlink:href="#path3874" />
          <use transform="matrix(0.27629328,0.36392706,-0.36392706,0.27629328,1066.345,-391.68011)" xlink:href="#path3874" />
          <use transform="matrix(0.52058795,0.8416963,-0.8416963,0.52058795,1124.0325,-1370.5897)" xlink:href="#path3874" />
        </g>
      </g>
      <path d="m 1459.1304,594.36255 c 41.7653,-3.14707 58.7362,-11.76748 43.8725,-33.37517 34.56,7.94192 52.0327,-15.43185 28.6554,-42.74592 82.556,14.53108 90.5014,-10.18753 53.4183,-36.86768 65.7908,4.83035 96.1562,-31.17548 41.9576,-41.17773 86.1655,-23.13694 67.9075,-67.01528 -6.8797,-54.42517 36.253,-36.38204 35.2134,-89.45568 26.2982,-91.8445 -12.4105,-3.32537 -28.0867,40.53025 -56.3434,46.71644 57.7825,-84.79676 -29.6733,-156.01234 -17.9036,-88.14229 22.7708,131.30869 -203.0373,86.93275 -164.5949,219.72146 33.4968,115.70539 25.6758,129.15059 -24.5604,147.1279 9.9219,46.16553 90.134,21.20877 76.08,-24.98734 z" style="fill:#284282;stroke:#071b42;stroke-miterlimit:20;stroke-width:5.5" />
      <g>
        <path d="m 1505.3449,648.08985 c 111.5208,-53.33605 30.2178,72.6331 127.9319,79.07164 83.0557,5.47267 156.7637,115.24757 218.193,42.51964 49.9215,-59.10353 69.3741,-27.60047 52.2171,-5.96766 36.76,-5.35883 24.4764,-95.83991 -68.2553,-66.76332 -22.4697,7.04552 -51.6062,-3.8362 -5.2216,-71.61204 16.9012,-24.69556 14.3275,-48.58242 -26.4802,-54.22127 -65.9629,-9.11482 44.1514,-97.88551 -124.3745,-85.51461 -72.2392,5.30283 -123.7397,44.62661 -188.5567,156.89293 z" style="fill-opacity:.5;stroke:#885de4;fill:#4641d1;stroke-miterlimit:20;stroke-width:5.50000000000000000" />
        <path d="m 1500.7355,646.10869 c 136.913,-83.65944 62.1737,56.63495 147.2998,62.57244 97.8355,6.82396 132.7452,107.57582 194.2086,53.30537 24.2046,-21.37196 16.2228,-51.22122 -27.4798,-47.45319 -39.9301,3.44277 -15.4723,-52.64833 -21.3647,-92.05509 -6.9228,-46.29739 -55.9592,-15.55575 -45.5974,-75.4221 9.856,-56.94434 -123.3527,-76.08612 -251.9761,97.05687 z" fill="#1558ce" />
        <g>
          <use transform="matrix(0.62323851,0.25854823,-0.25854823,0.62323851,912.28971,-304.66961)" xlink:href="#path3874" />
          <use transform="matrix(0.22569726,0.63587276,-0.63587276,0.22569726,1886.2136,-596.08334)" xlink:href="#path3874" />
          <use transform="matrix(-0.31329998,0.28584243,-0.28584243,-0.31329998,2408.6922,431.89556)" xlink:href="#path3874" />
          <use transform="matrix(0.06445917,0.33440066,-0.33440066,0.06445917,1875.3166,12.685062)" xlink:href="#path3874" />
          <use transform="matrix(-0.25907051,0.29332413,-0.29332413,-0.25907051,2359.5991,347.01695)" xlink:href="#path3874" />
          <use transform="matrix(-0.19047705,0.33555465,-0.33555465,-0.19047705,2324.0947,163.01568)" xlink:href="#path3874" />
          <use transform="matrix(-0.23321771,0.23778569,-0.23778569,-0.23321771,2320.3375,379.36534)" xlink:href="#path3874" />
          <use transform="matrix(-0.04075797,0.49836064,-0.49836064,-0.04075797,2196.1756,-195.35727)" xlink:href="#path3874" />
          <use transform="matrix(-0.01294902,0.290625,-0.290625,-0.01294902,1938.2728,110.72535)" xlink:href="#path3874" />
          <use transform="matrix(0.26777833,0.50309856,-0.50309856,0.26777833,1658.8503,-446.27066)" xlink:href="#path3874" />
          <use transform="matrix(-0.10179718,0.32323499,-0.32323499,-0.10179718,2088.7496,175.14296)" xlink:href="#path3874" />
          <use transform="matrix(-0.34113381,0.28171383,-0.28171383,-0.34113381,2393.3107,462.80737)" xlink:href="#path3874" />
          <use transform="matrix(-0.21402594,0.30478262,-0.30478262,-0.21402594,2244.1119,329.24919)" xlink:href="#path3874" />
          <use transform="matrix(-0.37874056,0.34135508,-0.34135508,-0.37874056,2550.2363,427.34313)" xlink:href="#path3874" />
          <use transform="matrix(-0.37580175,0.08343053,-0.08343053,-0.37580175,2343.098,829.13742)" xlink:href="#path3874" />
          <use transform="matrix(-0.12811284,0.4773631,-0.4773631,-0.12811284,2290.0895,-8.7895425)" xlink:href="#path3874" />
          <use transform="matrix(-0.21008832,0.23222102,-0.23222102,-0.21008832,2161.2856,467.87331)" xlink:href="#path3874" />
          <use transform="matrix(-0.48890189,0.28028506,-0.28028506,-0.48890189,2640.118,633.32522)" xlink:href="#path3874" />
          <use transform="matrix(0.40996645,0.60385534,-0.60385534,0.40996645,1589.3352,-716.45566)" xlink:href="#path3874" />
          <use transform="matrix(-0.04230281,0.30977024,-0.30977024,-0.04230281,2050.1003,167.81442)" xlink:href="#path3874" />
          <use transform="matrix(-0.2128167,0.44609134,-0.44609134,-0.2128167,2457.3674,114.00927)" xlink:href="#path3874" />
          <use transform="matrix(0.54692645,0.31755168,-0.31755168,0.54692645,1117.0829,-313.47987)" xlink:href="#path3874" />
          <use transform="matrix(0.38064832,0.01893871,-0.01893871,0.38064832,1123.0449,295.30432)" xlink:href="#path3874" />
          <use transform="matrix(0.27813629,0.44972572,-0.44972572,0.27813629,1688.053,-322.81819)" xlink:href="#path3874" />
          <use transform="matrix(0.03979036,0.28689671,-0.28689671,0.03979036,1920.2977,145.66901)" xlink:href="#path3874" />
          <use transform="matrix(0.76845794,-0.03392788,0.03392788,0.76845794,484.11354,68.436718)" xlink:href="#path3874" />
          <use transform="matrix(0.45834342,-0.40930764,0.40930764,0.45834342,639.71276,940.78911)" xlink:href="#path3874" />
          <use transform="matrix(0.16003803,0.4310448,-0.4310448,0.16003803,1847.4103,-156.09328)" xlink:href="#path3874" />
          <use transform="matrix(0.17686157,0.28884602,-0.28884602,0.17686157,1693.0936,76.360321)" xlink:href="#path3874" />
          <use transform="matrix(0.39674104,-0.02419471,0.02419471,0.39674104,1077.3626,392.00037)" xlink:href="#path3874" />
          <use transform="matrix(0.35270055,0.06337819,-0.06337819,0.35270055,1218.7056,295.65059)" xlink:href="#path3874" />
          <use transform="matrix(0.88560944,0.075877,-0.075877,0.88560944,426.6738,-185.58754)" xlink:href="#path3874" />
          <use transform="matrix(0.4800089,-0.34114094,0.34114094,0.4800089,704.19076,857.01278)" xlink:href="#path3874" />
          <use transform="matrix(0.44301239,-0.01667446,0.01667446,0.44301239,1060.6098,376.64046)" xlink:href="#path3874" />
          <use transform="matrix(0.26272625,-0.20692872,0.20692872,0.26272625,1175.3344,806.85316)" xlink:href="#path3874" />
          <use transform="matrix(-0.14555838,0.25041118,-0.25041118,-0.14555838,2120.378,376.91493)" xlink:href="#path3874" />
          <use transform="matrix(0.26295908,0.12143115,-0.12143115,0.26295908,1420.1144,235.668)" xlink:href="#path3874" />
          <use transform="matrix(0.32605232,0.05239492,-0.05239492,0.32605232,1246.7502,289.18537)" xlink:href="#path3874" />
        </g>
      </g>
      <g>
        <path d="m 1278.2366,640.03866 22.2468,9.21846 c 1.7745,67.1949 -25.1293,67.27592 -82.794,48.11615 -57.7215,54.05069 -24.1764,57.62362 -27.7813,67.09206 -6.9145,18.16127 -33.8999,48.65371 -52.3644,49.88132 -8.2468,0.54828 -35.6211,-44.1277 -29.1122,-68.62306 8.1574,-30.69961 84.3071,-96.8144 100.4348,-96.1657 7.365,0.29624 31.5764,14.20592 51.1646,29.92947 z" fill="#284282" />
        <path fill="#071b42" inkscape:original-d="m 1226.5127,688.82478 c -68.5138,63.98358 -32.7807,65.59687 -36.6046,75.64055 -6.9145,18.16126 -33.8999,48.65371 -52.3644,49.88132 -8.2468,0.54828 -35.6211,-44.1277 -29.1122,-68.62306 8.1574,-30.69961 84.3071,-96.8144 100.4348,-96.1657 8.7706,0.35278 41.4313,20.011 61.9046,38.64607" inkscape:path-effect="#path-effect4303-4" />
        <path d="m 1217.7345,697.43556 c 57.6196,19.09748 84.5234,19.01646 82.7489,-48.17844 l -22.2468,-9.21846 -18.3119,39.68673" fill="none" stroke="#071b42" stroke-width="5.5" />
      </g>
      <g>
        <path d="m 1135.4055,824.41322 c 8.8376,6.51113 78.5176,-52.43706 53.8496,-72.94719 -15.7457,45.32011 -53.2674,44.97483 -39.231,19.70901 -5.219,1.61477 -12.072,5.15047 -16.4274,11.72891 -3.1836,-11.32299 -14.1094,-19.89013 -26.6475,-21.41138 1.7916,24.37262 20.9185,57.36715 28.4563,62.92065 z" style="fill:#a5a8d9;stroke:#8182d3;stroke-miterlimit:20;stroke-width:5.5" />
        <use transform="matrix(1.3408914,0.11403763,-0.11403763,1.3408914,-892.42096,-575.3934)" xlink:href="#path3874" />
        <use transform="matrix(0.56630907,0.27236656,-0.27236656,0.56630907,497.56825,-144.09387)" xlink:href="#path3874" />
      </g>
      <path d="m 1231.5443,439.87194 17.8741,23.37381 32.409,-5.49972 -5.4996,-13.94572 -18.4948,3.55128 15.7449,-8.65816 -6.0889,-10.21376 z" style="fill:#fff;stroke:#b9e0f7;stroke-miterlimit:20;stroke-width:3" />
      <path d="m 1464.0445,707.93296 c -46.3991,-6.70634 -133.5307,36.44038 -180.4132,-30.6704 -54.8094,-78.45794 64.1062,-125.19553 45.5577,-208.0307 -8.542,1.55655 -17.9598,0.99939 -28.3556,-0.62075 -21.3889,-3.33335 -31.5132,2.11872 -40.8752,2.11872 -5.6921,0 -11.3688,-3.05482 -16.485,-7.84414 5.6165,-5.66691 18.3983,-10.71893 25.7083,-9.48419 -10.1452,-11.4585 -25.9681,-11.63819 -38.5208,-8.15179 -5.6001,-11.01284 -8.4343,-23.17621 -6.2976,-31.15045 0.5511,-2.05661 17.6365,0.42367 30.7175,-48.39553 13.4557,-50.21733 78.0642,-73.16672 129.4789,-43.29905 l 19.1089,18.19585 c 31.7233,97.78725 -22.47,204.84422 -8.2961,257.74208 16.7397,62.47352 134.1888,-17.19908 136.2534,96.97543 18.564,-17.43187 24.2464,-14.78711 27.2892,13.58752 2.8998,27.04054 20.7042,96.3951 34.47,130.20549 4.7528,11.67337 14.1462,9.40897 13.7134,24.82883 -0.6155,21.93254 -11.3491,41.82558 -28.6368,55.70847 -5.2113,4.18494 -42.8896,-34.06492 -48.3954,-47.22885 -13.4201,-32.08676 2.9321,-87.84353 -1.1138,-134.97718 -11.9084,14.92627 -49.7757,-4.79371 -64.9078,-29.50936 z" fill="#314b8f" />
      <path fill="#071b42" inkscape:original-d="m 1454.7692,684.40886 c -2.8879,28.78473 73.6784,90.87976 81.4945,37.17356" inkscape:path-effect="#path-effect3858" />
      <g>
        <path d="m 1469.8605,662.53411 c -28.1822,19.85134 8.8098,54.35904 25.1467,28.17464 4.3166,3.3152 9.3333,5.05618 14.7194,5.29033 8.9328,9.29429 18.7783,6.48778 22.1054,-1.50334 -0.3057,-35.6614 -10.3543,-71.09115 -80.5497,-68.09594 0.5333,13.86562 8.3256,31.70145 18.5782,36.13431 z" fill="#020016" />
        <path d="m 1496.1252,643.98415 c -3.281,-0.0276 -6.5098,0.74411 -9.426,2.17243 1.6065,0.0129 3.2422,0.34457 4.7866,1.07094 5.8525,2.75251 8.3298,9.84452 5.5406,15.84961 -2.7892,6.0051 -9.7897,8.65787 -15.6424,5.90535 -2.9786,-1.4009 -5.0952,-3.91832 -6.0775,-6.85388 -0.9984,8.23058 3.0451,16.66076 10.839,20.92883 10.1868,5.57851 22.9269,1.95625 28.4421,-8.1084 5.5151,-10.06463 1.7204,-22.75498 -8.4664,-28.33348 -3.1835,-1.74327 -6.6138,-2.6029 -9.996,-2.6314 z" fill="#fff" />
        <path d="m 1541.9009,712.47235 c 0,3.23963 -3.0523,5.86586 -6.8175,5.86586 -3.7653,0 -6.8176,-2.62623 -6.8176,-5.86586 0,-3.23962 3.0523,-5.86586 6.8176,-5.86586 3.7652,0 6.8175,2.62624 6.8175,5.86586 z" fill="#020016" fill-rule="evenodd" transform="matrix(0.99968574,-0.02506877,0.02506877,0.99968574,-23.426071,37.467457)" sodipodi:cx="1535.0834" sodipodi:cy="712.47235" sodipodi:rx="6.8175426" sodipodi:ry="5.8658619" sodipodi:type="arc" />
        <path d="m 1539.4689,712.47235 c 0,1.97987 -1.9634,3.58488 -4.3855,3.58488 -2.4221,0 -4.3856,-1.60501 -4.3856,-3.58488 0,-1.97987 1.9635,-3.58487 4.3856,-3.58487 2.4221,0 4.3855,1.605 4.3855,3.58487 z" fill="#020016" fill-rule="evenodd" transform="matrix(0.94819057,-0.31770214,0.31770214,0.94819057,-139.92295,514.19698)" sodipodi:cx="1535.0834" sodipodi:cy="712.47235" sodipodi:rx="4.3855634" sodipodi:ry="3.5848746" sodipodi:type="arc" />
        <path d="m 1505.0202,717.67456 c 0,4.1787 -3.4763,7.5662 -7.7646,7.5662 -4.2883,0 -7.7646,-3.3875 -7.7646,-7.5662 0,-4.1787 3.4763,-7.5662 7.7646,-7.5662 4.2883,0 7.7646,3.3875 7.7646,7.5662 z" fill="#020016" transform="matrix(0.76384016,-0.64540546,0.64540546,0.76384016,-101.10173,1132.2194)" sodipodi:cx="1497.2556" sodipodi:cy="717.67456" sodipodi:rx="7.7646246" sodipodi:ry="7.5662012" sodipodi:type="arc" />
        <path d="m 1501.4402,717.67456 c 0,1.98809 -1.8735,3.59976 -4.1846,3.59976 -2.3111,0 -4.1846,-1.61167 -4.1846,-3.59976 0,-1.98809 1.8735,-3.59976 4.1846,-3.59976 2.3111,0 4.1846,1.61167 4.1846,3.59976 z" fill="#020016" transform="matrix(0.59634533,-0.802728,0.802728,0.59634533,30.214493,1493.1299)" sodipodi:cx="1497.2556" sodipodi:cy="717.67456" sodipodi:rx="4.184607" sodipodi:ry="3.5997593" sodipodi:type="arc" />
      </g>
      <path d="m 1528.9523,737.44232 c 4.0459,47.13365 -12.3063,102.89042 1.1138,134.97718 5.5058,13.16393 43.1841,51.41379 48.3954,47.22885 17.2877,-13.88289 28.0213,-33.77593 28.6368,-55.70847 0.4328,-15.41986 -8.9606,-13.15546 -13.7134,-24.82883 -13.7658,-33.81039 -31.5702,-103.16495 -34.47,-130.20549 -3.0428,-28.37463 -8.7252,-31.01939 -27.2892,-13.58752 -2.0646,-114.17451 -119.5137,-34.50191 -136.2534,-96.97543 -14.1739,-52.89786 40.0194,-159.95483 8.2961,-257.74208" style="stroke:#071b42;fill:none;stroke-miterlimit:20;stroke-width:5.5" />
      <g transform="translate(0,-6.003596)">
        <path d="m 1358.375,392.625 c 5.5,6.875 15.375,12.375 26,13.75 -10.25,2 -22.875,-3.125 -28.25,-10.625 z" />
        <path d="m 1354.625,399.625 -1.875,2.625 c 5.375,7.375 13.25,11.25 23.25,12.375 -9.125,-3.625 -16.25,-8.875 -21.375,-15 z" />
        <path d="m 1305.2307,380.98606 c 19.0999,0.0275 39.5871,2.75573 55.0215,8.5775 -7.1105,42.48566 -51.3738,50.84058 -90.8375,39.64143 1.7146,-10.89341 6.4639,-24.52147 12.0734,-34.55237 z" fill="#fff" />
        <g clip-path="url(#clipPath4215)">
          <path d="m 1313.9396,417.75464 c 0,11.48488 -12.4996,20.79522 -27.9186,20.79522 -15.419,0 -27.9186,-9.31034 -27.9186,-20.79522 0,-11.48489 12.4996,-20.79522 27.9186,-20.79522 15.419,0 27.9186,9.31033 27.9186,20.79522 z" fill="url(#linearGradient4196)" transform="matrix(0.27994775,-0.96001525,0.96001525,0.27994775,525.4848,1535.5828)" sodipodi:cx="1286.021" sodipodi:cy="417.75464" sodipodi:rx="27.91856" sodipodi:ry="20.795223" sodipodi:type="arc" />
          <g clip-path="url(#clipPath4200)">
            <path d="m 1292.6816,423.35196 -2.514,2.63966 10.0559,20.11173 7.4162,-13.70112 z" fill="#9cfff3" />
            <path d="m 1311.662,429.51117 -22.1229,-9.17597 -0.7542,1.63407 20.8659,18.85475 z" fill="#66f4d4" />
          </g>
          <path d="m 1304.6906,417.75464 c 0,7.76841 -8.3587,14.06596 -18.6696,14.06596 -10.3109,0 -18.6696,-6.29755 -18.6696,-14.06596 0,-7.76842 8.3587,-14.06596 18.6696,-14.06596 10.3109,0 18.6696,6.29754 18.6696,14.06596 z" transform="matrix(0.21090287,-0.97750702,0.97750702,0.21090287,606.79294,1586.9214)" sodipodi:cx="1286.021" sodipodi:cy="417.75464" sodipodi:rx="18.669598" sodipodi:ry="14.06596" sodipodi:type="arc" />
          <path d="m 1309.0506,411.90323 c 0,3.93361 -5.5976,7.12243 -12.5026,7.12243 -6.905,0 -12.5027,-3.18882 -12.5027,-7.12243 0,-3.93361 5.5977,-7.12244 12.5027,-7.12244 6.905,0 12.5026,3.18883 12.5026,7.12244 z" fill="#fff" transform="matrix(0.10666875,0.99429461,-0.99429461,0.10666875,1567.8,-921.18464)" sodipodi:cx="1296.548" sodipodi:cy="411.90323" sodipodi:rx="12.502638" sodipodi:ry="7.1224341" sodipodi:type="arc" />
          <path d="m 1288.1869,416.22821 c 0,2.52341 -1.2815,4.56904 -2.8623,4.56904 -1.5808,0 -2.8623,-2.04563 -2.8623,-4.56904 0,-2.52341 1.2815,-4.56904 2.8623,-4.56904 1.5808,0 2.8623,2.04563 2.8623,4.56904 z" fill="#fff" transform="matrix(0.99942813,-0.0338146,0.0338146,0.99942813,-14.583889,43.700756)" sodipodi:cx="1285.3246" sodipodi:cy="416.22821" sodipodi:rx="2.8622775" sodipodi:ry="4.5690355" sodipodi:type="arc" />
        </g>
        <path d="m 1281.4319,394.65262 c 1.2607,-4.19913 3.2275,-8.85239 5.0952,-12.03569 l 18.0161,-1.56837 z" fill="#779ae1" />
        <path d="m 1275.151,399.59018 c 6.5836,-6.81218 17.31,-14.4476 24.8382,-18.51346 l 10.378,0.125 c -11.0119,4.77297 -25.3685,12.00305 -35.2162,18.38846 z" />
        <path d="m 1282.5149,368.4738 c -6.8943,7.07107 -6.7458,18.02441 3.3588,16.97056 28.8146,-3.0052 61.0078,0.50734 72.6552,5.83363 9.8222,4.49162 21.2132,7.60141 31.1128,4.94975 -12.5512,1e-5 -21.8843,-5.48304 -29.345,-8.66206 -15.3076,-6.52255 -40.6339,-10.10032 -73.5391,-7.77817 -3.4912,0.24637 -6.7175,-4.94975 -4.2427,-11.31371 z" />
      </g>
      <g>
        <path clip-path="url(#clipPath4339)" fill="#071b42" inkscape:original-d="m 1384.5595,322.40468 c -51.4147,-29.86767 -116.0232,-6.91828 -129.4789,43.29905 -13.081,48.8192 -30.1664,46.33893 -30.7175,48.39553 -4.7792,17.83624 15.3108,56.63057 35.5951,56.63057 9.362,0 19.4863,-5.45206 40.8752,-2.11872 20.8574,3.25052 37.7777,2.22222 49.9999,-10.55555" inkscape:path-effect="#path-effect4301" />
        <path d="m 1221.1111,451.11111 c 13.0555,-10.83334 35.1389,-11.1111 49.1668,2.5 -14.5834,-0.97222 -26.2502,6.25 -34.0279,17.77778" style="clip-path:url(#clipPath4344);stroke:#071b42;fill:none;stroke-width:3" />
      </g>
      <path d="m 1284.1692,288.59344 c 11.1474,17.05002 31.8108,25.07482 55.4624,22.3983 18.843,-65.77278 -21.2265,3.55664 -3.5553,-57.59562 8.1168,-28.08873 3.9108,-36.61944 -14.2212,-8.88822 -31.058,47.50043 2.9857,-36.18751 -37.6859,44.08554 z" fill="#020016" stroke="#7070ca" stroke-width="5.5" />
      <path d="m 1234.843,424.7452 c 2.9528,0.59182 6.0744,-1.17612 6.6953,-4.09993 2.174,5.7087 -4.0414,8.68613 -6.6953,4.09993 z" fill="#071b42" />
      <g>
        <path d="m 1315.7208,310.35532 c -48.4677,-86.87864 -84.351,-147.5631 -88.7918,-145.84134 -4.4408,1.72176 16.3651,63.55953 46.0058,155.14444 z" fill="#314b8f" stroke="#071b42" stroke-width="5.5" />
        <path d="m 1239.017,178.02406 c -1.4221,4.44412 -4.9774,7.82163 -8.5327,8.88822 l 4.9774,18.13195 c 5.3329,-2.4887 10.3104,-7.11056 11.7325,-14.22114 l 7.1105,12.4435 c -1.0666,7.4661 -6.755,14.9322 -13.1545,17.77643 l 7.4661,24.53147 c 8.5327,-3.91082 15.6432,-12.79903 16.3543,-24.17594 l 11.3769,18.48748 c -2.8442,14.9322 -8.8882,27.02017 -20.2651,29.86441 l 7.4661,20.62064 c 14.5767,-3.55528 23.1094,-18.84301 24.1759,-30.93098 l 11.1992,20.79842 c -4.6219,14.75443 -15.11,25.06477 -29.6867,28.97558" fill="none" stroke="#071b42" stroke-width="3" />
      </g>
      <path d="m 1387.2724,298.90378 c -77.5052,76.43863 -122.2458,2.25456 -141.8559,55.10692 -6.7151,18.09824 7.8216,31.99756 24.1759,28.44228 -15.9987,38.39709 -73.6907,-3.08207 -30.2199,-53.68481 44.9123,-52.2808 136.1429,-29.53353 159.2769,-6.39951 54.4267,54.4267 20.9762,157.14362 4.6219,195.18516 -28.4424,-113.76912 20.265,-116.96888 -8.1773,-183.09719 z" style="fill:#1558ce;stroke:#885de4;stroke-miterlimit:20;stroke-width:5.5" />
      <g>
        <path d="m 1364.5,330.25 c 5.25,-26.5 28.1311,-53.85111 35.0962,-52.87868 C 1407.3076,278.44794 1430,342.75 1392.25,379.75 z" fill="#314b8f" />
        <path fill="#071b42" inkscape:original-d="m 1364.5,330.25 c 5.25,-26.5 28.1311,-53.85111 35.0962,-52.87868 C 1407.3076,278.44794 1430,342.75 1392.25,379.75" inkscape:path-effect="#path-effect4256" />
        <path d="m 1394.9357,304.71038 c 3.1879,10.89735 1.7117,33.39654 -3.304,44.01488 8.546,-10.15952 9.652,-33.02104 3.304,-44.01488 z" fill="#071b42" />
      </g>
      <path d="m 1329.3855,469.10614 c 18.352,82.96089 -100.5636,129.69848 -45.7542,208.15642 46.8825,67.11078 134.0141,23.96406 180.4132,30.6704" style="stroke:#071b42;fill:none;stroke-miterlimit:20;stroke-width:5.5" />
      <g>
        <path d="m 1331.073,675.07235 c 27.2754,51.45896 32.8503,69.80193 -40.6651,52.58181 -8.2176,67.338 13.6886,63.72476 17.2315,73.27516 6.759,18.21969 6.5447,60.82094 -6.5405,73.90615 -4.0914,4.09138 -57.8853,-28.88628 -63.4253,-49.56165 -10.3421,-38.59739 2.4531,-147.99592 25.7809,-149.10127 9.0733,-0.42992 32.1543,10.32224 50.8716,22.86262 -1.3187,-8.24176 -4.1719,-21.54783 -6.2487,-28.68243 z" fill="#314b8f" />
        <path fill="#071b42" inkscape:original-d="m 1331.073,675.07235 c 27.2754,51.45896 32.8503,69.80193 -40.6604,52.61449" inkscape:path-effect="#path-effect4287" />
        <path fill="#071b42" inkscape:original-d="m 1291.1454,717.837 c -10.3568,78.81768 12.7561,73.01635 16.494,83.09232 6.7589,18.21972 6.5447,60.82094 -6.5405,73.90615 -4.0914,4.09138 -57.8853,-28.88628 -63.4253,-49.56165 -10.3421,-38.59739 2.4531,-147.9959 25.7809,-149.10127 10.7751,-0.51056 41.3056,14.74916 60.8221,30.04587" inkscape:path-effect="#path-effect4303" />
        <path d="m 1311.582,697.32313 5.1285,3.45005 c -2.3311,-10.72315 -5.6492,-22.49463 -8.6331,-30.42044 1.3987,8.20554 2.9452,20.25676 3.5046,26.97039 z" fill="#071b42" fill-rule="evenodd" />
      </g>
      <g>
        <path d="m 1304.2348,882.84601 c 9.8611,-0.40712 26.0327,-86.18697 -2.9157,-95.70149 12.161,48.34849 -11.3963,68.09804 -18.1445,40.47396 -3.0599,4.52572 -4.9359,11.53128 -4.649,18.44625 -10.3174,-8.17271 -19.3889,-9.81081 -32.7109,-5.31613 15.3371,22.34386 49.0654,42.48362 58.4201,42.09741 z" style="fill:#c2bff3;stroke:#9b93f0;stroke-miterlimit:20;stroke-width:5.5" />
        <use transform="matrix(-0.12913478,0.59916922,-0.59916922,-0.12913478,2041.3234,-20.072005)" xlink:href="#path3874" />
        <use transform="matrix(0.88079986,-0.02709446,0.02709446,0.88079986,-171.29324,121.88343)" xlink:href="#path3874" />
      </g>
      <g>
        <g clip-path="url(#clipPath4954)">
          <path d="m 1287.1613,588.54346 c 43.8659,21.19476 61.6374,-27.65548 107.2558,0.79868 l 2.0303,15.41405 c -21.2519,-15.46459 -61.5633,12.04983 -75.9668,34.67598 -46.9864,73.80999 -105.7867,-49.65552 1.8898,-92.76212 z" fill="#020016" />
          <path d="m 1270.375,608.09375 c 3.7463,2.08915 5.4917,7.14223 3.9375,12.0625 -1.7417,5.5141 -6.9712,8.77098 -11.6875,7.28125 -1.0953,6.70976 2.7077,19.82686 8.6899,24.65988 8.1648,0.64998 16.6302,-3.66032 21.3101,-11.69113 6.3433,-10.8852 3.3275,-24.47114 -6.75,-30.34375 -4.7997,-2.79702 -10.3353,-3.34313 -15.5,-1.96875 z" fill="#fff" />
          <path d="m 1392.971,578.29332 3.4764,26.46287 c -21.2519,-15.46459 -61.5633,12.04983 -75.9668,34.67598 -46.9864,73.80999 -105.7867,-49.65552 1.8898,-92.76212" style="clip-path:url(#clipPath4716);stroke:#7070ca;fill:none;stroke-width:5.5" />
        </g>
        <path clip-path="url(#clipPath4712)" fill="#7070ca" inkscape:original-d="m 1281.2639,585.35566 c 51.4802,30.71225 67.7082,-33.34083 123.0739,11.02139" inkscape:path-effect="#path-effect4675" />
      </g>
      <g>
        <path d="m 1529.6704,880.35164 c 13.4505,21.62639 41.4157,49.46912 49.3186,50.1099 8.5646,0.69442 49.3187,-64.35165 27.9561,-79.91208 -14.5055,40.0879 -36.3956,41.40658 -39.5604,21.62636 -5.2748,3.69231 -5.5385,11.07693 -4.2199,18.98901 -10.5494,-10.28571 -22.6813,-13.71428 -33.4944,-10.81319 z" style="fill:#c2bff3;stroke-miterlimit:20;stroke-width:5.5;stroke:#9b93f0" />
        <path fill="#b6ecff" fill-rule="evenodd" id="path3874" transform="matrix(1.1578182,0.0241275,-0.0241275,1.1578182,-165.09075,-202.70438)" sodipodi:arg1="1.4337302" sodipodi:arg2="2.2191283" sodipodi:cx="1551.4078" sodipodi:cy="897.79956" sodipodi:r1="5.4594045" sodipodi:r2="0.5459404" sodipodi:sides="4" sodipodi:type="star" />
        <use transform="matrix(0.80111581,-0.11832985,0.11832985,0.80111581,174.32776,391.35209)" xlink:href="#path3874" />
        <use transform="matrix(0.84355695,0.34994653,-0.34994653,0.84355695,514.99797,-376.36259)" xlink:href="#path3874" />
      </g>
      <g>
        <path d="m 1447.7881,646.90245 c 24.4521,2.22662 58.4491,-0.62867 50.9487,-32.11081 23.3576,3.73115 33.4878,-2.01452 28.6138,-21.63946 29.5642,19.58142 54.1369,3.83949 41.8505,-29.94805 72.1825,42.61838 88.3084,22.26906 62.9677,-15.74192 59.8961,27.64435 100.9787,4.60739 53.7529,-23.80487 91.38,8.83084 94.4516,-39.16283 10.3667,-52.21712 43.4186,-16.85158 67.1774,-67.7202 57.3612,-75.87083 -9.6384,-8.00302 -38.5971,27.20055 -68.7239,24.62968 88.0694,-59.88627 27.3441,-159.57589 15.2022,-90.82012 -23.4513,132.7971 -218.9602,9.58934 -228.066,150.12422 -11.264,173.84341 -53.1884,101.47509 -68.3101,151.41579 z" fill="#314b8f" />
        <g>
          <path clip-path="url(#clipPath5856)" fill="#071b42" inkscape:original-d="m 1403.7518,630.91896 c 15.1217,-49.9407 57.0461,22.42762 68.3101,-151.41579 9.1058,-140.53488 204.6146,-17.32714 228.066,-150.12422 12.8062,-72.51735 79.6571,42.34593 -31.034,100.2108 -141.3461,73.89006 -192.3458,141.87548 -179.2436,164.56915 29.3732,50.87592 -13.0589,55.38461 -42.0622,52.74355" inkscape:path-effect="#path-effect5823" />
          <path d="m 1474.5472,608.97927 c 40.207,11.7321 59.1249,9.62603 52.8034,-15.82709 29.5642,19.58142 54.1369,3.83949 41.8505,-29.94805 72.1825,42.61838 88.3084,22.26906 62.9677,-15.74192 59.8961,27.64435 100.9787,4.60739 53.7529,-23.80487 91.38,8.83084 94.4516,-39.16283 10.3667,-52.21712 43.4186,-16.85158 67.1774,-67.72019 57.3612,-75.87083 -11.7471,-9.75389 -52.1928,44.67197 -88.4611,16.74263" style="clip-path:url(#clipPath5860);stroke:#071b42;fill:none;stroke-miterlimit:20;stroke-width:5.5" />
        </g>
        <g>
          <path clip-path="url(#clipPath5929)" fill="#071b42" inkscape:original-d="m 1471.1357,620.38059 c 50.6188,-52.62919 -18.9884,-67.90865 24.7486,-152.38151 42.4084,-81.90683 112.1078,2.80159 25.1024,17.32412 -22.889,3.82052 -31.5293,31.65558 -15.4602,43.63351 16.9602,12.64214 21.2353,28.22361 -2.4068,30.46625" inkscape:path-effect="#path-effect5904" />
          <path d="m 1516.75,479.5 c 44.5,0.5 54.5,37.5 17,39 11.75,10.5 3,30.25 -30.5,17.5" style="clip-path:url(#clipPath5925);stroke:#071b42;fill:none;stroke-miterlimit:20;stroke-width:3.5" />
        </g>
      </g>
    </g>
  </g>
</svg>