<svg xmlns="http://www.w3.org/2000/svg" xmlns:inkscape="http://www.inkscape.org/namespaces/inkscape" xmlns:xlink="http://www.w3.org/1999/xlink" height="340.17764" viewBox="0 0 482.68811 340.17764" width="482.68811">
  <defs>
    <inkscape:path-effect effect="powerstroke" end_linecap_type="zerowidth" id="path-effect6524" interpolator_type="CubicBezierSmooth" offset_points="0.23,1.8 | 5.81,1.8" start_linecap_type="zerowidth" />
    <inkscape:path-effect effect="powerstroke" end_linecap_type="zerowidth" id="path-effect6410" interpolator_type="CubicBezierSmooth" offset_points="0.4,1.8 | 3.68,1.8" start_linecap_type="zerowidth" />
    <inkscape:path-effect effect="powerstroke" id="path-effect6407" interpolator_type="CubicBezierSmooth" offset_points="0.27,1.8 | 1,1.8" start_linecap_type="zerowidth" />
    <inkscape:path-effect effect="powerstroke" end_linecap_type="zerowidth" id="path-effect6243" interpolator_type="CubicBezierSmooth" offset_points="0.33,1.8 | 2,1.5 | 1.39,1.8 | 3.6,1.8 | 3,1.8" start_linecap_type="zerowidth" />
    <inkscape:path-effect effect="powerstroke" end_linecap_type="zerowidth" id="path-effect4437" interpolator_type="CubicBezierSmooth" offset_points="0.26,1.8 | 2.72,1.8" start_linecap_type="zerowidth" />
    <inkscape:path-effect effect="powerstroke" end_linecap_type="zerowidth" id="path-effect5090" interpolator_type="CubicBezierSmooth" offset_points="0.2,1.8 | 1.65,1.8" start_linecap_type="zerowidth" />
  </defs>
  <g transform="translate(-50.849749-1977.5566)">
    <g>
      <path d="m 369.89287,2265.7985 c 26.7304,14.4242 54.98833,10.8811 76.15556,-7.768 13.11378,7.0919 19.85106,21.1346 25.38355,27.0799 16.06716,17.2659 68.38284,0.939 59.25893,-15.1637 -18.54029,-32.7216 -62.42415,-46.0556 -92.94271,-44.5749 -19.66031,0.9539 -26.54424,16.5883 -54.64526,14.564 z" fill="#bf89d1" stroke="#9156a9" stroke-width="3.5999999" />
      <path d="m 452.66564,2264.0134 c 22.28434,-3.704 38.13567,-10.9657 50.19876,-23.2977 5.27207,3.2121 9.61821,6.5593 14.58081,10.888 -14.93615,13.3925 -31.5896,21.4661 -53.76963,25.0545 -2.84035,-4.0568 -6.4727,-8.6833 -11.00994,-12.6448 z" fill="#e7bb40" />
      <path d="m 489.70565,2251.7337 11.87325,11.5335 8.57511,-5.1939 -15.17559,-10.3641 z" fill="#f2f271" />
      <path d="m 452.66564,2264.0134 c 22.28434,-3.704 38.13567,-10.9657 50.19876,-23.2977 5.27207,3.2121 9.61821,6.5593 14.58081,10.888 -14.93615,13.3925 -31.5896,21.4661 -53.76963,25.0545 -2.84035,-4.0568 -6.4727,-8.6833 -11.00994,-12.6448 z" fill="none" stroke="#887138" stroke-width="1.79999995" />
    </g>
    <g transform="translate(-136.06607 1344.8532)">
      <path d="m 475.30266,878.61057 c 26.67969,35.44203 0.50676,69.60683 -28.97677,43.2394 -22.36268,-19.99922 -45.70037,-68.29687 -36.31452,-77.2148 5.23876,-4.97763 30.00207,8.30243 53.36627,26.43163 z" style="stroke:#9156a9;stroke-width:3.5999999;fill:#bf89d1;stroke-miterlimit:20" />
      <path d="m 457.33269,866.32018 c -2.43393,2.62006 -1.48304,5.29652 3.1878,9.43377 -14.31696,-1.91853 -10.92156,7.69422 0.99097,17.54998 -17.53878,-4.00644 -12.2192,7.3629 -3.58827,15.90502 -5.38484,-1.58937 -15.79072,0.71428 -8.94462,14.92912" style="stroke:#9156a9;stroke-width:2.70000005;fill:none;stroke-miterlimit:20" />
      <path d="m 447.95329,910.79342 -39.65221,-54.65652 m 44.11049,36.81279 -42.12219,-49.06435 m 45.03879,31.63925 -30.00103,-28.62913" style="stroke:#9156a9;stroke-width:1.79999995;fill:none;stroke-miterlimit:20" />
      <path d="m 418.89947,887.51752 c 2.61467,-16.9023 10.5174,-28.57537 24.01031,-32.56819 -38.94844,-26.00616 -47.10783,-12.06201 -24.01031,32.56819 z" fill="#e7bb40" />
      <path d="m 416.69086,842.22141 16.12377,17.95047 3.67465,-2.57585 -13.76602,-13.58767 z" fill="#f2f271" />
      <path d="m 422.22919,875.33538 -16.00948,-22.06743 m 21.94576,11.43964 -18.66464,-21.74076 m 27.0425,14.63192 -14.76735,-14.09206 m -2.87651,44.01083 c 2.61467,-16.9023 10.5174,-28.57537 24.01031,-32.56819 -38.94844,-26.00616 -47.10783,-12.06201 -24.01031,32.56819 z" style="stroke:#887138;stroke-width:1.79999995;fill:none;stroke-miterlimit:20" />
      <ellipse cx="915.47986" cy="242.68953" fill="#c00088" rx="5.4404445" ry="3.9941137" stroke="#88005f" stroke-width="0.89999998" transform="rotate(49.085507)" />
      <ellipse cx="731.94543" cy="597.37939" fill="#ef93d3" rx="1.155039" ry="0.74164093" transform="rotate(24.629678)" />
    </g>
    <path d="m 71.179109,2198.0845 c 3.616783,32.4823 53.438051,65.9318 144.120221,19.4033 55.9138,-28.689 93.87715,-1.0378 126.66058,-6.9992 10.52011,-40.5192 1.12881,-72.1072 -4.08301,-113.494 -14.16354,-112.472 173.2705,-112.0599 132.60943,29.9878 l -61.60793,38.5408 c -7.58748,40.5127 20.32928,92.0617 -17.26174,116.1997 -50.24708,32.2648 -87.19212,-34.7393 -167.63759,-12.1394 -104.84067,29.4534 -163.210572,-5.618 -172.207819,-68.8052 z" fill="#cc9cdf" />
    <g>
      <path d="m 137.44,2182.627 c -3.93815,35.9261 -2.00811,55.1931 8.31724,72.4647 21.20586,35.4718 10.8488,59.7596 -14.10167,59.7596 -24.95046,0 -35.307517,-24.2878 -14.10166,-59.7596 10.32535,-17.2716 12.25539,-36.5386 8.31717,-72.4647 z" fill="#992a78" id="path12661" opacity=".1" />
      <path d="m 54.082643,2212.4696 c -0.969176,-3.7775 -1.739888,-7.6777 -2.311392,-11.6913 -11.678542,-82.0178 91.657959,-87.7617 83.415859,-14.7043 -1.72304,15.2729 -2.69489,51.7125 7.35876,67.0541 15.42625,23.54 18.55147,57.5197 -9.51542,59.2913 -28.06689,1.7716 -27.24376,-30.9138 -20.07306,-43.7086 12.75,-22.75 19.95458,-37.967 15.68733,-82.9477 -4.23239,-44.6132 -63.259436,-39.7129 -57.465611,12.3214 0.362688,3.2573 1.190004,6.5243 2.476559,9.7194 z" fill="#cc9cdf" />
      <use xlink:href="#path12661" />
      <g transform="translate(133.19186 2285.803)scale(.49134317)">
        <g fill="#fff">
          <path d="m -4.5,-3.7 -9.3,-17.2 13.5,13.3 8.6,-13.8 -4.7,15.8 16.5,5.6 -15.9,2.6 6.1,19.3 -11.9,-20.5 -7.8,18.2 3.4,-19.7 -14.8,-2 z" />
          <path d="m 11.692,-38.888 5.376,2.304 1.08,-7.416 1.728,7.176 4.224,-0.96 -3.24,3.696 2.808,3.696 -4.008,-1.296 -0.96,7.608 -1.512,-7.752 -4.416,1.776 3.336,-4.248 z" />
          <path d="m -28.04,-43.464 4.48,2.112 0.9,-6.798 1.44,6.578 3.52,-0.88 -2.7,3.388 2.34,3.388 -3.34,-1.188 -0.8,6.974 -1.26,-7.106 -3.68,1.628 2.78,-3.894 z" />
          <path d="m -41.384,0.176 6.048,2.592 1.215,-8.343 1.944,8.073 4.752,-1.08 -3.645,4.158 3.159,4.158 -4.509,-1.458 -1.08,8.559 -1.701,-8.721 -4.968,1.998 3.753,-4.779 z" />
          <path d="m -20.232,28.176 4.704,2.592 0.945,-8.343 1.512,8.073 3.696,-1.08 -2.835,4.158 2.457,4.158 -3.507,-1.458 -0.84,8.559 -1.323,-8.721 -3.864,1.998 2.919,-4.779 z" />
          <path d="m 15.524,16.792 6.272,3.264 1.26,-10.506 2.016,10.166 4.928,-1.36 -3.78,5.236 3.276,5.236 -4.676,-1.836 -1.12,10.778 -1.764,-10.982 -5.152,2.516 3.892,-6.018 z" />
        </g>
        <path d="m -29.2,-21.2 22.4,9.6 4.5,-30.9 7.2,29.9 17.6,-4 -13.5,15.4 11.7,15.4 -16.7,-5.4 -4,31.7 -6.3,-32.3 -18.4,7.4 13.9,-17.7 z" fill="#ea428b" />
      </g>
    </g>
    <path fill="#a46bbd" inkscape:original-d="m 215.29933,2217.4878 c 55.9138,-28.689 93.87715,-1.0378 126.66058,-6.9992 10.52011,-40.5192 1.12881,-72.1072 -4.08301,-113.494 -14.16354,-112.472 173.2705,-112.0599 132.60943,29.9878 l -61.60793,38.5408 c -7.58748,40.5127 20.32928,92.0617 -17.26174,116.1997 -50.24708,32.2648 -87.19212,-34.7393 -167.63759,-12.1394" inkscape:path-effect="#path-effect6524" />
    <g transform="translate(-142.56607 1345.3532)">
      <path d="m 471.57254,877.91589 c 29.68993,32.96135 6.61937,69.29323 -25.06642,45.61771 -24.03306,-17.95748 -51.52322,-64.01834 -42.95705,-73.72628 4.78126,-5.4186 30.61542,5.63482 55.48186,21.64151 z" fill="#cc9cdf" />
      <path d="m 447.15596,912.37683 -44.30019,-50.96202 m 47.17378,32.79563 -46.26941,-45.17447 m 47.64403,27.56052 -32.29989,-25.66257" fill="none" stroke="#a46bbd" stroke-width="1.79999995" />
      <path fill="#a46bbd" inkscape:original-d="m 471.57254,877.91589 c 29.68993,32.96135 6.61937,69.29323 -25.06642,45.61771 -24.03306,-17.95748 -51.52322,-64.01834 -42.95705,-73.72628 4.78126,-5.4186 30.61542,5.63482 55.48186,21.64151" inkscape:path-effect="#path-effect4437" />
      <path d="m 452.59239,867.25157 c -2.19437,2.82374 -1.01205,5.40633 4.00418,9.11727 -14.43015,-0.65344 -10.20345,8.62389 2.5288,17.39509 -17.82293,-2.45027 -11.52517,8.40783 -2.17722,16.15875 -5.50365,-1.1102 -15.66693,2.09864 -7.5986,15.65714" style="stroke:#a46bbd;stroke-width:2.70000005;fill:none;stroke-miterlimit:20" />
      <path d="m 416.07265,891.7553 c 1.1338,-17.0657 7.99066,-29.38224 21.08489,-34.53416 -41.06393,-22.51793 -47.97882,-7.91659 -21.08489,34.53416 z" fill="#fac42d" />
      <path d="m 415.42127,847.84138 15.37929,12.46141 -2.1349,1.97923 -21.76334,-15.63589 z" fill="#ffff64" />
      <path d="m 418.22333,879.09333 -17.86174,-20.54777 m 22.93266,9.56225 -20.4909,-20.00598 m 28.29182,12.35897 -16.13948,-12.82296 m 1.11696,44.11746 c 1.1338,-17.0657 7.99066,-29.38224 21.08489,-34.53416 -41.06393,-22.51793 -47.97882,-7.91659 -21.08489,34.53416 z" style="stroke:#a0833d;stroke-width:1.79999995;fill:none;stroke-miterlimit:20" />
      <ellipse cx="888.67804" cy="332.74612" fill="#d10094" rx="5.4404445" ry="3.9941137" stroke="#940067" stroke-width="0.89999998" transform="rotate(43.840205)" />
      <ellipse cx="670.26508" cy="668.26056" fill="#f1a1d9" rx="1.155039" ry="0.74164093" transform="rotate(19.384376)" />
    </g>
    <g transform="translate(-38.677672 17.192391)">
      <path d="m 508.87136,2129.4251 -22.2437,18.5014 c -10.26339,-4.5458 -14.60314,-12.265 -15.54922,-21.8023 l 15.09519,7.6346 -12.4566,-15.0603 c 12.37763,-6.0264 23.74941,2.5914 35.15433,10.7266 z" style="stroke:#b0d8e7;stroke-width:1.79999995;fill:#fff;stroke-miterlimit:20" />
      <ellipse cx="562.65521" cy="2067.6152" fill="#cc9cdf" rx="8.2596922" ry="30.186295" transform="rotate(1.5816555)" />
      <path d="m 506.40595,2050.865 c 5.39415,0 10.10485,15.0734 7.13968,33.911 -0.55749,-18.5282 -3.46147,-31.1819 -7.21354,-31.1717 -4.78644,0.013 -8.86741,17.07 -8.92331,39.9042 -2.96132,-22.5142 2.03555,-42.6435 8.99717,-42.6435 z m 6.7295,17.9919 c 3.63648,0.3192 6.98292,-0.6657 10.09147,-3.0228 -1.97714,3.7734 -5.6705,5.3718 -9.91268,5.467 m 0.18912,3.2321 c 3.86365,1.4964 7.83775,1.1994 11.87629,-0.8002 -2.96448,3.5972 -7.17835,4.4935 -11.82528,3.4034 m 0.0617,2.9688 c 3.27802,2.4358 6.54921,3.065 11.12434,2.4049 -3.78221,2.3952 -7.43986,2.26 -11.18433,0.3135" />
      <path d="m 498.48032,2101.4253 c 9.20294,13.8165 22.45804,6.6387 19.44231,17.9761 -3.9296,14.7731 -26.15461,20.8109 -30.70387,0.1038 -7.72035,14.125 -3.907,23.7238 3.39216,28.6454 -19.49988,4.9288 -44.59614,2.7574 -68.84469,-7.8772 z" fill="#cc9cdf" />
      <path d="m 500.37572,2116.126 c 0.26975,3.1919 2.20767,4.5041 5.17029,2.8371 -2.99914,4.773 -7.28515,2.194 -5.17029,-2.8371 z" fill="#a46bbd" />
      <path fill="#a46bbd" inkscape:original-d="m 498.48032,2101.4253 c 9.20294,13.8165 22.45804,6.6387 19.44231,17.9761 -3.9296,14.7731 -26.15461,20.8109 -30.70387,0.1038 -7.72035,14.125 -3.907,23.7238 3.39216,28.6454 -19.49988,4.9288 -44.59614,2.7574 -68.84469,-7.8772" inkscape:path-effect="#path-effect6243" />
    </g>
    <path d="m 375.33149,2097.2094 c -4.44203,0.74 -9.2606,-0.2998 -13.59251,-3.2096 3.03633,4.8622 7.97062,6.8348 13.72662,6.3294 m -0.27283,3.1563 c -4.61742,2.3322 -10.19805,2.5882 -15.70701,0.2398 4.24958,4.5916 10.07339,5.1955 16.27368,2.9856 m 54.21502,16.1245 c -0.93567,-65.1735 -62.94648,-63.5722 -55.4632,-11.9762 -4.25031,2.816 -8.79835,3.2617 -14.59785,1.7697 5.53012,4.4088 11.45271,3.7787 17.8663,-0.057 -8.72579,-48.9595 45.83341,-52.3534 52.19475,10.2635 z" />
    <g transform="translate(0-10)">
      <g>
        <path d="m 361.98907,2042.6349 c 34.42036,11.307 60.80185,28.1473 84.12712,57.5394 4.35393,-18.1954 11.89159,-32.0748 21.82369,-41.1184 -1.7255,-2.8216 -3.71139,-5.9192 -5.93612,-8.6069 -8.26287,8.3904 -13.46735,15.7407 -19.61309,27.2386 -21.03728,-24.7254 -47.89243,-36.4949 -81.38211,-40.4096 z" fill="#fac42d" stroke="#a0833d" stroke-width="1.79999995" />
        <ellipse cx="242.31335" cy="2119.0591" fill="#d10094" rx="3.7019427" ry="5.3242612" stroke="#940067" stroke-width="0.89999998" transform="rotate(354.51937)" />
        <ellipse cx="1937.5536" cy="886.15619" fill="#f1a1d9" rx="1.369555" ry="1.0490167" transform="rotate(53.381123)" />
      </g>
      <g transform="rotate(.91657276-83809.24-7447.0727)">
        <path d="m 501.13224,695.87297 c 22.33674,3.1124 25.72578,13.87467 20.60871,49.87464 l 25.77872,-9.31733 c 0.98291,-10.95143 0.48632,-20.53758 -1.09026,-30.34882 8.04797,6.31775 12.25821,14.86942 14.88729,25.52561 37.19152,-12.66211 73.07142,-16.93103 108.04591,-9.4411 -1.02858,-33.23291 -36.09218,-74.91445 -74.55787,-71.83554 -38.91101,3.11448 -58.77471,29.19085 -96.62863,33.10115 z" fill="#243870" />
        <path d="m 565.44148,657.26096 c 40.0173,-3.66119 72.02253,23.82929 71.78487,60.89899 l -25.56368,1.10606 c -4.19872,-32.03823 -17.4303,-55.66154 -64.40697,-53.53991 z" fill="#ea428b" />
        <path d="m 553.62607,662.84951 c 39.5924,-2.91658 66.10577,21.83526 65.09191,55.74786 l -13.56231,2.13364 c -1.10136,-19.6111 -11.34221,-56.73503 -63.62402,-52.27124 z" fill="#652d87" />
        <path d="m 501.13224,695.87297 c 22.33674,3.1124 25.72578,13.87467 20.60871,49.87464 l 25.77872,-9.31733 c 0.98291,-10.95143 0.48632,-20.53758 -1.09026,-30.34882 8.04797,6.31775 12.25821,14.86942 14.88729,25.52561 37.19152,-12.66211 73.07142,-16.93103 108.04591,-9.4411 -1.02858,-33.23291 -36.09218,-74.91445 -74.55787,-71.83554 -38.91101,3.11448 -58.77471,29.19085 -96.62863,33.10115 z" style="stroke:#132248;stroke-width:3.5999999;fill:none;stroke-miterlimit:20" />
        <path d="m 524.19592,676.90988 c 29.2755,3.96653 54.39117,19.08558 54.8129,49.19793 m -63.8803,-46.18146 c 29.27528,3.96653 52.20636,24.30039 55.5074,48.70176" style="stroke:#132248;stroke-width:1.79999995;fill:none;stroke-miterlimit:20" />
        <path d="m 583.53919,683.9983 c 81.45711,-67.2141 85.06035,-58.36657 15.23762,28.19558 z" fill="#cc9cdf" stroke="#a46bbd" stroke-width="3.5999999" />
        <path d="m 621.93443,653.73718 c 7.49469,1.53089 14.53977,1.46504 20.91377,-0.26663 m -39.18009,13.69414 c 9.92468,4.0822 18.72072,5.52933 27.30185,3.66021 m -42.60882,9.08623 c 10.03181,6.89213 19.6036,9.57066 30.02016,7.93874" fill="none" stroke="#a46bbd" stroke-width="1.79999995" />
        <path d="m 604.57431,714.77709 c -1.71369,-12.32095 -7.13464,-28.26237 -21.74961,-37.96847 l -3.32641,5.06017 19.68951,35.36295 z" fill="#243870" />
        <path d="m 623.58045,651.15137 c 28.43102,-21.65141 34.01588,-14.42043 13.21755,13.254 -6.72008,-1.67383 -11.61171,-6.99863 -13.21755,-13.254 z" fill="#fac42d" />
        <path d="m 624.35452,653.7867 14.92676,-9.77928 0.60263,0.95295 -13.99261,11.31403 z" fill="#ffff64" />
        <path d="m 623.58045,651.15137 c 28.43102,-21.65141 34.01588,-14.42043 13.21755,13.254 -6.72008,-1.67383 -11.61171,-6.99863 -13.21755,-13.254 z" fill="none" stroke="#a0833d" stroke-width="1.79999995" />
      </g>
      <g transform="rotate(.82498578-92970.217-8340.7402)">
        <path d="m 478.80836,733.80228 c 4.08495,50.4152 12.56605,70.91259 45.35108,66.10304 1.56792,9.16605 2.94872,16.719 3.28372,26.54157 -13.34843,1.27371 -22.01508,-0.46504 -34.02599,-7.64131 7.1358,9.3693 16.56266,14.5863 33.69674,14.73639 -3.96849,21.92527 -20.21525,41.73146 -39.10775,60.29822 -27.84885,-13.98249 -39.45874,-39.71851 -33.67144,-58.88711 6.11246,-20.24555 21.99411,-42.18261 15.96517,-122.03796" fill="#243870" />
        <path d="m 461.73129,813.79738 c 2.80313,26.97035 13.07082,53.69656 35.57321,71.18421 l 11.1857,-13.62914 c -26.16714,-18.37379 -38.90505,-42.92254 -42.96371,-70.35892 z" fill="#ea428b" />
        <path d="m 513.18824,865.47903 c -21.85175,-11.58064 -40.06113,-35.81644 -46.88232,-66.09304 l -1.10958,4.03426 c 2.17341,34.05552 17.1403,59.321 38.53232,74.14151 z" fill="#652d87" />
        <path d="m 478.80836,733.80228 c 4.08495,50.4152 12.56605,70.91259 45.35108,66.10304 1.56792,9.16605 2.94872,16.719 3.28372,26.54157 -13.34843,1.27371 -22.01508,-0.46504 -34.02599,-7.64131 7.1358,9.3693 16.56266,14.5863 33.69674,14.73639 -3.96849,21.92527 -20.21525,41.73146 -39.10775,60.29822 -27.84885,-13.98249 -39.45874,-39.71851 -33.67144,-58.88711 6.11246,-20.24555 21.99411,-42.18261 15.96517,-122.03796" style="stroke:#132248;stroke-width:3.5999999;fill:none;stroke-miterlimit:20" />
        <path d="m 517.14605,858.67135 c -27.58274,-15.03493 -40.03831,-36.31703 -49.80694,-65.16228 m 59.60969,23.76918 c -28.03096,3.95661 -45.93657,-15.97911 -56.42461,-45.10435" fill="none" stroke="#132248" stroke-width="1.79999995" />
      </g>
      <g transform="rotate(355.72086 18414.71 3317.6918)">
        <path d="m 485.6278,757.17397 c -38.18036,-49.29805 -0.76282,-93.74237 8.07181,-94.22304 5.52305,-0.30077 24.99645,23.40015 23.25394,48.46567 z" fill="#cc9cdf" />
        <path d="m 490.76534,688.82339 c -5.45179,12.76397 -7.02516,27.10169 -2.52778,41.21618 -7.51851,-11.6532 -6.12754,-30.60269 2.52778,-41.21618 z" fill="#a46bbd" />
        <path fill="#a46bbd" inkscape:original-d="m 485.6278,757.17397 c -38.18036,-49.29805 -0.76281,-93.7422 8.07181,-94.22304 5.52306,-0.3006 24.99645,23.40015 23.25394,48.46567" inkscape:path-effect="#path-effect5090" />
      </g>
    </g>
    <g>
      <path d="m 349.85634,2271.0919 c 17.43592,25.5618 55.11031,26.9918 75.04189,8.1086 12.7251,7.7681 16.21022,20.6145 22.04054,26.2683 21.02988,20.393 70.16849,7.2203 62.74432,-7.6444 -17.30333,-34.6447 -60.9031,-52.6222 -91.45734,-52.7386 -16.67471,-0.063 -21.71435,16.0974 -47.81512,5.49 z" fill="#cc9cdf" />
      <path fill="#a46bbd" inkscape:original-d="m 370.41063,2250.5758 c 27.15718,10.7023 31.14041,-5.5535 47.81512,-5.49 30.55424,0.1164 74.15401,18.0939 91.45734,52.7386 7.42417,14.8647 -41.71446,28.0374 -62.74432,7.6444 -6.70546,-6.5024 -10.30883,-22.5188 -28.42587,-29.4734" inkscape:path-effect="#path-effect6410" />
      <path fill="#a46bbd" inkscape:original-d="m 349.85634,2271.0919 c 17.43592,25.5618 55.11031,26.9918 75.0363,8.169" inkscape:path-effect="#path-effect6407" />
      <path d="m 430.54431,2285.0212 c 22.51566,-1.832 39.37982,-7.4565 52.8242,-18.957 4.98572,3.6407 9.13293,7.2581 13.7171,11.9858 -16.79043,12.5354 -34.50584,18.3496 -56.90791,20.0751 -2.49201,-4.2796 -5.25039,-8.8243 -9.63339,-13.1039 z" fill="#fac42d" />
      <path d="m 475.01215,2290.535 -9.53042,-13.407 4.45005,-2.1662 13.62721,11.6965 z" fill="#ffff64" />
      <path d="m 430.54431,2285.0212 c 22.51566,-1.832 39.37982,-7.4565 52.8242,-18.957 4.98572,3.6407 9.13293,7.2581 13.7171,11.9858 -16.79043,12.5354 -34.50584,18.3496 -56.90791,20.0751 -2.49201,-4.2796 -5.25039,-8.8243 -9.63339,-13.1039 z" fill="none" stroke="#a0833d" stroke-width="1.79999995" />
    </g>
  </g>
</svg>