<svg xmlns="http://www.w3.org/2000/svg" xmlns:inkscape="http://www.inkscape.org/namespaces/inkscape" xmlns:xlink="http://www.w3.org/1999/xlink" height="678.93427" viewBox="0 0 395.5791 678.93427" width="395.5791">
  <defs>
    <inkscape:path-effect effect="powerstroke" id="path-effect8897" interpolator_type="CubicBezierSmooth" offset_points="0.22,2 | 1,2" start_linecap_type="zerowidth" />
    <inkscape:path-effect effect="powerstroke" end_linecap_type="zerowidth" id="path-effect8895" interpolator_type="CubicBezierSmooth" offset_points="0.2,2 | 3.81,2" start_linecap_type="zerowidth" />
    <linearGradient id="linearGradient5155">
      <stop offset="0" stop-color="#287916" />
      <stop offset="1" stop-color="#61ba4e" />
    </linearGradient>
    <inkscape:path-effect effect="powerstroke" end_linecap_type="zerowidth" id="path-effect10830" interpolator_type="CubicBezierSmooth" offset_points="0.16,2 | 1.67,2" start_linecap_type="zerowidth" />
    <clipPath id="clipPath8682">
      <use xlink:href="#path5377" />
    </clipPath>
    <clipPath id="clipPath8698">
      <use xlink:href="#path4392" />
    </clipPath>
    <inkscape:path-effect effect="powerstroke" end_linecap_type="zerowidth" id="path-effect16317-3-3" interpolator_type="CubicBezierSmooth" offset_points="0.41,2 | 2.67,2" start_linecap_type="zerowidth" />
    <inkscape:path-effect effect="powerstroke" end_linecap_type="zerowidth" id="path-effect23369-6" interpolator_type="CubicBezierSmooth" offset_points="0.48,2 | 3.43,2" start_linecap_type="zerowidth" />
    <linearGradient gradientTransform="matrix(0.46675663,0,0,0.46675663,101.40386,-214.78368)" gradientUnits="userSpaceOnUse" id="linearGradient4969" x1="563.31134" x2="662.99622" y1="-267.84338" y2="-255.71152" xlink:href="#linearGradient5155" />
  </defs>
  <path d="M 61.145735,559.54895 C 58.600095,565.85165 57.573865,572.57158 57.234145,581.90224 88.358535,562.29027 112.61193,588.70481 106.9099,625.79307 100.84167,665.26317 79.629205,688.54782 53.872515,675.10955 28.115815,688.54782 6.9033551,665.26317 0.83512511,625.79307 -4.8669149,588.70481 19.386485,562.29027 50.510885,581.90224 50.171165,572.57158 49.144935,565.85165 46.599295,559.54895 Z" fill="#861414" id="path19033" opacity=".1" />
  <g>
    <path d="M 302.55129,337.77872 C 306.72024,355.99745 298.77178,363.404 299.65209,380.0311 301.26139,410.42692 339.90291,431.72733 348.74261,413.23957 368.14413,372.66243 329.52756,301.80152 309.53864,300.7184 291.85008,299.75993 279.83312,321.54409 278.57369,333.53671 Z" fill="#ef9c54" stroke="#e55221" stroke-width="4" />
    <path d="M 303.09421,346.64719 C 302.60144,353.11986 301.18283,359.48356 299.58294,366.3373 312.93624,384.35516 329.23782,396.2924 354.07154,401.14492 355.57247,393.64579 355.62328,386.51457 354.94581,379.61007 334.34241,375.44843 317.96175,365.21021 303.09421,346.64719 Z" fill="#e7bb40" />
    <path d="M 336.53032,373.73511 329.26677,369.92122 323.72223,389.54904 329.56949,392.79056 Z" fill="#f2f271" />
    <path d="M 303.09421,346.64719 C 302.60144,353.11986 301.18283,359.48356 299.58294,366.3373 312.93624,384.35516 329.23782,396.2924 354.07154,401.14492 355.57247,393.64579 355.62328,386.51457 354.94581,379.61007 334.34241,375.44843 317.96175,365.21021 303.09421,346.64719 Z" fill="none" stroke="#887138" stroke-width="1.93356562" />
    <g id="g8829" transform="translate(-199.09009,2.0977777)">
      <circle cx="542.79004" cy="385.30142" fill="#af1934" r="4.417151" stroke="#7e0e27" />
      <ellipse cx="665.79224" cy="0.68793899" fill="#ea3c57" rx="1.2703174" ry="0.84175706" transform="rotate(35.104955)" />
    </g>
    <use transform="translate(-18.28839,-8.9031753)" xlink:href="#g8829" />
    <use transform="translate(-33.74424,-21.570438)" xlink:href="#g8829" />
  </g>
  <path d="M 65.367235,528.278 C 59.796805,510.23198 26.476025,516.59075 28.798115,500.77205 33.033245,471.92123 174.15523,522.86393 153.51505,448.6018 141.40216,405.02036 301.41066,494.76313 327.93398,423.73673 346.92072,372.89241 278.56883,321.50302 262.91977,262.53472 315.4443,268.11994 342.66751,243.63254 346.64904,217.76838 347.86636,209.86065 328.30172,211.44648 329.1376,205.51013 347.1525,77.570528 185.87576,65.579075 173.12856,168.60994 159.47564,278.9614 252.94865,360.77971 239.6138,403.24804 223.92947,453.19893 84.767635,373.55979 111.05901,437.28296 137.35039,501.00612 17.157755,457.57859 13.582255,497.31998 11.400345,521.57171 48.457975,514.1579 53.618875,533.3538 56.702815,544.82447 48.813635,559.4282 52.716945,585.49082 25.613945,568.34562 -5.9058049,587.614 5.5751551,633.23278 16.251175,675.65314 34.985075,678.35932 47.550725,673.12621 60.116345,667.89311 67.548415,683.03585 82.135965,671.34987 115.79276,644.38766 113.19274,556.97991 56.415085,585.26439 51.649515,559.19187 70.622565,545.30321 65.367235,528.278 Z" fill="#faba62" />
  <g>
    <g clip-path="url(#clipPath8698)" transform="translate(-199.09009,2.0977777)">
      <ellipse cx="402.16675" cy="-306.84128" fill="#fff" id="path4392" rx="40.339382" ry="31.316521" transform="rotate(59.826713)" />
      <g clip-path="url(#clipPath8682)">
        <ellipse cx="387.84598" cy="-344.54028" fill="url(#linearGradient4969)" id="path5377" rx="30.919743" ry="25.398663" transform="rotate(63.822785)" />
        <path d="M 488.55954,200.36515 468.89952,229.43812 456.46146,214.47543 Z" fill="#caecc4" />
        <path d="M 488.55954,200.36515 452.9525,208.60689 460.52457,219.21618 Z" fill="#78d863" />
        <ellipse cx="389.58499" cy="-346.22479" rx="24.955097" ry="20.499071" transform="rotate(63.822778)" />
        <ellipse cx="500.87341" cy="-36.030533" fill="#fff" rx="7.9135423" ry="11.90749" transform="rotate(25.579289)" />
        <ellipse cx="511.34875" cy="-65.065903" fill="#fff" rx="2.8299241" ry="4.2516122" transform="rotate(29.949853)" />
      </g>
    </g>
    <path d="M 240.67015,166.14103 C 235.45148,163.49006 231.23713,159.39864 229.71665,153.36378 229.11205,160.96436 231.92978,165.40872 238.72448,169.16626 M 235.93262,175.49856 C 230.27788,173.98665 225.06872,170.76439 222.33061,165.17565 223.31435,172.7365 227.21507,176.56935 234.64096,178.83719 M 234.54427,189.39404 C 235.96797,158.42902 263.24826,151.36143 282.53329,166.9818 299.51145,180.73365 302.88863,200.23724 299.5453,217.55787 307.41818,199.9214 301.11408,177.54403 284.63997,164.40399 261.44967,145.907 233.72785,158.44767 231.54246,185.42321 225.82232,185.1372 221.28715,182.71305 217.73501,178.57273 220.52573,186.31419 225.31483,188.77621 234.54427,189.39404 Z" />
    <ellipse cx="315.62558" cy="-23.80858" fill="#fff" rx="4.4275832" ry="2.7938817" transform="rotate(48.493642)" />
    <ellipse cx="328.65518" cy="22.632193" fill="#fff" rx="4.522676" ry="2.749984" transform="rotate(40.155692)" />
    <ellipse cx="318.04605" cy="64.626938" fill="#fff" rx="4.2122588" ry="2.6244278" transform="rotate(34.281863)" />
    <path d="M 337.36094,239.62297 C 325.78984,241.4949 318.54932,238.29065 311.8821,230.51463 315.49714,239.76832 322.5866,244.09023 333.95411,243.82444 M 331.84171,217.7774 C 332.22603,220.80984 334.73468,221.65852 337.22836,219.92124 334.67677,224.46347 330.37739,222.59866 331.84171,217.7774 Z" fill="#ef6f2f" />
  </g>
  <path fill="#ef6f2f" inkscape:original-d="M 234.07752,257.19203 C 305.57064,276.36391 341.99409,248.00707 346.64904,217.76838 347.86636,209.86065 328.30172,211.44648 329.1376,205.51013 347.1525,77.570528 185.87576,65.579075 173.12856,168.60994 159.47564,278.9614 252.94865,360.77971 239.6138,403.24804" inkscape:path-effect="#path-effect8895" />
  <path fill="#ef6f2f" inkscape:original-d="M 327.93398,423.73673 C 346.92072,372.89241 278.56883,321.50302 262.92587,262.40272" inkscape:path-effect="#path-effect8897" />
  <g>
    <path d="M 247.28744,329.18869 C 245.46942,347.63765 251.07103,360.04897 261.54103,364.57174 277.10463,371.29478 290.96147,351.88025 310.64057,346.51337 308.90812,326.37874 281.17987,336.64627 271.63528,316.91138" fill="#faba62" />
    <path fill="#ef6f2f" inkscape:original-d="M 247.28744,329.18869 C 245.46942,347.63765 251.07103,360.04898 261.54103,364.57174 277.10463,371.29479 290.96147,351.88025 310.64057,346.51337 308.90812,326.37874 281.17987,336.64627 271.63528,316.91138" inkscape:path-effect="#path-effect16317-3-3" />
    <path d="M 298.98315,342.92289 C 300.59588,361.54281 291.70065,367.78058 290.27607,384.36991 287.67185,414.69669 323.00113,441.12992 334.30954,424.04024 359.12942,386.53161 330.66987,311.01632 311.02211,307.1828 293.63545,303.79049 278.72495,323.70614 275.82123,335.40988 Z" fill="#faba62" />
    <path fill="#ef6f2f" inkscape:original-d="M 298.98315,342.92289 C 300.59588,361.54281 291.70064,367.78058 290.27607,384.36991 287.67184,414.69669 323.00113,441.12992 334.30954,424.04024 359.12942,386.53161 330.66987,311.0163 311.02211,307.1828 293.63545,303.79047 278.72495,323.70614 275.82123,335.40988" inkscape:path-effect="#path-effect23369-6" />
    <path d="M 298.26009,351.71195 C 296.88025,358.055 294.59842,364.16257 292.06952,370.73052 302.81308,390.4163 317.31455,404.48564 341.2429,412.71333 343.7627,405.49251 344.79553,398.43629 345.07578,391.5043 325.24223,384.54373 310.42834,372.14631 298.26009,351.71195 Z" fill="#fac42d" />
    <path d="M 310.70145,368.60967 304.96538,361.87583 297.10257,379.10825 300.33538,383.92488 Z" fill="#ffff64" />
    <path d="M 298.26009,351.71195 C 296.88025,358.055 294.59842,364.16257 292.06952,370.73052 302.81308,390.4163 317.31455,404.48564 341.2429,412.71333 343.7627,405.49251 344.79553,398.43629 345.07578,391.5043 325.24223,384.54373 310.42834,372.14631 298.26009,351.71195 Z" fill="none" stroke="#a0833d" stroke-width="1.93356562" />
    <g id="g8745" transform="translate(-199.09009,2.0977777)">
      <circle cx="501.50354" cy="369.55817" fill="#c71c3d" r="4.417151" stroke="#a1102e" />
      <ellipse cx="622.96216" cy="11.551261" fill="#ec556c" rx="1.2703174" ry="0.84175706" transform="rotate(35.104955)" />
    </g>
    <use transform="translate(13.56323,14.675882)" xlink:href="#g8745" />
    <use transform="translate(30.45059,26.013823)" xlink:href="#g8745" />
  </g>
  <g>
    <g>
      <ellipse cx="272.9971" cy="242.68346" fill="#c71c3d" rx="6.8530946" ry="9.7822456" stroke="#a1102e" transform="rotate(-15.865129)" />
      <path d="M 199.06741,128.02387 C 239.15981,122.60758 297.95849,138.10022 331.54037,175.29992 330.4911,163.66891 328.42153,155.66883 324.2941,145.9252 288.64554,119.9032 244.9689,108.82617 198.35897,117.68771 Z" fill="#fac42d" />
      <path d="M 232.29752,114.6256 227.02039,127.48285 239.03833,128.86072 249.33546,115.77731 Z" fill="#ffff64" />
      <path d="M 199.06741,128.02387 C 239.15981,122.60758 297.95849,138.10022 331.54037,175.29992 330.4911,163.66891 328.42153,155.66883 324.2941,145.9252 288.64554,119.9032 244.9689,108.82617 198.35897,117.68771 Z" style="fill:none;stroke:#a0833d;stroke-width:2;stroke-miterlimit:20" />
      <ellipse cx="178.20242" cy="318.65771" fill="#ec556c" rx="1.3500068" ry="2.2932386" transform="rotate(-35.855429)" />
    </g>
    <g>
      <path d="M 174.56542,170.20769 C 163.00921,256.74935 240.4275,252.64627 224.26305,311.43067 210.76891,360.50413 131.03851,343.26043 150.75104,274.76081 161.41415,237.70726 151.98648,202.72883 169.43085,158.25903 Z" fill="#faf5ab" stroke="#e7d462" stroke-width="4" />
      <path d="M 148.51158,283.59154 C 157.28675,317.06933 174.18025,330.76427 210.96542,322.7219 167.70005,306.51587 172.84516,271.29431 156.37478,238.01162" fill="none" stroke="#e7d462" stroke-width="2" />
      <path d="M 221.43815,317.41046 C 204.36279,298.61288 184.8196,319.3666 202.57751,334.057 Z" fill="#ec3f41" />
      <path d="M 277.14696,344.8525 C 265.93841,285.5315 169.56745,310.68725 204.86921,369.81011 198.72046,369.37672 192.25088,368.26224 186.61866,366.13878 199.65074,394.14605 239.53646,397.21084 250.01889,368.60879 252.78556,374.49019 253.81348,381.93106 252.88059,387.81905 270.9418,371.95721 273.63024,355.84984 263.62574,336.82724 268.57042,338.70049 273.28242,341.30826 277.14696,344.8525 Z" fill="#faf5ab" stroke="#e7d462" stroke-width="4" />
      <path d="M 197.26469,347.70958 C 202.79525,359.62024 219.133,363.91406 233.81989,359.72251 232.79611,374.49672 223.83,383.56013 204.37965,384.96917" fill="none" stroke="#e7d462" stroke-width="2" />
      <path d="M 200.07251,123.17926 C 225.99974,115.62989 253.37122,121.98423 268.29401,144.21402 268.44745,138.68179 268.13781,132.87383 267.2834,126.76442 277.1724,144.62218 286.68174,157.12778 302.35954,164.52572 297.40444,157.80075 294.57835,151.32753 292.0661,142.28089 323.73317,178.45687 361.85085,181.3277 390.2212,153.2929 347.48262,157.08143 342.8326,117.64276 320.02799,95.730078 331.2583,100.6872 338.49755,107.96167 342.22903,102.89695 349.27102,93.338877 279.67392,18.262079 190.27139,103.56036 Z" style="fill:#faf5ab;stroke:#e7d462;stroke-width:4;stroke-miterlimit:20" />
      <path d="M 247.4948,67.533305 C 318.23189,73.714805 316.26593,161.09293 373.16871,165.79795 M 233.96165,72.807842 C 311.42213,82.841233 298.36619,148.80779 335.77052,171.03432" style="fill:none;stroke:#e7d462;stroke-width:2;stroke-miterlimit:20" />
    </g>
    <g>
      <path d="M 148.11024,121.5376 C 121.78435,35.234404 137.35593,37.847474 199.21604,22.26784 223.51374,16.148314 227.13835,-2.4910356 238.79832,4.0180015 250.33781,10.459743 258.44474,24.187971 295.94923,55.268835 Z" fill="#ca9a56" stroke="#b2884d" stroke-width="4" />
      <path d="M 218.55106,26.944131 C 203.61461,39.368937 184.22561,46.790802 160.06795,51.61421 184.62453,50.689138 206.28201,42.792239 218.55106,26.944131 Z" fill="#b2884d" />
      <path d="M 121.07371,188.4246 C 183.24589,76.439886 350.75437,74.599123 344.81344,6.6050294 286.98725,109.08716 95.65435,18.212729 121.07371,188.4246 Z" fill="#ca9a56" stroke="#b2884d" stroke-width="4" />
    </g>
    <g>
      <path d="M 176.38703,190.59102 C 130.72915,134.76279 175.66238,82.376881 180.81967,82.82403 186.02185,83.275067 204.30218,103.2589 205.13772,132.78111" fill="#faba62" />
      <path d="M 177.65573,112.41846 C 168.01369,127.76789 168.90751,145.63714 177.64033,159.93538 172.3594,144.10645 172.57251,128.26709 177.65573,112.41846 Z" fill="#ef6f2f" />
      <path fill="#ef6f2f" inkscape:original-d="M 176.38703,190.59102 C 130.72915,134.76279 175.66238,82.376881 180.81967,82.82403 186.02185,83.275067 204.30218,103.2589 205.13772,132.78111" inkscape:path-effect="#path-effect10830" />
    </g>
  </g>
  <use transform="translate(-4.8874356e-6)" xlink:href="#path19033" />
  <g>
    <path d="M 32.88747,631.72137 C 15.15868,621.12824 23.1771,653.86396 37.74266,646.72831 50.76338,647.83176 45.83463,614.58109 32.88747,631.72137 Z M 54.00017,620.90755 C 38.33116,625.90986 40.61163,589.20171 57.75191,608.03395 74.37724,596.19024 68.4186,628.55814 54.00017,620.90755 Z M 68.4186,638.48921 C 56.05995,620.98111 50.322,652.46626 66.28526,652.172 81.80715,662.10307 90.19338,627.67538 68.4186,638.48921 Z" fill="#ec3f41" />
    <path d="M 32.00471,629.36734 C 27.81159,629.73516 26.1932,626.64549 25.384,622.8202 28.32654,623.62939 30.97482,626.49837 32.00471,629.36734 Z M 32.66678,631.0593 C 32.2254,626.93975 32.96103,623.77652 34.35874,621.2018 35.53575,621.34893 36.19782,621.93744 36.34495,622.96732 34.57943,624.80641 33.40241,627.38113 32.66678,631.0593 Z M 57.9726,604.35578 C 55.10362,604.57647 53.41166,601.41324 53.85305,597.36725 57.38409,598.4707 58.34041,600.53048 57.9726,604.35578 Z M 58.26685,606.19486 C 58.63467,603.54658 59.95881,599.57415 62.16571,598.10289 62.97491,598.39714 63.56342,599.13277 63.71054,600.16266 61.43008,601.41324 59.3703,603.39945 58.26685,606.19486 Z M 68.93355,636.72368 C 69.2278,632.16275 69.08067,628.77883 67.53584,625.32135 68.19791,624.36503 69.15424,624.07077 70.33125,624.43859 70.77263,628.77883 70.33125,632.97195 68.93355,636.72368 Z M 69.74275,636.94437 C 70.25769,633.04551 71.50827,631.35355 74.00942,628.8524 75.33357,633.2662 73.34735,635.54667 69.74275,636.94437 Z" fill="#6bb944" />
  </g>
</svg>