<svg xmlns="http://www.w3.org/2000/svg" xmlns:inkscape="http://www.inkscape.org/namespaces/inkscape" xmlns:xlink="http://www.w3.org/1999/xlink" height="969" viewBox="0 0 879 969" width="879">
  <defs>
    <inkscape:path-effect bendpath1="m -21.6,-22.080316 h 43.2" bendpath2="m 14.403618,-21.56253 c 7.04664,14.8449329 8.850468,28.0449679 3.717438,44.34181" bendpath3="m -21.6,22.080316 h 43.2" bendpath4="m -22.971696,-20.259904 c 7.377407,13.0788641 9.552545,28.4844717 5.259684,43.610698" effect="envelope" id="path-effect2192" yy="false" />
    <inkscape:path-effect effect="powerstroke" id="path-effect2186" interpolator_type="CubicBezierSmooth" offset_points="0.23,3.5 | 7,3.5" start_linecap_type="zerowidth" />
    <inkscape:path-effect effect="powerstroke" id="path-effect7834" interpolator_type="CubicBezierSmooth" offset_points="0.21,3.5" start_linecap_type="zerowidth" />
    <inkscape:path-effect effect="powerstroke" id="path-effect7832" interpolator_type="CubicBezierSmooth" offset_points="0.54,3.5 | 4,3.5" start_linecap_type="zerowidth" />
    <inkscape:path-effect effect="powerstroke" id="path-effect7721" interpolator_type="CubicBezierSmooth" offset_points="0.433,3.5" start_linecap_type="zerowidth" />
    <inkscape:path-effect effect="powerstroke" end_linecap_type="zerowidth" id="path-effect7719" interpolator_type="CubicBezierSmooth" offset_points="0.21,3.5 | 3.4,3.5" start_linecap_type="zerowidth" />
    <inkscape:path-effect effect="powerstroke" end_linecap_type="zerowidth" id="path-effect7709" interpolator_type="CubicBezierSmooth" offset_points="0.26,3.5 | 2.74,3.5" start_linecap_type="zerowidth" />
    <linearGradient id="linearGradient7624">
      <stop offset="0" stop-color="#230f38" />
      <stop offset="1" stop-color="#5c2594" />
    </linearGradient>
    <inkscape:path-effect effect="powerstroke" end_linecap_type="zerowidth" id="path-effect5717" interpolator_type="CubicBezierSmooth" offset_points="0.2,3.5 | 1.73,3.5" start_linecap_type="zerowidth" />
    <clipPath id="clipPath7638">
      <use xlink:href="#path5740" />
    </clipPath>
    <clipPath id="clipPath7693">
      <use xlink:href="#path5734" />
    </clipPath>
    <linearGradient gradientUnits="userSpaceOnUse" id="linearGradient3443" x1="724.7132" x2="725.76819" y1="200.76154" y2="275.73975" xlink:href="#linearGradient7624" />
  </defs>
  <g inkscape:groupmode="layer" inkscape:label="Drawing">
    <g>
      <path d="m 481.00762,626.57426 c -32.02924,86.06626 -47.2912,171.67471 -35.32677,274.31447 3.38133,29.00754 122.46479,21.42483 114.78866,-2.59264 -32.32508,-101.14026 -34.00778,-186.98995 -18.17044,-293.44124 z" fill="#11a2f9" stroke="#1c92cd" stroke-width="7" />
      <path d="m 441.27243,832.58257 c -7.80584,-3.01756 -7.99301,8.79499 -0.9224,11.40275 30.86607,11.38389 75.32851,12.28832 105.30356,-2.38395 8.11888,-3.97405 5.17518,-14.10081 -2.64082,-10.58235 8.99578,-4.04955 5.80025,-15.81659 -0.53877,-12.41765 6.5533,-3.51384 4.41999,-14.14466 -1.61636,-11.04357 -27.12219,13.93367 -69.52313,13.69499 -99.40562,1.20436 -6.98369,-2.91912 -8.6024,8.40251 -0.10201,11.94153 -6.95726,-2.89657 -9.41042,8.27101 -0.0776,11.87888 z" fill="#d5d5d5" />
      <path d="m 464.36132,814.93049 -5.9232,35.03232 27.46143,2.36306 -8.18154,-35.28539 z" fill="#f0f0f0" />
      <path d="m 441.27243,832.58257 c -9.33284,-3.60787 -6.87968,-14.77545 0.0776,-11.87888 31.22526,13.00024 75.09999,11.85157 101.12397,-2.10232 6.33902,-3.39894 9.53455,8.3681 0.53877,12.41765 m 0,0 c -28.55893,12.85612 -72.21704,12.97661 -101.74034,1.56355 -7.80584,-3.01756 -7.99301,8.79499 -0.9224,11.40275 30.86607,11.38389 75.32851,12.28832 105.30356,-2.38395 8.11888,-3.97405 5.17518,-14.10081 -2.64082,-10.58235 z m -0.53878,-12.41765 c 6.55331,-3.51384 4.42,-14.14466 -1.61635,-11.04357 -27.12219,13.93367 -69.52313,13.69499 -99.40562,1.20436 -6.98369,-2.91912 -8.6024,8.40251 -0.10203,11.94153" fill="none" stroke="silver" stroke-width="4" />
    </g>
    <g>
      <circle cx="434.42493" cy="194.07231" fill="#ebebeb" r="15.539549" stroke="#d7d7d7" stroke-width="4" />
      <circle cx="440.9649" cy="150.59621" fill="#ebebeb" r="12.806573" stroke="#d7d7d7" stroke-width="4" />
      <path d="m 440.77346,251.79066 c -43.34884,-101.22975 49.57003,-177.859281 58.67368,-174.249601 22.93806,9.095146 47.26433,132.139171 -58.67368,174.249601 z" fill="#11a2f9" stroke="#1c92cd" stroke-width="7" />
    </g>
    <path d="m 496.76174,685.68702 c -30.01178,1.25462 -39.13137,41.63003 1.61437,39.70721 42.70759,-2.0154 39.82448,-41.43953 -1.61437,-39.70721 z" fill="#fec0d4" stroke="#fc94b5" stroke-width="7" />
    <path d="m 604.6381,401.25451 c -19.7992,82.11069 56.45164,144.23521 12.65088,228.9649 -27.11857,52.45908 -91.81289,79.18072 -167.06445,69.3054 2.94943,-62.26204 12.84999,-118.93642 37.36693,-170.02313 -2.41372,-136.11022 -50.38131,-211.89746 -50.38131,-282.52768 0,-201.952722 354.23395,-182.945365 286.91612,101.36967 -3.32593,14.04697 26.77468,8.08083 20.14972,27.35343 -9.214,26.80436 -52.23539,61.97477 -142.79361,47.73145" fill="#6dc6fb" />
    <path fill="#1c92cd" inkscape:original-d="m 604.6381,401.25451 c -19.7992,82.11069 56.45164,144.23521 12.65088,228.9649 -27.11857,52.45908 -91.81289,79.18072 -167.06445,69.3054 2.94943,-62.26204 12.84999,-118.93642 37.36693,-170.02313 -2.41372,-136.11022 -50.38131,-211.89746 -50.38131,-282.52768 0,-201.952722 354.23395,-182.945365 286.91612,101.36967 -3.32593,14.04697 26.77468,8.08083 20.14972,27.35343 -9.214,26.80436 -52.23539,61.97477 -142.79361,47.73145" inkscape:path-effect="#path-effect2186" />
    <g>
      <path d="m 476.78936,443.00634 c 35.30763,-17.20589 103.03248,-0.60566 136.98373,39.86557 l 8.99927,29.11751 c -43.56811,-39.50031 -105.1759,-55.5629 -141.48201,-38.75663 z" fill="#ebebeb" />
      <path d="m 576.25459,452.98127 -5.83537,25.75174 9.7021,4.26388 13.18904,-19.74637 z" fill="#fff" />
      <path d="m 476.78936,443.00634 c 35.30763,-17.20589 103.03248,-0.60566 136.98373,39.86557 l 8.99927,29.11751 c -43.56811,-39.50031 -105.1759,-55.5629 -141.48201,-38.75663 z" fill="none" stroke="#d7d7d7" stroke-width="4" />
    </g>
    <path d="m 707.69176,386.69724 c 6.04178,7.22211 13.26524,9.73767 23.45821,8.70923 l -5.17933,5.03734 c -8.75747,-0.66134 -15.44879,-4.78926 -18.27888,-13.74657 z m 27.71036,-15.9496 c -1.52441,2.4344 -1.34218,4.9907 0.85418,6.45899 -4.59789,0.61946 -5.43321,-4.50325 -0.85418,-6.45899 z" fill="#1c92cd" />
    <g>
      <g clip-path="url(#clipPath7693)">
        <ellipse cx="720.0351" cy="222.94127" fill="#fff" id="path5734" rx="25.3974" ry="72.204826" transform="rotate(6.3597568)" />
        <g clip-path="url(#clipPath7638)" transform="translate(-43.522509-22.377475)scale(1.0603035)">
          <ellipse cx="729.60156" cy="237.05762" fill="url(#linearGradient3443)" id="path5740" rx="18.088757" ry="48.531929" transform="rotate(5.9701755)" />
          <path d="m 702.27429,326.22533 -23.52178,27.05152 -7.91965,-21.07312 z" fill="#8f4dd3" />
          <path d="m 702.27429,326.22533 -29.69438,-5.81573 1.36252,17.90171 z" fill="#62289e" />
          <ellipse cx="733.07611" cy="238.59306" rx="14.061865" ry="37.727737" transform="rotate(5.9701755)" />
          <ellipse cx="757.6427" cy="38.23716" fill="#fff" rx="8.0989523" ry="20.754375" transform="rotate(19.744822)" />
          <ellipse cx="770.74933" cy="13.303181" fill="#fff" rx="3.5055313" ry="5.7409058" transform="rotate(23.720254)" />
        </g>
      </g>
      <path d="m 669.63078,275.17313 c -25.67937,-6.76214 -26.98521,-3.46065 -1.00784,4.85873 m 5.97773,-21.19947 c -24.90938,-11.11991 -25.97051,-7.9106 -1.8965,4.58547 m 8.86485,-19.09717 c -20.82996,-16.4702 -23.44145,-13.92065 -2.96131,4.09606 m -10.50705,34.09426 c 17.38011,-63.12015 37.69073,-60.5307 44.73897,-26.9595 4.3634,20.78309 3.58718,54.88624 -6.09282,89.91616 14.45066,-32.55342 14.82548,-69.76849 10.56146,-91.03314 -9.25322,-46.14578 -41.07239,-34.4171 -49.20761,28.07648 z" />
    </g>
    <g>
      <path d="m 678.46189,149.37316 c 165.30502,-147.3539145 184.62992,-133.129228 36.56164,47.9573 z" fill="#6dc6fb" stroke="#1c92cd" stroke-width="7" />
      <path d="m 776.04797,68.446828 c 15.1353,-3.05292 24.86437,4.696228 21.61318,20.037942 m -58.11318,7.962058 c 22.6353,-2.30292 34.11437,7.946232 30.86318,31.287942 m -67.76027,-0.13601 c 24.1353,-3.55292 42.26146,13.0443 37.51027,38.88601" fill="none" stroke="#1c92cd" stroke-width="4" />
      <path d="m 655.47771,195.08063 c 36.50982,12.04202 44.2524,36.44241 36.78065,79.18027 38.73394,-15.16026 61.55688,-47.02277 57.21361,-81.8081 17.42627,15.37328 23.19186,51.68226 19.04026,78.08544 141.28083,-154.74615 -204.78554,-385.36462 -318.0634,-88.75198 z" fill="#f3a4d9" />
      <path d="m 512.93969,185.83826 c -1.22894,4.22305 142.53802,9.24237 142.53802,9.24237 36.50982,12.04202 44.2524,36.44241 36.78065,79.18027 38.73394,-15.16026 61.55688,-47.02277 57.21361,-81.8081 17.42627,15.37328 23.19186,51.68226 19.04026,78.08544 62.44144,-68.39266 29.68708,-151.60582 -36.09273,-197.572681 -79.27004,-28.65381 -185.57485,-3.636087 -219.47981,112.872701 z" fill="#961370" />
      <path d="m 655.47771,195.08063 c 36.50982,12.04202 44.2524,36.44241 36.78065,79.18027 38.73394,-15.16026 61.55688,-47.02277 57.21361,-81.8081 17.42627,15.37328 23.19186,51.68226 19.04026,78.08544 141.28083,-154.74615 -204.78554,-385.36462 -318.0634,-88.75198 z" fill="none" stroke="#d91e9b" stroke-width="7" />
    </g>
    <g>
      <path d="m 442.348,567.05617 c 41.36091,-30.50471 54.75786,-61.19204 52.44003,-98.07455 19.62163,23.42103 39.91218,28.70417 65.77033,27.49874 -70.63078,-71.58444 -59.79097,-237.5428 26.1402,-332.1111 -56.66406,-86.83327 -158.4658,-40.61193 -153.27421,60.13879 7.49892,145.52798 0.29986,254.25087 -98.01396,361.92152 64.53321,-17.56203 101.02632,-56.71288 112.72638,-101.00276 6.10621,23.34725 7.7574,49.68387 -5.78877,81.62936 z" fill="#f3a4d9" />
      <path d="m 494.78803,468.98162 c 19.62163,23.42103 39.91218,28.70417 65.77033,27.49874 -65.77407,-66.66215 -60.89649,-215.16577 9.48103,-311.64424 -34.69703,-31.12248 -76.31182,-25.33763 -90.40592,55.60041 -26.54466,152.43774 24.27133,250.3247 -37.28547,326.61964 41.36091,-30.50471 54.75786,-61.19204 52.44003,-98.07455 z" fill="#961370" />
      <path d="m 442.348,567.05617 c 41.36091,-30.50471 54.75786,-61.19204 52.44003,-98.07455 19.62163,23.42103 39.91218,28.70417 65.77033,27.49874 -70.63078,-71.58444 -59.79097,-237.5428 26.1402,-332.1111 -56.66406,-86.83327 -158.4658,-40.61193 -153.27421,60.13879 7.49892,145.52798 0.29986,254.25087 -98.01396,361.92152 64.53321,-17.56203 101.02632,-56.71288 112.72638,-101.00276 6.10621,23.34725 7.7574,49.68387 -5.78877,81.62936 z" fill="none" stroke="#d91e9b" stroke-width="7" />
    </g>
    <g>
      <path d="m 477.29599,590.7496 c 24.03099,165.41838 -85.03269,131.92398 14.1836,382.01689 11.08559,27.94331 -110.56545,31.41321 -117.37682,2.69062 -20.5049,-86.46623 -23.34496,-168.44489 -4.93528,-237.93161 1.68816,-6.37191 9.41992,-10.01032 18.94341,-10.17017 -4.52511,-7.33927 -8.90803,-15.18948 -13.11503,-23.12729 -49.97331,61.12703 -67.91551,137.33469 -38.09701,234.26343 8.3173,27.03643 -114.12731,29.3498 -114.88049,0.3718 -2.24001,-86.18248 25.97526,-169.54487 57.18539,-223.52963 2.11928,-3.66575 9.34411,-6.38123 17.55754,-6.5372 -0.009,-30.29251 -28.65394,-89.17242 0.18133,-167.44654 29.49499,-80.06493 110.79362,-76.36891 203.02967,-17.49652 z" fill="#6dc6fb" />
      <path d="m 341.95766,527.48892 c -18.50319,47.85847 -0.75612,112.6349 33.03821,176.73912 -49.97331,61.12703 -67.91551,137.33469 -38.09701,234.26343 8.3173,27.03643 -114.12731,29.3498 -114.88049,0.3718 -2.24001,-86.18248 25.97526,-169.54487 57.18539,-223.52963 2.11928,-3.66575 9.34411,-6.38123 17.55754,-6.5372 -0.009,-30.29251 -28.65395,-89.17242 0.18133,-167.44654 7.25129,-19.68381 17.63365,-34.305 30.53984,-44.28832 z" fill="#11a2f9" />
      <path fill="#1c92cd" inkscape:original-d="m 499.9723,523.85338 c -92.23605,-58.87239 -173.53468,-62.56841 -203.02967,17.49652 -28.83527,78.27412 -0.18995,137.15403 -0.14671,167.63637" inkscape:path-effect="#path-effect7834" />
      <path fill="#1c92cd" inkscape:original-d="m 477.29599,590.7496 c 24.03099,165.41838 -85.03269,131.92398 14.1836,382.01689 11.08559,27.94331 -110.56545,31.41321 -117.37682,2.69062 -20.5049,-86.46623 -23.34494,-168.44488 -4.93528,-237.93161 3.1124,-11.74765 26.76749,-14.20387 43.94414,-5.61553" inkscape:path-effect="#path-effect7719" />
      <path fill="#1c92cd" inkscape:original-d="m 341.95766,527.48892 c -20.7635,53.70476 4.26455,128.92796 46.2132,200.33171" inkscape:path-effect="#path-effect7721" />
      <path fill="#1c92cd" inkscape:original-d="m 320.01684,716.14039 c -11.85343,-11.67729 -36.56935,-8.14721 -40.81308,-0.80675 -31.21016,53.98474 -59.4254,137.34715 -57.18539,223.52963 0.75318,28.978 123.19779,26.66463 114.88049,-0.3718 -29.8185,-96.92874 -11.8763,-173.1364 38.03309,-234.33849" inkscape:path-effect="#path-effect7832" />
      <g transform="matrix(1.6958472.00107273-.00207144 3.2747031 426.57233 588.24315)" inkscape:path-effect="#path-effect2192">
        <path fill="#54a2e1" inkscape:original-d="m -17.944229,-13.080316 c 14.874356,-2.23686 19.8939713,5.2573687 22.3341636,10.0839058 l 1.8954483,-0.5169873 c -1.7411543,-6.6157675 -6.81076951,-14.1965985 -17.4317929,-14.9927515 z m 15.5884576,35.160632 c -9.3743556,-11.76314 -5.3939709,-19.8573687 -2.4341632,-24.3839058 l -1.3954483,-1.3830127 c -4.8588461,4.8157676 -8.8892301,12.9965988 -4.2682071,22.5927515 z m 22.6557714,-31.080316 c -5.5,14 -14.5,14.6 -19.9,14.3 l -0.5,1.9 c 6.6,1.8 15.7,1.2 21.7,-7.6 z" />
        <path fill="#5a318e" inkscape:original-d="m 17.944229,13.080316 c -14.874356,2.23686 -19.8939713,-5.2573687 -22.3341636,-10.0839058 l -1.8954483,0.5169873 c 1.7411543,6.6157675 6.81076951,14.1965985 17.4317929,14.9927515 z m -15.5884576,-35.160632 c 9.3743556,11.76314 5.3939709,19.8573687 2.4341632,24.3839058 l 1.3954483,1.3830127 c 4.8588461,-4.8157676 8.8892301,-12.9965988 4.2682071,-22.5927515 z m -22.6557714,31.080316 c 5.5,-14 14.5,-14.6 19.9,-14.3 l 0.5,-1.9 c -6.6,-1.8 -15.7,-1.2 -21.7,7.6 z" />
        <path fill="#576ab7" font-variant-east-asian="normal" vector-effect="none" inkscape:original-d="m 1.2304688,-11.644531 -10.6972657,4.753906 -1.2402341,11.6445312 9.4765622,6.8906248 10.6972657,-4.753906 1.2402341,-11.6445312 z m -0.1210938,1.148437 8.5429688,6.2109378 -1.1191407,10.4960937 -9.6425781,4.2851565 -8.5429688,-6.2109378 1.1191407,-10.4960937 z" />
      </g>
    </g>
    <g>
      <path d="m 535.56387,649.61714 c -11.4362,86.06626 -6.04277,172.39309 30.48023,275.03285 9.70615,27.27698 128.8118,22.34726 115.38902,-1.67021 -56.52486,-101.14026 -80.14137,-188.63076 -89.7746,-295.08205 z" fill="#6dc6fb" />
      <path fill="#1c92cd" inkscape:original-d="m 535.56387,649.61714 c -11.4362,86.06626 -6.04277,172.39309 30.48023,275.03285 9.70615,27.27698 128.8118,22.34726 115.38902,-1.67021 -56.52486,-101.14026 -80.14137,-188.63076 -89.7746,-295.08205" inkscape:path-effect="#path-effect7709" />
      <path d="m 528.68301,760.20522 c 0.43328,13.86368 1.85631,29.25754 4.11692,42.94161 31.22791,1.60182 63.76125,-3.0038 92.86982,-14.41955 -5.3341,-13.35497 -9.74073,-28.77892 -12.68027,-42.49308 -27.22222,10.21405 -54.58653,13.32376 -84.30647,13.97102 z" fill="#ebebeb" />
      <path d="m 553.59319,758.84198 1.82108,44.5503 28.57854,-3.09916 -15.14484,-43.14132 z" fill="#fff" />
      <path d="m 528.68301,760.20522 c 0.43328,13.86368 1.85631,29.25754 4.11692,42.94161 31.22791,1.60182 63.76125,-3.0038 92.86982,-14.41955 -5.3341,-13.35497 -9.74073,-28.77892 -12.68027,-42.49308 -27.22222,10.21405 -54.58653,13.32376 -84.30647,13.97102 z" fill="none" stroke="#d7d7d7" stroke-width="4" />
    </g>
    <g>
      <path d="m 482.886,710.97091 c 13.4072,-73.59537 10.61331,-140.13513 -19.06821,-203.87565 -6.20726,-13.32999 12.6134,-15.5967 21.00024,2.52789 27.79946,60.07673 26.59153,125.54099 22.22805,203.64595" fill="#fec0d4" stroke="#fc94b5" stroke-width="7" />
      <path d="m 508.21199,712.81474 c 3.04658,-40.51008 -2.37896,-75.79957 -10.31016,-115.50627 -3.05563,-15.29768 -45.81731,-0.76133 -35.49595,18.05114 15.4747,28.20533 29.97624,57.5449 29.2522,97.58541" fill="#fec0d4" stroke="#fc94b5" stroke-width="7" />
      <path d="m 499.82384,713.91195 c 7.301,-75.39131 -12.22588,-138.69785 -47.64051,-208.58824 -12.87366,-25.40604 22.72197,-21.33103 34.99389,6.29944 27.79946,62.59106 35.64145,123.87069 28.76365,200.17971" fill="#fec0d4" stroke="#fc94b5" stroke-width="7" />
      <path d="m 477.53282,708.51735 c 11.96037,7.97708 33.98167,7.94576 44.92402,-2.07309 1.27175,15.65844 -46.59933,17.09875 -44.92402,2.07309 z" fill="#fec0d4" />
      <path d="m 509.34881,712.93448 c 6.68571,-89.74212 -7.9735,-147.39915 -38.55211,-202.10595 28.52868,58.93739 42.85101,114.95782 36.06008,202.57035" fill="#fc94b5" />
      <path d="m 477.53282,708.51735 c 14.38489,5.31473 31.73674,5.62879 44.92402,-2.07309 -6.40331,12.31675 -37.41204,12.9807 -44.92402,2.07309 z" fill="#fc94b5" />
    </g>
    <g>
      <path d="m 354.52966,509.9726 c -70.37563,-110.24774 -220.60543,-73.38112 -256.472261,44.96239 -21.39146,70.58167 7.546401,99.63145 -8.737998,165.69422 24.512839,-25.99949 35.262029,-50.52031 40.307449,-80.5059 28.55163,118.13651 14.88126,228.30111 -98.362822,284.75448 87.331842,1.73044 127.408042,-13.2268 157.929132,-41.72889 -5.44573,23.70616 -19.51014,47.91323 -42.88,65.55095 125.59992,-26.06838 180.64301,-129.60507 142.42586,-271.21929 -33.70523,-124.89525 8.27667,-171.33403 40.57663,-145.65739 17.31302,13.76287 35.04311,-6.45267 25.21401,-21.85057 z" fill="#f3a4d9" />
      <path d="m 194.83445,644.04544 c 30.17642,150.32546 -10.79428,246.16177 -163.570422,280.83235 87.331842,1.73044 127.408042,-13.2268 157.929132,-41.72889 -5.44573,23.70616 -19.51014,47.91323 -42.88,65.55095 125.59992,-26.06838 180.64301,-129.60507 142.42586,-271.21929 -33.70523,-124.89525 8.27667,-171.33403 40.57663,-145.65739 10.88973,8.65672 21.94446,3.87058 26.20239,-4.70413 -65.71968,-74.29886 -190.86002,-33.39905 -160.68359,116.9264 z" fill="#961370" />
      <path d="m 354.52966,509.9726 c -70.37563,-110.24774 -220.60543,-73.38112 -256.472261,44.96239 -21.39146,70.58167 7.546401,99.63145 -8.737998,165.69422 24.512839,-25.99949 35.262029,-50.52031 40.307449,-80.5059 28.55163,118.13651 14.88126,228.30111 -98.362822,284.75448 87.331842,1.73044 127.408042,-13.2268 157.929132,-41.72889 -5.44573,23.70616 -19.51014,47.91323 -42.88,65.55095 125.59992,-26.06838 180.64301,-129.60507 142.42586,-271.21929 -33.70523,-124.89525 8.27667,-171.33403 40.57663,-145.65739 17.31302,13.76287 35.04311,-6.45267 25.21401,-21.85057 z" style="fill:none;stroke-miterlimit:8;stroke-width:6.99999857;stroke:#d91e9b" />
      <path d="m 135.75467,681.71476 c 1.26992,7.61954 2.44473,15.25606 2.9527,22.24064 52.18209,-7.08935 98.62694,-18.62965 149.0766,-39.64524 -1.86948,-7.97265 -3.45046,-15.34485 -4.98555,-24.54083 -46.10584,23.64262 -98.27094,37.32053 -147.04375,41.94543 z m 198.92844,-200.97566 c -1.90126,20.41693 -8.59121,34.98064 -23.43317,47.61861 7.97702,0.46208 11.35124,2.4644 17.54742,6.48577 20.13495,13.06778 38.22301,-8.66434 27.98505,-26.54053 -6.1089,-10.66655 -11.75124,-17.20554 -22.0993,-27.56385 z" fill="#ebebeb" />
      <path d="m 331.0745,498.76047 28.32518,22.40195 -1.40515,5.56923 -32.1016,-15.76268 z m -98.15024,161.81671 -1.29825,24.19766 18.27815,-5.87081 5.22549,-26.52179 z" fill="#fff" />
      <path d="m 135.75467,681.71476 c 1.26992,7.61954 2.44473,15.25606 2.9527,22.24064 52.18209,-7.08935 98.62694,-18.62965 149.0766,-39.64524 -1.86948,-7.97265 -3.45046,-15.34485 -4.98555,-24.54083 -46.10584,23.64262 -98.27094,37.32053 -147.04375,41.94543 z m 198.92844,-200.97566 c -1.90126,20.41693 -8.59121,34.98064 -23.43317,47.61861 7.97702,0.46208 11.35124,2.4644 17.54742,6.48577 20.13495,13.06778 38.22301,-8.66434 27.98505,-26.54053 -6.1089,-10.66655 -11.75124,-17.20554 -22.0993,-27.56385 z" fill="none" stroke="#d7d7d7" stroke-width="4" />
    </g>
    <g>
      <circle cx="677.88507" cy="206.61215" fill="#ebebeb" r="15.539549" stroke="#d7d7d7" stroke-width="4" />
      <circle cx="684.42505" cy="162.12012" fill="#ebebeb" r="12.806573" stroke="#d7d7d7" stroke-width="4" />
      <path d="m 550.42946,237.206 c 3.02787,-125.48861 103.03981,-159.047917 112.67265,-153.184463 9.63285,5.863454 37.60338,78.718893 -7.37378,151.828803 z" fill="#6dc6fb" />
      <path fill="#1c92cd" inkscape:original-d="m 550.42946,237.206 c 3.02787,-125.48861 103.03981,-159.047917 112.67265,-153.184463 9.63285,5.863454 37.60338,78.718893 -7.37378,151.828803" inkscape:path-effect="#path-effect5717" />
      <ellipse cx="561.82098" cy="-441.06827" fill="#fff" rx="4.2630825" ry="3.2497354" transform="rotate(54.59444)" />
      <ellipse cx="572.92847" cy="-415.38428" fill="#fff" rx="3.0720375" ry="2.3418055" transform="rotate(48.837776)" />
    </g>
  </g>
</svg>
