<svg xmlns="http://www.w3.org/2000/svg" xmlns:inkscape="http://www.inkscape.org/namespaces/inkscape" xmlns:sodipodi="http://sodipodi.sourceforge.net/DTD/sodipodi-0.dtd" xmlns:xlink="http://www.w3.org/1999/xlink" height="1172" viewBox="0 0 1121 1172" width="1121">
  <defs>
    <inkscape:path-effect bendpath1="m -21.6,-22.080316 h 43.2" bendpath2="m 12.449491,-22.496082 c 6.870565,12.280878 7.40868,28.3066195 0.543619,40.847793" bendpath3="m -21.6,22.080316 h 43.2" bendpath4="m -21.120944,-22.518372 c 8.651944,12.6399585 9.010415,27.7617097 3.03e-4,39.767831" effect="envelope" id="path-effect174" yy="false" />
    <linearGradient id="linearGradient2009">
      <stop offset="0" stop-color="#430d59" stop-opacity=".4" />
      <stop offset="0.37685046" stop-color="#430d59" stop-opacity=".7" />
      <stop offset="0.62872672" stop-color="#430d59" stop-opacity=".7" />
      <stop offset="1" stop-color="#430d59" stop-opacity=".4" />
    </linearGradient>
    <inkscape:path-effect effect="powerstroke" end_linecap_type="zerowidth" id="path-effect1501" interpolator_type="CubicBezierSmooth" offset_points="0.26,3.5 | 2.73,3.5" start_linecap_type="zerowidth" />
    <inkscape:path-effect effect="powerstroke" end_linecap_type="zerowidth" id="path-effect1499" interpolator_type="CubicBezierSmooth" offset_points="0.26,3.5 | 2.73,3.5" start_linecap_type="zerowidth" />
    <inkscape:path-effect effect="join_type" id="path-effect1043" line_width="7" />
    <inkscape:path-effect effect="powerstroke" end_linecap_type="zerowidth" id="path-effect2620" interpolator_type="CubicBezierSmooth" offset_points="0.53,3.5 | 1.81,3.5" start_linecap_type="zerowidth" />
    <linearGradient id="linearGradient5813">
      <stop offset="0" stop-color="#230f38" />
      <stop offset="1" stop-color="#5c2594" />
    </linearGradient>
    <linearGradient gradientUnits="userSpaceOnUse" id="linearGradient2510" x1="480.13202" x2="481.71359" y1="354.8624" y2="432.74225" xlink:href="#linearGradient5813" />
    <clipPath id="clipPath2528">
      <use xlink:href="#path1107" />
    </clipPath>
    <clipPath id="clipPath2690">
      <use xlink:href="#path1103" />
    </clipPath>
    <clipPath id="clipPath2808">
      <use xlink:href="#ellipse2712" />
    </clipPath>
    <clipPath id="clipPath2832">
      <use xlink:href="#ellipse1105" />
    </clipPath>
    <linearGradient gradientTransform="translate(-1142.2354,-88.657949)" gradientUnits="userSpaceOnUse" id="linearGradient2900" x1="480.13202" x2="481.71359" y1="354.8624" y2="432.74225" xlink:href="#linearGradient5813" />
    <clipPath id="clipPath1058">
      <path d="m 553.95119,155.33977 c 1.72268,9.80107 0.007,19.07897 -3.96906,27.65733 -33.04734,39.84972 81.35091,37.9002 46.43611,0.0292 -4.20402,-8.67054 -4.90646,-17.65094 -3.06156,-27.73299 -4.81438,-107.50677 -30.42876,-106.883507 -39.40549,0.0465 z" />
    </clipPath>
    <linearGradient gradientUnits="userSpaceOnUse" id="linearGradient2011" x1="571.44403" x2="574.69775" y1="212.71904" y2="67.808945" xlink:href="#linearGradient2009" />
    <filter color-interpolation-filters="sRGB" height="1.0421542" id="filter2049" width="1.0706398" x="-0.03531988" y="-0.021077077">
      <feGaussianBlur stdDeviation="1.4055906" />
    </filter>
    <mask id="mask2057">
      <path d="m 574.89258,62.761719 c -12.81884,-0.157821 -24.97322,8.630003 -31.01563,23.796875 -5.71631,14.348366 -4.24625,23.765506 -3.45117,28.972656 0.39754,2.60357 0.49817,3.79212 0.0957,5.35352 -0.40246,1.56139 -1.52283,3.97215 -4.8457,7.94335 -4.63162,5.53533 -6.64399,11.79392 -6.87695,17.47852 -0.23296,5.6846 0.94043,10.73869 1.87109,15.50391 1.86133,9.53044 3.4229,17.41319 -3.5293,29.0625 -2.90965,4.8755 -3.33494,11.19079 -0.85742,15.85156 2.47753,4.66077 6.63439,7.50689 11.25391,9.69336 9.23904,4.37293 21.42785,6.26323 33.85547,6.38672 12.42762,0.12349 24.89356,-1.52058 34.5918,-6.0918 4.84911,-2.28561 9.2084,-5.39797 11.91601,-10.12695 2.70761,-4.72899 3.02009,-10.96163 0.81055,-16.5625 -5.93345,-15.04042 -3.90359,-18.67305 -1.77344,-24.33789 1.06507,-2.83243 2.66713,-6.57467 2.51172,-11.45313 -0.15541,-4.87845 -2.1005,-10.05072 -6.06836,-16.09961 -6.05666,-9.23319 -4.42262,-12.35244 -2.55664,-19.79297 1.86597,-7.44052 4.09543,-18.708415 -3.37305,-32.753902 -7.52982,-14.160855 -19.73927,-22.666394 -32.55859,-22.824219 z" style="stroke-width:21;stroke:#fff;filter:url(#filter2049);fill:none" sodipodi:type="inkscape:offset" inkscape:original="M 574.80664 69.761719 C 565.05535 69.641665 555.64225 75.93707 550.37891 89.148438 C 539.85223 115.57117 555.9255 115.53629 541.04492 133.32031 C 526.16434 151.10432 549.21048 167.55344 533.15234 194.46094 C 517.09419 221.36844 625.02194 225.09549 612.19922 192.5918 C 599.3765 160.08811 621.74461 163.64644 607.52734 141.97266 C 593.31006 120.29887 614.51673 113.78253 601.27148 88.873047 C 594.64886 76.418306 584.55793 69.881772 574.80664 69.761719 z " inkscape:radius="7" />
    </mask>
    <clipPath id="clipPath2066">
      <use xlink:href="#path1997" />
    </clipPath>
    <filter color-interpolation-filters="sRGB" height="1.2620271" id="filter2223" width="1.4681689" x="-0.23408445" y="-0.13101353">
      <feGaussianBlur stdDeviation="7.9728293" />
    </filter>
    <clipPath id="clipPath251">
      <use xlink:href="#path4672" />
    </clipPath>
    <clipPath id="clipPath292">
      <use xlink:href="#path4672" />
    </clipPath>
  </defs>
  <g inkscape:groupmode="layer" inkscape:label="Drawing">
    <g clip-path="url(#clipPath292)">
      <g transform="matrix(.65514821 1.7008657 2.1887185-.69979248 788.89596 1195.8063)">
        <path d="m 1.5191034,8.944841 c 1.5583982,-0.7962631 3.2553501,-1.6017822 4.9067147,-2.3034293 0.046453,-2.5153257 0.1442599,-5.3065959 0.5569809,-7.8946771 l 0.019694,-0.1187196 c 0.09885,-0.6430291 0.2114336,-1.2936591 0.3382813,-1.9499702 -2.8330867,-2.1127496 -5.5717726,-4.681215 -8.0130711,-6.7017778 -0.23550146,0.3116653 -0.29529618,0.7433764 -0.10751878,1.0193335 2.28816938,1.849422 4.60436248,3.9573978 7.27855578,6.0250311 -0.1026478,0.5500282 -0.2280318,1.1479174 -0.3106196,1.6883717 l -0.019601,0.1184613 c -0.3858658,2.4293975 -0.5055298,4.9818026 -0.5610865,7.3510352 -1.4988978,0.6475803 -2.9684157,1.326044 -4.3929144,2.0503915 -0.040411,0.25646 0.062815,0.5649469 0.3045847,0.7159497 z" fill="#576ab7" font-variant-east-asian="normal" vector-effect="none" />
        <path d="m -1.0025817,-5.229741 c 1.28365066,1.4133894 2.3599158,2.842204 3.0170237,4.0025946 0.5807443,-0.1677539 1.1636401,-0.3341105 1.7470695,-0.4992707 -0.7581048,-3.0643266 -2.4182602,-6.588613 -4.2955335,-9.4062749 -1.2079824,1.8203625 -1.38941,3.9249485 -0.4685597,5.902951 z" fill="#54a2e1" />
        <path d="m 1.2500212,8.3155666 c 2.122152,0.2602002 4.3015055,0.2386852 6.3714916,0.087377 3.6852262,-0.2693761 7.0678212,-1.4396752 9.4781492,-5.5478222 -0.307475,-1.35499 -0.576185,-2.70749354 -0.802008,-4.0562639 3e-6,1.74e-5 -0.02139,-0.1282754 -0.02138,-0.128258 -0.246602,-1.4682298 -0.440814,-2.9386391 -0.571359,-4.4060787 -0.728997,1.7412176 -1.403168,3.1583766 -2.118148,4.3826124 l -10e-7,1.4e-6 c -0.02453,0.041517 -0.04909,0.082759 -0.07367,0.1237275 v 1.5e-6 c -2.51715,4.2459502 -5.3835188,5.7829399 -8.4006779,6.4554035 -1.6137632,0.3596751 -3.2441032,0.5395619 -4.75773984,0.5564823 0.0109625,0.9047726 0.25201566,1.7611234 0.89534294,2.5328172 z" fill="#54a2e1" />
        <path d="m 3.6505131,-19.378881 c 1.1289214,3.966299 1.810202,7.128726 1.9891952,10.3298215 0.1724109,3.0833804 -0.1762844,5.6280036 -0.7976422,7.7893147 -0.011992,0.039678 -0.024083,0.079205 -0.036269,0.1185829 -0.5781363,1.92670585 -1.3456574,3.5151665 -2.0147801,4.8111449 0.4831611,0.4144971 0.9710136,0.8306959 1.4609771,1.2475312 1.4047278,-1.6467243 2.7375491,-3.6819158 3.7659795,-6.1221624 1e-7,0 5e-7,-10e-7 5e-7,-10e-7 0.017181,-0.039784 0.034266,-0.079683 0.051252,-0.119695 1.7102866,-4.1548395 2.4178429,-9.4205428 1.7088199,-15.1251048 -2.1451747,-0.933034 -4.1810468,-1.896632 -6.1275329,-2.929432 z" fill="#5a318e" />
        <path d="m 6.1058527,15.70754 c 2.5933032,0.581205 5.2364413,0.901892 8.6915333,1.060589 1.603268,-1.278462 3.344617,-2.579341 5.123973,-3.919823 -6.043077,0.648497 -11.9493502,0.162151 -16.799971,-0.890205 0.5782828,1.432581 1.5123443,2.765737 2.9844647,3.749439 z" fill="#5a318e" />
      </g>
      <path d="m 478.34518,1150.9193 247.89547,73.7426 c 92.32168,-65.2704 148.11149,-23.5667 126.97121,47.4991 -21.14028,71.0659 -90.65351,75.4952 -132.28858,-29.6241 l -247.89547,-73.7426 z" fill="#a176db" id="path4672" opacity=".1" />
    </g>
    <path d="m 485.64225,1168.1269 c -190.05569,-58.137 -337.57632,-79.4715 -300.5004,-173.42796 37.07593,-93.95648 236.42961,-78.51283 71.99766,-135.48241 -140.08448,-48.53408 37.24293,-96.33748 225.12535,-42.35248 187.88242,53.98501 269.72356,-39.46259 344.56363,-30.75286 76.23582,8.87216 151.09795,49.41488 136.4881,134.6406 -14.60985,85.22571 -71.1433,95.49741 -169.35072,78.11361 -98.20742,-17.38375 -46.02469,73.5058 -200.35078,64.4764 -154.32608,-9.0294 -196.82146,68.1751 -103.62402,94.854 46.67718,13.3619 234.19508,74.8343 240.1236,70.0345 37.48559,-30.3485 90.90684,-40.9316 112.33165,-16.1205 23.40771,27.1074 1.01044,127.1097 -59.77267,103.5874 -40.48732,-15.6681 -49.36819,-75.8989 -64.53837,-80.065 -80.87929,-22.2115 -147.67981,-41.5614 -232.49303,-67.5053 z" fill="#6dc6fb" opacity=".5" />
    <path d="m 506.97248,829.01852 c -35.36627,-107.29538 -19.13938,-262.02484 10.28225,-395.37253 l 124.38724,0.88145 c -35.89278,137.57697 36.33114,242.84948 4.79932,392.69493 z" fill="#6dc6fb" stroke="#1c92cd" stroke-width="7" />
    <g>
      <path d="m 633.72521,527.35128 c -27.26931,7.39645 -48.41922,20.05811 -68.28697,38.96614 -16.84822,-19.50298 -35.75324,-33.06293 -67.49676,-42.47714 l -3.82868,26.16365 c 26.64814,4.73539 48.96356,17.41468 71.32544,38.81349 22.6075,-22.05446 42.86108,-30.54938 70.22604,-33.61858 z" fill="#ebebeb" />
      <path d="m 594.24511,543.56818 -3.2553,26.09446 8.81249,-5.7177 -2.04721,-22.00676 z m -85.24798,10.271 7.23188,-23.45076 18.48818,8.97924 -16.13286,18.09834 z" fill="#fff" />
      <path d="m 633.72521,527.35128 c -27.26931,7.39645 -48.41922,20.05811 -68.28697,38.96614 -16.84822,-19.50298 -35.75324,-33.06293 -67.49676,-42.47714 l -3.82868,26.16365 c 26.64814,4.73539 48.96356,17.41468 71.32544,38.81349 22.6075,-22.05446 42.86108,-30.54938 70.22604,-33.61858 z" fill="none" stroke="#d7d7d7" stroke-width="4" />
      <path d="m 581.35976,571.96386 -15.92152,-25.64644 -15.92152,25.64644 15.92152,25.64643 z" fill="#ebebeb" stroke="#d7d7d7" stroke-width="4" />
      <path d="m 575.14165,571.96386 -9.70341,-15.63025 -9.70342,15.63025 9.70342,15.63019 z" fill="#562f89" />
      <path d="m 565.43824,571.96386 h 9.70341 l -9.70341,-15.63025 z" fill="#7640ba" />
      <path d="m 565.43823,571.96386 h -9.70341 l 9.70341,15.63025 z" fill="#472770" />
      <path d="m 575.14165,571.96386 -9.70341,-15.63025 -9.70342,15.63025 9.70342,15.63019 z" fill="none" stroke="#301a4b" stroke-width="2" />
      <path d="m 565.43824,556.33361 v 31.26044 m -9.70342,-15.63019 h 19.40683" fill="none" stroke="#301a4b" />
    </g>
    <g>
      <path d="m 620.30516,589.12467 c 100.46995,-35.19968 176.10351,-88.6854 234.18733,-174.23442 30.92845,-45.55315 108.89417,72.35157 70.07963,107.49257 -82.19226,74.41326 -178.91889,114.62883 -292.07008,131.84438 z" fill="#6dc6fb" />
      <path fill="#1c92cd" inkscape:original-d="m 620.30516,589.12467 c 100.46995,-35.19968 176.10351,-88.6854 234.18733,-174.23442 30.92845,-45.55315 108.89417,72.35157 70.07963,107.49257 -82.19226,74.41326 -178.91889,114.62883 -292.07008,131.84438" inkscape:path-effect="#path-effect1501" />
      <path d="m 887.10971,555.55717 c -8.24666,-39.00662 -25.87434,-85.75333 -53.91787,-112.28959 -7.87251,-7.44938 -16.17265,4.22078 -9.74262,10.65081 -7.43003,-7.43003 -16.84122,4.07736 -9.68083,12.21361 -7.16039,-8.13625 -18.43015,2.56933 -11.31917,10.28639 22.77192,24.71282 36.69803,62.32289 45.6492,103.98998 2.1296,9.91314 15.94786,4.35625 13.26129,-8.3512 2.39082,11.30856 16.30829,2.81241 13.73871,-9.1488 2.27981,10.61234 14.75626,5.63249 12.01129,-7.3512 z" fill="#ebebeb" />
      <path d="m 846.61194,458.451 -30.96768,34.9954 17.6072,34.8855 20.31158,-60.31083 z" fill="#fff" />
      <path d="m 823.44922,453.91839 c -6.43003,-6.43003 1.87011,-18.10019 9.74262,-10.65081 28.04353,26.53626 45.67121,73.28297 53.91787,112.28959 2.74497,12.98369 -9.73148,17.96354 -12.01129,7.3512 m -13.73871,9.1488 c 2.39082,11.30856 16.30829,2.81241 13.73871,-9.1488 -8.95117,-41.66709 -27.02941,-84.37019 -51.6492,-108.98998 -7.43003,-7.43003 -16.84122,4.07736 -9.68083,12.21361 m 0,0 c 23.79353,27.03626 39.34466,66.91855 47.59132,105.92517 2.68657,12.70745 -11.13169,18.26434 -13.26129,8.3512 -8.95117,-41.66709 -22.87728,-79.27716 -45.6492,-103.98998 -7.11098,-7.71706 4.15878,-18.42264 11.31917,-10.28639 z" fill="none" stroke="#d7d7d7" stroke-width="4" />
    </g>
    <g>
      <path d="m 512.57748,587.76122 c -96.64516,-33.78211 -171.50797,-94.40177 -225.6452,-182.50131 -27.90361,-45.40858 -112.06878,67.32967 -74.89081,104.19778 78.72669,78.07054 173.11656,122.41051 285.7075,142.97381 z" fill="#6dc6fb" />
      <path fill="#1c92cd" inkscape:original-d="m 512.57748,587.76122 c -96.64516,-33.78211 -171.50797,-94.40177 -225.6452,-182.50131 -27.90361,-45.40858 -112.06878,67.32967 -74.89081,104.19778 78.72669,78.07054 173.11656,122.41051 285.7075,142.97381" inkscape:path-effect="#path-effect1499" />
      <path d="m 379.19209,507.12347 c -24.78168,25.82847 -40.73357,56.06622 -48.76269,93.92745 14.12143,8.01644 28.68619,14.29776 44.87888,20.54465 6.19224,-33.28065 19.34956,-62.27487 40.35488,-86.31242 -13.4583,-8.09024 -25.47453,-17.05682 -36.47107,-28.15968 z" fill="#ebebeb" />
      <path d="m 346.57343,552.5655 16.57717,-26.50252 39.21842,26.65847 -11.34345,19.86354 z" fill="#fff" />
      <path d="m 379.19209,507.12347 c -24.78168,25.82847 -40.73357,56.06622 -48.76269,93.92745 14.12143,8.01644 28.68619,14.29776 44.87888,20.54465 6.19224,-33.28065 19.34956,-62.27487 40.35488,-86.31242 -13.4583,-8.09024 -25.47453,-17.05682 -36.47107,-28.15968 z" fill="none" stroke="#d7d7d7" stroke-width="4" />
    </g>
    <g>
      <g>
        <path d="m 683.55042,278.87389 c 4.44975,112.7584 -40.08326,186.79751 -104.63708,220.73863 21.68377,4.11396 41.37921,3.94365 58.48276,-3.84924 -12.76798,36.41141 -10.13825,76.62762 16.23833,105.61627 -2.82843,-30.40559 5.98527,-59.68555 23.30939,-77.00967 -5.65685,46.66904 10.22183,92.66652 62.63783,116.32947 -63.53301,-137.54268 32.96373,-270.76807 -44.11091,-423.50314 z" fill="#f3a4d9" />
        <path d="m 691.04596,239.77136 c -1.6828,-5.11913 -7.49554,39.10253 -7.49554,39.10253 4.44975,112.7584 -40.08326,186.79751 -104.63708,220.73863 21.68377,4.11396 41.37921,3.94365 58.48276,-3.84924 -12.76798,36.41141 -10.13825,76.62762 16.23833,105.61627 -45.38031,-103.69852 99.38103,-173.14117 37.41153,-361.60819 z" fill="#961370" />
        <path d="m 683.55042,278.87389 c 4.44975,112.7584 -40.08326,186.79751 -104.63708,220.73863 21.68377,4.11396 41.37921,3.94365 58.48276,-3.84924 -12.76798,36.41141 -10.13825,76.62762 16.23833,105.61627 -2.82843,-30.40559 5.98527,-59.68555 23.30939,-77.00967 -5.65685,46.66904 10.22183,92.66652 62.63783,116.32947 -63.53301,-137.54268 32.96373,-270.76807 -44.11091,-423.50314 z" style="stroke-miterlimit:20;stroke-width:7;fill:none;stroke:#d91e9b" />
      </g>
      <path d="m 572.39211,491.67504 c -63.81294,-0.7558 -125.21176,-72.35967 -125.23204,-159.43779 -0.0422,-181.3117 245.59531,-186.47688 245.59531,-0.28601 0,93.23995 -63.36271,160.39891 -120.36327,159.7238 z" fill="#6dc6fb" stroke="#1c92cd" stroke-width="7" />
      <use transform="rotate(179.12768 567.07542.45145216)scale(1-1)" xlink:href="#g2629" />
      <g>
        <g clip-path="url(#clipPath2690)">
          <ellipse cx="450.46594" cy="414.58182" fill="#fff" id="path1103" rx="40.486153" ry="73.680595" transform="rotate(352.74368)" />
          <g clip-path="url(#clipPath2528)">
            <ellipse cx="490.43701" cy="393.79291" fill="url(#linearGradient2510)" id="path1107" rx="29.022421" ry="49.892658" transform="rotate(355.92757)" />
            <path d="m 525.6894,367.74631 -38.73161,40.08076 -13.14395,-20.44233 z" fill="#8f4dd3" />
            <path d="m 525.6894,367.74631 -55.28749,5.43793 6.22089,18.69483 z" fill="#62289e" />
            <ellipse cx="493.71515" cy="394.55725" rx="22.810556" ry="39.213791" transform="rotate(355.92757)" />
            <ellipse cx="408.18237" cy="468.65759" fill="#fff" rx="11.831699" ry="18.32346" transform="rotate(343.68311)" />
            <ellipse cx="426.36026" cy="468.01151" fill="#fff" rx="4.1595454" ry="5.1910563" transform="rotate(347.62325)" />
          </g>
        </g>
        <path d="m 458.75927,329.21098 c -31.99293,-3.78514 -30.23159,-8.32965 -4.10728,-6.01187 11.13915,-50.56318 49.25704,-59.18177 72.23829,-19.37708 13.96998,24.19672 21.73761,62.54588 8.71745,94.73005 7.01531,-36.73085 1.1449,-67.41169 -13.00906,-91.85395 -21.48956,-37.11001 -55.63003,-27.51702 -63.8394,22.51285 z m 1.80434,-17.56246 c -29.61877,-13.31447 -28.47584,-18.1588 1.58606,-5.14185 z m 8.08252,-15.9552 c -26.24057,-20.95175 -22.83142,-24.65835 3.06434,-4.51921 z" />
      </g>
      <g>
        <path d="m 588.2892,408.64262 c 6.32379,7.23393 1.97571,12.59241 -6.61357,10.46787 5.33319,-1.47157 7.44586,-5.07432 6.61357,-10.46787 z m -36.85088,1.36296 c -6.22473,7.7296 -1.51839,12.6557 6.98831,10.22151 -5.47771,-1.45094 -7.7918,-4.52996 -6.98831,-10.22151 z m 1.59795,-15.93651 c 7.90323,-7.559 27.14247,-8.1083 35.4303,-0.90929 -12.23461,-1.82883 -22.93173,-1.77713 -35.4303,0.90929 z" fill="#1c92cd" />
        <path d="m 547.0885,432.98116 c 14.17855,13.18631 33.99625,12.30613 47.28999,-1.61866 -5.05987,63.17317 -39.88287,63.46927 -47.28999,1.61866 z" fill="#bb1c76" />
        <path d="m 558.61441,470.88938 c 6.73845,-4.99132 17.4282,-5.19185 24.48379,0.6336 -5.43933,8.87661 -15.85698,11.50193 -24.48379,-0.6336 z" fill="#ef6f2f" />
        <path d="m 547.0885,432.98116 c 14.17855,13.18631 33.99625,12.30613 47.28999,-1.61866 -5.05987,63.17317 -39.88287,63.46927 -47.28999,1.61866 z" style="stroke-width:4;stroke-miterlimit:20;stroke:#1c92cd;fill:none" />
      </g>
      <g>
        <path d="m 550.45026,147.3788 c 48.03465,18.36209 89.40877,27.75993 124.34793,26.44459 l -13.32473,44.41184 c -22.87653,14.12968 -28.78328,38.1197 -20.06061,63.59641 -32.73765,-7.52399 -42.66322,-24.71487 -41.32479,-52.09552 -22.77982,14.52686 -31.92385,37.27102 -26.98659,64.58819 -29.83167,-13.69857 -39.21055,-28.07061 -39.48773,-54.64243 -26.27458,14.96477 -36.72984,40.63057 -32.31034,65.29665 -23.83534,-13.24922 -33.42567,-30.35071 -33.95771,-55.97776 -24.15592,23.26126 -32.45496,43.79255 -35.04425,78.09505 -70.68479,-105.27315 7.38789,-222.05734 118.14882,-179.71702 z" fill="#f3a4d9" />
        <path d="m 661.47346,218.23523 c -22.87653,14.12968 -28.78328,38.1197 -20.06061,63.59641 -32.73765,-7.52399 -42.66322,-24.71487 -41.32479,-52.09552 -22.77982,14.52686 -31.92385,37.27102 -26.98659,64.58819 -29.83167,-13.69857 -39.21055,-28.07061 -39.48773,-54.64243 -26.27458,14.96477 -36.72984,40.63057 -32.31034,65.29665 -38.76299,-54.77535 -9.21153,-133.26791 50.67958,-117.6684 39.27157,10.22884 80.78924,15.35086 116.56675,7.62447 z" fill="#961370" />
        <path d="m 550.45026,147.3788 c 48.03465,18.36209 89.40877,27.75993 124.34793,26.44459 l -13.32473,44.41184 c -22.87653,14.12968 -28.78328,38.1197 -20.06061,63.59641 -32.73765,-7.52399 -42.66322,-24.71487 -41.32479,-52.09552 -22.77982,14.52686 -31.92385,37.27102 -26.98659,64.58819 -29.83167,-13.69857 -39.21055,-28.07061 -39.48773,-54.64243 -26.27458,14.96477 -36.72984,40.63057 -32.31034,65.29665 -23.83534,-13.24922 -33.42567,-30.35071 -33.95771,-55.97776 -24.15592,23.26126 -32.45496,43.79255 -35.04425,78.09505 -70.68479,-105.27315 7.38789,-222.05734 118.14882,-179.71702 z" fill="none" stroke="#d91e9b" stroke-width="7" />
        <g clip-path="url(#clipPath1058)">
          <path d="m 545.60905,243.96643 c 25.35753,-204.554441 33.81072,-204.924538 51.29092,-20.58382 z" fill="#6dc6fb" stroke="#1c92cd" stroke-width="7" />
          <path d="m 558.7718,141.94452 c 10.14233,-5.52223 20.41913,-15.04988 25.98084,-24.78443 m -31.38818,65.92814 c 14.9481,-5.64963 27.39923,-15.64247 36.18772,-28.44289 m -42.40082,65.46686 c 19.55657,-3.49319 34.00578,-11.61965 46.40006,-25.99022" fill="none" stroke="#1c92cd" stroke-width="3.5" />
        </g>
        <path d="m 590.37725,159.97263 c 0.74467,6.47315 1.50218,13.37606 2.27538,20.70657 -12.21834,4.1897 -25.399,4.53694 -38.81648,-0.008 1.01834,-7.35327 2.00629,-14.26468 2.96652,-20.73607 11.25539,3.27198 21.92936,3.49266 33.57458,0.0375 z" fill="#ebebeb" />
        <path d="m 563.16789,182.53661 10.18566,0.83839 -4.58838,-20.52144 -4.00889,-0.44196 z" fill="#fff" />
        <path fill="#d7d7d7" inkscape:original-d="m 590.37725,159.97263 c 0.74467,6.47315 1.50218,13.37606 2.27538,20.70657 -12.21834,4.1897 -25.399,4.53694 -38.81648,-0.008 1.01834,-7.35327 2.00629,-14.26468 2.96652,-20.73607 11.25539,3.27198 21.92936,3.49266 33.57458,0.0375 z" inkscape:path-effect="#path-effect1043" />
        <path d="m 537.11077,185.29775 c 4.71272,0.0144 9.67838,0.65957 14.87221,2.01238 17.37537,4.52566 35.19043,8.05164 52.75348,9.90744 12.49857,31.58938 -78.39963,36.18335 -67.62569,-11.91982 z" fill="#961370" />
      </g>
      <g id="g2629">
        <path d="m 652.35376,238.47332 c -0.40666,-36.93395 10.56525,-80.33913 26.4551,-78.22048 15.03417,2.00455 81.16423,93.20825 7.63467,167.1804 z" fill="#6dc6fb" />
        <path fill="#1c92cd" inkscape:original-d="m 652.35376,238.47332 c -0.40666,-36.93395 10.56525,-80.33913 26.4551,-78.22048 15.03417,2.00455 81.16423,93.20825 7.63467,167.1804" inkscape:path-effect="#path-effect2620" />
        <path d="m 687.67562,204.62184 c -3.32599,25.08543 -2.05991,52.34398 3.46249,76.40616 11.07343,-22.85508 8.64712,-54.25446 -3.46249,-76.40616 z" fill="#1c92cd" />
        <circle cx="719.03271" cy="281.22546" fill="#ebebeb" r="11.494658" stroke="#d7d7d7" stroke-width="4.00000048" />
        <circle cx="722.78271" cy="247.68256" fill="#ebebeb" r="9.2757177" stroke="#d7d7d7" stroke-width="4" />
        <ellipse cx="748.7738" cy="-195.68437" fill="#fff" rx="3.5752068" ry="2.6083107" transform="rotate(35.66377)" />
        <ellipse cx="731.97131" cy="-224.24443" fill="#fff" rx="2.4847677" ry="1.812775" transform="rotate(35.66377)" />
        <path d="m 709.91477,274.78312 c -3.207,-8.49216 -11.11442,-15.34194 -20.46707,-18.17888 m 24.38846,-9.89997 c -6.21477,-3.46478 -15.1577,-4.50653 -24.45734,-2.68534" fill="none" stroke="#d7d7d7" stroke-width="4" />
        <path d="m 687.67562,204.62184 c 8.19944,27.25221 9.04614,51.75604 3.46249,76.40616 -11.76348,-25.62788 -12.22927,-49.10501 -3.46249,-76.40616 z" fill="#6dc6fb" />
      </g>
      <g transform="translate(-.35355342 1.4142136)">
        <g clip-path="url(#clipPath2832)">
          <ellipse cx="674.04657" cy="287.58197" fill="#fff" id="ellipse1105" rx="40.486153" ry="73.680595" transform="rotate(5.645125)" />
          <g clip-path="url(#clipPath2808)">
            <ellipse cx="-651.79834" cy="305.13495" fill="url(#linearGradient2900)" id="ellipse2712" rx="29.022421" ry="49.892658" transform="rotate(184.67792)scale(1-1)" />
            <path d="m 616.11465,366.96226 38.30589,40.48782 13.35924,-20.30228 z" fill="#8f4dd3" />
            <path d="m 616.11465,366.96226 55.22693,6.02188 -6.4181,18.62805 z" fill="#62289e" />
            <ellipse cx="648.5202" cy="305.89929" rx="22.810556" ry="39.213791" transform="rotate(4.6779217)" />
            <ellipse cx="512.72235" cy="498.94666" fill="#fff" rx="11.831699" ry="18.32346" transform="rotate(343.68311)" />
            <ellipse cx="532.46051" cy="489.96161" fill="#fff" rx="4.1595454" ry="5.1910563" transform="rotate(347.62325)" />
          </g>
        </g>
        <path d="m 682.24279,326.30027 c 31.87249,-4.69253 29.98274,-9.18515 3.93482,-6.12614 -12.57114,-50.22632 -50.91848,-57.75851 -72.75962,-17.31699 -13.27691,24.58381 -19.92501,63.19298 -5.99574,94.99425 -8.05596,-36.51672 -3.08652,-67.40676 10.36734,-92.24126 20.42661,-37.70553 54.82582,-29.08631 64.4532,20.69014 z m -2.30256,-17.50412 c 29.22858,-14.15055 27.94847,-18.96044 -1.7315,-5.09471 z m -8.53256,-15.71914 c 25.63479,-21.68878 22.12169,-25.29704 -3.19145,-4.43034 z" />
      </g>
      <path d="m 637.63689,257.47798 c -0.37885,7.7586 0.90754,15.97575 3.77596,24.35366 -10.61114,-2.43872 -18.82569,-5.89303 -25.03688,-10.38073" fill="none" stroke="#d91e9b" stroke-width="7" />
    </g>
    <g>
      <path d="m 500.34609,821.38221 c 54.70299,13.55904 96.2102,13.28315 155.87548,-1.18465 20.12743,-4.88056 20.61686,32.2057 0.64919,29.75008 -61.88867,-7.61105 -109.9064,-8.53238 -157.56234,-1.40649 -24.92385,3.72682 -24.58899,-33.51093 1.03767,-27.15894 z" fill="#fec0d4" stroke="#fc94b5" stroke-width="7" />
      <path d="m 659.69844,798.30162 c -53.17725,27.71436 -123.40047,5.18482 -173.26843,81.91468 -9.27405,14.26961 14.13134,62.03201 22.57812,41.45585 48.23558,-117.50074 101.91296,-77.77704 153.08954,-93.62367 20.23515,-6.26573 14.86862,-38.74634 -2.39923,-29.74686 z" fill="#fec0d4" stroke="#fc94b5" stroke-width="7" />
      <path d="m 500.0866,896.4224 c 32.37998,-82.71386 109.93409,-68.38171 161.04133,-82.94368 -49.32909,18.71964 -122.55342,0.41406 -161.04133,82.94368 z" fill="#fc94b5" />
      <path d="m 495.43715,799.51067 c 53.17725,27.71436 120.17676,8.27406 172.19386,82.49658 9.76721,13.93669 -17.5952,61.44927 -24.72725,40.38128 -38.56443,-113.91883 -108.2555,-77.79093 -151.91007,-93.27937 -19.96375,-7.08304 -12.82439,-38.59797 4.44346,-29.59849 z" fill="#fec0d4" stroke="#fc94b5" stroke-width="7" />
      <path d="m 651.20248,894.07027 c -39.61973,-75.56027 -111.02576,-60.14627 -156.89537,-79.11748 47.38333,14.71671 123.4011,3.54128 156.89537,79.11748 z" fill="#fc94b5" />
      <path d="m 561.00938,814.11607 c -4.37312,-14.07086 37.90275,-15.10568 32.16978,2.94406 -4.01997,12.65651 -3.8867,25.63151 -1.10456,37.08175 2.15948,8.88773 -33.74151,10.20052 -30.61101,-1.4827 2.9774,-11.11179 3.39315,-26.16394 -0.45421,-38.54311 z" fill="#fec0d4" stroke="#fc94b5" stroke-width="6.99999952" />
    </g>
    <g>
      <path d="m 574.88086,63.691406 c -12.41129,-0.152803 -24.20173,8.303871 -30.14063,23.210938 -5.65613,14.197306 -4.19785,23.239946 -3.39648,28.488276 0.40068,2.62417 0.52874,3.98594 0.0801,5.72657 -0.44866,1.74063 -1.65951,4.2743 -5.03516,8.30859 -4.51052,5.3906 -6.4358,11.39562 -6.66211,16.91797 -0.22631,5.52235 0.92262,10.51266 1.85547,15.28906 1.8657,9.5528 3.45269,17.82775 -3.64258,29.7168 -2.78976,4.67461 -3.16693,10.55067 -0.83398,14.93945 2.33294,4.38878 6.31547,7.15226 10.83008,9.28906 9.02921,4.27362 21.13771,6.17437 33.46679,6.29688 12.32908,0.12251 24.70442,-1.53502 34.18555,-6.00391 4.74056,-2.23444 8.9331,-5.25458 11.50586,-9.74804 2.57276,-4.49347 2.88089,-10.36322 0.75195,-15.75977 -5.99694,-15.20137 -3.91837,-19.31208 -1.77734,-25.00586 1.07051,-2.84689 2.59957,-6.4373 2.45117,-11.0957 -0.1484,-4.6584 -2.00309,-9.65402 -5.91601,-15.61914 -6.19643,-9.44626 -4.548,-13.08725 -2.68164,-20.5293 1.86635,-7.44205 4.06508,-18.255699 -3.29102,-32.089842 -7.40929,-13.934184 -19.33829,-22.179225 -31.75,-22.332032 z" fill="url(#linearGradient2011)" mask="url(#mask2057)" sodipodi:type="inkscape:offset" inkscape:original="M 574.80664 69.761719 C 565.05535 69.641665 555.64225 75.93707 550.37891 89.148438 C 539.85223 115.57117 555.9255 115.53629 541.04492 133.32031 C 526.16434 151.10432 549.21048 167.55344 533.15234 194.46094 C 517.09419 221.36844 625.02194 225.09549 612.19922 192.5918 C 599.3765 160.08811 621.74461 163.64644 607.52734 141.97266 C 593.31006 120.29887 614.51673 113.78253 601.27148 88.873047 C 594.64886 76.418306 584.55793 69.881772 574.80664 69.761719 z " inkscape:radius="7" />
      <g clip-path="url(#clipPath2066)">
        <path d="m 550.37963,89.14865 c 10.52668,-26.422736 37.64588,-25.185894 50.89113,-0.276412 13.24525,24.909482 -7.9598,31.425682 6.25748,53.099472 14.21727,21.67378 -8.15099,18.11621 4.67173,50.6199 12.82272,32.50369 -95.10645,28.77741 -79.0483,1.86991 16.05814,-26.9075 -6.98662,-43.35653 7.89396,-61.14054 14.88058,-17.78402 -1.19268,-17.7496 9.334,-44.17233 z" id="path1997" style="stroke-width:28;stroke:#430d59;filter:url(#filter2223);fill-opacity:.1;fill:#430d59" />
      </g>
      <path fill="#fff" id="path2227" transform="rotate(333.61327 546.65397-28.532156)scale(.85457769)" sodipodi:arg1="1.572248" sodipodi:arg2="2.3576462" sodipodi:cx="539.45508" sodipodi:cy="149.67191" sodipodi:r1="9.869051" sodipodi:r2="1.4803576" sodipodi:sides="4" sodipodi:type="star" />
      <use transform="translate(370.28355 65.274161)scale(.42529734)" xlink:href="#path2227" />
      <use transform="translate(369.8479 145.84238)scale(.32319618)" xlink:href="#path2227" />
      <use transform="translate(298.61687 13.670508)scale(.56143222)" xlink:href="#path2227" />
      <use transform="translate(386.61985 38.81312)scale(.32319618)" xlink:href="#path2227" />
      <use transform="translate(300.82155 114.34366)scale(.49336478)" xlink:href="#path2227" />
      <use transform="translate(214.1346 95.008465)scale(.72773024)" xlink:href="#path2227" />
      <use transform="translate(321.01188 44.7596)scale(.45546048)" xlink:href="#path2227" />
      <use transform="translate(378.56233 141.93665)scale(.36343231)" xlink:href="#path2227" />
      <use transform="translate(349.50832 96.768772)scale(.45230243)" xlink:href="#path2227" />
      <use transform="translate(387.88648 98.179565)scale(.28779235)" xlink:href="#path2227" />
      <use transform="translate(431.43634 43.166288)scale(.28779235)" xlink:href="#path2227" />
      <use transform="translate(441.95419 103.26815)scale(.31209255)" xlink:href="#path2227" />
    </g>
    <g clip-path="url(#clipPath251)">
      <use xlink:href="#path4672" />
      <g transform="matrix(-.09812594-1.8152743 2.1315913-.18878451 795.29082 1201.6247)" inkscape:path-effect="#path-effect174">
        <path fill="#54a2e1" inkscape:original-d="m 20.3,-9 c -5.5,14 -14.5,14.6 -19.9,14.3 l -0.5,1.9 c 6.6,1.8 15.7,1.2 21.7,-7.6 z" />
        <path fill="#54a2e1" inkscape:original-d="m -2.3557714,22.080316 c -9.3743556,-11.76314 -5.3939709,-19.8573687 -2.4341632,-24.3839058 l -1.3954483,-1.3830127 c -4.8588461,4.8157676 -8.8892301,12.9965988 -4.2682071,22.5927515 z" />
        <path fill="#54a2e1" inkscape:original-d="m -17.944229,-13.080316 c 14.874356,-2.23686 19.8939713,5.2573687 22.3341636,10.0839058 l 1.8954483,-0.5169873 c -1.7411543,-6.6157675 -6.81076951,-14.1965985 -17.4317929,-14.9927515 z" />
        <path fill="#5a318e" inkscape:original-d="m -20.3,9 c 5.5,-14 14.5,-14.6 19.9,-14.3 l 0.5,-1.9 c -6.6,-1.8 -15.7,-1.2 -21.7,7.6 z" />
        <path fill="#5a318e" inkscape:original-d="m 2.3557714,-22.080316 c 9.3743556,11.76314 5.3939709,19.8573687 2.4341632,24.3839058 l 1.3954483,1.3830127 c 4.8588461,-4.8157676 8.8892301,-12.9965988 4.2682071,-22.5927515 z" />
        <path fill="#5a318e" inkscape:original-d="m 17.944229,13.080316 c -14.874356,2.23686 -19.8939713,-5.2573687 -22.3341636,-10.0839058 l -1.8954483,0.5169873 c 1.7411543,6.6157675 6.81076951,14.1965985 17.4317929,14.9927515 z" />
        <path fill="#576ab7" font-variant-east-asian="normal" vector-effect="none" inkscape:original-d="m 1.21875,-11.523438 -10.5878906,4.7050786 -1.2285154,11.5234375 9.378906,6.8183599 10.5878906,-4.7050786 1.2285154,-11.5234375 z m -0.097656,0.908204 8.640625,6.2812496 -1.1308594,10.6152344 -9.7519532,4.333984 -8.640625,-6.2812496 1.1308594,-10.6152344 z" />
      </g>
    </g>
    <path d="m 559.71884,1249.905 c -43.53257,46.3471 -95.80816,44.8048 -117.68592,75.6855 92.66763,17.317 125.45249,-1.656 207.33358,5.6937 218.33238,19.5976 241.04086,59.8612 312.88579,-4.0258 -37.2263,-34.7983 -99.32792,-61.5469 -151.61807,-62.1474 -81.07624,-0.9311 -159.40702,-112.6307 -250.91538,-15.206 z" fill="#f6da89" />
  </g>
</svg>