<svg xmlns="http://www.w3.org/2000/svg" xmlns:inkscape="http://www.inkscape.org/namespaces/inkscape" xmlns:xlink="http://www.w3.org/1999/xlink" height="484.45605" viewBox="0 0 520.97437 484.45605" width="520.97437">
  <defs>
    <linearGradient id="linearGradient1509">
      <stop offset="0" stop-color="#f61f1f" />
      <stop offset="1" stop-color="#f61f1f" stop-opacity=".8" />
    </linearGradient>
    <inkscape:path-effect effect="powerstroke" id="path-effect2770" interpolator_type="CubicBezierSmooth" offset_points="0.34,2" start_linecap_type="zerowidth" />
    <inkscape:path-effect effect="powerstroke" end_linecap_type="zerowidth" id="path-effect1313" interpolator_type="CubicBezierSmooth" offset_points="0.48,2 | 6.62,2" start_linecap_type="zerowidth" />
    <inkscape:path-effect effect="powerstroke" end_linecap_type="zerowidth" id="path-effect567" interpolator_type="CubicBezierSmooth" offset_points="0.22,1 | 0.74,1" start_linecap_type="zerowidth" />
    <inkscape:path-effect effect="powerstroke" end_linecap_type="zerowidth" id="path-effect546" interpolator_type="CubicBezierSmooth" offset_points="0.22,1 | 0.74,1" start_linecap_type="zerowidth" />
    <inkscape:path-effect effect="powerstroke" id="path-effect1421" interpolator_type="CubicBezierSmooth" offset_points="0.47,2" start_linecap_type="zerowidth" />
    <inkscape:path-effect effect="powerstroke" id="path-effect1419" interpolator_type="CubicBezierSmooth" offset_points="0.3,2 | 2,2" start_linecap_type="zerowidth" />
    <inkscape:path-effect effect="powerstroke" end_linecap_type="zerowidth" id="path-effect1417" interpolator_type="CubicBezierSmooth" offset_points="0.16,2 | 4.56,2" start_linecap_type="zerowidth" />
    <inkscape:path-effect effect="powerstroke" end_linecap_type="zerowidth" id="path-effect5095" interpolator_type="CubicBezierSmooth" offset_points="0.22,2 | 2.83,2" start_linecap_type="zerowidth" />
    <linearGradient id="linearGradient4412">
      <stop offset="0" stop-color="#580d36" />
      <stop offset="1" stop-color="#bc1d75" />
    </linearGradient>
    <inkscape:path-effect effect="powerstroke" end_linecap_type="zerowidth" id="path-effect4605" interpolator_type="CubicBezierSmooth" offset_points="0.44,2 | 1.76,2" start_linecap_type="zerowidth" />
    <inkscape:path-effect effect="powerstroke" end_linecap_type="zerowidth" id="path-effect4765" interpolator_type="CubicBezierSmooth" offset_points="0.2,2 | 1.69,2" start_linecap_type="zerowidth" />
    <clipPath id="clipPath1538">
      <use xlink:href="#path4297" />
    </clipPath>
    <clipPath id="clipPath1596">
      <use xlink:href="#path5053" />
    </clipPath>
    <clipPath id="clipPath1612">
      <use xlink:href="#path4541" />
    </clipPath>
    <clipPath id="clipPath5087">
      <use xlink:href="#path12893-0" />
    </clipPath>
    <linearGradient gradientUnits="userSpaceOnUse" id="linearGradient1511" x1="650.97656" x2="680.08539" y1="2746.2209" y2="2812.9646" xlink:href="#linearGradient1509" />
    <linearGradient gradientUnits="userSpaceOnUse" id="linearGradient1639" x1="581.10565" x2="605.23492" y1="2748.8435" y2="2819.4258" xlink:href="#linearGradient1509" />
    <clipPath id="clipPath1860">
      <path d="m 437.89643,2533.7865 2.50168,-31.422 -13.78216,9.6385 z" />
    </clipPath>
    <linearGradient gradientTransform="matrix(0.48428644,0,0,0.48428644,2134.3739,656.5884)" gradientUnits="userSpaceOnUse" id="linearGradient2621" x1="844.44537" x2="922.50977" y1="-362.62854" y2="-350.38742" xlink:href="#linearGradient4412" />
    <linearGradient gradientTransform="matrix(0.48152613,0,0,0.48152613,2241.8409,-60.601228)" gradientUnits="userSpaceOnUse" id="linearGradient2623" x1="655.16547" x2="727.29309" y1="-764.58429" y2="-763.87354" xlink:href="#linearGradient4412" />
  </defs>
  <g transform="translate(-320.95571-2399.1445)">
    <g>
      <path d="m 625.27401,2859.5601 c 18.14072,-8.226 14.56453,-28.3021 -0.73658,-20.274 -18.42581,9.6675 -47.55314,6.5674 -73.49207,-3.7594 4.13646,13.1243 13.3064,23.2104 23.34936,26.0334 18.42156,5.1786 36.52349,4.5101 50.87929,-2 z" fill="#f61f1f" stroke="#b80707" stroke-width="2" />
      <path d="m 601.14888,2685.9145 -57.81656,28.4561 c 23.52194,31.6195 32.66106,57.2821 29.40078,126.6209 -1.24711,26.5233 53.85829,26.2329 53.56393,-4.7425 -0.38494,-40.5064 -6.68026,-69.3362 -23.26709,-101.842 -2.22757,-4.3654 -6.99863,-5.7987 -16.21088,-4.8581 1.98636,-10.8076 10.19558,-26.4134 14.32982,-43.6344 z" fill="#88c4e9" />
      <path fill="#6babda" inkscape:original-d="m 586.48663,2736.1216 c -1.53009,-10.5256 9.6095,-29.1601 14.66225,-50.2071 l -57.81656,28.4561 c 23.52194,31.6195 32.66106,57.2821 29.40078,126.6209 -1.24711,26.5233 53.85829,26.2329 53.56393,-4.7425 -0.38494,-40.5064 -6.68026,-69.3362 -23.26709,-101.842 -2.22757,-4.3654 -6.99863,-5.7987 -16.18738,-4.921" inkscape:path-effect="#path-effect1421" />
      <path d="m 630.13196,2839.7532 c -4.65347,11.1246 -50.2215,12.1347 -61.6026,3.9924 0.82697,28.49 65.92719,24.0443 61.6026,-3.9924 z" fill="#f61f1f" />
      <path fill="#b80707" inkscape:original-d="m 630.13196,2839.7532 c -4.65347,11.1246 -50.2215,12.1347 -61.6026,3.9924" inkscape:path-effect="#path-effect567" />
      <path d="m 539.8022,2713.7871 c 17.47691,22.1405 32.74502,48.3598 26.86202,73.697 -6.94972,29.9313 -3.06265,47.8152 29.68269,46.3188 42.05553,-1.9219 49.89267,-36.2867 29.09057,-56.2516 -16.99719,-16.313 -9.12667,-49.4497 -30.93501,-49.7614 -10.0859,-0.1441 5.34509,-29.7864 10.70203,-47.054 z" fill="url(#linearGradient1639)" stroke="#b80707" stroke-width="2" />
    </g>
    <path d="m 718.36539,2839.8235 c 14.88609,-13.2348 5.51838,-31.3478 -6.71449,-19.1441 -14.73105,14.6958 -43.46781,20.3711 -71.30224,18.1992 7.84171,11.3078 19.5897,18.2215 30.01813,17.9401 19.12863,-0.5161 36.21839,-6.5217 47.9986,-16.9952 z" fill="#f61f1f" stroke="#b80707" stroke-width="2" />
    <g>
      <path d="m 499.46627,2712.9789 c -37.09167,32.7913 -48.81307,91.0771 -26.31797,125.2201 17.40395,26.4157 52.18869,-17.7337 43.43042,-41.5345 -7.80496,-21.2101 -3.66374,-48.1208 12.23492,-70.4094 z" fill="#9bdbf5" stroke="#6babda" stroke-width="4" />
      <path d="m 460.49538,2802.636 c 20.64013,-4.5637 38.30748,-15.7486 54.07831,-35.492 -0.89704,6.7824 0.0264,15.1542 1.19639,21.8061 -13.06464,17.5151 -29.67991,28.7841 -51.03143,35.2183 -2.67521,-7.3449 -3.76149,-14.59 -4.24327,-21.5324 z" fill="#fac42d" />
      <path d="m 482.9046,2794.2741 0.42084,22.3377 8.48412,-4.8591 -0.723,-22.3251 z" fill="#ffff64" />
      <path d="m 460.49538,2802.636 c 20.64013,-4.5637 38.30748,-15.7486 54.07831,-35.492 -0.89704,6.7824 0.0264,15.1542 1.19639,21.8061 -13.06464,17.5151 -29.67991,28.7841 -51.03143,35.2183 -2.67521,-7.3449 -3.76149,-14.59 -4.24327,-21.5324 z" style="fill:none;stroke-miterlimit:20;stroke-width:2;stroke:#a0833d" />
    </g>
    <g>
      <path d="m 426.17837,2487.7953 c 101.28532,-59.6234 -92.72887,-160.4704 -102.90176,-0.7175 -6.58757,103.4498 90.40882,148.5087 72.63801,214.8304 -13.84499,51.6703 -62.04475,44.2691 -65.37936,-15.8249 -18.26621,78.1935 65.21844,95.8623 86.49435,24.1652 27.75849,-93.5425 -66.2952,-178.0417 9.14876,-222.4532 z" fill="#1b98d1" />
      <path d="m 325.24459,2469.751 c 21.22392,-44.0753 79.64747,-61.3381 124.71412,-3.4165 34.26195,-55.1943 -104.67619,-115.3894 -124.71412,3.4165 z" fill="#5fbb4e" />
      <path d="m 373.42482,2525.4848 c 4.1807,32.7229 20.07672,47.6052 34.03906,68.2403 -12.77986,-44.1463 -23.23542,-81.2352 18.71449,-105.9298 7.24234,-4.2633 12.97486,-8.7374 17.37271,-13.312 -42.93362,-27.3462 -75.1149,11.9548 -70.12626,51.0015 z m -40.18873,207.2037 c -5.4991,-11.5104 -7.23567,-27.1926 -2.70083,-46.6052 3.33461,60.094 51.53437,67.4952 65.37936,15.8249 4.83116,-18.0302 1.18016,-34.4889 -6.56579,-50.9765 42.75064,69.0375 -14.76893,118.5946 -56.11274,81.7568 z" fill="#632e86" />
      <path d="m 426.17837,2487.7953 c 101.28532,-59.6234 -92.72887,-160.4704 -102.90176,-0.7175 -6.58757,103.4498 90.40882,148.5087 72.63801,214.8304 -13.84499,51.6703 -62.04475,44.2691 -65.37936,-15.8249 -18.26621,78.1935 65.21844,95.8623 86.49435,24.1652 27.75849,-93.5425 -66.2952,-178.0417 9.14876,-222.4532 z" style="fill:none;stroke-miterlimit:20;stroke-width:4;stroke:#1b98d1" />
      <path d="m 447.89247,2478.3786 7.13068,-17.2892 c -7.73214,-2.0172 -14.89264,-6.0646 -19.40885,-12.893 4.30896,-2.6443 1.12933,-7.776 -3.29241,-5.1468 -9.49655,5.6465 -14.69118,19.9504 -11.9678,31.0149 h -3e-5 c 1.07845,4.3815 5.87883,3.2175 5.32402,0.043 8.09143,-0.5031 15.1167,0.6 22.21439,4.2704 z" fill="#fac42d" />
      <path d="m 424.22997,2450.8131 c 7.74636,7.9891 17.96154,11.987 29.17036,14.699 l -1.91715,4.4839 c -10.30893,-3.6945 -20.98945,-6.7377 -31.21851,-8.0533 0.81277,-3.6582 2.31511,-7.3864 3.9653,-11.1296 z" fill="#ffff64" />
      <path d="m 435.61432,2448.1959 c 4.51619,6.8289 11.67669,10.8763 19.40883,12.8935 l -7.13068,17.2892 c -7.09769,-3.6704 -14.12296,-4.7735 -22.21435,-4.2709 m -5.32406,-0.042 c 1.07845,4.3815 5.87883,3.2175 5.32398,0.043 -1.86691,-10.6772 1.2905,-20.6055 9.93624,-25.9118 4.30898,-2.6448 1.12935,-7.7765 -3.29239,-5.1473 -9.49655,5.6465 -14.69118,19.9504 -11.9678,31.0149 z" fill="none" stroke="#a0833d" stroke-width="2" />
    </g>
    <path d="m 623.10343,2634.4371 c -33.45675,-27.5057 -64.46216,17.1547 -93.94889,11.044 -4.72206,-9.5016 -7.46535,-19.006 -8.50475,-30.4311 l 67.81586,-47.1882 c 22.02892,-130.7474 -160.56282,-127.1467 -140.41567,-8.0243 13.09474,77.4242 3.96029,119.2699 35.45998,155.8086 24.0929,27.9471 84.99913,28.9715 111.42468,7.6923 44.62776,20.7403 54.77485,48.6524 68.66869,115.7634 4.42914,21.3939 59.01541,4.9152 50.00823,-18.5473 -13.4529,-35.043 -28.29639,-60.943 -49.9607,-90.6059 -3.43592,-4.7045 -15.8512,-5.4486 -24.56275,-4.343 -0.5498,-20.1114 15.94627,-64.9172 -15.98468,-91.1685 z" fill="#9bdbf5" />
    <path fill="#6babda" inkscape:original-d="m 607.56815,2698.1879 c 1.00077,44.6014 -92.70346,53.8288 -124.05819,17.4582 -31.49974,-36.5387 -22.36524,-78.3844 -35.45998,-155.8086 -20.14715,-119.1224 162.44459,-122.7231 140.41567,8.0243 l -67.81586,47.1882 c 1.39924,15.3804 5.88636,27.2801 14.11065,40.3628" inkscape:path-effect="#path-effect1417" />
    <g>
      <g clip-path="url(#clipPath1612)">
        <ellipse cx="2320.6987" cy="1175.0664" fill="#fff" id="path4541" rx="37.17976" ry="31.321676" transform="rotate(51.747797)" />
        <g clip-path="url(#clipPath1538)">
          <ellipse cx="2563.4795" cy="476.55051" fill="url(#linearGradient2621)" id="path4297" rx="27.021358" ry="22.763914" transform="rotate(67.787749)" />
          <path d="m 517.12292,2585.8239 16.65117,-31.8815 -28.88249,14.6662 z" fill="#fcb6df" />
          <path d="m 501.54176,2563.5313 32.23233,-9.5889 -26.49612,22.1011 z" fill="#d9539d" />
          <ellipse cx="2564.7881" cy="475.28323" rx="21.470005" ry="18.087225" transform="rotate(67.787749)" />
          <ellipse cx="1328.7501" cy="2230.4202" fill="#fff" rx="7.527617" ry="10.739987" transform="rotate(19.292079)" />
          <ellipse cx="1400.8353" cy="2203.8367" fill="#fff" rx="2.5220196" ry="3.4631748" transform="rotate(20.838758)" />
        </g>
      </g>
      <path d="m 545.49153,2567.7051 c 5.34136,-27.177 -12.49034,-47.4664 -31.6524,-50.8466 -15.58165,-2.7486 -32.713,6.9756 -33.44,29.3261 -21.54168,2.2948 -21.79719,-0.9586 -2.8688,-2.9451 2.0512,-22.5805 19.63348,-32.4284 36.7519,-29.44 19.7904,3.4548 41.91312,26.5136 31.2093,53.9056 z m -64.93489,-30.827 c -20.54383,-6.9485 -19.83506,-10.3462 0.68679,-3.3612 z m 3.4215,-8.9907 c -15.51928,-13.6841 -14.17737,-16.191 1.91026,-2.918 z" />
      <path d="m 580.76263,2512.4136 1.5694,2.405 c 14.63288,-7.9816 13.43638,-10.4128 -1.5694,-2.405 z m 2.51746,8.1452 0.99213,2.8166 c 16.04918,-4.5 15.42637,-7.2586 -0.99213,-2.8166 z" />
      <g clip-path="url(#clipPath5087)">
        <path d="m 574.81694,2561.744 c -8.20385,-18.654 -8.44729,-41.653 4.5499,-56.968 10.17108,16.2139 14.00915,39.7538 8.70736,64.314 -5.32662,-0.9741 -9.44465,-2.989 -13.25726,-7.346 z" fill="#fff" id="path12893-0" />
        <g clip-path="url(#clipPath1596)">
          <ellipse cx="2574.1663" cy="-425.75882" fill="url(#linearGradient2623)" id="path5053" rx="23.950512" ry="9.2946882" transform="rotate(86.642525)" />
          <path d="m 573.74226,2548.4851 15.69452,5.1785 -2.87683,17.8452 z" fill="#fcb6df" />
          <path d="m 573.74226,2548.4851 15.6758,11.0596 0.4863,-11.6025 z" fill="#d9539d" />
          <ellipse cx="2574.6331" cy="-425.16531" rx="18.546801" ry="7.1976223" transform="rotate(86.642525)" />
          <ellipse cx="-2485.7788" cy="763.60693" fill="#fff" rx="9.0960627" ry="2.8927908" transform="rotate(274.25978)" />
          <ellipse cx="-2470.29" cy="853.49506" fill="#fff" rx="2.8063838" ry="0.94082475" transform="rotate(276.2333)" />
        </g>
      </g>
      <path d="m 574.81694,2561.744 c 6.08873,9.442 21.33507,4.6786 20.33095,14.7529 -3.07497,30.8514 -48.88595,52.9156 -101.70757,32.5668 z" fill="#9bdbf5" />
      <path d="m 574.81694,2561.744 c -11.53162,-21.8799 -7.27128,-44.2678 3.09544,-57.2836 8.88959,-11.1611 11.20094,-9.6647 1.69291,2.3019 -9.38326,11.8095 -13.4168,29.335 -4.78835,54.9817 z" />
      <path fill="#6babda" inkscape:original-d="m 574.81694,2561.744 c 6.08873,9.442 21.33507,4.6786 20.33095,14.7529 -3.07497,30.8514 -48.88595,52.9156 -101.70757,32.5668" inkscape:path-effect="#path-effect4605" />
      <path d="m 563.00389,2586.024 c 4.84388,9.3002 12.31111,12.6961 21.43768,11.9358 l 3.86684,-3.9485 c -11.33719,1.8064 -17.64884,-0.7807 -25.30452,-7.9873 z m 23.27319,-8.7799 c -2.14507,1.9701 -4.24961,1.6556 -5.20622,-1.2834 -0.93062,5.04 3.52496,5.952 5.20622,1.2834 z" fill="#6babda" />
    </g>
    <g>
      <path d="m 534.21053,2722.0822 c -5.39877,47.8757 12.87413,101.7702 -6.05416,141.0826 -11.25461,23.3749 52.47678,25.5244 59.80655,0.6649 12.17395,-41.2889 -12.93677,-73.4445 -26.43466,-142.3161 z" fill="#9bdbf5" />
      <path fill="#6babda" inkscape:original-d="m 534.21053,2722.0822 c -5.39877,47.8757 12.87413,101.7702 -6.05416,141.0826 -11.25461,23.3749 52.47678,25.5244 59.80655,0.6649 12.17395,-41.2889 -12.93677,-73.4445 -26.43466,-142.3161" inkscape:path-effect="#path-effect5095" />
      <path d="m 535.0687,2829.8512 c 18.79072,6.7338 38.4068,5.8801 56.23139,-3.4513 1.21865,6.4522 1.55312,13.4659 1.04672,20.2743 -19.01378,7.8036 -38.80056,9.1983 -60.48743,2.808 1.85822,-6.619 2.5566,-13.012 3.20932,-19.631 z" fill="#fac42d" />
      <path d="m 569.2519,2833.6139 -0.25087,19.3511 7.50064,-1.2714 2.18582,-20.2865 z" fill="#ffff64" />
      <path d="m 535.0687,2829.8512 c 18.79072,6.7338 38.4068,5.8801 56.23139,-3.4513 1.21865,6.4522 1.55312,13.4659 1.04672,20.2743 -19.01378,7.8036 -38.80056,9.1983 -60.48743,2.808 1.85822,-6.619 2.5566,-13.012 3.20932,-19.631 z" fill="none" stroke="#a0833d" stroke-width="2" />
    </g>
    <g transform="rotate(352.60336 14251.209 2856.5583)">
      <path d="m 754.50825,892.67994 c 37.58674,-34.99912 85.11089,-2.77678 78.30734,95.70874 4.291,-9.05919 7.40914,-17.56576 9.473,-27.58879 0.52318,41.38941 6.9642,76.70901 24.57106,98.75151 -3.5192,-18.9007 -4.03989,-34.2972 -3.20478,-52.1325 12.21465,29.0105 29.44696,49.2947 53.81833,62.9425 -6.78703,-7.3326 -11.75496,-13.7931 -15.73174,-24.0045 18.81765,16.2214 31.59456,22.134 49.7031,21.6119 -28.74393,-11.1682 -48.80498,-39.7395 -49.62384,-94.62452 5.96909,15.5198 13.26811,29.19462 24.56902,42.04832 -17.31807,-47.34639 -4.09179,-108.65224 -37.24742,-155.19864 11.86951,2.83836 22.0428,9.66324 29.52868,20.14488 -11.9264,-63.40004 -112.76356,-84.6505 -171.21086,5.65416 z" fill="#5fbb4e" />
      <path d="m 766.08135,862.19717 c -6.90521,7.09335 -12.49599,14.33199 -18.62121,23.79583 l 7.04811,6.68694 c 37.58674,-34.99912 85.11089,-2.77678 78.30734,95.70874 4.291,-9.05919 7.40914,-17.56576 9.473,-27.58879 0.52318,41.38941 6.9642,76.70901 24.57106,98.75151 -3.5192,-18.9007 -4.03989,-34.2972 -3.20478,-52.1325 7.42085,17.6249 16.69372,32.029 28.29433,43.6808 -22.66655,-40.423 -6.34478,-111.01411 -21.30442,-159.66228 -15.41684,-50.135 -58.90432,-55.64582 -104.56343,-29.24025 z" fill="#faf5ab" />
      <path d="m 750.55934,888.93339 3.94891,3.74655 c 37.58674,-34.99912 85.11089,-2.77678 78.30734,95.70874 4.291,-9.05919 7.40914,-17.56576 9.473,-27.58879 0.52318,41.38941 6.9642,76.70901 24.57106,98.75151 -3.5192,-18.9007 -4.03989,-34.2972 -3.20478,-52.1325 3.64315,8.6527 7.73266,16.5291 12.32485,23.6847 -14.2092,-40.71746 -7.23344,-88.91892 -20.54171,-130.77511 -14.43373,-45.39594 -61.22145,-60.55489 -104.87867,-11.3951 z" fill="#ef7135" />
      <path d="m 901.74146,1046.3569 c 18.81765,16.2214 31.59456,22.134 49.7031,21.6119 -28.74393,-11.1682 -48.80498,-39.7395 -49.62384,-94.62452 5.96909,15.5198 13.26811,29.19462 24.56902,42.04832 -17.31807,-47.34639 -4.09179,-108.65224 -37.24742,-155.19864 11.86951,2.83836 22.0428,9.66324 29.52868,20.14488 -9.11072,-48.43206 -70.10637,-72.26724 -124.45444,-40.56524 135.7121,-21.2879 80.2721,151.87765 107.5249,206.5833 z" fill="#1b98d1" />
      <path d="m 901.82072,973.34428 c 5.96909,15.5198 13.26811,29.19462 24.56902,42.04832 -17.31807,-47.34639 -4.09179,-108.65224 -37.24742,-155.19864 11.86951,2.83836 22.0428,9.66324 29.52868,20.14488 -7.87292,-41.85199 -54.49012,-65.33664 -102.08163,-50.48872 83.32262,-1.29674 87.54182,96.24519 85.23135,143.49416 z" fill="#632e86" />
      <path d="m 754.50825,892.67994 c 37.58674,-34.99912 85.11089,-2.77678 78.30734,95.70874 4.291,-9.05919 7.40914,-17.56576 9.473,-27.58879 0.52318,41.38941 6.9642,76.70901 24.57106,98.75151 -3.06927,-16.4842 -3.85773,-30.303 -3.45517,-45.3989 -3.72335,-16.92517 -5.17082,-41.34086 -9.6026,-69.22974 -11.94364,-75.16056 -64.49908,-91.44521 -99.29363,-52.24282 z" fill="#ec4141" />
      <path d="m 754.50825,892.67994 c 37.58674,-34.99912 85.11089,-2.77678 78.30734,95.70874 4.291,-9.05919 7.40914,-17.56576 9.473,-27.58879 0.52318,41.38941 6.9642,76.70901 24.57106,98.75151 -3.5192,-18.9007 -4.03989,-34.2972 -3.20478,-52.1325 12.21465,29.0105 29.44696,49.2947 53.81833,62.9425 -6.78703,-7.3326 -11.75496,-13.7931 -15.73174,-24.0045 18.81765,16.2214 31.59456,22.134 49.7031,21.6119 -28.74393,-11.1682 -48.80498,-39.7395 -49.62384,-94.62452 5.96909,15.5198 13.26811,29.19462 24.56902,42.04832 -17.31807,-47.34639 -4.09179,-108.65224 -37.24742,-155.19864 11.86951,2.83836 22.0428,9.66324 29.52868,20.14488 -11.9264,-63.40004 -112.76356,-84.6505 -171.21086,5.65416 z" style="fill:none;stroke-miterlimit:20;stroke-width:4;stroke:#1b98d1" />
    </g>
    <g>
      <path d="m 620.10176,2643.4175 -11.30305,-16.791 c 6.35825,-5.4741 11.19309,-11.0717 14.84424,-18.0342 -4.26385,-2.7167 -0.40039,-8.0367 3.70894,-4.941 10.35034,7.797 14.63319,15.331 16.45085,27.0179 0.69343,4.4585 -4.00648,4.3794 -4.75566,1.2448 -7.15477,1.8663 -13.15257,5.5944 -18.94532,11.5035 z" fill="#fac42d" />
      <path d="m 610.4596,2628.9778 c 9.77097,-5.0293 16.38892,-13.2258 20.06209,-22.8653 l 4.98854,5.1969 c -5.36689,9.7554 -13.80843,16.8234 -22.8964,21.1225 z" fill="#ffff64" />
      <path d="m 623.64295,2608.5923 c -3.65115,6.9625 -8.48599,12.5601 -14.84424,18.0342 l 11.30305,16.791 c 5.79275,-5.9091 11.79055,-9.6372 18.94532,-11.5035 m -11.69519,-28.2627 c 10.35034,7.797 14.63319,15.331 16.45085,27.0179 0.69343,4.4585 -4.00648,4.3794 -4.75566,1.2448 -2.75163,-11.5133 -6.42485,-17.6001 -15.40413,-23.3217 -4.26385,-2.7167 -0.40039,-8.0367 3.70894,-4.941 z" fill="none" stroke="#a0833d" stroke-width="2" />
    </g>
    <path fill="#6babda" inkscape:original-d="m 640.2929,2732.0313 c -6.60773,-15.1034 18.71333,-68.0775 -17.18947,-97.5942 -33.4567,-27.5058 -64.46216,17.1547 -93.94016,11.0503" inkscape:path-effect="#path-effect1419" />
    <path d="m 594.89451,2723.3188 c 44.66789,20.7599 54.81498,48.672 68.70882,115.783 4.42914,21.3939 59.01541,4.9152 50.00823,-18.5473 -13.4529,-35.043 -28.29639,-60.943 -49.9607,-90.6059 -3.43592,-4.7045 -15.8512,-5.4486 -24.62071,-4.4488" fill="none" stroke="#6babda" stroke-width="4" />
    <path d="m 717.13232,2819.4666 c -1.14587,12.0043 -44.3656,26.4791 -57.64897,22.0776 9.32213,25.6758 70.09171,3.4165 57.64897,-22.0776 z" fill="#f61f1f" />
    <path fill="#b80707" inkscape:original-d="m 717.13232,2819.4666 c -1.14587,12.0043 -44.3656,26.4791 -57.64897,22.0776" inkscape:path-effect="#path-effect546" />
    <path d="m 523.21474,2623.1443 c -20.3468,10.2567 -45.86478,13.2633 -68.34743,6.4812 0.62285,5.7643 1.24569,11.614 1.86854,17.5587 23.87314,5.2956 49.80763,2.0361 71.00709,-8.056 -1.81448,-5.2263 -3.47271,-10.5046 -4.5282,-15.9839 z" style="fill:#1e1e1e;stroke-miterlimit:20;stroke-width:2;stroke:#000" />
    <g>
      <path d="m 591.72442,2727.0525 c 17.09258,-0.7576 52.6179,31.2975 50.31303,56.1397 -3.64192,39.2529 10.72302,50.6979 41.92756,40.6593 37.01377,-11.9074 35.61624,-45.2946 9.6082,-58.4366 -14.3695,-7.261 -20.91633,-43.8449 -45.40645,-43.0624 -10.0818,0.3221 -5.12433,-22.1756 -4.41912,-40.2413 1.58553,-40.6177 -29.25191,-76.093 -72.58771,-50.5137 18.64038,29.0814 23.688,59.5551 20.56449,95.455 z" fill="url(#linearGradient1511)" stroke="#b80707" stroke-width="2" />
      <path d="m 587.63523,2727.8939 c -0.55676,5.8476 6.59794,6.6602 7.35881,-0.6836 3.55789,-34.3402 -1.11726,-65.5875 -17.77612,-95.3195 -5.34315,-9.5362 -13.53905,-3.7279 -9.06282,4.0266 14.45199,25.0364 23.14948,53.4378 19.48013,91.9765 z" fill="#fac42d" />
      <path d="m 580.59801,2637.7201 -8.65125,4.7911 4.90581,10.5652 8.52131,-5.0853 z" fill="#ffff64" />
      <path d="m 587.63523,2727.8939 c -0.55676,5.8476 6.59794,6.6602 7.35881,-0.6836 3.55789,-34.3402 -1.11726,-65.5875 -17.77612,-95.3195 -5.34315,-9.5362 -13.53905,-3.7279 -9.06282,4.0266 14.45199,25.0364 23.14948,53.4378 19.48013,91.9765 z" fill="none" stroke="#a0833d" stroke-width="2" />
    </g>
    <g>
      <path d="m 552.80674,2658.8455 c -24.40395,21.6097 -2.20373,70.3012 33.63269,48.018 31.76597,-19.7525 42.89325,-65.6834 36.76167,-73.392 -7.2414,-9.1034 -32.44687,1.2859 -55.30642,18.6189 z" fill="#9bdbf5" />
      <path fill="#6babda" inkscape:original-d="m 552.80674,2658.8455 c -24.40395,21.6097 -2.20373,70.3012 33.63269,48.018 31.76597,-19.7525 42.89325,-65.6834 36.76167,-73.392 -7.2414,-9.1034 -32.44687,1.2859 -55.30642,18.6189 5.61268,1.1536 9.45573,3.7667 12.84657,9.352 10.56622,-3.9248 22.0077,6.5775 13.88996,20.6924 2.80521,7.6592 -1.03753,18.322 -8.19178,24.7287" inkscape:path-effect="#path-effect2770" />
      <path d="m 595.09352,2644.6304 c 4.63055,1.2094 8.60091,5.0786 9.5838,9.6728 l -5.85588,5.5677 c -1.14181,-4.8806 -5.35161,-8.3199 -10.40267,-10.0208 z" fill="#fac42d" />
      <path d="m 592.01119,2651.6519 6.27676,-5.8125 1.15294,0.8287 -4.49308,7.0646 z" fill="#ffff64" />
      <path d="m 595.09352,2644.6304 c 4.63055,1.2094 8.60091,5.0786 9.5838,9.6728 m -16.25855,-4.4531 c 5.05106,1.7009 9.26086,5.1402 10.40267,10.0208" style="fill:none;stroke-miterlimit:20;stroke-width:2;stroke:#a0833d" />
      <path d="m 623.62461,2652.0038 -28.24407,35.7989 m 19.28965,-58.3007 -36.32897,28.2597 m 45.85662,-22.0944 -30.23842,28.5632" style="fill:none;stroke-miterlimit:20;stroke-width:2;stroke:#6babda" />
    </g>
    <g>
      <path d="m 510.50334,2492.837 39.90603,21.7105 18.091,-32.273 -55.7263,-12.2685 z" fill="#ef7135" />
      <path d="m 459.76455,2487.4179 c 27.49339,-6.2425 63.26596,-2.2836 89.71346,14.8386 3.72141,-7.5338 7.2555,-13.4635 12.06871,-19.8989 4.39214,3.1456 8.14932,6.1979 11.27153,10.0444 -8.72388,10.5264 -13.40879,21.048 -16.38279,36.5094 -22.43058,-21.628 -51.6,-32.1236 -86.77152,-34.0902" fill="#fac42d" />
      <path d="m 532.76463,2493.6836 2.11249,18.9329 7.23856,4.5718 -2.79203,-20.785 z" fill="#ffff64" />
      <path d="m 459.76455,2487.4179 c 27.49339,-6.2425 63.26596,-2.2836 89.71346,14.8386 3.72141,-7.5338 7.2555,-13.4635 12.06871,-19.8989 4.39214,3.1456 8.14932,6.1979 11.27153,10.0444 -8.72388,10.5264 -13.40879,21.048 -16.38279,36.5094 -22.43058,-21.628 -51.6,-32.1236 -86.77152,-34.0902 z" fill="none" stroke="#a0833d" stroke-width="2" />
      <ellipse cx="-116.70921" cy="2572.2363" fill="#da2088" rx="11.101183" ry="16.324606" stroke="#ab1166" stroke-width="1.79765153" transform="rotate(344.99998)" />
      <ellipse cx="-1140.063" cy="2301.0608" fill="#ee8ac3" rx="2.6219132" ry="4.4636335" transform="rotate(321.15544)" />
    </g>
    <g id="g2491">
      <path d="m 546.85721,2481.566 c 20.70021,4.7351 34.55725,15.325 46.79303,35.2104 2.50808,-27.4927 -8.46883,-47.6161 -35.29703,-64.1555 8.85784,0.6277 17.71568,2.2282 26.57352,5.8603 -37.88116,-38.3176 -95.21921,-32.496 -133.24698,3.0267 l 11.80046,17.382 c 33.55613,11.1248 51.79358,26.9966 67.49663,53.2659 2.04369,-20.6945 -1.94233,-39.4389 -14.76289,-53.9087 z" fill="#ef7135" />
      <path d="m 463.2944,2451.9945 c -4.03061,2.881 -7.91406,6.0566 -11.61465,9.5134 l 11.80046,17.382 c 33.55613,11.1248 51.79358,26.9966 67.49663,53.2659 1.25858,-12.7444 0.23037,-24.7492 -3.73972,-35.4716 -18.08578,-23.2906 -39.29909,-36.5529 -63.94272,-44.6897 z" fill="#faf5ab" />
      <path d="m 586.87171,2480.3537 c -5.7955,-10.4352 -15.20528,-19.5253 -28.5185,-27.7328 8.85784,0.6277 17.71568,2.2282 26.57352,5.8603 -29.53761,-29.8779 -70.90504,-32.9191 -105.72333,-15.9686 37.48862,-1.9209 78.22371,10.0173 107.66831,37.8411 z" fill="#ec4141" />
      <path fill="#1b98d1" inkscape:original-d="m 546.85721,2481.566 c 20.70021,4.7351 34.55725,15.325 46.79303,35.2104 2.50808,-27.4927 -8.46883,-47.6161 -35.29703,-64.1555 8.85784,0.6277 17.71568,2.2282 26.57352,5.8603 -37.88116,-38.3176 -95.21921,-32.496 -133.24698,3.0267 l 11.80046,17.382 c 33.55613,11.1248 51.79358,26.9966 67.49663,53.2659 2.04369,-20.6945 -1.94233,-39.4389 -14.76289,-53.9087" inkscape:path-effect="#path-effect1313" />
      <path d="m 453.65272,2548.2458 c -41.14583,-46.1081 -14.20992,-95.2327 -8.5858,-96.0165 6.52031,-0.9086 32.40794,15.5557 35.55532,47.1503 z" fill="#9bdbf5" />
      <path fill="#6babda" inkscape:original-d="m 453.65272,2548.2458 c -41.14583,-46.1081 -14.20992,-95.2327 -8.5858,-96.0165 6.52031,-0.9086 32.40794,15.5557 35.55532,47.1503" inkscape:path-effect="#path-effect4765" />
      <path d="m 449.32299,2478.3055 c -1.78653,13.9439 -0.18175,28.0573 5.85768,41.9722 -8.61203,-11.1849 -11.10639,-27.6206 -5.85768,-41.9722 z" fill="#6babda" />
    </g>
    <path d="m 444.73914,2515.2658 c 10.46673,9.9786 11.00473,24.1826 -0.34721,26.0124 -10.64714,1.7162 -16.69088,-9.7403 -9.46527,-24.6394 -18.99429,12.1982 -8.70737,37.8582 11.36775,33.9098 20.07515,-3.9485 20.14245,-29.9732 -1.55527,-35.2828 z" fill="#fac42d" />
    <path d="m 452.25145,2534.2592 8.63602,3.3239 c -0.97522,3.3294 -2.64609,6.195 -4.8796,8.6855 l -5.39643,-8.3713 z" fill="#ffff64" />
    <path d="m 444.73914,2515.2658 c 10.46673,9.9786 11.00473,24.1826 -0.34721,26.0124 -10.64714,1.7162 -16.69088,-9.7403 -9.46527,-24.6394 -18.99429,12.1982 -8.70737,37.8582 11.36775,33.9098 20.07515,-3.9485 20.14245,-29.9732 -1.55527,-35.2828 z" style="fill:none;stroke-miterlimit:20;stroke-width:2;stroke:#a0833d" />
    <use clip-path="url(#clipPath1860)" xlink:href="#g2491" />
  </g>
</svg>