<svg xmlns="http://www.w3.org/2000/svg" xmlns:inkscape="http://www.inkscape.org/namespaces/inkscape" xmlns:xlink="http://www.w3.org/1999/xlink" height="700" viewBox="0 0 500 700" width="500">
  <defs>
    <inkscape:path-effect effect="powerstroke" end_linecap_type="zerowidth" id="path-effect1272" interpolator_type="CubicBezierSmooth" offset_points="0.15,2 | 3.86,2" start_linecap_type="zerowidth" />
    <inkscape:path-effect effect="powerstroke" id="path-effect1115" interpolator_type="CubicBezierSmooth" offset_points="0.53,2 | 2,2" start_linecap_type="zerowidth" />
    <inkscape:path-effect effect="powerstroke" id="path-effect1109" interpolator_type="CubicBezierSmooth" offset_points="0.57,2 | 3,2" start_linecap_type="zerowidth" />
    <inkscape:path-effect effect="powerstroke" end_linecap_type="zerowidth" id="path-effect312" interpolator_type="CubicBezierSmooth" offset_points="0.2,2 | 3.85,2" start_linecap_type="zerowidth" />
    <linearGradient id="linearGradient6715">
      <stop offset="0" stop-color="#20476b" />
      <stop offset="1" stop-color="#3977b8" />
    </linearGradient>
    <inkscape:path-effect effect="powerstroke" end_linecap_type="zerowidth" id="path-effect5958" interpolator_type="CubicBezierSmooth" offset_points="0.44,2 | 1.81,2" start_linecap_type="zerowidth" />
    <inkscape:path-effect effect="powerstroke" end_linecap_type="zerowidth" id="path-effect1079" interpolator_type="CubicBezierSmooth" offset_points="0.62,1.1008266 | 1.4,1.1008266" start_linecap_type="zerowidth" />
    <inkscape:path-effect effect="powerstroke" end_linecap_type="zerowidth" id="path-effect1076" interpolator_type="CubicBezierSmooth" offset_points="0.72,1.5 | 1.55,1.5" start_linecap_type="zerowidth" />
    <inkscape:path-effect effect="powerstroke" id="path-effect3267" offset_points="0,2 | 1,2 | 1.8,1" />
    <inkscape:path-effect effect="powerstroke" end_linecap_type="zerowidth" id="path-effect2116" interpolator_type="CubicBezierSmooth" offset_points="0.4,2 | 1.78,2" start_linecap_type="zerowidth" />
    <inkscape:path-effect effect="powerstroke" id="path-effect618" interpolator_type="CubicBezierSmooth" offset_points="0.3,2 | 6,2" start_linecap_type="zerowidth" />
    <inkscape:path-effect effect="powerstroke" end_linecap_type="zerowidth" id="path-effect493" interpolator_type="CubicBezierSmooth" offset_points="0.2,2 | 1.75,2" start_linecap_type="zerowidth" />
    <linearGradient gradientTransform="matrix(-0.77759538,-0.13321029,-0.13321029,0.77759538,920.54657,212.60659)" gradientUnits="userSpaceOnUse" id="linearGradient23672" x1="562.43719" x2="600.33844" y1="795.8847" y2="785.26398" xlink:href="#mane-3" />
    <linearGradient id="mane-3">
      <stop offset="0" stop-color="#4a1767" />
      <stop offset="1" stop-color="#794897" />
    </linearGradient>
    <linearGradient gradientTransform="matrix(-0.77759538,-0.13321029,-0.13321029,0.77759538,920.54657,212.60659)" gradientUnits="userSpaceOnUse" id="linearGradient23674" x1="566.09784" x2="541.94885" y1="675.03394" y2="763.54333" xlink:href="#mane-3" />
    <inkscape:path-effect effect="powerstroke" end_linecap_type="zerowidth" id="path-effect5954" interpolator_type="CubicBezierSmooth" offset_points="0.37,2 | 1.8,2" start_linecap_type="zerowidth" />
    <inkscape:path-effect effect="powerstroke" id="path-effect990-1" interpolator_type="CubicBezierSmooth" offset_points="0.08,2" start_linecap_type="zerowidth" />
    <clipPath id="clipPath6731">
      <use xlink:href="#path6051" />
    </clipPath>
    <clipPath id="clipPath7409">
      <use xlink:href="#path6753" />
    </clipPath>
    <clipPath id="clipPath7450">
      <use xlink:href="#path583" />
    </clipPath>
    <inkscape:path-effect effect="powerstroke" end_linecap_type="zerowidth" id="path-effect4322" interpolator_type="CubicBezierSmooth" offset_points="0.28,2 | 4.7,2" start_linecap_type="zerowidth" />
    <inkscape:path-effect effect="powerstroke" end_linecap_type="zerowidth" id="path-effect2268" interpolator_type="CubicBezierSmooth" offset_points="0.26,2 | 2.63,2" start_linecap_type="zerowidth" />
    <linearGradient gradientTransform="matrix(-0.77759538,-0.13321029,-0.13321029,0.77759538,920.54657,212.60659)" gradientUnits="userSpaceOnUse" id="linearGradient400" x1="340.30005" x2="355.0379" y1="893.22186" y2="900.18988" xlink:href="#mane-3" />
    <linearGradient gradientTransform="matrix(-0.77759538,-0.13321029,-0.13321029,0.77759538,920.54657,212.60659)" gradientUnits="userSpaceOnUse" id="linearGradient4867" x1="382.76572" x2="309.14838" y1="899.26459" y2="858.05432" xlink:href="#mane-3" />
    <linearGradient gradientUnits="userSpaceOnUse" id="linearGradient1042" x1="-522.94257" x2="-569.32788" y1="715.18329" y2="715.78113" xlink:href="#linearGradient6715" />
    <linearGradient gradientUnits="userSpaceOnUse" id="linearGradient1044" x1="-662.77991" x2="-705.31946" y1="503.54581" y2="503.97781" xlink:href="#linearGradient6715" />
    <clipPath id="M2-3">
      <path d="m -3.3,-2.1 -10.6,-20.1 9.7,-24.1 10.4,20.7 z M 14.1,29.5 3.5,9.4 13.2,-14.7 23.6,6 Z M -13.1,46.3 -23.7,26.2 -14,2.1 -3.6,22.8 Z" />
    </clipPath>
    <clipPath id="clipPath995">
      <use xlink:href="#path465" />
    </clipPath>
    <filter color-interpolation-filters="sRGB" height="1.056824" id="filter1111" width="1.098236" x="-0.04911799" y="-0.028411983">
      <feGaussianBlur stdDeviation="0.8905194" />
    </filter>
    <clipPath id="clipPath1160">
      <use xlink:href="#path467" />
    </clipPath>
    <filter color-interpolation-filters="sRGB" height="1.030917" id="filter2551" width="1.0430832" x="-0.021541611" y="-0.015458501">
      <feGaussianBlur stdDeviation="0.46274216" />
    </filter>
    <clipPath id="clipPath2570">
      <use xlink:href="#path1132" />
    </clipPath>
    <filter color-interpolation-filters="sRGB" height="1.1645226" id="filter2694" width="1.1716276" x="-0.085813803" y="-0.082261285">
      <feGaussianBlur stdDeviation="0.49967732" />
    </filter>
  </defs>
  <path d="m 223.7349,598.48704 c -2.83093,37.28798 -1.9997,60.64606 10.09984,73.28587 20.56115,21.47927 15.95344,49.49784 -14.91808,49.49784 -30.8715,0 -35.47921,-28.01857 -14.91806,-49.49784 12.09954,-12.63981 12.93076,-35.99789 10.09983,-73.28587 z" fill="#2d1f83" id="path4750" opacity=".5" />
  <path d="m 298.05172,598.48704 c -2.83092,37.28798 -1.9997,60.64606 10.09985,73.28587 20.56115,21.47927 15.95344,49.49784 -14.91808,49.49784 -30.87151,0 -35.47921,-28.01857 -14.91806,-49.49784 12.09954,-12.63981 12.93075,-35.99789 10.09983,-73.28587 z" fill="#dd2673" id="path4808" opacity=".5" />
  <path d="m 178.12229,316.72352 c 1.19137,10.38828 4.14778,19.10283 9.98903,25.53376 17.01537,18.73311 -13.62665,72.42343 -29.53572,55.15338 -30.74348,-33.37349 -9.43106,-105.94095 6.70413,-110.09329 12.89672,-3.31893 28.46686,6.55791 33.87963,19.85465 z" fill="#dfe4e3" stroke="#bdc1c2" stroke-width="4" />
  <g transform="translate(-310.83662-565.74772)">
    <path d="m 640.19243,794.4255 c 39.59103,91.35678 114.25162,59.27302 117.97483,20.94114 2.17373,-22.37945 -27.02396,-32.07364 -36.73304,-5.64769 11.30522,-9.20624 21.8882,-6.8664 20.99573,3.74038 -1.5301,18.18441 -41.20114,34.05492 -46.218,2.19765 -7.7102,-48.96012 101.41758,-105.01481 72.37414,-183.83304 -1.66809,-4.52691 -3.89068,-8.76268 -6.59416,-12.69966 l -132.31334,30.47635 z" fill="#f3b5cf" />
    <path fill="#e581b1" inkscape:original-d="m 750.93853,657.44027 c 0.89386,4.7348 0.98619,10.13244 0.13028,16.06599 -10.12077,70.16195 -110.84783,100.82897 -66.66333,174.12816" inkscape:path-effect="#path-effect3267" />
    <path d="m 697.97533,798.0203 c -7.34401,21.07975 -3.54799,40.67026 9.82869,55.91574" fill="none" stroke="#e581b1" stroke-width="2" />
    <path d="m 640.19243,794.4255 c 39.59103,91.35678 114.25162,59.27302 117.97483,20.94114 2.17373,-22.37945 -27.02396,-32.07364 -36.73304,-5.64769 11.30522,-9.20624 21.8882,-6.8664 20.99573,3.74038 -1.5301,18.18441 -41.20114,34.05492 -46.218,2.19765 -7.7102,-48.96012 101.41758,-105.01481 72.37414,-183.83304 -1.66809,-4.52691 -3.89068,-8.76268 -6.59416,-12.69966" fill="none" stroke="#e581b1" stroke-width="4" />
  </g>
  <path d="m 299.98967,275.96174 c 6.00714,29.71554 17.78658,46.79404 20.85361,59.03418 2.73135,10.90045 -9.30976,20.61147 -14.09296,31.10066 -8.9325,19.58834 17.13112,64.34566 35.47396,47.09623 24.74063,-23.26591 23.89665,-66.21128 18.6121,-85.23049 -6.5007,-23.39617 -24.42674,-31.94057 -35.47308,-61.54482 z" fill="#f3e488" stroke="#e9d461" stroke-width="4" />
  <g transform="translate(-310.83662-565.74772)">
    <path d="m 493.26076,617.03226 c 11.97762,2.19297 21.25251,33.56575 14.25413,65.07571 m 0,0 c -17.79321,-30.66441 -21.76381,-65.62123 -14.25413,-65.07571 49.55295,3.59961 86.6096,56.10791 89.01261,130.01946 1.38378,42.56393 -26.44102,89.18284 -52.28889,107.78018 z" fill="#5e50a0" />
    <path d="m 507.51489,682.10797 c -17.79321,-30.66441 -21.76381,-65.62123 -14.25413,-65.07571 11.97762,2.19297 21.25251,33.56575 14.25413,65.07571" fill="#4a1767" />
    <path d="m 493.26076,617.03226 c 11.97762,2.19297 21.25251,33.56575 14.25413,65.07571 m 0,0 c -17.79321,-30.66441 -21.76381,-65.62123 -14.25413,-65.07571 49.55295,3.59961 86.6096,56.10791 89.01261,130.01946 1.38378,42.56393 -26.44102,89.18284 -52.28889,107.78018 z" fill="none" stroke="#4a1767" stroke-width="4" />
    <path d="m 519.68108,623.81407 c 1.77142,16.88591 0.44632,33.02591 -4.23189,49.87714 m 11.00127,-46.28666 c 2.5961,15.2291 1.32172,32.35228 -3.63896,49.77335 m 46.52877,126.81309 c 5.93787,-30.67537 4.92171,-61.62938 -5.60554,-85.76037" fill="none" stroke="#4a1767" stroke-width="2" />
    <path d="m 504.04301,673.78158 c -4.77748,-32.11362 -15.71569,-56.15148 -24.3685,-59.24707 -64.50809,-23.07832 -117.8331,9.94383 -126.99107,65.6068 16.69887,-28.46507 60.73864,-39.28622 104.5231,-0.74728 z" fill="#5e50a0" />
    <path d="m 375.77073,727.42173 c 10.90576,10.89518 13.88559,25.235 2.27068,35.74783 -39.34521,6.32282 -45.5947,-23.94351 -28.30259,-30.42736 9.73287,-3.64939 16.992,1.83602 26.03191,-5.32047 z" fill="url(#linearGradient23672)" />
    <path d="m 349.73882,732.7422 c 10.47908,-3.88759 15.17908,2.17678 26.20137,-5.26293 4.02185,4.44293 7.58893,9.24941 9.16081,15.65133 -3.2303,4.04755 -6.74322,6.8619 -10.21947,8.32577 -5.25511,-10.74719 -19.51277,-12.46038 -25.14271,-18.71417" fill="#5e50a0" />
    <path d="m 367.73609,720.96527 c -15.77292,-10.2395 -17.88872,-23.58617 -15.05265,-40.82396 16.69887,-28.46507 60.73864,-39.28622 104.5231,-0.74728 -57.93533,4.02875 -35.83797,76.8129 -79.16513,83.77553 14.10315,-12.76502 6.6886,-31.17218 -10.30532,-42.20429 z" fill="url(#linearGradient23674)" />
    <path d="m 354.70234,746.12179 c 3.26651,-1.1643 6.57468,-2.82172 9.75527,-4.66602 4.26787,2.39772 8.23441,5.33589 10.57451,9.9354 -6.83819,3.03759 -14.05605,1.41047 -20.32978,-5.26938 z" fill="#4a1767" />
    <path d="m 349.73882,732.7422 c 5.62994,6.25379 19.8876,7.96698 25.27328,18.65273 m 10.0889,-8.26433 c -9.29161,11.64261 -20.92217,13.08109 -30.39866,2.99119 3.26651,-1.1643 6.57468,-2.82172 9.70142,-4.71036 m -11.72032,-61.27012 c 16.69887,-28.46507 60.73864,-39.28622 104.5231,-0.74728 -57.93533,4.02875 -35.83797,76.8129 -79.16513,83.77553 -39.34521,6.32282 -45.61725,-24.00396 -28.30259,-30.42736 10.47908,-3.88759 15.17908,2.17678 26.20137,-5.26293 m 128.10282,-53.69769 c -4.88864,-32.18903 -15.65248,-56.12885 -24.3685,-59.24707 -64.50809,-23.07832 -117.8331,9.94383 -126.99107,65.6068 -2.83607,17.23779 -0.72027,30.58446 15.05265,40.82396 16.99392,11.03211 24.40847,29.43927 10.30532,42.20429" fill="none" stroke="#4a1767" stroke-width="4" />
    <path d="m 365.081,645.93529 c 36.18003,-7.67484 69.26594,4.22721 108.30774,31.81896 m 10.23811,-1.18363 C 455.38211,640.8521 418.84888,629.56883 377.26191,630.85126 m 124.87083,42.96661 c -14.40096,-28.80829 -33.54788,-49.75754 -61.12912,-67.00401 m -84.76514,67.92504 c 21.41974,18.52177 50.99571,51.57898 30.62658,85.98461 m -2.84988,-104.49049 c -4.45398,24.50513 7.09872,50.35453 28.9918,63.62579 m -17.25905,-65.6997 c -1.04255,18.99878 8.08596,39.15925 23.7096,49.72601" fill="none" stroke="#4a1767" stroke-width="2" />
  </g>
  <g clip-path="url(#clipPath1160)">
    <path d="m 215.44712,601.81658 c -2.43961,-30.20756 13.99046,-57.4066 38.00035,-64.5869 21.00796,-6.2825 22.97327,-23.708 7.60655,-30.3437 -53.22353,-22.983 -64.10284,70.1429 -7.1514,55.0694 16.85855,-4.462 -2.6693,-14.6994 3.08137,-43.7236 8.99467,-45.397 54.45901,-78.824 115.50714,-53.3703 34.33103,14.3142 68.80607,-36.75166 -33.79522,-53.19498 C 244.10066,396.50626 190.38703,329.06136 186.20128,237.97386 L 105.8835,196.06995 C 85.6366,73.79314 250.82688,60.53229 247.20902,181.52589 c -1.98885,66.5142 26.44857,142.65519 112.91883,174.15532 144.16701,52.5184 84.71097,173.55317 4.24732,129.41307 -51.56919,-28.2894 -91.54846,-0.765 -99.87075,33.9322 -7.08339,29.532 20.85921,43.8848 -4.10518,49.7523 -79.34119,18.6481 -59.13515,-103.7371 3.38255,-67.5433 27.7837,16.085 24.33397,31.8489 -9.14334,43.1311 -20.05932,6.7602 -32.29696,32.79155 -32.57982,57.77618 -0.17199,15.19103 -3.9733,46.16045 4.68521,62.38058 5.79338,10.85284 12.73613,11.58475 16.71846,25.08985 9.98698,33.86836 -37.18131,37.90312 -48.2592,19.30192 -5.82234,-9.77647 0.7991,-27.26202 7.73654,-33.84063 10.25305,-9.72272 16.25772,-26.82199 12.50748,-73.2579 z" fill="#eaeef0" id="path467" />
    <path d="m 258.17906,509.99152 c 1.03514,-3.67834 2.81677,-8.61484 4.9636,-12.2874 l 8.67694,5.5058 c -1.88992,3.31252 -3.63899,6.82086 -5.05449,10.79336 z m -33.09017,46.88356 c 2.99232,2.58615 6.2282,4.43649 10.0525,5.19229 l -3.32467,7.4795 c -4.36679,-1.24414 -7.99738,-3.23062 -11.55228,-5.94396 z" fill="#dfe4e3" filter="url(#filter2551)" />
  </g>
  <path fill="#bdc1c2" inkscape:original-d="M 338.69591,411.6665 C 244.10066,396.50626 190.38703,329.06136 186.20128,237.97386 L 105.8835,196.06995 C 85.6366,73.79314 250.82688,60.53229 247.20902,181.52589 c -1.98885,66.5142 26.14801,143.49283 112.91883,174.15532" inkscape:path-effect="#path-effect1272" />
  <g transform="translate(-310.83662-565.74772)">
    <path d="m 546.91034,867.04316 c 13.93612,24.24583 -6.92437,41.22024 -20.94366,34.98803 -13.28467,-5.90563 -20.875,-9.59644 -34.35997,-11.27207 0.71426,-23.82892 29.22376,-11.70666 35.03148,-30.10901" fill="#eaeef0" />
    <path fill="#bdc1c2" inkscape:original-d="m 546.91034,867.04316 c 13.93612,24.24583 -6.92437,41.22024 -20.94366,34.98803 -13.28467,-5.90563 -20.875,-9.59644 -34.35997,-11.27207 0.71426,-23.82892 29.22376,-11.70666 35.03148,-30.10901" inkscape:path-effect="#path-effect2268" />
    <path d="m 525.13885,875.13511 c -5.90798,-13.08423 -21.83784,-22.36976 -34.60091,-18.56915 -1.85415,0.55213 -3.74343,2.02868 -5.58463,4.25792 l 6.40483,27.53891 z" fill="#eaeef0" />
    <path fill="#bdc1c2" inkscape:original-d="m 525.13885,875.13511 c -5.90798,-13.08423 -21.83784,-22.36976 -34.60091,-18.56915 -1.85415,0.55213 -3.74343,2.02868 -5.58463,4.25792" inkscape:path-effect="#path-effect1115" />
  </g>
  <g transform="translate(-310.83662-565.74772)">
    <path d="m 531.10489,687.92939 c 6.77399,-21.76328 25.45134,-39.89948 33.43841,-38.61389 9.39962,1.51312 32.51346,56.12317 -11.38508,96.20078 z" fill="#eaeef0" />
    <path fill="#bdc1c2" inkscape:original-d="m 531.10489,687.92939 c 6.77399,-21.76328 25.45141,-39.89948 33.43841,-38.61389 9.39962,1.51304 32.51346,56.12317 -11.38508,96.20078" inkscape:path-effect="#path-effect5954" />
    <path d="m 560.82624,676.38812 c 1.32272,16.43858 -0.96031,27.75791 -7.87553,40.95338 9.89704,-11.4644 12.41037,-25.52061 7.87553,-40.95338 z" fill="#bdc1c2" />
  </g>
  <g transform="translate(-310.83662-565.74772)">
    <path d="M 451.4537,694.46249 C 409.98664,614.70504 421.36121,605.47527 476.30006,677.3927 Z" fill="#eaeef0" />
    <path fill="#bdc1c2" inkscape:original-d="M 451.4537,694.46249 C 409.98664,614.70504 421.36121,605.47527 476.30006,677.3927" inkscape:path-effect="#path-effect990-1" />
    <path d="m 473.4448,674.7907 c 0.0906,3.72227 -0.66541,7.00304 -2.91338,10.77618 3.45746,-2.55752 5.86575,-5.66967 7.358,-9.38834 z" fill="#bdc1c2" />
    <path d="m 431.29548,651.45391 c 7.47374,1.55024 11.69253,-3.30606 9.5028,-15.82794 m -2.42376,32.07957 c 9.62571,0.95941 14.75588,-6.33205 13.7884,-20.40383 m -6.63266,35.92827 c 13.50294,-0.19427 18.91503,-7.87987 17.65302,-23.09117" fill="none" stroke="#bdc1c2" stroke-width="2" />
  </g>
  <g transform="translate(-310.83662-565.74772)">
    <g transform="rotate(-6.4541968 582.27337 747.05172)">
      <path d="m 493.17277,864.4599 c -2.9228,-16.39677 15.67374,-32.89795 39.27432,-43.20841 28.46484,-12.43553 45.82814,-34.2268 49.82628,-74.19977 1.59897,49.18111 -5.3454,79.77915 -28.96103,111.77648 -20.38984,49.36054 -56.29115,27.22114 -60.13957,5.6317 z" fill="url(#linearGradient4867)" />
      <path d="m 524.0822,873.07933 c -1.47308,-4.79835 -3.38964,-10.60021 -4.78984,-14.98974 -5.76334,-18.06801 27.17818,-28.17686 31.25457,-13.96998 -2.05219,16.09336 -13.20751,26.53132 -26.46473,28.95972 z" fill="#5e50a0" />
      <path d="m 524.24414,873.05854 c 4.16132,-0.86933 8.11512,-2.30481 11.728,-4.67077 l 0.65629,-16.30617 c -4.31559,5.47236 -10.00682,8.17802 -17.33607,6.00799 1.4002,4.38953 3.31676,10.19139 4.95178,14.96895 z" fill="url(#linearGradient400)" />
      <path d="m 526.89418,848.47953 3.89557,8.74563 c 2.10942,-1.15762 4.08736,-2.92283 5.83868,-5.14356 0.21196,-5.26647 -4.3429,-6.74737 -9.73425,-3.60207 z" fill="#4a1767" />
      <path d="m 493.17277,864.4599 c 3.84839,21.58944 4.77702,36.08744 2.14318,58.47049 18.06654,9.88791 38.64235,7.99966 53.28864,-4.15471 4.51313,-29.3802 7.1268,-56.587 1.94234,-74.65607 -3.57122,28.00677 -34.71218,38.88576 -57.37416,20.34029 z" fill="#5e50a0" />
      <path d="m 550.54693,844.11961 c -3.57122,28.00677 -34.71218,38.88576 -57.37416,20.34029 m 43.45566,-12.3783 c -4.31559,5.47236 -10.00682,8.17802 -17.33607,6.00799 m 4.95178,14.96895 c -1.63502,-4.77756 -3.55158,-10.57942 -4.95178,-14.96895 -5.76334,-18.06801 27.17818,-28.17686 31.25457,-13.96998 5.18446,18.06907 2.57079,45.27587 -1.94234,74.65607 -14.64629,12.15444 -35.2221,14.04262 -53.28864,4.15471 2.63384,-22.38305 1.70521,-36.88105 -2.14318,-58.47049 -2.92283,-16.39677 15.67374,-32.89795 39.27432,-43.20841 28.46484,-12.43553 45.82814,-34.2268 49.82628,-74.19977 1.59897,49.18111 -5.3454,79.77915 -28.96103,111.77648 m -17.3402,9.55957 0.65629,-16.30617 c 0.21196,-5.26647 -4.3429,-6.74737 -9.73425,-3.60207 l 4.00811,8.73474" fill="none" stroke="#4a1767" stroke-width="4" />
      <path d="m 575.09809,817.15592 c -43.88595,2.95145 -70.49475,27.67015 -78.20282,50.27046 m 53.85258,40.03886 c -18.35384,17.27309 -32.66252,16.82392 -54.45041,4.87906 m 57.02027,-29.37897 c -12.89934,19.50149 -29.83964,30.90168 -56.74241,25.01413 m 57.10474,-45.01235 c -11.09226,22.62815 -36.29365,32.12144 -58.02317,18.38491" fill="none" stroke="#4a1767" stroke-width="2" />
    </g>
  </g>
  <g clip-path="url(#clipPath995)">
    <path d="m 290.26089,601.17813 c -2.23004,-40.35013 -76.26131,-57.91275 -61.90154,-99.78845 11.09606,-32.3582 83.52906,-15.0512 72.85768,31.5393 -7.61382,33.2414 -77.92495,30.3208 -78.45988,8.6381 -0.37459,-15.1835 23.56391,-26.6504 23.0986,-42.3656 -0.78024,-26.3513 -35.10558,-35.775 -80.83232,-4.1106 -76.28415,52.8245 -160.35295,-60.3883 -3.53447,-145.4991 83.79288,-45.47731 106.6855,-108.51449 99.8668,-222.06726 C 254.62487,15.43417 430.4316,27.71711 399.86211,157.8585 l -70.80618,35.54123 c 21.30508,77.38914 -17.58129,166.5606 -117.1881,199.84425 -137.01532,45.7837 -108.13578,111.2264 -55.82396,82.3584 51.12715,-28.2142 96.21122,-12.8484 98.39097,22.9845 1.32856,21.8402 -27.30206,32.2129 -20.26562,45.5205 6.72759,12.7234 52.18266,11.8566 56.91557,-13.2091 6.24303,-33.0633 -43.28242,-52.8295 -53.55044,-26.7177 -12.35514,31.4194 58.67504,57.30609 58.67504,97.35852 0,23.8 -4.44427,56.14801 11.03329,71.62558 23.2673,23.26729 9.30725,48.68973 -15.56147,46.53371 -34.10861,-2.95708 -26.47939,-33.93199 -9.35599,-50.43777 9.46818,-9.12667 9.27525,-43.84433 7.93567,-68.08249 z" fill="#faf5ab" id="path465" />
    <path d="m 250.50812,550.89442 10.00258,8.41508 11.17621,-1.89598 -7.81508,-7.39811 z m -22.33371,-24.4127 9.12357,-10.82891 4.94548,10.14677 c -3.09274,3.24103 -5.51921,6.5931 -7.2477,10.06151 z m 15.57408,-29.66324 c 3.30244,-2.4705 7.76308,-3.6912 11.60476,-3.7919 l -2.99632,-8.9405 c -4.0625,0.4375 -7.1547,1.2445 -11.2797,3.1195 z" fill="#f3e488" filter="url(#filter1111)" />
  </g>
  <path d="m 228.35935,501.38968 c 4.62682,-13.49267 19.91834,-18.35 35.40253,-16.04968 l -1.67106,7.33992 c -10.40402,-1.94322 -20.51744,1.22932 -24.55647,11.50066 z m 20.32257,15.07744 c -7.56431,10.88229 -19.30268,18.58125 -14.5127,27.64026 l -11.41207,-2.5403 c -0.28341,-11.48782 13.35099,-20.84809 19.80352,-31.5305 z m 5.75176,25.61424 c 7.60815,7.57667 16.40351,15.32248 23.95579,23.54743 l -6.20299,3.11917 c -8.92116,-8.73622 -19.62119,-16.81399 -28.42149,-25.31492 z" fill="#faf5ab" />
  <path fill="#e9d461" inkscape:original-d="M 161.48896,349.59178 C 244.65107,302.97101 268.17446,241.07729 261.35576,127.52452 254.62487,15.43417 430.4316,27.71711 399.86211,157.8585 l -70.80618,35.54123 c 21.30508,77.38914 -17.58128,166.56062 -117.1881,199.84425" inkscape:path-effect="#path-effect312" />
  <g transform="translate(-310.83662-565.74772)">
    <path d="m 427.86278,698.16067 c 14.75323,-3.89496 22.25923,17.7735 1.19514,57.15806 z m 26.16731,72.63962 c 2.67957,-41.53579 28.90986,-65.73453 74.17016,-49.57979 -41.94623,-22.82968 -71.84103,-11.93811 -74.17016,49.57979 z" fill="#b8e1f0" />
    <path d="m 419.45891,750.74377 c -4.70253,-1.21255 -9.57929,-0.66565 -13.82568,2.56626 3.28938,-4.52663 7.44156,-6.60813 12.79678,-6.20208 z m -0.49013,-8.52945 c -5.85502,-2.3668 -9.71668,-2.68171 -15.12162,-0.35411 4.55064,-4.16914 9.06484,-4.87254 14.49294,-3.3944 z m 0.38649,-8.55047 c -5.25005,-3.51054 -9.72367,-4.74281 -15.43822,-4.0559 5.68134,-2.59035 10.16738,-2.31648 15.49422,0.16931 z m 1.40595,-8.69806 c -4.0197,-4.43381 -8.65764,-6.57875 -14.49831,-7.20512 5.96012,-1.30761 11.13368,-0.41181 15.57209,3.30402 z m 82.82688,44.76848 c 6.07097,2.01192 10.5485,5.39097 13.17598,11.37096 -0.83466,-6.79777 -4.29802,-11.08336 -10.27149,-13.82714 z m 7.24708,-7.26573 c 7.67232,0.94152 12.28456,3.07856 16.68898,8.77808 -2.39695,-7.16377 -6.8405,-10.2932 -13.52826,-11.93274 z m 6.69006,-9.18398 c 7.71228,-0.52695 13.29305,1.26718 18.94048,5.47889 -4.45222,-6.21197 -9.38114,-8.65503 -16.55036,-9.26269 z m 4.25061,-9.99439 c 6.93447,-2.36051 13.17237,-1.90391 19.79623,0.89219 -5.60393,-4.9372 -11.84659,-6.51522 -18.80308,-5.17187 z" />
    <g clip-path="url(#clipPath7450)">
      <path d="m 429.05792,755.31873 c 20.54995,-42.99798 2.43185,-72.28044 -7.66373,-48.12291 -6.5621,15.70228 -8.05136,34.57586 -4.25874,55.99928 4.7455,-1.302 8.89032,-3.97397 11.92247,-7.87637 z m 24.97217,15.48156 c 2.67957,-41.53579 28.90986,-65.73453 74.17016,-49.57979 -1.99275,49.71972 -36.80972,71.56347 -74.17016,49.57979 z" fill="#fff" id="path583" />
      <g clip-path="url(#clipPath6731)">
        <ellipse cx="-545.38641" cy="722.36957" fill="url(#linearGradient1042)" id="path6051" rx="30.325325" ry="21.472376" transform="rotate(-71.005657)" />
        <path d="m 480.75826,778.0506 29.25446,-23.29994 -37.39865,3.17622 z" fill="#76ade5" />
        <path d="m 473.19733,747.00945 36.81539,7.74121 -36.1548,9.43552 z" fill="#5693cf" />
        <ellipse cx="-560.15076" cy="712.70258" rx="24.423092" ry="17.293194" transform="rotate(-72.162602)" />
        <ellipse cx="-327.4375" cy="829.37067" fill="#fff" rx="11.554139" ry="7.1033854" transform="rotate(-55.668238)" />
        <ellipse cx="-299.83322" cy="855.48492" fill="#fff" rx="3.7900569" ry="2.6060781" transform="rotate(-52.978748)" />
      </g>
      <g clip-path="url(#clipPath7409)">
        <ellipse cx="-683.98987" cy="507.75586" fill="url(#linearGradient1044)" id="path6753" rx="27.356396" ry="9.3793077" transform="rotate(-83.666762)" />
        <path d="m 416.58058,764.03521 15.34463,-23.25231 -16.62262,5.92844 z" fill="#76ade5" />
        <path d="m 414.02958,738.89864 17.89563,1.88426 -17.07862,10.55963 z" fill="#5693cf" />
        <ellipse cx="-684.18848" cy="508.29187" rx="22.171101" ry="7.6015034" transform="rotate(-83.666767)" />
        <ellipse cx="-560.87347" cy="625.46509" fill="#fff" rx="9.8809509" ry="3.0261829" transform="rotate(-72.43813)" />
        <ellipse cx="-579.61627" cy="624.94916" fill="#fff" rx="3.2535491" ry="1.1110402" transform="rotate(-72.98358)" />
      </g>
    </g>
    <path d="m 427.70559,699.33955 c -3.98103,-2.72767 -6.24442,-6.0129 -5.49262,-10.87592 1.26457,4.34665 4.22261,7.42007 8.23824,9.15789 m -6.68339,4.46879 c -4.54626,-1.61876 -7.57458,-4.21571 -8.09148,-9.10934 2.33412,3.87862 5.97983,6.09322 10.30639,6.74614 m -4.02729,6.05524 c -4.82513,0.0874 -8.5744,-1.27576 -10.78279,-5.6732 3.55135,2.80714 7.74366,3.59485 12.02265,2.6811 m 13.17545,8.24952 c -2.11043,-11.3359 -9.0854,-16.53486 -14.97656,-3.84395 2.06401,-14.4183 14.5076,-14.25221 17.94795,2.79694 2.19918,10.89825 -1.49993,32.51323 -10.28422,45.32597 6.82791,-16.64096 9.54476,-32.29045 7.31283,-44.27896 z m 91.82121,7.8262 c 10.1146,3.14477 14.35371,3.5789 22.14493,2.04268 -7.84723,5.00249 -14.83586,4.97273 -23.65107,2.17694 -36.53921,-11.58868 -65.68536,-3.14001 -72.65573,47.7147 0.95111,-49.54742 31.0713,-65.33162 74.16187,-51.93432 z m -5.25097,0.3588 c 7.65329,-1.51289 14.15509,-4.45022 19.73854,-8.85879 -3.05378,5.55936 -7.2167,9.42778 -13.16792,11.43939 m -18.7704,-5.03264 c 7.78178,-2.99893 13.77596,-7.36039 18.54877,-13.2599 -1.76751,6.2791 -5.51487,11.64951 -11.39037,15.18652 m -16.39977,-3.07611 c 5.94401,-3.93677 9.84097,-8.90228 13.47724,-14.8815 -1.11052,6.401 -3.32573,11.73827 -7.26986,15.91569 m -16.656,-0.84094 c 4.27409,-4.29012 7.50516,-9.51424 9.66736,-15.62825 0.22347,6.2208 -0.86526,11.19191 -3.77498,16.25592" />
    <path d="m 429.05792,755.31873 c -9,10.75 -25.16994,4.10271 -22.55792,17.75449 5.54657,28.98932 49.45592,47.89491 104.25,28.17678 -34.18143,-11.2737 -61.4186,-25.11871 -81.69208,-45.93127 z" fill="#eaeef0" />
    <path fill="#bdc1c2" inkscape:original-d="m 429.05792,755.31873 c -9,10.75 -25.16994,4.10271 -22.55792,17.75449 5.54657,28.98932 49.45592,47.89491 104.25,28.17678" inkscape:path-effect="#path-effect5958" />
    <path d="m 414.21801,788.79019 c 11.0848,0.25728 17.11684,-2.78088 21.24607,-11.09879 -1.39961,10.27897 -9.00513,14.08617 -18.68744,14.39667 m 3.69917,-21.51339 c -0.98237,2.95315 -3.15126,3.43245 -5.21606,1.3074 1.32464,4.678 5.97819,3.64695 5.21606,-1.3074 z" fill="#bdc1c2" />
    <path d="m 413.64776,801.46325 c 11.16959,-0.117 37.72988,19.19951 97.78518,11.14718 11.20492,-13.9783 13.39258,-25.93507 26.12639,-43.24706 -78.29697,25.01433 -100.07238,-11.81311 -125.87268,-8.31435 -12.45208,1.68862 -10.21887,14.28643 1.96111,40.41423 z" fill="#4a1767" opacity=".5" />
  </g>
  <g transform="translate(-310.83662-565.74772)">
    <path d="m 607.40567,834.32393 c 1.18327,30.29355 10.08336,49.03439 11.15577,61.60728 0.95505,11.19678 -12.48268,18.85967 -18.87999,28.4501 -11.94683,17.90994 6.63262,66.25593 27.49533,52.15806 28.13942,-19.0151 34.16634,-61.54384 31.98776,-81.16298 -2.67995,-24.13416 -19.01092,-35.43234 -25.18646,-66.42098 z" fill="#faf5ab" />
    <path fill="#e9d461" inkscape:original-d="m 607.40567,834.32393 c 1.18327,30.29355 10.08336,49.03439 11.15577,61.60728 0.95505,11.19678 -12.48268,18.85967 -18.87999,28.4501 -11.94683,17.90994 6.63262,66.25593 27.49533,52.15806 28.13942,-19.0151 34.16634,-61.54384 31.98776,-81.16298 -2.67995,-24.13416 -19.01092,-35.43234 -25.18646,-66.42098" inkscape:path-effect="#path-effect4322" />
    <path d="m 616.47851,901.3805 c 10.43531,18.25576 21.75917,31.68414 37.3359,41.10858 -2.26005,6.44901 -5.23899,12.32968 -9.19907,18.13532 -16.01711,-10.62862 -28.93572,-25.22197 -39.58494,-44.68952 4.00257,-4.62994 9.5253,-9.29791 11.44811,-14.55438 z" fill="#fac42d" />
    <path d="m 624.36256,913.89765 -12.0979,14.14001 6.20992,8.62138 9.16081,-18.40909 z" fill="#ffff64" />
    <path d="m 616.47851,901.3805 c 10.43531,18.25576 21.75917,31.68414 37.3359,41.10858 -2.26005,6.44901 -5.23899,12.32968 -9.19907,18.13532 -16.01711,-10.62862 -28.93572,-25.22197 -39.58494,-44.68952 4.00257,-4.62994 9.5253,-9.29791 11.44811,-14.55438 z" fill="none" stroke="#a0833d" stroke-width="2" />
  </g>
  <g transform="translate(-310.83662-565.74772)">
    <path d="m 560.29331,833.67489 c 23.14698,-20.94218 65.56871,6.39919 40.35461,38.29834 -22.35048,28.27584 -66.41099,33.44877 -72.79702,26.59338 -7.54149,-8.09613 5.28586,-31.1732 24.26611,-51.14287 z" fill="#faf5ab" />
    <path fill="#e9d461" inkscape:original-d="m 560.29331,833.67489 c 23.14698,-20.94218 65.56871,6.39919 40.35461,38.29834 -22.35048,28.27584 -66.41099,33.44877 -72.79702,26.59338 -7.54149,-8.09613 5.28586,-31.1732 24.26611,-51.14287 0.3636,5.55925 2.30584,9.58687 7.06555,13.53836 -4.97749,9.72615 3.3335,22.04739 17.46604,15.92128 6.75965,3.63764 17.14706,1.22049 23.99932,-4.91015" inkscape:path-effect="#path-effect618" />
    <path d="m 545.00897,901.2234 36.80913,-22.92896 m -56.57803,11.55366 30.8267,-31.6498 m -26.30229,41.59704 30.34062,-25.73227" fill="none" stroke="#e9d461" stroke-width="2" />
  </g>
  <g transform="translate(-310.83662-565.74772)">
    <path d="M 768.58609,631.82394 C 746.14655,570.92738 623.36801,562.71172 579.36793,625.89325 l 10.943,9.62576 c 35.35067,-12.62604 72.35075,1.27305 94.46578,28.95826 35.24979,-46.39933 72.02241,-30.69618 66.2921,9.02899 11.05123,-11.51601 0.78362,-49.99841 17.51728,-41.68232 z" fill="#f3b5cf" />
    <path d="m 759.33173,614.91743 c -44.89873,-3.82507 -75.60986,7.75399 -96.90394,29.50335 m 65.85073,-52.04643 c -35.67705,7.53723 -61.55538,23.82864 -77.49206,45.07406 m 9.70569,-54.44512 c -12.17954,16.05955 -18.33461,31.62625 -19.63487,50.90797 m -2.1535,-47.31432 c -5.30924,13.17477 -7.30087,27.85897 -5.14979,45.92514" fill="none" stroke="#e581b1" stroke-width="2" />
    <path d="M 768.58609,631.82394 C 746.14655,570.92738 623.36801,562.71172 579.36793,625.89325 l 10.943,9.62576 c 35.35067,-12.62604 72.35075,1.27305 94.46578,28.95826 35.24979,-46.39933 72.02241,-30.69618 66.2921,9.02899" fill="none" stroke="#e581b1" stroke-width="4" />
    <path d="m 577.90349,682.4273 c -16.17812,78.60419 111.57914,138.51317 49.49212,212.92429 -39.96977,47.90384 -85.2689,32.37614 -86.12852,-2.5546 -0.61153,-24.84852 27.66507,-18.66536 20.32528,-5.72104 -7.67328,-10.27354 -20.30351,-0.0218 -4.69461,14.83576 6.3587,6.05342 24.04329,-2.70684 23.33348,-31.54809 -0.71508,-29.05694 -78.76868,-163.96286 -13.61991,-230.97529 z" fill="#f3b5cf" stroke="#e581b1" stroke-width="4" />
    <path d="m 540.70785,710.23844 c 15.09122,75.96824 100.50685,159.50066 39.61797,214.92085 m -33.5155,-254.36934 c -11.50586,99.91752 91.99984,132.50956 74.52055,230.87998" fill="none" stroke="#e581b1" stroke-width="2" />
    <path d="m 582.8431,699.7088 c -39.84698,-43.46154 -8.12374,-95.32975 -1.39727,-95.70032 6.37876,-0.35141 23.64521,18.55115 27.37377,44.31067 z" fill="#faf5ab" />
    <path fill="#e9d461" inkscape:original-d="m 582.8431,699.7088 c -39.84698,-43.46154 -8.12374,-95.32975 -1.39727,-95.70032 6.37876,-0.35141 23.64521,18.55115 27.37377,44.31067" inkscape:path-effect="#path-effect493" />
    <path d="m 581.55648,631.11883 c -6.74108,14.03409 -4.39968,31.22065 4.01789,43.31482 -5.86148,-14.37937 -7.79438,-28.49623 -4.01789,-43.31482 z" fill="#e9d461" />
  </g>
  <g transform="translate(-310.83662-565.74772)">
    <ellipse cx="941.44318" cy="-129.89241" fill="#faf5ab" rx="35.123917" ry="29.589754" transform="rotate(55.391668)" />
    <path inkscape:original-d="m 670.43834,692.65859 c 5.55628,14.16635 2.39525,29.74481 -8.8755,37.33451 -17.33394,11.67264 -43.6658,-0.28516 -50.32826,-25.34994" inkscape:path-effect="#path-effect1076" />
    <path inkscape:original-d="m 712.2728,694.62491 c 0.21904,12.94493 -2.32948,29.63266 -7.59031,29.76464 -5.14998,0.12916 -8.78749,-18.19638 -8.30094,-32.53283" inkscape:path-effect="#path-effect1079" />
    <path d="m 697.87537,715.85706 c 8.17368,10.71923 22.30036,6.22259 19.84849,16.28333 -6.42759,26.37433 -50.21361,42.8552 -98.67982,23.05128 z" fill="#faf5ab" />
    <path d="m 704.3255,729.66932 c 0.74967,3.11894 2.93493,3.80151 5.24186,1.8004 -1.77089,4.68781 -6.45933,3.22054 -5.24186,-1.8004 z m 4.83566,17.30379 c -10.14312,0.2354 -16.13632,-2.46108 -19.91479,-10.07235 1.28073,9.40573 8.24013,12.88953 17.09992,13.17363" fill="#e9d461" />
    <path fill="#e9d461" inkscape:original-d="m 697.87537,715.85706 c 8.17368,10.71923 22.30036,6.22259 19.84849,16.28333 -6.42759,26.37433 -50.21361,42.8552 -98.67982,23.05128" inkscape:path-effect="#path-effect2116" />
    <path d="m 614.45081,713.14919 c -5.47753,1.76016 -12.06234,0.67436 -16.83491,-3.4063 5.14973,1.81288 10.76339,2.06332 15.52383,0.53776 m 11.354,15.48314 c -4.45182,5.31446 -11.56616,7.50635 -18.68759,5.29991 6.52057,-0.2531 12.6991,-2.74362 16.26998,-7.10853 m -3.15483,-3.38643 c -5.80314,3.79292 -13.4316,3.82288 -19.60557,-0.35629 6.31309,1.65124 12.70393,0.92784 17.85355,-2.07102" />
    <path d="m 709.92082,717.35336 c 2.60889,2.02843 5.71507,2.36992 8.46964,0.31951 -3.37769,0.44895 -5.98241,-0.67947 -7.82968,-2.90254 m 1.46598,-11.32103 c 3.48214,0.95099 6.65582,-0.0218 8.45982,-3.45366 -2.85901,2.01311 -5.54269,2.27687 -8.08951,1.1537 m -1.14108,9.5148 c 3.65043,1.71935 7.10233,1.36779 9.67768,-2.14141 -3.7999,1.75179 -6.53548,1.62516 -9.24436,-0.34722" />
    <path d="m 712.41463,721.1747 c 11.96729,1.33937 12.31066,14.56746 0.0784,37.5517 -31.23696,5.30972 -54.96513,14.68918 -90.48334,12.20071 -11.85792,-13.39535 -19.58051,-24.85342 -27.11539,-42.93714 66.42055,14.53177 89.06909,-9.99951 117.52033,-6.81527 z" fill="#02aca4" opacity=".5" />
  </g>
  <g transform="translate(-310.83662-565.74772)">
    <path d="m 504.47508,885.46941 c 1.58041,10.33625 4.86179,18.9337 10.94028,25.14088 17.70645,18.08131 -10.89896,72.88382 -27.44498,56.22301 -31.97434,-32.19616 -13.40042,-105.51236 2.56756,-110.26734 -0.89757,11.99733 3.89119,23.14976 13.93714,28.90345 z" fill="#eaeef0" />
    <path fill="#bdc1c2" inkscape:original-d="m 504.47508,885.46941 c 1.58041,10.33625 4.86179,18.9337 10.94028,25.14088 17.70645,18.08131 -10.89896,72.88382 -27.44498,56.22301 -31.97434,-32.19616 -13.40042,-105.51236 2.56756,-110.26734" inkscape:path-effect="#path-effect1109" />
    <path d="m 505.68514,890.06149 c -6.54222,19.28188 -17.49897,34.1629 -34.99623,43.11819 1.21687,7.63576 3.18212,13.92982 6.63702,20.7862 21.87141,-13.07466 31.64788,-26.69399 36.71376,-47.05492 -3.08567,-3.49374 -6.14555,-11.00815 -8.35455,-16.84947 z" fill="#fac42d" />
    <path d="m 487.45355,920.86762 7.01954,20.37092 7.78911,-8.55295 -8.56652,-19.11837 z" fill="#ffff64" />
    <path d="m 505.68514,890.06149 c -6.54222,19.28188 -17.49897,34.1629 -34.99623,43.11819 1.21687,7.63576 3.18212,13.92982 6.63702,20.7862 21.87141,-13.07466 31.64788,-26.69399 36.71376,-47.05492 -3.08567,-3.49374 -6.14555,-11.00815 -8.35455,-16.84947 z" fill="none" stroke="#a0833d" stroke-width="2" />
  </g>
  <use xlink:href="#path4808" />
  <use xlink:href="#path4750" />
  <g clip-path="url(#M2-3)" transform="translate(218.63122 692.236)scale(.47599387)">
    <path d="m -3.3,-2.1 -10.6,-20.1 9.7,-24.1 10.4,20.7 z M 14.1,29.5 3.5,9.4 13.2,-14.7 23.6,6 Z M -13.1,46.3 -23.7,26.2 -14,2.1 -3.6,22.8 Z" fill="#7dd1f5" />
    <path d="m -3.5,-28.3 a 3.0458354,5.7870873 6 1 1 -1.3,11.5 3.0458354,5.7870873 6 1 1 1.3,-11.5 l -0.8,-21.3 9.9,14.2 -6.9,9.9 m 0.2,2.4 10.8,-3.7 -5.2,11.2 -6.4,-3.7 m -1.7,2.2 0.3,19.2 -8.1,-12.1 5,-8.3 m -0.8,-4.2 -9.3,0.4 4.3,-10.2 6,6.3 M 13.9,3.3 A 3.0458354,5.7870873 6 1 1 12.6,14.8 3.0458354,5.7870873 6 1 1 13.9,3.3 L 13.1,-18 23,-3.8 16.1,6.1 M 16.3,8.5 27.1,4.8 21.9,16 15.5,12.3 M 13.8,14.5 14.1,33.7 6,21.6 11,13.3 M 10.2,9.1 0.9,9.5 5.2,-0.7 l 6,6.3 m -24.5,14.5 a 3.0458354,5.7870873 6 1 1 -1.3,11.5 3.0458354,5.7870873 6 1 1 1.3,-11.5 l -0.8,-21.3 9.9,14.2 -6.9,9.9 m 0.2,2.4 10.8,-3.7 -5.2,11.2 -6.4,-3.7 m -1.7,2.2 0.3,19.2 -8.1,-12.1 5,-8.3 m -0.8,-4.2 -9.3,0.4 4.3,-10.2 6,6.3" fill="none" stroke="#2696cb" />
  </g>
  <g transform="translate(292.11952 692.77063)scale(.43838634)">
    <g>
      <path d="m 15,-33.8 c -3.8,-4 10.2,-9.1 -3,16.3 14.4,-25.5 18.3,-11.7 12.6,-12.2" fill="none" stroke="#69c8c3" stroke-width="0.89999998" />
      <path d="m 17.1,-14.3 c 12.5,13.7 -8.1,27 -9.7,4 -21.6,12.5 -21.9,-12.6 -3,-11.6 -11.9,-12.7 10,-31.6 8.4,2.7 28.5,-19.9 19.3,2.4 4.3,4.9 z" fill="#f3b5cf" />
      <path d="m 5.9,-7.6 c 4.4,-11.9 8.7,-17.7 10,-17.1 1.3,0.6 -1,7.8 -10,17.1 z" fill="#69c8c3" />
    </g>
    <g transform="matrix(.83 0 0 .83 11.9 37.3)">
      <path d="m 15,-33.8 c -3.8,-4 10.2,-9.1 -3,16.3 14.4,-25.5 18.3,-11.7 12.6,-12.2" fill="none" stroke="#69c8c3" stroke-width="0.89999998" />
      <path d="m 17.1,-14.3 c 12.5,13.7 -8.1,27 -9.7,4 -21.6,12.5 -21.9,-12.6 -3,-11.6 -11.9,-12.7 10,-31.6 8.4,2.7 28.5,-19.9 19.3,2.4 4.3,4.9 z" fill="#f3b5cf" />
      <path d="m 5.9,-7.6 c 4.4,-11.9 8.7,-17.7 10,-17.1 1.3,0.6 -1,7.8 -10,17.1 z" fill="#69c8c3" />
    </g>
    <g transform="rotate(-65 22.3 22)scale(.94)">
      <path d="m 15,-33.8 c -3.8,-4 10.2,-9.1 -3,16.3 14.4,-25.5 18.3,-11.7 12.6,-12.2" fill="none" stroke="#69c8c3" stroke-width="0.89999998" />
      <path d="m 17.1,-14.3 c 12.5,13.7 -8.1,27 -9.7,4 -21.6,12.5 -21.9,-12.6 -3,-11.6 -11.9,-12.7 10,-31.6 8.4,2.7 28.5,-19.9 19.3,2.4 4.3,4.9 z" fill="#f3b5cf" />
      <path d="m 5.9,-7.6 c 4.4,-11.9 8.7,-17.7 10,-17.1 1.3,0.6 -1,7.8 -10,17.1 z" fill="#69c8c3" />
    </g>
  </g>
  <path d="m 219.97456,551.87542 c 3.86753,6.5061 10.54086,11.15785 20.27745,11.68949 l -0.36289,6.91515 c -11.20597,-1.13479 -19.17649,-6.11587 -24.27741,-13.02815 z m 37.00943,-33.64364 c 1.69561,-8.55791 4.68725,-16.69045 8.83499,-24.08334 l 8.28615,3.91748 c -4.53851,6.32793 -7.80584,13.47743 -9.60071,20.96056 z" fill="#eaeef0" />
  <g clip-path="url(#clipPath2570)">
    <path d="m 253.90262,561.95538 c 14.83169,-3.92555 1.50031,-12.32125 1.99622,-34.04716 l 7.51017,-1.76135 c -1.66944,24.76155 19.85894,37.25697 -3.00977,42.63191 z" fill="#eaeef0" id="path1132" />
    <path d="m 253.86643,536.22143 c 4.63383,-1.38201 8.08252,-3.21096 11.47489,-6.17221 l 2.49985,9.76962 c -3.88528,1.89772 -7.77056,3.53893 -11.65584,4.80863 z" fill="#dfe4e3" filter="url(#filter2694)" />
  </g>
  <path d="m 276.90613,532.86519 c -4.58577,4.17419 -12.01986,8.04777 -22.26768,11.50139 -6.90934,2.32852 -12.8907,6.94342 -17.77517,13.01439 l -7.65655,-3.27971 c 6.42735,-8.05545 14.74071,-14.03054 24.24074,-16.87158 7.4526,-2.22875 12.50872,-5.85982 15.24471,-9.91402 z" fill="#eaeef0" />
</svg>