<svg xmlns="http://www.w3.org/2000/svg" viewBox="-21 -27 42 55">
  <path d="M1.8 24.7C-27-1.4-28.1-48.9-1.7-14.3c24.6-30.7 33.5-.9 3.5 39zM-13.7 28c-6.8-6-7.1-17.5-.7-9.2 4.3-6.9 6.9-.8.7 9.2z" fill="#fac"/>
  <path d="M2.1 20.2c-4.7-6.8-6.3-13.8-5-21.5.1 7.7 1.4 14.3 6.4 20.6z" fill="#59922e"/>
  <path d="M-7.3-11.8C-10.1 9.4 3.8 8.3 4.6-12c-4 1.9-8 2.1-11.9.2z" fill="#ff8080"/>
</svg>
