<svg xmlns="http://www.w3.org/2000/svg" xmlns:xlink="http://www.w3.org/1999/xlink" viewBox="0 0 58 56">
  <defs><path d="m10.2 17.3c2.5-1.2 10.5 5.5 10.5 7.7s-9.2 7-11.6 5.5-1.4-12 1.1-13.2zm2.6-4.2c-.2-3.1 12-8.1 13.8-4.6s-.7 12.1-3 12.7-10.6-5-10.8-8.1zm15.2 8c-1.5-2.2 2.2-11.9 4.8-11.9s8.9 8.3 8.2 10.6-11.5 3.5-13 1.3zm-15.6 15.7c-.5-3.6 8.5-9.5 10.8-9s4.9 11.4 2.9 13.4-13.2-.8-13.7-4.4" id="E"/></defs>
  <clipPath id="D"><use xlink:href="#E"/></clipPath>
  <ellipse cx="34" cy="9.3" rx="22.5" ry="23.6" transform="rotate(30)" fill="#7ff401" stroke="#3c7201" stroke-width="3"/>
  <ellipse cx="34" cy="9.3" rx="19.4" ry="20.5" transform="rotate(30)" fill="#e2fec4"/>
  <use xlink:href="#E" fill="#40a017"/>
  <g clip-path="url(#D)"><ellipse cx="34" cy="9.3" rx="10.4" ry="11" transform="rotate(30)" fill="#7ff401"/></g>
  <use xlink:href="#E" fill="none" stroke="#3c7201"/>
  <g fill="#48309e" stroke="#0a004f" stroke-width="2">
    <ellipse cx="4.5" cy="49.4" rx="9.3" ry="9.1" transform="rotate(-22)"/>
    <ellipse cx="17.5" cy="40.8" rx="10" ry="9" transform="rotate(-27)"/>
    <ellipse cx="48.1" cy="30.8" rx="6.8" ry="7.2" transform="rotate(-3)"/>
    <ellipse cx="17.9" cy="56.4" rx="12.1" ry="11.1" transform="rotate(-25)"/>
  </g>
  <path d="m37.4 39c-.7-4.2 3.8-4.7 4.5-1.3 3.4-.9 4.4 2 1.3 3.3 1.2 3.2-2.9 4.6-4.3 1.1-3.2 3.2-6-1.4-1.5-3.1zm11.8-11c-3-1.1-1.4-3.6.5-2.5.8-2.3 4.3.4 2.1 2.1 1.2 3-2.3 4.3-2.6.4zm-16.9-3.3c.5-3.6 4.1-2.6 3.8.2 4.7-.8 3.6 4.7-1.1 3.5-.3 3.9-4.1 3.6-3.2-.7-3.5-.1-2.3-3.6.5-3zm-13.4 18.4c-2.1-2.9 3.7-4.8 3.6-1.4 2.9-1.8 4 3.2.4 3.6 1.2 3.2-1.7 4.1-3.2.9-2.2 2.1-4.4-2.7-.8-3.1z" fill="none" stroke="#0a004f"/>
</svg>
