<svg xmlns="http://www.w3.org/2000/svg" xmlns:inkscape="http://www.inkscape.org/namespaces/inkscape" xmlns:sodipodi="http://sodipodi.sourceforge.net/DTD/sodipodi-0.dtd" xmlns:xlink="http://www.w3.org/1999/xlink" height="1080" width="1920">
  <defs>
    <inkscape:path-effect effect="skeletal" id="path-effect4837" pattern="m 1210.0816,535.41587 57,0 0,-6.5 -57,0 c -10.1528,0 -26.2843,0.75 -36.2843,3.25 10,2.5 26.1315,3.25 36.2843,3.25 z" />
    <inkscape:path-effect effect="skeletal" id="path-effect4544" pattern="m 1434.64,699.46465 135,0 c 4.0518,0 6.6581,-0.64645 8.7157,-3.25 -2.0576,-2.25 -4.6639,-3.25 -8.7157,-3.25 l -135,0 z" />
    <inkscape:path-effect effect="skeletal" id="path-effect4504" pattern="m 1354.3313,702.29307 295,0 0,-6.5 -295,0 c -10.1528,0 -26.2843,0.75 -36.2843,3.25 10,2.5 26.1315,3.25 36.2843,3.25 z" />
    <inkscape:path-effect effect="skeletal" id="path-effect4461" pattern="m 1080.2843,462.5 105,0 c 13.0518,0 30.6581,-0.64645 44.7157,-3.25 -14.0576,-2.5 -31.9139,-3.25 -44.7157,-3.25 l -105,0 c -10.1528,0 -26.2843,0.75 -36.2843,3.25 10,2.5 26.1315,3.25 36.2843,3.25 z" />
    <linearGradient id="linearGradient4390">
      <stop offset="0" stop-color="#277617" />
      <stop offset="1" stop-color="#5abd45" />
    </linearGradient>
    <inkscape:path-effect effect="skeletal" id="path-effect4282" pattern="m 140.60387,686.06765 197.26345,0 8.73655,-6.5 -206,0 c -10.15272,0 -26.28427,0.75 -36.28427,3.25 10,2.5 26.13155,3.25 36.28427,3.25 z" />
    <inkscape:path-effect effect="skeletal" id="path-effect4262" pattern="m -106.03747,683.83223 428.44115,0 3.55885,-6.5 -432,0 c -10.15272,0 -26.28427,0.75 -36.28427,3.25 10,2.5 26.13155,3.25 36.28427,3.25 z" />
    <inkscape:path-effect effect="skeletal" id="path-effect4212" pattern="m 608.09711,549.55801 42,0 0,-6.5 -42,0 c -5.20297,0 -13.49658,1.10355 -19.78427,3.25 6.11091,2.32322 14.40452,3.25 19.78427,3.25 z" />
    <inkscape:path-effect effect="skeletal" id="path-effect4171" pattern="m 622.23925,603.29812 117,0 0,-6.5 -117,0 c -5.20297,0 -13.49658,1.10355 -19.78427,3.25 6.11091,2.32322 14.40452,3.25 19.78427,3.25 z" />
    <inkscape:path-effect effect="skeletal" id="path-effect4131" pattern="m 675.28427,426.5 43,0 -3.64645,-6.5 -39.35355,0 c -5.91008,0 -18.28947,1.4571 -25.28427,3.25 6.9948,2.14644 19.19741,3.25 25.28427,3.25 z" />
    <inkscape:path-effect effect="skeletal" id="path-effect4111" pattern="m 692.28427,386.5 152,0 -2,-6.5 -150,0 c -5.91008,0 -12.41079,1.10355 -17.28427,3.25 4.87348,2.32322 11.19741,3.25 17.28427,3.25 z" />
    <inkscape:path-effect effect="skeletal" id="path-effect4050" pattern="m 465.12652,628.5 130.87348,0 0,-6.5 -152,0 c 6.01041,4.94974 13.14506,6.5 21.12652,6.5 z" />
    <inkscape:path-effect effect="skeletal" id="path-effect4024" pattern="m 455.9551,720.35786 152,0 0,-6.5 -152,0 c -5.20297,0 -13.49658,1.10355 -19.78427,3.25 6.11091,2.32322 14.40452,3.25 19.78427,3.25 z" />
    <inkscape:path-effect effect="skeletal" id="path-effect3978" pattern="m 480.28427,728.5 152,0 c 13.05188,0 26.65812,-0.64645 40.71573,-3.25 -14.05761,-2.5 -27.91385,-3.25 -40.71573,-3.25 l -152,0 C 470.13155,722 454,722.75 444,725.25 c 10,2.5 26.13155,3.25 36.28427,3.25 z" />
    <inkscape:path-effect effect="skeletal" id="path-effect3945" pattern="m 521.91079,612.25 139.87348,0 0,-6.5 -152,0 c 2.82843,4.41941 6.61993,6.5 12.12652,6.5 z" />
    <inkscape:path-effect effect="skeletal" id="path-effect3902" pattern="m 496.28427,362.5 152,0 c 13.05188,0 30.65812,-0.64645 44.71573,-3.25 -14.05761,-2.5 -31.91385,-3.25 -44.71573,-3.25 l -152,0 C 486.13155,356 470,356.75 460,359.25 c 10,2.5 26.13155,3.25 36.28427,3.25 z" />
    <inkscape:path-effect effect="skeletal" id="path-effect3872" pattern="m 545.40599,542.03846 152,0 c 13.05188,0 47.46573,-1 70.71573,-3.25 -23.25,-2.5 -57.91385,-3.25 -70.71573,-3.25 l -152,0 c -10.15272,0 -32.28427,0.75 -42.28427,3.25 10,2.5 32.13155,3.25 42.28427,3.25 z" />
    <linearGradient id="linearGradient3763">
      <stop offset="0" stop-color="#5b9857" />
      <stop offset="1" stop-color="#acd69a" />
    </linearGradient>
    <clipPath id="clipPath3782">
      <path d="m 705.21738,482.50522 a 36.699615,49.760376 0 1 1 -73.39923,0 36.699615,49.760376 0 1 1 73.39923,0 z" transform="matrix(0.85778382,-0.51401059,0.51401059,0.85778382,-159.43979,402.24321)" sodipodi:cx="668.51776" sodipodi:cy="482.50522" sodipodi:rx="36.699615" sodipodi:ry="49.760376" sodipodi:type="arc" />
    </clipPath>
    <linearGradient gradientUnits="userSpaceOnUse" id="linearGradient3795" x1="676.68341" x2="681.99304" y1="479.32037" y2="519.68311" xlink:href="#linearGradient3763" />
    <clipPath id="clipPath3827">
      <path d="m 751.75467,500.06412 c -6.6993,-1.70882 -11.22097,-5.31068 -14.59933,-10.62505 -8.503,-17.006 -12.27126,-61.3962 8.63194,-76.4536 10.62875,16.82885 14.29324,68.47835 5.96739,87.07865 z" />
    </clipPath>
    <linearGradient gradientUnits="userSpaceOnUse" id="linearGradient3857" x1="746.75037" x2="744.30597" y1="473.01797" y2="496.82794" xlink:href="#linearGradient3763" />
    <clipPath id="clipPath4192">
      <path d="m 638.87826,544.84291 c 4.51769,2.15366 9.32818,4.05219 14.01396,5.57311 4.68578,1.52091 9.24386,2.66469 13.22766,3.46018 L 696.85373,670.93873 584.0702,653.96816 z" />
    </clipPath>
    <linearGradient gradientUnits="userSpaceOnUse" id="linearGradient4403" x1="1116.0095" x2="1087.8048" y1="552.12952" y2="550.71143" xlink:href="#linearGradient4390" />
    <clipPath id="clipPath4409">
      <path d="m 1173.7595,555.98035 a 47.10791,41.179527 0 1 1 -94.2158,0 47.10791,41.179527 0 1 1 94.2158,0 z" transform="matrix(0.96910581,0.24664536,-0.24664536,0.96910581,157.14328,-268.51211)" sodipodi:cx="1126.6516" sodipodi:cy="555.98035" sodipodi:rx="47.10791" sodipodi:ry="41.179527" sodipodi:type="arc" />
    </clipPath>
    <clipPath id="clipPath4422">
      <path d="m 1066.6811,513.0124 97.2502,56.4576 c -45.697,67.63347 -137.5827,4.28077 -97.2502,-56.4576 z" />
    </clipPath>
    <clipPath id="clipPath4658">
      <path d="m 1428.1875,715.9375 c -0.824,26.44404 -12.7826,53.96324 -24.9063,79.03125 C 1390.9103,820.548 1378.25,843.27036 1378.25,861.5 l 132.4688,12.875 c 2.0473,-0.11574 3.7205,-0.23281 5,-0.34375 1.2794,-0.11094 1.7973,-0.0752 2.9374,-0.40625 2.2253,-0.64603 2.8861,-2.02982 3.6563,-3.40625 z" />
    </clipPath>
    <clipPath id="clipPath4734">
      <path d="m 1622.3125,844.34375 c 6.5129,-0.41512 11.9642,-0.95679 16,-1.65625 2.0179,-0.34973 3.6648,-0.72543 5.0625,-1.25 0.6989,-0.26229 1.3523,-0.52375 2.0312,-1.03125 l -90.75,-68.9375 c -13.0324,15.90231 -36.4831,31.22854 -48.25,62.59375 z" />
    </clipPath>
    <clipPath id="clipPath4802">
      <path d="m 1332.6878,853.9375 c 16.7959,0.0936 33.7076,-0.32302 46.75,-0.84375 6.5212,-0.26037 12.0638,-0.5491 16.1563,-0.8125 2.0462,-0.1317 3.7257,-0.2588 5,-0.375 -17.3757,-44.96555 -50.0326,-72.08495 -103.0313,-73.6875 -8.3485,13.96559 -16.824,26.00261 -23.2813,36.25 z" />
    </clipPath>
    <clipPath id="clipPath4945">
      <path d="m 1247.2144,629.4003 c 12.1559,1.02056 24.2213,3.3038 34.9227,8.45438 0,2e-5 10e-5,3e-5 10e-5,5e-5 2.9523,1.41866 5.785,3.04567 8.3873,4.9283 33.7745,-40.71697 67.2255,-111.03303 84.0491,-159.54755 -48.5764,3.24671 -97.4391,1.55539 -146.1644,-1.70009 L 1224.3776,296.53073 1509,347 1372,847 1222,702 z" />
    </clipPath>
    <clipPath id="clipPath4018">
      <path d="m 785.02341,723.91861 c 5.55355,-13.58814 19.69287,-11.07808 16.90579,1.17888 -4.42553,19.46247 -4.67626,27.19275 1.55229,27.2414 l 75.28413,0.58808 c 6.12541,0.0479 9.11983,-8.3753 10.17817,-26.35243 0.90154,-15.31367 22.07109,-14.00532 22.07109,1.00035 0,40.04604 -7.25947,45.49494 -21.17344,45.03512 l -96.66711,-3.19457 c -16.21188,-0.53576 -21.84695,-11.98613 -8.15092,-45.49683 z" />
    </clipPath>
    <clipPath id="clipPath4353">
      <path d="m 1584.9062,807.46875 c 3.1427,4.66911 5.8114,8.03241 8.7188,10.125 2.9074,2.09259 6.281,2.7058 9.625,1.625 l 57.0938,10.9375 c 20.2982,17.01555 40.132,29.55863 59.9687,36.0625 l 60.1665,-2.16439 -70.0751,-507.68678 -812.29884,51.48373 108.68784,473.36429 z" />
    </clipPath>
    <clipPath id="clipPath4374">
      <path d="m 1716.5982,848.09023 c 0.093,1.81056 0.1039,3.73091 -0.129,5.73162 0,4e-5 0,8e-5 0,1.2e-4 -0.4748,1.68221 -1.1105,2.63553 -1.7346,2.86498 -0.7972,0.56213 -1.4869,0.89287 -2.0104,1.06248 -1e-4,1e-5 -1e-4,2e-5 -2e-4,4e-5 -1.7846,0.66138 -3.4888,1.00521 -5.0224,1.26191 -5.3471,0.94268 -10.6732,1.34737 -15.8911,1.68973 l -116.2411,-9.86848 c 3.44,-16.3267 10.0732,-31.79513 18.6209,-45.96671 38.273,-43.4215 122.1667,-18.86066 122.4079,43.22431" />
    </clipPath>
    <clipPath id="clipPath4396">
      <path d="m 1403.7812,776.96875 c -2.393,16.37379 -2.8047,29.83279 -1.875,39.96875 l 92.1876,44.34375 c 11.2449,9.32823 23.8656,15.18759 41.2187,16.71875 l 40.8687,-229.32686 -158.9644,-45.56634 z" />
    </clipPath>
    <clipPath id="clipPath4419">
      <path d="m 1292.4375,771.8125 c -2.5841,12.2626 -3.8433,22.99804 -3.9375,31.4375 -0.094,8.43946 0.7262,14.54346 3.4062,18.09375 l 53.25,-5.75 c 16.144,26.04146 40.3778,44.75057 74.0626,46.15625 l 8.354,-208.93447 -123.754,1.0356 z" />
    </clipPath>
    <clipPath id="clipPath4446">
      <path d="m 1511.9062,806.125 c 5.9196,4.10864 12.3983,6.67874 20.4688,4.90625 l 50.6875,5.1875 c 20.5832,18.66438 39.7983,26.27886 65.8437,30.84375 l 43.3902,-212.28805 -203.5735,-8.05507 z" />
    </clipPath>
  </defs>
  <g inkscape:groupmode="layer" inkscape:label="Drawing">
    <g>
      <g>
        <path d="m 403.23655,599.31723 c -36.64434,-35.70636 6.11595,-94.73429 66.05379,-34.9248 23.30852,23.2586 29.91682,17.615 20.70966,-12.33864 -47.69755,-155.17437 -256.83422,-126.37686 -236.09166,78.64764 5.20438,51.44135 41.79867,105.64583 59.56678,47.3849 28.00935,54.87309 -62.32812,72.04404 -20.2007,101.37635 23.88213,16.62855 98.84365,-1.05957 103.65283,-68.87726 2.37824,-33.53726 -17.28969,-62.64442 -25.05953,-92.34315 31.28341,43.13475 80.07225,28.53172 31.36883,-18.92504 z" fill="#fecae7" />
        <path d="m 287.3125,701.875 c 9.60018,4.44965 19.28341,-1.24547 26.15625,-23.78125 28.00935,54.87309 -62.31492,72.04269 -20.1875,101.375 13.57942,9.45502 43.67828,7.79787 68,-7.84375 C 392.32406,725.29199 361.77348,684.95701 347.25,638 c -21.7482,-70.31587 19.32889,-119.24758 68.46875,-98.875 37.58197,-3.93793 56.85384,37.10525 74.09375,39.625 -94.61551,-186.69021 -287.89091,-50.91994 -202.5,123.125 z" fill="#ffebf5" />
        <path fill="#fd95cd" inkscape:original-d="m 356.65587,587.20417 c 24.37651,78.54336 104.55928,68.60758 46.58068,12.11306 -36.64434,-35.70636 6.11595,-94.73429 66.05379,-34.9248 23.30852,23.2586 29.91682,17.615 20.70966,-12.33864 -47.69755,-155.17437 -256.83424,-126.37686 -236.09166,78.64764 5.31257,52.51072 43.3337,107.90065 60.59166,43.50823" inkscape:path-effect="#path-effect4262" />
        <path fill="#fd95cd" inkscape:original-d="m 290.47311,649.23655 c 82.82162,78.60638 -45.97406,96.26501 2.80131,130.22613 23.88213,16.62855 98.84365,-1.05957 103.65283,-68.87726 2.60336,-36.71186 -21.21071,-68.11522 -26.88796,-100.84362" inkscape:path-effect="#path-effect4282" />
      </g>
      <path d="M 570.63517,576.53997 C 543.76512,530.22448 549.77553,447.84653 561.08923,402.23815" fill="#fecae7" stroke="#fd95cd" stroke-width="6.5" />
      <path d="m 515.34823,823.76566 c -2.43833,12.09895 -71.85482,7.45215 -72.66042,-0.14645 -7.29301,-68.78918 35.88565,-211.83915 85.87057,-154.59751 -55.77906,87.44571 -11.71433,147.32168 -13.21015,154.74396 z" fill="#943875" stroke="#7a175b" stroke-width="6.5" />
      <path d="m 579.16978,645.58582 c -30.59274,53.47972 -32.80785,142.43996 -22.69501,182.35975 2.97848,11.75734 74.479,13.02887 78.69891,3.02136 4.99472,-11.84495 -35.83323,-40.77223 -22.96853,-184.09503 z" fill="#943875" stroke="#7a175b" stroke-width="6.5" />
      <path d="m 614.75361,664.48822 c -20.79541,18.19817 -68.30294,33.22402 -115.07939,7.70346 -1.92817,3.94004 -4.04694,7.77889 -6.14922,11.82116 -43.91726,84.44418 -2.5345,150.62345 -4.03033,158.04573 -2.13807,10.60908 -70.47725,11.18625 -74.59976,-2.82843 -11.30613,-38.43576 2.76255,-119.0409 24.2184,-152.73507 1.2923,-2.02942 8.49937,-5.46751 16.22168,-4.93421 -3.25018,-19.1621 -15.0443,-42.95906 -11.28606,-77.19572 3.13611,-28.56918 20.93262,-55.43297 48.63114,-56.73507 41.17805,-1.93576 46.99837,17.74784 71.06165,21.49084 9.37336,-39.30002 14.2349,-91.1796 14.40473,-130.45365 0.51307,-118.65069 210.16421,-109.91726 173.23392,61.14491 7.68613,3.1198 14.17368,4.10005 13.25355,11.04669 -3.73251,28.17918 -55.70354,54.52998 -117.04598,34.81669 4.36314,48.98395 -4.72669,94.21551 -32.83433,118.81267 z" fill="#ab4388" />
      <path fill="#7a175b" inkscape:original-d="m 556.94455,593 c 13.81066,-39.80026 20.9948,-106.43934 21.2019,-154.33274 C 578.65953,320.01657 788.31066,328.75 751.31066,499.75" inkscape:path-effect="#path-effect3945" />
      <g>
        <path d="m 752.77306,487.30309 c 4.11656,1.37511 6.68535,3.83023 8.45964,8.40562 -3.12734,-3.5017 -5.53921,-4.84369 -9.15944,-5.5129 z m 0.0918,-4.43792 c 3.92713,-2.22199 10.45466,-2.62627 15.30619,-1.11517 -5.23156,0.33791 -10.93888,1.46595 -15.17979,4.27528 z" />
        <path d="m 751.75467,500.06412 c -6.6993,-1.70882 -11.22097,-5.31068 -14.59933,-10.62505 -8.503,-17.006 -12.27126,-61.3962 8.63194,-76.4536 10.62875,16.82885 14.29324,68.47835 5.96739,87.07865 z" fill="#fff" />
        <g clip-path="url(#clipPath3827)">
          <path d="m 758.00363,484.9165 a 10.821986,15.925468 0 1 1 -21.64398,0 10.821986,15.925468 0 1 1 21.64398,0 z" fill="url(#linearGradient3857)" transform="matrix(0.90742606,0.42021179,-0.42021179,0.90742606,270.96175,-266.10675)" sodipodi:cx="747.18164" sodipodi:cy="484.9165" sodipodi:rx="10.821986" sodipodi:ry="15.925468" sodipodi:type="arc" />
          <path d="m 754.99064,484.9165 a 7.8089981,13.048591 0 1 1 -15.618,0 7.8089981,13.048591 0 1 1 15.618,0 z" transform="matrix(0.89652131,0.44300065,-0.44300065,0.89652131,291.8513,-272.65836)" sodipodi:cx="747.18164" sodipodi:cy="484.9165" sodipodi:rx="7.8089981" sodipodi:ry="13.048591" sodipodi:type="arc" />
          <path d="m 750.77403,484.9165 a 3.5923891,6.2642503 0 1 1 -7.18478,0 3.5923891,6.2642503 0 1 1 7.18478,0 z" fill="#fff" transform="matrix(0.80604203,0.59185832,-0.59185832,0.80604203,428.66692,-348.9238)" sodipodi:cx="747.18164" sodipodi:cy="484.9165" sodipodi:rx="3.5923891" sodipodi:ry="6.2642503" sodipodi:type="arc" />
          <path d="m 748.39347,484.9165 a 1.2118284,2.1260526 0 1 1 -2.42366,0 1.2118284,2.1260526 0 1 1 2.42366,0 z" fill="#fff" transform="matrix(0.74733848,0.66444354,-0.66444354,0.74733848,514.27134,-370.3451)" sodipodi:cx="747.18164" sodipodi:cy="484.9165" sodipodi:rx="1.2118284" sodipodi:ry="2.1260526" sodipodi:type="arc" />
        </g>
        <path d="m 747.14888,414.85702 c -19.27665,15.47431 -16.18105,55.45031 -9.99354,74.58205 -12.22306,-15.76598 -12.27126,-65.6477 6.86048,-79.28793 z" />
      </g>
      <path d="m 647.35626,545.07372 c 4.59482,49.58578 -4.49501,94.81734 -32.60265,119.4145 -20.79541,18.19817 -68.30294,33.22402 -115.18267,7.51117" fill="none" stroke="#7a175b" stroke-width="6.5" />
      <g clip-path="url(#clipPath4192)">
        <path d="m 633.62834,579.26485 c 5.02101,-11.55866 10.59981,-14.06012 17.54166,-39.96745 6.06494,-22.63465 20.02718,62.03823 8.31063,88.80071 -17.6206,40.24827 -34.75179,21.80419 -21.64857,-16.32618 -7.13812,-1.2959 -12.30635,-13.85436 -4.20372,-32.50708 z" fill="#fecae7" />
        <path fill="#fd95cd" inkscape:original-d="m 653.57377,586.01789 c -4.16206,41.55725 -35.01956,27.94849 -19.94543,-6.75304 5.02101,-11.55866 10.59981,-14.06012 17.54166,-39.96745 6.06494,-22.63465 20.02718,62.03823 8.31063,88.80071 -17.6206,40.24827 -34.75179,21.80419 -21.67031,-16.2028" inkscape:path-effect="#path-effect4171" />
      </g>
      <path fill="#7a175b" inkscape:original-d="m 737.15534,489.43907 c 10.6534,14.66173 28.98429,10.05223 27.47858,21.41979 -4.15925,31.40095 -68.21796,60.53154 -138.07495,27.01536" inkscape:path-effect="#path-effect3872" />
      <path fill="#7a175b" inkscape:original-d="m 513.18275,622.85546 c 2.29809,25.10229 -8.89586,40.4644 -19.65775,61.15738 -43.91726,84.44418 -2.5345,150.62345 -4.03033,158.04573 -2.13807,10.60908 -70.47725,11.18625 -74.59976,-2.82843 -11.30613,-38.43576 2.76255,-119.0409 24.2184,-152.73507 1.2923,-2.02942 8.49937,-5.46751 15.74569,-5.11396" inkscape:path-effect="#path-effect4024" />
      <path fill="#7a175b" inkscape:original-d="m 456.89453,692.63417 c 0.40488,-21.31708 -17.33968,-47.32908 -12.8456,-88.26903 3.13611,-28.56918 20.93262,-55.43297 48.63114,-56.73507 41.17805,-1.93576 46.99837,17.74784 71.04825,21.44239" inkscape:path-effect="#path-effect4050" />
      <g transform="matrix(0.08842486,0.02062217,-0.02089079,0.14706619,421.76071,538.15442)">
        <path d="m 530.18873,581.88712 c -49.30439,18.86091 -59.23129,-63.04309 -2.27299,-60.8355 -49.39855,-19.62069 -3.51772,-102.04291 29.68703,-43.08557 -31.35661,-69.63799 56.21039,-74.65069 44.07395,-11.17205 22.07177,-49.58398 80.32506,-3.49469 38.22045,36.2943 53.70607,-31.05292 54.27014,66.36478 7.00127,54.42559 54.53487,22.43316 14.37083,96.76653 -23.99741,47.81954 19.74289,57.71908 -56.98563,77.95249 -51.67924,11.22408 -21.59034,70.31689 -81.96995,-6.32862 -41.03306,-34.67039 z M 722.10026,480.86909 c -14.56922,81.11972 69.84656,72.44095 57.03025,10.64738 30.49701,63.04316 93.74271,-10.612 29.46251,-45.23665 61.152,18.73706 54.62623,-82.19263 -3.95439,-66.29685 58.71782,-24.07553 -0.84645,-93.62854 -24.92785,-42.16638 4.39957,-57.74692 -46.27199,-54.22014 -41.0539,-4.15541 -18.04534,-60.26181 -86.2828,-3.50165 -38.89305,39.71514 -53.14951,-36.2334 -60.65106,60.32122 -6.20834,62.35155 -74.27328,11.14219 0.63203,116.62962 28.54477,45.14122 z M 587.11187,180.02378 c -4.28189,-75.68311 73.67479,-42.65316 47.54717,9.0566 31.611,-29.54935 77.64428,33.50943 20.98558,53.85461 60.51995,-5.89231 33.16257,86.03383 -9.66483,52.10765 44.49666,48.21423 -21.33243,92.8662 -38.03773,29.79246 -5.46453,68.03441 -76.97723,36.53269 -52.5283,-13.03774 -45.83631,51.49553 -74.48,-50.34184 -27.16981,-51.62264 -60.34572,-13.42239 -23.8729,-84.98221 16.75471,-57.50943 -40.28465,-45.68644 33.90733,-88.65979 42.11321,-22.64151 z" fill="#f4d7e3" />
        <path d="m 635.51394,538.52785 c 3.98061,37.29709 -17.6888,70.18948 -48.40001,73.4672 -30.71119,3.27772 -58.83445,-24.30045 -62.81507,-61.59754 -3.98061,-37.29709 17.68881,-70.18947 48.4,-73.46719 30.71121,-3.27772 58.83447,24.30043 62.81508,61.59753 z m 55.4042,-112.40617 c 4.21955,41.00956 34.6621,71.47403 67.99535,68.04432 33.33324,-3.42972 56.93457,-39.45485 52.71503,-80.46441 -4.21954,-41.00954 -34.6621,-71.47403 -67.99535,-68.04431 -33.33325,3.42971 -56.93457,39.45486 -52.71503,80.4644 z M 645.21897,247.8965 c 5.67205,37.07757 -15.11849,71.01879 -46.43696,75.80982 -31.31848,4.79104 -61.30522,-21.38237 -66.97727,-58.45994 -5.67205,-37.07758 15.11849,-71.01879 46.43696,-75.80982 31.31847,-4.79104 61.30522,21.38237 66.97727,58.45994 z" fill="#f7f4b1" />
        <path d="m 600.34384,548.99966 c -4.82499,29.12248 -15.9409,34.84532 -35.57498,14.46567 18.89515,25.5024 35.85608,19.92783 35.57498,-14.46567 z m 11.18817,-25.55783 c -20.15289,-22.54302 -35.91523,-15.81257 -25.03868,17.23933 -19.20724,-37.32712 9.02092,-53.47518 25.03868,-17.23933 z m -65.3553,44.96755 c -7.22253,-36.30183 6.07712,-42.77073 24.7719,-19.28355 -16.1587,-35.72417 -42.78465,-20.14924 -24.7719,19.28355 z M 724.63339,422.56625 c 2.09604,30.65857 14.88223,36.90206 35.11082,21.61029 -15.29783,22.2571 -38.12241,15.46352 -35.11082,-21.61029 z m -12.68207,-27.68657 c 22.64345,-29.56189 35.68992,-17.96629 28.2096,15.08561 18.528,-39.36486 -9.92769,-57.20825 -28.2096,-15.08561 z m 72.54286,47.9287 c 2.81077,-36.43446 -7.17034,-48.74464 -26.05269,-19.28355 15.21419,-41.41672 40.66922,-21.82793 26.05269,19.28355 z M 604.3272,258.20387 c -7.05913,26.81617 -18.97379,34.03911 -36.96099,10.58226 16.89883,28.82119 33.55055,25.0895 36.96099,-10.58226 z m 14.5844,-22.1616 c -21.96421,-29.33548 -35.23598,-18.30314 -26.85,12.48461 -17.62234,-38.00637 11.28507,-51.21103 26.85,-12.48461 z m -69.78426,35.48531 c -4.73197,-36.75466 8.13094,-41.05986 26.37289,-15.76136 -14.57379,-38.21473 -40.98942,-25.02992 -26.37289,15.76136 z" fill="#bc5b93" />
      </g>
      <g>
        <path d="m 633.22624,515.81778 c 0.78463,-9.21188 4.19611,-11.33503 11.02196,-13.04149 l 2.23454,2.42414 c -5.75141,1.26405 -9.36337,3.81877 -13.2565,10.61735 z m 7.14719,-19.50773 c -12.66982,-1.27949 -20.10285,-0.20503 -25.93782,3.8434 9.76536,-1.77647 17.38383,-1.51871 26.04254,0.50376 z" />
        <path d="m 705.21738,482.50522 a 36.699615,49.760376 0 1 1 -73.39923,0 36.699615,49.760376 0 1 1 73.39923,0 z" fill="#fff" transform="matrix(0.85778382,-0.51401059,0.51401059,0.85778382,-159.43979,402.24321)" sodipodi:cx="668.51776" sodipodi:cy="482.50522" sodipodi:rx="36.699615" sodipodi:ry="49.760376" sodipodi:type="arc" />
        <g clip-path="url(#clipPath3782)">
          <path d="m 699.99661,497.16074 a 16.259672,29.319891 0 1 1 -32.51934,0 16.259672,29.319891 0 1 1 32.51934,0 z" fill="url(#linearGradient3795)" transform="matrix(0.83386689,0.55196556,-0.55196556,0.83386689,389.74967,-294.33205)" sodipodi:cx="683.73694" sodipodi:cy="497.16074" sodipodi:rx="16.259672" sodipodi:ry="29.319891" sodipodi:type="arc" />
          <path d="m 695.34928,497.16074 a 11.61234,22.019581 0 1 1 -23.22468,0 11.61234,22.019581 0 1 1 23.22468,0 z" transform="matrix(0.82967901,0.55824075,-0.55824075,0.82967901,398.9834,-294.41739)" sodipodi:cx="683.73694" sodipodi:cy="497.16074" sodipodi:rx="11.61234" sodipodi:ry="22.019581" sodipodi:type="arc" />
          <path d="m 690.84644,497.16074 a 7.1094971,10.340331 0 1 1 -14.219,0 7.1094971,10.340331 0 1 1 14.219,0 z" fill="#fff" transform="matrix(0.85860848,0.51263191,-0.51263191,0.85860848,348.38834,-283.62979)" sodipodi:cx="683.73694" sodipodi:cy="497.16074" sodipodi:rx="7.1094971" sodipodi:ry="10.340331" sodipodi:type="arc" />
          <path d="m 686.13506,497.16074 a 2.3981235,3.2714872 0 1 1 -4.79625,0 2.3981235,3.2714872 0 1 1 4.79625,0 z" fill="#fff" transform="matrix(0.99460638,0.10372152,-0.10372152,0.99460638,66.50571,-69.393979)" sodipodi:cx="683.73694" sodipodi:cy="497.16074" sodipodi:rx="2.3981235" sodipodi:ry="3.2714872" sodipodi:type="arc" />
        </g>
        <path d="m 624.62032,442.06165 c -10.35806,-4.04131 -12.42498,-7.67319 -14.94637,-14.0313 3.86953,4.13045 8.44597,7.56728 16.95325,10.08714 z m -2.8608,7.10591 -0.91271,4.74166 c -10.25631,-0.48216 -16.60215,-3.69775 -20.91857,-9.49182 6.37789,3.26569 12.37344,5.55586 21.83128,4.75016 z m 79.66089,45.94989 c 3.16456,-66.54582 -78.91494,-96.43193 -79.60459,-28.74403 -9.01041,0.32275 -15.1536,-1.30959 -19.88538,-4.55431 4.44439,1.05962 10.02554,1.55249 15.82568,0.0869 5.10587,-72.76247 99.07454,-30.74893 83.66429,33.21151 z" />
      </g>
      <g>
        <path d="m 661.86503,381.26431 c -49.7897,40.71655 -108.49983,-5.65978 -28.34025,-48.82262 103.35072,-55.65038 198.74842,2.84233 168.9201,71.02133 -15.7663,36.03724 -85.96663,35.66807 -79.03044,-5.61786 -40.70647,34.61977 -75.70111,30.43328 -61.54941,-16.58085 z" fill="#fecae7" />
        <path d="m 694.9375,311.71875 c -15.83026,2.21566 -32.53604,7.01599 -49.59375,14.84375 11.52572,12.25276 14.96671,31.57496 6.1875,61.875 3.45534,-2.00386 6.92469,-4.39149 10.34375,-7.1875 -13.17687,43.7756 16.27217,50.42674 53.25,23.1875 18.18849,-49.1021 3.34574,-77.56638 -20.1875,-92.71875 z" fill="#ffebf5" />
        <path fill="#fd95cd" inkscape:original-d="m 749.88674,370.24156 c -51.24011,63.69418 -108.14875,68.40523 -86.47413,6.30851" inkscape:path-effect="#path-effect4131" />
        <path fill="#fd95cd" inkscape:original-d="m 676.64053,366.02926 c -51.13656,65.45028 -131.45544,13.97995 -43.11575,-33.58757 103.35072,-55.65038 198.74841,2.84232 168.9201,71.02133 -16.22306,37.08127 -90.07985,35.61612 -78.19076,-9.29073" inkscape:path-effect="#path-effect4111" />
      </g>
      <g>
        <path d="m 565.37477,541.86661 c 41.23401,-62.84493 -3.46447,-86.54951 8.72792,-115.33378 -21.28122,-17.07107 -15.13478,72.40217 -8.72792,115.33378 z" fill="#fecae7" />
        <path fill="#fd95cd" inkscape:original-d="m 565.37477,541.86661 c 41.23401,-62.84493 -3.46447,-86.54951 8.72792,-115.33378" inkscape:path-effect="#path-effect4212" />
      </g>
      <g>
        <path d="M 589.37351,465.52421 C 532.09785,424.86556 558.91766,343.66961 578.71665,336.59854 584.31641,334.59862 615.89,364.76149 615.89,407.895 z" fill="#ab4388" />
        <path fill="#7a175b" inkscape:original-d="M 589.37351,465.52421 C 532.09785,424.86556 558.91766,343.66961 578.71665,336.59854 584.31641,334.59862 615.89,364.76149 615.89,407.895" inkscape:path-effect="#path-effect3902" />
        <path d="m 578.94681,370.99776 c -6.85548,19.92988 -5.62736,42.86406 6.85453,60.75422 -7.78935,-19.17353 -9.21731,-40.86244 -6.85453,-60.75422 z" fill="#7a175b" />
      </g>
      <g>
        <path d="m 543.16156,665.79964 c -32.52691,52.3259 -37.99191,141.14569 -29.34493,181.40842 3.29851,15.35876 74.11848,14.41014 78.57464,4.83579 5.42431,-11.65448 -32.17335,-42.68377 -16.26345,-183.75158 z" fill="#ab4388" />
        <path fill="#7a175b" inkscape:original-d="m 543.16156,665.79964 c -32.52691,52.3259 -37.99191,141.14569 -29.34493,181.40842 3.29851,15.35876 74.11848,14.41014 78.57464,4.83579 5.42431,-11.65448 -32.17335,-42.68377 -16.26345,-183.75158" inkscape:path-effect="#path-effect3978" />
      </g>
      <path d="m 741.48097,509.85226 c 1.23743,4.15426 3.62391,5.21492 8.13173,3.44715 -3.62393,6.62913 -10.96017,3.62392 -8.13173,-3.44715 z M 712.5,532.75 c 8.875,-6.875 25.125,-3.875 38.25,0.25 l -6.25,4.75 c -9.375,-5.625 -21.375,-7.375 -32,-5 z" fill="#7a175b" fill-rule="evenodd" />
    </g>
    <g>
      <g>
        <path d="m 1647.2729,803.98489 c -0.7464,15.3364 -2.613,27.08606 -3.3452,33.14381 -0.8841,7.31434 -137.6636,6.5205 -134.4926,-1.93198 8.3091,-22.14829 22.6858,-35.99832 35.1206,-48.2969 44.2361,-31.89976 74.881,-27.11563 102.7172,17.08507 z" style="stroke:#c5907c;stroke-linejoin:round;stroke-width:6.50000000000000000;fill:#dfac98" />
        <path d="m 1580.7605,639.55027 c 84.6655,71.79975 65.917,174.82841 63.1672,197.57843 -0.1806,1.49404 -6.0311,2.64978 -15.2007,3.47106 -16.3601,-4.09509 -35.4818,-16.84896 -48.1618,-28.56526 8.4237,34.30896 -16.0218,26.20037 -19.3214,-20.77451 -12.4129,9.97757 -26.7977,20.66646 -37.0137,17.64929 27.8106,-36.08752 67.656,-45.55525 25.3428,-107.74631 -1.5333,-2.25361 -21.6618,-0.91104 -44.8362,-64.88201 z" fill="#cf335e" />
        <path d="m 1513.0547,804.46795 c 11.4069,7.91726 22.7665,9.13173 48.5122,-14.36396 -0.636,42.50178 29.6023,61.43986 18.0061,20.17767 22.2635,21.87005 41.7873,29.92335 69.6825,34.81244" style="clip-path:url(#clipPath4734);fill:none;stroke:#a5213a;stroke-width:4" />
        <path d="m 1580.7605,639.55027 c 84.6655,71.79975 65.9171,174.82842 63.1672,197.57843 -0.8841,7.31434 -137.6636,6.5205 -134.4926,-1.93198 22.7757,-60.70986 91.1403,-59.0713 40.1378,-134.03375 -1.5333,-2.25361 -21.6618,-0.91104 -44.8362,-64.88201 z" style="clip-path:url(#clipPath4446);stroke:#a5213a;stroke-width:6.50000000000000000;fill:none" />
      </g>
      <g>
        <path d="m 1405.9888,828.76628 c -1.0222,11.83909 -2.293,19.32641 -3.3604,19.61241 -4.8197,1.29144 -136.25,7.38567 -136.25,-7.58579 0,-12.16524 16.1199,-31.52518 32.4646,-58.40455 45.9031,-22.88472 87.377,-9.08624 107.1458,46.37793 z" style="stroke:#c5907c;stroke-linejoin:round;stroke-width:6.50000000000000000;fill:#dfac98" />
        <path d="m 1391.8784,672.04595 c 23.6574,41.27722 15.3302,175.10546 10.75,176.33274 -1.1361,0.30441 -9.3066,0.87566 -21.1324,1.37498 -15.4326,-10.25527 -28.1733,-23.01365 -36.8704,-37.87625 -2.3594,17.30095 -14.9469,29.61204 -28.494,-18.78488 -17.9409,42.70141 -28.3392,32.29408 -25.1027,1.70054 19.3856,-29.90424 42.9323,-70.9646 41.613,-123.77404 z" fill="#cf335e" />
        <path d="m 1391.8784,672.04595 c 23.6574,41.27722 15.3302,175.10547 10.75,176.33274 -4.8197,1.29145 -136.25,7.38567 -136.25,-7.58579 0,-25.07538 68.4883,-80.71878 66.2635,-169.77386 z" style="clip-path:url(#clipPath4419);stroke:#a5213a;stroke-width:6.50000000000000000;fill:none" />
        <path d="m 1294.3988,772.24003 c -10.25,48.64087 0.6274,72.69417 21.7163,19.12436 8.7959,37.2089 25.37,48.48707 27.9484,18.71016 15.8493,28.02996 40.3112,48.21499 75.2285,49.6721" style="clip-path:url(#clipPath4802);fill:none;stroke:#a5213a;stroke-width:4" />
      </g>
      <g>
        <path d="m 1628.1134,507.63996 c 66.348,-30.03123 87.7419,35.85317 68.5161,88.31512 15.5165,-15.59619 23.6682,-35.63567 29.7717,-53.53301 2.2981,18.208 -1.0607,39.06765 -8.4853,59.04342 18.2081,-15.02602 29.8753,-33.4108 38.1838,-53.20979 1.8562,5.92202 3.2704,13.43503 4.0659,19.97577 84.4992,-108.54089 -91.3936,-220.44055 -144.7802,-76.54431 z" style="stroke:#f28e46;stroke-miterlimit:20;stroke-width:6.5;fill:#f9ba61" />
        <path d="m 1757.776,515.33887 c -25.8457,-44.5851 -88.906,-67.70832 -138.3121,-17.0408 m 136.3858,53.65738 c 18.1421,-75.71804 -53.9196,-146.78658 -140.1358,-59.65738" style="fill:none;stroke:#f28e46;stroke-miterlimit:20;stroke-width:4" />
      </g>
      <path d="m 1712.959,843.51082 c 0.4653,4.1394 0.5771,7.49257 0.2836,9.92116 -0.8841,7.31434 -136.3463,6.90338 -134.4926,-1.93198 3.3812,-16.11569 9.0723,-28.88236 15.2224,-39.81026 34.6285,-60.78374 111.0601,-34.43404 118.9866,31.82108 z" style="stroke:#dbcd86;stroke-linejoin:round;stroke-width:6.50000000000000000;fill:#fefaad" />
      <path d="M 1304.9328,654.7073 C 1288.8334,620.80439 1217.7352,617.3431 1155.1937,640.13909 1118.9562,653.34743 1021.7528,630.00284 1010.75,619 c -3.8973,-3.89733 -20.6298,-57.41313 -18.25,-59.75 166.3277,-163.32611 184.2964,-77.91075 235.6924,-74.47183 250.4068,16.75477 257.3818,-34.24055 304.8367,-35.40553 94.5393,-2.32088 148.4983,98.1227 90.5818,198.43802 -2.6309,4.55696 31.1224,0.003 33.8891,7.68934 25.6655,71.2998 58.4925,175.18199 55.7426,197.932 -0.1545,1.27779 -4.4162,2.31982 -11.3354,3.12235 -13.8346,-6.95024 -32.9653,-21.28559 -44.7548,-31.13991 14.0238,38.0298 -11.4887,30.57178 -29.6001,-29.33095 -19.3962,19.77125 -26.0896,25.96248 -34.9531,18.09304 22.5813,-41.70289 53.4304,-56.40128 -2.7028,-121.81257 -1.4844,-1.72976 -11.4973,3.86546 -44.5879,-34.00981 -115.0956,28.74167 -196.4871,88.77585 -240.3757,-3.64685 z" fill="#e84958" />
      <path clip-path="url(#clipPath4353)" fill="#a5213a" inkscape:original-d="M 1545.6761,658.64111 C 1430.2129,687.09582 1348.8214,747.13 1304.9328,654.7073 1288.8334,620.80439 1217.7352,617.3431 1155.1937,640.13909 1118.9562,653.34743 1021.7528,630.00284 1010.75,619 c -3.8973,-3.89733 -20.62981,-57.41313 -18.25,-59.75 166.3277,-163.32611 184.2964,-77.91075 235.6924,-74.47183 250.4068,16.75477 257.3818,-34.24055 304.8367,-35.40553 94.5393,-2.32088 148.4983,98.1227 90.5818,198.43802 -2.6309,4.55696 31.1224,0.003 33.8891,7.68934 25.6655,71.2998 58.4925,175.182 55.7426,197.932 -0.8841,7.3143 -136.3463,6.9034 -134.4926,-1.932 15.7046,-74.852 81.2408,-77.4561 11.1464,-159.13604 -1.7751,-2.0685 -15.7458,6.3377 -67.4202,-62.13327 -21.0496,-27.89181 -35.3719,-49.38469 -41.8935,-80.89795" inkscape:path-effect="#path-effect4544" />
      <path d="m 1586.5708,806.34967 c 12.3744,18.38478 16.7687,14.44761 41.0802,-10.7604 16.2636,61.69507 46.8459,67.70547 27.5772,27.75393 22.4506,19.799 44.1262,33.91816 65.6929,40.98924" style="clip-path:url(#clipPath4374);fill:none;stroke:#a5213a;stroke-miterlimit:20;stroke-width:4" />
      <g transform="matrix(0.98521409,-0.0848354,0.19153363,0.95625989,-7.93237,152.04132)">
        <path d="m 1495.9808,533.07268 c -21.9623,-12.22642 -32.4906,-28.41509 -31.9245,-50.37736 20.6037,4.64151 33.6226,31.01887 31.9245,50.37736 z" fill="#5abd45" />
        <path d="m 1467.7921,486.54438 c 12.5661,10.98113 22.5283,27.28302 27.1699,44.49057 -7.4718,-15.62265 -16.4152,-30.90567 -27.1699,-44.49057 z" fill="#2c8f28" />
        <path d="m 1508.8281,493.30367 c 2.5753,7.03912 5.9498,13.07428 10.9263,18.48599 -16.9811,3.39622 -24.9057,9.16981 -23.434,31.52831 -7.9577,-22.59865 -4.8405,-40.08755 12.5077,-50.0143 z" fill="#d6fe86" />
        <path d="m 1496.3204,530.80852 c -28.3246,-25.96004 -57.0595,-28.41652 -68.232,23.06884 -4.53,20.87504 3.4885,37.78454 28.557,58.02267 13.4127,10.82832 19.6921,17.02497 27.8682,9.03544 3.5313,6.29135 13.6262,5.98765 18.7996,-2.21157 13.2548,12.95566 18.4103,-0.27973 33.1443,-12.65193 12.7037,-10.66733 20.6553,-22.20063 20.6553,-44.01816 0,-43.24528 -39.283,-52.75472 -60.7924,-31.24529 z" fill="#89d457" />
        <path d="m 1495.1505,558.06259 c -17.4735,-27.85492 -41.8257,-15.34008 -41.8257,4.05733 0,20.46884 25.1929,54.44247 41.6656,32.64489 6.8001,22.41754 44.6334,-5.8973 44.6334,-28.49091 0,-21.48313 -19.9572,-31.06678 -44.4733,-8.21131 z" fill="#b5f778" />
        <path d="m 1519.7544,511.78966 c -7.8323,-3.78217 -11.5974,-9.10697 -10.9263,-18.48599 z" fill="#89d457" />
        <path d="m 1494.7365,616.93292 c -3.0022,0 -1.6673,-74.97352 0.207,-74.97352 1.8743,0 2.7952,74.97352 -0.207,74.97352 z" fill="#5abd45" />
        <path d="m 1505.9822,594.75485 c -6.4978,-9.48708 7.2612,-8.97363 0,0 z m 2.56,-13.1995 c -6.7242,-10.16633 7.2046,-9.76608 0,0 z m -7.48,0.8399 c -6.2439,-9.28578 6.0039,-9.44588 0,0 z m 3.12,-12.0394 c -6.7242,-9.44588 7.3647,-9.28578 0,0 z m -13.76,0.08 c -7.798,-9.40135 8.0681,-9.27607 0,0 z m -1.92,19.43965 c -7.0444,-10.88678 6.5642,-11.04688 0,0 z m -6.64,-10.08005 c -6.404,-12.32768 7.925,-12.56783 0,0 z" fill="#ae8936" />
      </g>
      <g>
        <path d="m 1407.0813,794.591 c -12.6932,26.3812 -25.5813,49.89984 -25.5813,66.909 0,14.97146 131.4581,10.39119 136.25,9 3.9747,-1.15395 10.3797,-28.96051 11.2532,-65.46183 -31.0275,-31.34796 -106.4099,-42.70976 -121.9219,-10.44717 z" style="stroke:#dbcd86;stroke-linejoin:round;stroke-width:6.50000000000000000;fill:#fefaad" />
        <path d="m 1436.8787,625.06802 c 28.75,30.5 52.1522,33.97942 60.5754,46.11827 48.7597,70.2686 28.8715,196.82402 20.2959,199.31371 -0.4287,0.12446 -1.8711,0.27444 -4.1425,0.43366 -22.4099,-10.62979 -33.9491,-27.88187 -50.7153,-46.25735 1.7267,29.75471 -15.304,25.09697 -34.1602,-21.94169 -8.6043,43.22514 -24.6432,48.19131 -25.3493,-0.58878 13.255,-27.18603 27.6915,-57.99629 28.0692,-88.26061 -22.3219,-14.83901 -44.1106,-34.67265 -50.4745,-63.31047 z" fill="#e84958" />
        <path d="m 1476.4819,734.22478 c -37.1535,-12.80114 -81.4053,-45.50914 -95.5045,-83.65002 0.5303,40.65864 69.1648,87.53911 95.5045,83.65002 z" fill="#a5213a" />
        <path clip-path="url(#clipPath4396)" fill="#a5213a" inkscape:original-d="m 1436.8787,625.06802 c 28.75,30.5 52.1522,33.97942 60.5754,46.11827 48.7597,70.2686 28.8715,196.82403 20.2959,199.31371 -4.7919,1.3912 -136.25,5.97146 -136.25,-9 0,-33.25 49.25,-91.375 50,-147.625" inkscape:path-effect="#path-effect4504" />
        <path d="m 1405.75,777.25 c -9.5,65 12.75,83.25 23,23.75 19.75,52 37.75,52.75 33.25,21.5 25,31 39.5,50.5 73.5,53.5" style="clip-path:url(#clipPath4658);fill:none;stroke:#a5213a;stroke-width:4" />
      </g>
      <g clip-path="url(#clipPath4945)">
        <path d="m 1417.1161,456.36612 26.75,-61.48224 -9.0355,-3.35875 -25.7825,61.89644 z m -32.9697,-7.39645 7.8107,-68.33579 -7.9268,-0.44454 -7.75,68.41421 z" fill="#a0af9f" />
        <path d="m 1458,385.375 a 20.5,20.5 0 1 1 -41,0 20.5,20.5 0 1 1 41,0 z" fill="#939e8f" transform="matrix(1.0255582,0,0,1.0255582,-32.334405,-12.349444)" sodipodi:cx="1437.5" sodipodi:cy="385.375" sodipodi:rx="20.5" sodipodi:ry="20.5" sodipodi:type="arc" />
        <path d="m 1374.0555,441.12132 c 18.1619,-0.9258 52.902,8.15861 53.7803,16.19975 14.0604,128.72795 -64.7274,258.2029 -71.1894,258.70406 -48.489,3.76055 -102.2728,-39.81288 -101.3964,-46.27513 22.7973,-168.09646 115.0262,-228.43603 118.8055,-228.62868 z" fill="#b18243" />
        <path d="m 1374.0625,441.125 c -3.7802,0.17391 -96.0152,60.52854 -118.8125,228.625 -0.089,0.65927 0.4215,1.72042 1.4062,3.0625 31.3232,-5.1267 60.3894,-17.97012 67.4063,-26.25 16.3468,-19.28905 63.4232,-100.46408 71.5937,-203.46875 -6.7113,-1.47533 -14.7267,-2.28467 -21.5937,-1.96875 z" fill="#c9944b" />
        <path d="m 1374.0555,441.12132 c 18.1619,-0.9258 52.902,8.15861 53.7803,16.19975 14.0604,128.72795 -64.7274,258.2029 -71.1894,258.70406 -48.489,3.76055 -102.2728,-39.81288 -101.3964,-46.27513 22.7973,-168.09646 115.0262,-228.43603 118.8055,-228.62868 z" fill="none" stroke="#856236" stroke-width="6.5" />
        <path d="m 1285.5026,665.88327 c 44.3505,-8.63097 47.6855,-19.75463 71.2686,-75.62357 -34.1079,58.44423 -33.4209,59.11227 -71.2686,75.62357 z" fill="#856236" />
        <path d="m 1458,385.375 a 20.5,20.5 0 1 1 -41,0 20.5,20.5 0 1 1 41,0 z" fill="#939e8f" transform="matrix(0.90628704,0,0,0.90628704,84.117684,20.144958)" sodipodi:cx="1437.5" sodipodi:cy="385.375" sodipodi:rx="20.5" sodipodi:ry="20.5" sodipodi:type="arc" />
        <path d="m 1443.6719,368.10832 c 4.6783,8.24048 5.5445,19.75457 2.7286,28.3863 15.31,-2.17095 14.8551,-28.41143 -2.7286,-28.3863 z m -54.5,-11.875 c 2.6783,7.49048 3.1695,17.12957 0.2286,25.5113 14.06,-5.29595 10.4801,-21.53643 -0.2286,-25.5113 z" fill="#c2d7c3" />
      </g>
      <path fill="#856236" inkscape:original-d="m 1279.4092,655.02883 c 43.8407,-42.77998 88.4889,-145.66401 110.4092,-213.54625" inkscape:path-effect="#path-effect4837" />
      <path d="m 1003.9927,563.86318 c 5.2648,4.40005 9.3909,3.86187 11.7628,-3.29591 1.6988,11.81263 -8.3405,14.21064 -11.7628,3.29591 z m -1.3153,35.48098 1.6428,4.95863 c 24.4647,-0.36611 33.1283,-4.16358 47.6994,-20.27754 -17.2687,12.38693 -26.6645,16.49569 -49.3422,15.31891 z" fill="#a5213a" fill-rule="evenodd" />
      <g>
        <g clip-path="url(#clipPath4422)">
          <path d="m 1173.7595,555.98035 a 47.10791,41.179527 0 1 1 -94.2158,0 47.10791,41.179527 0 1 1 94.2158,0 z" fill="#fff" transform="matrix(0.96910581,0.24664536,-0.24664536,0.96910581,157.14328,-268.51211)" sodipodi:cx="1126.6516" sodipodi:cy="555.98035" sodipodi:rx="47.10791" sodipodi:ry="41.179527" sodipodi:type="arc" />
          <g clip-path="url(#clipPath4409)">
            <path d="m 1124.7352,567.25055 a 23.418339,30.762417 0 1 1 -46.8366,0 23.418339,30.762417 0 1 1 46.8366,0 z" fill="url(#linearGradient4403)" transform="matrix(0.54536825,-0.83819662,0.83819662,0.54536825,12.126036,1183.6327)" sodipodi:cx="1101.3169" sodipodi:cy="567.25055" sodipodi:rx="23.418339" sodipodi:ry="30.762417" sodipodi:type="arc" />
            <path d="m 1115.2472,567.25055 a 13.930305,23.301579 0 1 1 -27.8606,0 13.930305,23.301579 0 1 1 27.8606,0 z" transform="matrix(0.64002701,-0.76835244,0.76835244,0.64002701,-51.386426,1053.6687)" sodipodi:cx="1101.3169" sodipodi:cy="567.25055" sodipodi:rx="13.930305" sodipodi:ry="23.301579" sodipodi:type="arc" />
            <path d="m 1109.2024,567.25055 a 7.8855524,11.248079 0 1 1 -15.7711,0 7.8855524,11.248079 0 1 1 15.7711,0 z" fill="#fff" transform="matrix(0.78593731,-0.61830622,0.61830622,0.78593731,-117.71126,800.30925)" sodipodi:cx="1101.3169" sodipodi:cy="567.25055" sodipodi:rx="7.8855524" sodipodi:ry="11.248079" sodipodi:type="arc" />
          </g>
        </g>
        <path d="m 1063.9656,514.02048 c 34.6955,8.8403 76.1197,32.80299 101.7543,58.52261 -33.0751,-20.84197 -63.8138,-38.84034 -101.7543,-58.52261 z" />
      </g>
      <path d="m 1158.1287,607.71049 c 0.7004,1.17347 -0.205,3.00402 -2.0222,4.08862 -1.8173,1.0846 -3.8582,1.01254 -4.5586,-0.16093 -0.7004,-1.17348 0.205,-3.00402 2.0223,-4.08862 1.8172,-1.0846 3.8581,-1.01255 4.5585,0.16093 z m 11.6709,-15.71217 c 1.1284,0.74369 1.0364,2.87438 -0.2057,4.75906 -1.242,1.88472 -3.1636,2.80965 -4.2921,2.06602 -1.1284,-0.74364 -1.0364,-2.8743 0.2057,-4.75907 1.2419,-1.88462 3.1636,-2.80965 4.2921,-2.06601 z m -19.3689,5.19502 c 0.897,1.065 0.3053,3.03926 -1.3216,4.40959 -1.6269,1.37032 -3.673,1.61785 -4.57,0.55285 -0.897,-1.06506 -0.3054,-3.03928 1.3215,-4.4096 1.6269,-1.37034 3.673,-1.61785 4.5701,-0.55284 z" fill="#ffecbc" />
      <g>
        <path d="m 1230.4161,504.67549 c 25.5728,18.29468 43.7401,54.95458 57.3185,89.77438 8.0668,-20.70279 4.7206,-50.20584 -11.6716,-72.26829 20.0312,13.32627 40.6253,32.43808 57.7726,58.42425 -0.4874,-21.06675 -7.3033,-37.65343 -19.6777,-53.033 27.2237,17.32411 54.0456,43.04251 73.3143,69.20547 -5.4393,-46.66295 -56.783,-124.94775 -149.7069,-115.10155 z m -41.9464,-25.00914 c -54.2977,-0.92678 -92.8329,7.57106 -135.5093,46.4693 -2.432,-26.41296 10.4424,-47.04774 26.7916,-65.20764 -24.3952,6.54074 -43.1282,17.18808 -63.8154,35.18072 10.5155,-44.21104 47.7288,-65.58631 85.559,-65.40954 -14.7027,-4.76324 -35.9438,-5.6505 -55.1544,-3.35875 50.2721,-26.90189 98.199,-26.08453 145.664,36.23923 z" style="stroke:#f28e46;stroke-miterlimit:20;stroke-width:6.5;fill:#f9ba61" />
        <path d="m 1069.5,473 c 24.75,-25.5 59.5,-37.25 93.75,-40.25 M 1057.5,522 c 21.75,-45.75 71.5,-72.5 117.5,-78 m 156.75,120 c -17.7513,-26.52423 -61.815,-65.66117 -94.4497,-81.16421" style="fill:none;stroke:#f28e46;stroke-miterlimit:20;stroke-width:4" />
      </g>
      <g>
        <path d="m 1179.3937,488.02363 c 10.1575,-47.14334 34.2647,-74.1928 39.6101,-73.43362 11.0695,1.57214 46.4348,64.33785 6.1629,129.00748 z" fill="#e84958" />
        <path fill="#a5213a" inkscape:original-d="m 1179.3937,488.02363 c 10.1575,-47.14334 34.2647,-74.1928 39.6101,-73.43362 11.0695,1.57214 46.4348,64.33785 6.1629,129.00748" inkscape:path-effect="#path-effect4461" />
        <path d="m 1221.4208,448.50593 c 4.3487,21.12209 1.9537,44.0785 -5.5652,64.50375 12.3515,-18.43264 13.6364,-45.37615 5.5652,-64.50375 z" fill="#a5213a" />
      </g>
    </g>
    <g>
      <path d="m 819.02044,801.0779 198.82016,22.9535 145.7987,-4.1072 -222.30681,-21.9887 z" style="stroke:#310005;stroke-linejoin:round;stroke-width:2.79999995;fill:#310005" />
      <path d="m 1009.7462,829.70685 86.8548,-60.6964 c 10.5851,-7.39717 35.6932,20.36038 24.096,26.29949 l -94.1034,48.19203 z" fill="#56382a" stroke="#382a1b" stroke-width="4" />
      <path d="m 1017.8406,824.0314 145.7987,-4.1073 -6.7736,80.1587 -136.3916,8.8511 c -6.6962,-26.817 -8.2543,-60.7092 -2.6335,-84.9025 z" fill="#740b1d" />
      <path d="m 819.02044,801.0779 198.82016,22.9535 2.6335,84.9025 -193.21926,-27.9506 z" fill="#5d0714" />
      <path d="m 1017.8406,824.0314 c -124.45259,-22.0217 -100.98416,-133.70334 7.75,-156.74997 l 38.2023,16.68824 z" fill="#740b1d" />
      <path d="m 814.72755,680.07788 -52.859,28.76852 c 67.5899,2.88594 142.68565,-1.43456 214.82446,-11.07989 l 48.89759,-30.48508 z" fill="#5d0714" />
      <path d="m 752.22755,749.57788 9.641,-40.73148 214.82446,-11.07989 -19.35241,52.26492 22.98127,59.63967 C 920.167,807.258 857.73976,802.2068 799.91113,793.1625 z" fill="#9b1a30" />
      <path d="M 819.02044,801.0779 1017.8406,824.0314 980.32187,809.6711 799.91113,793.1625 z" fill="#5d0714" />
      <path d="m 978.37062,843.1192 c -0.13499,-7.7192 -1.7429,-14.9965 -3.97747,-22.3622 -17.68655,1.6074 -15.39894,17.1138 3.97747,22.3622 z M 858.66507,826.5906 c -0.43159,-7.2396 -2.54654,-13.6716 -5.54074,-19.2686 -18.16244,0.7874 -13.18171,16.5496 5.54074,19.2686 z" fill="#5d6b68" />
      <path d="m 844.90422,824.9996 13.76085,1.591 c -7.07107,-6.2756 -8.28078,-12.7279 -5.54074,-19.2686 l -14.67246,-1.5027 c -6.18719,4.773 -2.20971,13.4351 6.45235,19.1803 z m 112.45771,-6.0988 c -6.71752,6.9827 -2.06067,17.5893 5.0104,21.9203 l 15.99829,2.2981 c -6.16258,-5.9781 -8.79843,-14.5346 -3.97747,-22.3622 z" fill="#9fb4ac" />
      <path d="m 836.15625,808.5625 c -0.52832,1.0796 -0.7127,2.248 -0.65625,3.4687 l 16.3125,0.7188 c 0.0581,-0.9357 0.19856,-1.8723 0.4375,-2.8125 l -16.09375,-1.375 z m 119.0625,13.375 c -0.56006,1.1552 -0.88852,2.371 -1.03125,3.5937 l 17.875,1.6875 c 0.17565,-1.3098 0.52502,-2.6333 1.0625,-3.9375 l -17.90625,-1.3437 z" fill="#c1d2cd" />
      <path d="m 1017.8406,824.0314 45.9523,-140.06173 m -244.77246,117.10823 198.82016,22.9535 145.7987,-4.1072" style="fill:none;stroke:#310005;stroke-linejoin:round;stroke-width:2.79999995;stroke-linecap:round" />
      <path d="m 785.02341,723.91861 c 5.55355,-13.58814 19.69287,-11.07808 16.90579,1.17888 -4.42553,19.46247 -4.67626,27.19275 1.55229,27.2414 l 75.28413,0.58808 c 6.12541,0.0479 9.11983,-8.3753 10.17817,-26.35243 0.90154,-15.31367 22.07109,-14.00532 22.07109,1.00035 0,40.04604 -7.25947,45.49494 -21.17344,45.03512 l -96.66711,-3.19457 c -16.21188,-0.53576 -21.84695,-11.98613 -8.15092,-45.49683 z" fill="#363636" />
      <g clip-path="url(#clipPath4018)">
        <path d="m 775.32385,711.5697 143.84194,0 0.26345,23.57856 -145.81779,-5.26894 z" fill="#5d6b68" />
        <path d="m 805.09112,731.26319 c -9.4986,-1.2202 -18.00184,-1.71982 -28.32,-1.27871 m -0.0546,-5.04371 c 10.60034,-0.28613 19.37632,-0.0348 29.03786,1.71515 m 108.99808,8.34427 c -10.61825,-2.14227 -19.18736,-2.04913 -28.78104,-0.0932 m -0.18628,-6.42681 c 9.50053,-1.58342 20.49135,-1.02456 29.43303,1.58343" fill="none" stroke="#8da09a" stroke-width="4" />
      </g>
    </g>
  </g>
</svg>