<?xml version="1.0" encoding="UTF-8" standalone="no"?>
<!-- Created with Inkscape (http://www.inkscape.org/) -->

<svg
   xmlns:dc="http://purl.org/dc/elements/1.1/"
   xmlns:cc="http://creativecommons.org/ns#"
   xmlns:rdf="http://www.w3.org/1999/02/22-rdf-syntax-ns#"
   xmlns:svg="http://www.w3.org/2000/svg"
   xmlns="http://www.w3.org/2000/svg"
   xmlns:xlink="http://www.w3.org/1999/xlink"
   xmlns:sodipodi="http://sodipodi.sourceforge.net/DTD/sodipodi-0.dtd"
   xmlns:inkscape="http://www.inkscape.org/namespaces/inkscape"
   width="1052.3622"
   height="744.09448"
   id="svg2"
   version="1.1"
   inkscape:version="0.48.3.1 r9886"
   sodipodi:docname="Utrecht Pony.svg"
   inkscape:export-filename="/home/parclytaxel/Pictures/Utrecht Pony.png"
   inkscape:export-xdpi="1206.473"
   inkscape:export-ydpi="1206.473">
  <defs
     id="defs4">
    <inkscape:path-effect
       effect="skeletal"
       id="path-effect5072"
       is_visible="true"
       pattern="m 287.73653,468.19428 c -20.70963,0 -41.08802,0.73251 -62,4 20.91198,2.94075 41.29037,4 62,4 l 542,0 c 20.70964,0 42.39502,-1.05925 62,-4 -19.60498,-3.26749 -41.29036,-4 -62,-4 z"
       copytype="single_stretched"
       prop_scale="1"
       scale_y_rel="false"
       spacing="0"
       normal_offset="0"
       tang_offset="0"
       prop_units="false"
       vertical_pattern="false"
       fuse_tolerance="0"
       pattern-nodetypes="scsscss" />
    <inkscape:path-effect
       effect="skeletal"
       id="path-effect8776"
       is_visible="true"
       pattern="m 131,750.2677 0,8 592,0 c 20.70964,0 42.39502,-1.05925 62,-4 -19.60498,-3.26749 -41.29036,-4 -62,-4 z"
       copytype="single_stretched"
       prop_scale="1"
       scale_y_rel="false"
       spacing="0"
       normal_offset="0"
       tang_offset="0"
       prop_units="false"
       vertical_pattern="false"
       fuse_tolerance="0"
       pattern-nodetypes="ccscsc" />
    <inkscape:path-effect
       effect="skeletal"
       id="path-effect8744"
       is_visible="true"
       pattern="m 147.07821,738.18862 5.70711,8 426.29289,0 c 20.70964,0 42.39502,-1.05925 62,-4 -19.60498,-3.26749 -41.29036,-4 -62,-4 z"
       copytype="single_stretched"
       prop_scale="1"
       scale_y_rel="false"
       spacing="0"
       normal_offset="0"
       tang_offset="0"
       prop_units="false"
       vertical_pattern="false"
       fuse_tolerance="0"
       pattern-nodetypes="ccscsc" />
    <inkscape:path-effect
       effect="skeletal"
       id="path-effect8712"
       is_visible="true"
       pattern="m 365.71129,797.58559 -15.70711,8 604,0 c 20.70964,0 42.39502,-1.05925 62.00002,-4 -19.605,-3.26749 -41.29038,-4 -62.00002,-4 z"
       copytype="single_stretched"
       prop_scale="1"
       scale_y_rel="false"
       spacing="0"
       normal_offset="0"
       tang_offset="0"
       prop_units="false"
       vertical_pattern="false"
       fuse_tolerance="0"
       pattern-nodetypes="ccscsc" />
    <inkscape:path-effect
       effect="skeletal"
       id="path-effect5695"
       is_visible="true"
       pattern="m 561.5,482.5 c -20.70963,0 -41.08802,0.73251 -62,4 20.91198,2.94075 41.29037,4 62,4 l 136,0 -7.375,-8 z"
       copytype="single_stretched"
       prop_scale="1"
       scale_y_rel="false"
       spacing="0"
       normal_offset="0"
       tang_offset="0"
       prop_units="false"
       vertical_pattern="false"
       fuse_tolerance="0"
       pattern-nodetypes="scsccs" />
    <inkscape:path-effect
       effect="skeletal"
       id="path-effect5663"
       is_visible="true"
       pattern="m 568,472 c -20.70963,0 -41.08802,0.73251 -62,4 20.91198,2.94075 41.29037,4 62,4 l 276,0 c 20.70964,0 42.39502,-1.05925 62,-4 -19.60498,-3.26749 -41.29036,-4 -62,-4 z"
       copytype="single_stretched"
       prop_scale="1"
       scale_y_rel="false"
       spacing="0"
       normal_offset="0"
       tang_offset="0"
       prop_units="false"
       vertical_pattern="false"
       fuse_tolerance="0"
       pattern-nodetypes="scsscss" />
    <inkscape:path-effect
       effect="skeletal"
       id="path-effect3786"
       is_visible="true"
       pattern="m 607.02536,573.77246 c -20.70963,0 -41.08802,0.73251 -62,4 20.91198,2.94075 41.29037,4 62,4 l 202,0 c 20.70964,0 42.39502,-1.05925 62,-4 -19.60498,-3.26749 -41.29036,-4 -62,-4 z"
       copytype="single_stretched"
       prop_scale="1"
       scale_y_rel="false"
       spacing="0"
       normal_offset="0"
       tang_offset="0"
       prop_units="false"
       vertical_pattern="false"
       fuse_tolerance="0"
       pattern-nodetypes="scsscss" />
    <linearGradient
       inkscape:collect="always"
       id="linearGradient3763">
      <stop
         style="stop-color:#4a4a4a;stop-opacity:1"
         offset="0"
         id="stop3765" />
      <stop
         style="stop-color:#b7b7b7;stop-opacity:1"
         offset="1"
         id="stop3767" />
    </linearGradient>
    <linearGradient
       inkscape:collect="always"
       xlink:href="#linearGradient3763"
       id="linearGradient4862"
       gradientUnits="userSpaceOnUse"
       x1="764.47144"
       y1="340.95914"
       x2="756.76868"
       y2="406.83069" />
    <clipPath
       clipPathUnits="userSpaceOnUse"
       id="clipPath4871">
      <use
         height="744.09448"
         width="1052.3622"
         id="use4873"
         xlink:href="#path4782"
         y="0"
         x="0" />
    </clipPath>
    <clipPath
       clipPathUnits="userSpaceOnUse"
       id="clipPath4884">
      <use
         x="0"
         y="0"
         xlink:href="#path4774"
         id="use4886"
         width="1052.3622"
         height="744.09448" />
    </clipPath>
    <clipPath
       clipPathUnits="userSpaceOnUse"
       id="clipPath8805">
      <path
         style="font-size:medium;font-style:normal;font-variant:normal;font-weight:normal;font-stretch:normal;text-indent:0;text-align:start;text-decoration:none;line-height:normal;letter-spacing:normal;word-spacing:normal;text-transform:none;direction:ltr;block-progression:tb;writing-mode:lr-tb;text-anchor:start;baseline-shift:baseline;color:#000000;fill:none;stroke:#000000;stroke-width:1;stroke-miterlimit:4;stroke-dasharray:none;marker:none;visibility:visible;display:inline;overflow:visible;enable-background:accumulate;font-family:Sans;-inkscape-font-specification:Sans"
         d="m 834.78125,740.375 c 13.38507,3.03259 27.33678,3.85076 41.8125,2.4375 L 949,584.36218 l -372,-89 -303,104 -21,233 565,-32 z"
         id="path8807"
         inkscape:connector-curvature="0"
         sodipodi:nodetypes="cc" />
    </clipPath>
    <clipPath
       clipPathUnits="userSpaceOnUse"
       id="clipPath8812">
      <path
         sodipodi:nodetypes="ccccc"
         inkscape:connector-curvature="0"
         id="path8814"
         d="m 828.72179,747.84916 c 5.02107,-0.0974 9.31186,0.0457 12.92084,0.39155 l 24.46789,0.27133 c 7.42015,-10.3347 12.38477,-22.46805 14.00823,-35.14944 l -77.49375,0.74958 0.11797,35.6083 z"
         style="fill:none;stroke:#000000" />
    </clipPath>
    <clipPath
       clipPathUnits="userSpaceOnUse"
       id="clipPath5093">
      <path
         style="fill:none;stroke:#666666;stroke-width:0.62713969;stroke-miterlimit:4;stroke-dasharray:none"
         clip-path="none"
         d="m 675.05767,325.91271 c 5.27721,-0.26056 10.68151,0.93834 16.01444,2.55766 l 1e-5,10e-6 c 7.91703,2.43332 15.50158,6.0476 22.83947,10.15979 l -10.03473,-55.29731 c -2.26517,-11.69333 -6.06964,-22.94512 -10.21617,-33.92813 -4.10206,-10.88139 -8.64225,-21.52851 -12.86456,-32.23763 L 662.68204,185.26504 617.40518,167.3222 600.11647,272.32126 z"
         id="path5095"
         inkscape:connector-curvature="0"
         sodipodi:nodetypes="ccccccc" />
    </clipPath>
    <clipPath
       clipPathUnits="userSpaceOnUse"
       id="clipPath5097">
      <path
         style="font-size:medium;font-style:normal;font-variant:normal;font-weight:normal;font-stretch:normal;text-indent:0;text-align:start;text-decoration:none;line-height:normal;letter-spacing:normal;word-spacing:normal;text-transform:none;direction:ltr;block-progression:tb;writing-mode:lr-tb;text-anchor:start;baseline-shift:baseline;color:#000000;fill:none;stroke:#666666;stroke-width:1;stroke-miterlimit:4;stroke-dasharray:none;marker:none;visibility:visible;display:inline;overflow:visible;enable-background:accumulate;font-family:Sans;-inkscape-font-specification:Sans"
         d="m 488.17003,419.87808 c 15.09638,28.79788 30.046,70.96059 40.0682,126.5226 l 12.06633,23.83287 4.52867,81.16761 -23.68841,8.01225 -8.94216,-22.50767 C 471.82048,593.69516 445.78537,560.12315 430.38072,535.30131 l -20.49276,173.18852 182.2819,-4.92654 3.94123,-363.5785 -105.42791,5.91185 z"
         clip-path="none"
         id="path5099"
         inkscape:connector-curvature="0"
         sodipodi:nodetypes="ccccccc" />
    </clipPath>
    <clipPath
       clipPathUnits="userSpaceOnUse"
       id="clipPath5103">
      <use
         x="0"
         y="0"
         xlink:href="#path5089"
         id="use5105"
         width="1"
         height="1" />
    </clipPath>
  </defs>
  <sodipodi:namedview
     id="base"
     pagecolor="#ffffff"
     bordercolor="#666666"
     borderopacity="1.0"
     inkscape:pageopacity="0.0"
     inkscape:pageshadow="2"
     inkscape:zoom="0.7176508"
     inkscape:cx="526.18109"
     inkscape:cy="372.04724"
     inkscape:document-units="px"
     inkscape:current-layer="layer1"
     showgrid="true"
     showguides="true"
     inkscape:window-width="1364"
     inkscape:window-height="698"
     inkscape:window-x="0"
     inkscape:window-y="0"
     inkscape:window-maximized="1"
     inkscape:guide-bbox="true"
     inkscape:object-paths="false"
     inkscape:object-nodes="false">
    <inkscape:grid
       empspacing="5"
       visible="true"
       enabled="false"
       snapvisiblegridlinesonly="true"
       spacingx="8px"
       spacingy="8px"
       type="xygrid"
       id="grid3771" />
  </sodipodi:namedview>
  <metadata
     id="metadata7">
    <rdf:RDF>
      <cc:Work
         rdf:about="">
        <dc:format>image/svg+xml</dc:format>
        <dc:type
           rdf:resource="http://purl.org/dc/dcmitype/StillImage" />
        <dc:title></dc:title>
      </cc:Work>
    </rdf:RDF>
  </metadata>
  <g
     inkscape:label="Layer 1"
     inkscape:groupmode="layer"
     id="layer1"
     transform="translate(0,-308.2677)">
    <path
       clip-path="none"
       sodipodi:nodetypes="ccccsscc"
       inkscape:connector-curvature="0"
       d="M 551.99433,696.53627 C 427.38218,643.75173 431.36025,572.97478 486.51503,600.45137 373.96794,457.4296 435.52125,448.23246 484.39413,509.3102 c -78.30715,-177.34888 2.85204,-188.34991 45.28311,-37.79005 -4.88822,-49.97728 -11.67363,-94.49018 7.59754,-99.15887 10.39616,-2.51861 29.88709,18.97092 36.76652,47.36751 23.80207,98.24907 -34.52843,194.7888 2.09107,264.7845 z"
       style="fill:#e3d24d;fill-opacity:1;stroke:#d8c524;stroke-width:8;stroke-miterlimit:20;stroke-opacity:1;stroke-dasharray:none"
       id="path5115" />
    <path
       sodipodi:nodetypes="cssscc"
       inkscape:connector-curvature="0"
       id="path5900"
       d="m 323.6612,733.77865 c -1.01514,-7.25573 -5.90399,-15.56797 -11.92488,-17.42162 -62.54776,-19.25619 -129.16333,-26.54258 -199.88823,-25.90062 -29.831318,0.2708 -23.017311,124.37558 5.12029,116.11215 202.28082,-59.4059 228.602,21.23161 318.93235,-51.70855 z"
       style="fill:#e3d24d;fill-opacity:1;stroke:#d8c524;stroke-width:8;stroke-linecap:butt;stroke-linejoin:miter;stroke-miterlimit:20;stroke-opacity:1;stroke-dasharray:none" />
    <g
       id="g3888">
      <path
         sodipodi:nodetypes="ccccc"
         transform="translate(0,308.2677)"
         inkscape:connector-curvature="0"
         id="path3840"
         d="M 371.29289,333.97316 C 143.05025,262.4412 153.13351,424.17417 -37.707107,457.09448 c -0.25,15.75 -0.5,28.5 -2,43 C 167.07612,467.08229 175.97561,331.53814 368.84924,337.6092 z"
         style="fill:#ed6464;stroke:#ea4c4c;stroke-width:8;stroke-linecap:butt;stroke-linejoin:miter;stroke-miterlimit:20;stroke-opacity:1;stroke-dasharray:none;fill-opacity:1" />
      <path
         style="fill:#321667;stroke:#251149;stroke-width:8;stroke-linecap:butt;stroke-linejoin:miter;stroke-miterlimit:20;stroke-opacity:1;stroke-dasharray:none;fill-opacity:1"
         d="M 369.29289,336.97316 C 164.38477,298.67522 195.832,423.81021 -23.292893,463.09448 c -0.25,15.75 -0.5,28.5 -2,43 C 202.70353,463.88989 192.36039,339.48788 366.84924,340.6092 z"
         id="path3863"
         inkscape:connector-curvature="0"
         transform="translate(0,308.2677)"
         sodipodi:nodetypes="ccccc" />
      <path
         transform="translate(0,308.2677)"
         style="fill:#321667;stroke:#251149;stroke-width:8;stroke-linecap:butt;stroke-linejoin:miter;stroke-miterlimit:20;stroke-opacity:1;stroke-dasharray:none;fill-opacity:1"
         d="m 363.04289,346.43027 c -151.168,-17.08474 -121.78449,126.19975 -383.335783,132.9571 -0.25,15.75 -0.5,28.5 -2,43 C 287.72792,493.61781 236.31497,360.96581 360.59924,350.06631 z"
         id="path3867"
         inkscape:connector-curvature="0"
         sodipodi:nodetypes="ccccc" />
      <path
         sodipodi:nodetypes="ccccc"
         transform="translate(0,308.2677)"
         inkscape:connector-curvature="0"
         id="path3865"
         d="M 366.04289,341.72316 C 188.71193,311.9105 213.45941,458.68027 -29,471.09448 c -0.25,15.75 -0.5,28.5 -2,43 C 226.69491,483.91071 207.49516,346.3592 363.59924,345.3592 z"
         style="fill:#ed6464;stroke:#ea4c4c;stroke-width:8;stroke-linecap:butt;stroke-linejoin:miter;stroke-miterlimit:20;stroke-opacity:1;stroke-dasharray:none;fill-opacity:1" />
    </g>
    <path
       style="fill:#ffffff;fill-opacity:1;stroke:#b0d8e7;stroke-width:6;stroke-linecap:butt;stroke-linejoin:miter;stroke-miterlimit:4;stroke-opacity:1;stroke-dasharray:none"
       d="m 861.4935,735.37644 -7.23528,21.45064 -52.68682,-11.69759 3.03554,-22.80204 z"
       id="path8816"
       inkscape:connector-curvature="0"
       sodipodi:nodetypes="ccccc" />
    <path
       clip-path="none"
       sodipodi:nodetypes="cssssscssscsccc"
       inkscape:connector-curvature="0"
       id="path9607"
       d="m 866.23889,740.86959 c 5.04857,-8.56802 8.69254,-18.43198 9.91187,-28.01203 1.18358,-9.29917 -32.34004,-3.66585 -29.57504,-14.05725 36.44066,-136.95081 -131.45866,-192.82485 -177.66632,-74.9368 -14.73795,37.60043 -45.98174,45.58 -86.68347,46.63948 C 469.04781,673.44904 391.42514,605.25001 342,655.36218 307.15353,690.69302 319.8987,722.8764 312.23449,739.1928 310.05221,731.46523 305.15401,725.47831 298.6596,723.85388 235.17074,707.97357 168.26064,704.26356 97.671573,708.69061 67.897453,710.55791 81.345142,834.12 109,824.36218 c 149.79503,-52.85412 209.47313,-16.14463 262.73496,-31.65277 151.31826,28.02831 217.55066,-31.68069 370.02005,-11.16912 78.49456,10.5598 148.62032,-29.64303 98.28974,-33.43598 l -14.68172,-12.27597 c 12.9047,3.18198 28.3621,5.16565 40.87586,5.04125 z"
       style="fill:#e8db6f;fill-opacity:1;stroke:none" />
    <g
       id="g5715">
      <path
         transform="matrix(0.9171594,-0.33948857,0.33948857,0.9171594,-96.446731,555.75656)"
         d="m 823.67165,417.33972 a 43.969501,57.978889 0 1 1 -87.939,0 43.969501,57.978889 0 1 1 87.939,0 z"
         sodipodi:ry="57.978889"
         sodipodi:rx="43.969501"
         sodipodi:cy="417.33972"
         sodipodi:cx="779.70215"
         id="path4774"
         style="fill:#ffffff;stroke:none"
         sodipodi:type="arc" />
      <g
         clip-path="url(#clipPath4884)"
         id="g4875">
        <path
           sodipodi:type="arc"
           style="fill:url(#linearGradient4862);fill-opacity:1;stroke:none"
           id="path4782"
           sodipodi:cx="773.92834"
           sodipodi:cy="374.45441"
           sodipodi:rx="35.691181"
           sodipodi:ry="46.297527"
           d="m 809.61953,374.45441 a 35.691181,46.297527 0 1 1 -71.38237,0 35.691181,46.297527 0 1 1 71.38237,0 z"
           transform="matrix(0.96125109,-0.27567431,0.27567431,0.96125109,-73.506356,534.92259)" />
        <g
           id="g4800"
           clip-path="url(#clipPath4871)">
          <path
             sodipodi:nodetypes="ccccc"
             transform="translate(0,308.2677)"
             inkscape:connector-curvature="0"
             id="path4797"
             d="m 733.59835,398.26085 13.78553,29.71751 24.60356,-36.59619 -5.68934,-7.12348 z"
             style="fill:#d8d8d8;fill-opacity:1;fill-rule:nonzero;stroke:none" />
          <path
             sodipodi:nodetypes="ccccc"
             transform="translate(0,308.2677)"
             inkscape:connector-curvature="0"
             id="path4795"
             d="m 726.60355,392.44283 42.65901,-11.86091 0.68934,5.7071 -36.23223,25.43414 z"
             style="fill:#ababab;fill-opacity:1;fill-rule:nonzero;stroke:none" />
        </g>
        <path
           transform="matrix(0.75944349,-0.21267592,0.21267592,0.75944349,111.87188,563.94107)"
           d="m 808.6671,374.45441 a 34.73875,46.97599 0 1 1 -69.47751,0 34.73875,46.97599 0 1 1 69.47751,0 z"
           sodipodi:ry="46.97599"
           sodipodi:rx="34.73875"
           sodipodi:cy="374.45441"
           sodipodi:cx="773.92834"
           id="path4784"
           style="fill:#000000;stroke:none"
           sodipodi:type="arc" />
        <path
           sodipodi:type="arc"
           style="fill:#ffffff;stroke:none"
           id="path4786"
           sodipodi:cx="766.625"
           sodipodi:cy="372.09448"
           sodipodi:rx="13.85365"
           sodipodi:ry="21.612259"
           d="m 780.47865,372.09448 a 13.85365,21.612259 0 1 1 -27.7073,0 13.85365,21.612259 0 1 1 27.7073,0 z"
           transform="matrix(0.96363611,0.26721799,-0.26721799,0.96363611,118.05781,101.19251)" />
        <path
           transform="matrix(0.28888235,0.08959811,-0.08959811,0.28888235,583.21922,511.10931)"
           d="m 781.11413,372.09448 a 14.489131,22.75 0 1 1 -28.97826,0 14.489131,22.75 0 1 1 28.97826,0 z"
           sodipodi:ry="22.75"
           sodipodi:rx="14.489131"
           sodipodi:cy="372.09448"
           sodipodi:cx="766.625"
           id="path4788"
           style="fill:#ffffff;stroke:none"
           sodipodi:type="arc" />
      </g>
      <path
         sodipodi:nodetypes="cccccccccc"
         inkscape:connector-curvature="0"
         d="m 719.8402,635.96981 3.20094,-4.77882 c -32.39838,-16.90531 -34.99705,-12.93908 -3.20094,4.77882 z m -4.70386,9.87866 2.44457,-5.08098 c -34.57281,-11.83918 -36.54418,-7.65218 -2.44457,5.08098 z m -3.44067,5.0785 c -33.08397,-6.16077 -34.34131,-0.98392 4.09925,6.50048 16.02697,-68.44074 96.05009,-32.70123 86.6708,44.44304 23.56457,-75.55499 -70.1311,-124.45464 -90.77005,-50.94352 z"
         style="fill:#000000;fill-opacity:1;fill-rule:nonzero;stroke:none"
         id="path4823" />
    </g>
    <path
       style="fill:none;stroke:#decc36;stroke-width:6;stroke-linecap:butt;stroke-linejoin:miter;stroke-miterlimit:20;stroke-opacity:1;stroke-dasharray:none"
       d="m 876.30686,739.82427 c -18.96774,1.85182 -36.92314,-0.17777 -53.88775,-6.1015 13,13.25 30.89155,22.10388 49.14155,23.10388"
       id="path4790"
       inkscape:connector-curvature="0"
       sodipodi:nodetypes="ccc"
       clip-path="url(#clipPath8812)" />
    <path
       style="fill:#decc36;fill-opacity:1;stroke:none"
       d="m 855.01232,716.23831 c 2.20604,4.41211 4.66988,4.91185 8.13651,1.4452 -1.49696,8.11508 -9.00316,6.58549 -8.13651,-1.4452 z"
       id="path4792"
       inkscape:connector-curvature="0"
       sodipodi:nodetypes="ccc" />
    <path
       style="fill:#decc36;fill-opacity:1;stroke:none"
       d="m 855.67149,748.84914 6.06378,5.2183 c 9.83941,-11.40932 16.45899,-25.67202 18.38348,-40.70484 0.15874,-1.09023 0.0372,-2.28104 -0.3975,-3.50516 -0.47322,-1.15443 -1.11723,-2.07667 -1.86346,-2.75096 -1.76306,-1.5284 -3.534,-2.33509 -4.99461,-2.7156 0,0 -1e-5,-1e-5 -2e-5,-1e-5 -4.07489,-1.26924 -8.01239,-1.66726 -11.56361,-2.11717 -10e-6,0 -2e-5,0 -2e-5,0 -3.65605,-0.52989 -6.98869,-0.81473 -9.63567,-1.92201 0,-10e-6 -10e-6,-10e-6 -10e-6,-10e-6 -0.86255,-0.46321 -1.45786,-0.63192 -1.37296,-0.75898 0,0 10e-6,0 10e-6,0 0.0477,0.0522 0.0725,0.13148 0.11406,0.28416 -0.0115,0.14527 0.0241,0.11199 0.0363,-0.048 4.21088,-15.77307 6.19109,-32.29583 4.84442,-48.73398 0,-10e-6 0,-2e-5 0,-4e-5 -1.14294,-13.87769 -4.75933,-27.61249 -11.02189,-40.14773 -5.69135,-11.37221 -13.53677,-21.65324 -23.04702,-30.11354 -9.10013,-8.09171 -19.67617,-14.49524 -31.06495,-18.80718 -11.18816,-4.23703 -23.14936,-6.444 -35.13938,-6.36867 -12.07902,0.0776 -24.14236,2.51245 -35.2875,7.24003 -1e-5,0 -1e-5,0 -2e-5,10e-6 -11.85725,5.04253 -22.53511,12.64028 -31.33088,21.97821 -10.20093,10.84959 -17.85238,23.82026 -23.20874,37.52782 -3.1687,8.0339 -7.48465,15.588 -13.24095,21.73443 -5.11112,5.50249 -11.43112,9.92004 -18.32131,13.11829 -7.29034,3.39451 -15.26186,5.47769 -23.41358,6.85437 -10e-6,0 -2e-5,0 -3e-5,0 -9.19075,1.54241 -18.60269,2.14108 -28.08751,2.39346 -1e-5,0 -2e-5,0 -4e-5,0 -25.90623,0.68508 -51.89403,-2.56311 -77.38016,-8.08041 -10e-6,0 -2e-5,-1e-5 -3e-5,-1e-5 -21.90664,-4.74462 -43.53761,-11.28511 -65.52155,-17.04784 -9.40596,-2.46932 -18.93902,-4.78158 -28.67296,-6.41359 -1e-5,0 -3e-5,0 -4e-5,0 -8.56088,-1.44302 -17.3574,-2.33402 -26.25097,-1.95752 -1e-5,0 -2e-5,0 -4e-5,0 -8.10998,0.34021 -16.28681,1.88069 -23.9593,5.04669 -8.01404,3.34319 -15.18003,8.39937 -21.18467,14.50168 -6.02605,6.09057 -11.40111,12.93422 -15.70385,20.43173 -2.28628,3.98384 -4.2624,8.19833 -5.8351,12.60444 -3.27608,9.30876 -4.57308,19.10144 -4.82759,28.61872 -0.10999,3.92555 -0.0708,7.76193 -0.14719,11.52566 -0.0742,3.23338 -0.19274,6.36634 -0.77491,9.37085 0,10e-6 0,10e-6 -10e-6,10e-6 -0.51318,2.61704 -1.3743,5.15732 -2.88489,7.29909 -1.65756,2.39221 -4.13642,4.28053 -6.85726,5.66545 2.97885,-0.69015 5.96748,-2.03036 8.39956,-4.33165 2.16974,-2.08503 3.74809,-4.80308 4.78319,-7.66566 0,0 0,0 0,0 1.17916,-3.22654 1.83072,-6.61093 2.3151,-9.91089 0.57549,-3.85373 0.95874,-7.70776 1.41509,-11.48424 1.11531,-9.10423 2.7598,-18.1201 5.93774,-26.37012 1.4924,-3.93312 3.31661,-7.71897 5.40204,-11.3407 3.92474,-6.81603 8.88979,-13.1141 14.47384,-18.79501 5.34855,-5.4087 11.63846,-9.87459 18.55645,-12.73084 6.61991,-2.76787 13.89071,-4.10707 21.24122,-4.44285 10e-6,0 2e-5,0 4e-5,0 8.11294,-0.36708 16.35299,0.48991 24.58157,1.85552 9.3534,1.56102 18.65012,3.82264 27.96393,6.26165 21.79189,5.71528 43.53412,12.2824 65.8553,17.12774 1e-5,0 2e-5,0 2e-5,0 25.95198,5.63607 52.57426,8.94391 79.28361,8.2594 10e-6,0 2e-5,-10e-6 3e-5,-10e-6 9.68887,-0.24671 19.47099,-0.88096 29.19804,-2.50018 8.64345,-1.43022 17.29614,-3.72386 25.45707,-7.48575 7.76511,-3.58947 14.91566,-8.60915 20.81296,-14.92468 6.56162,-7.07739 11.40906,-15.47594 14.83542,-24.26779 5.07245,-12.89912 12.18167,-25.01387 21.58204,-34.96007 8.07412,-8.56002 17.85359,-15.53224 28.63571,-20.1016 1e-5,-10e-6 3e-5,-10e-6 4e-5,-2e-5 10.13533,-4.30736 21.17399,-6.53016 32.21349,-6.60399 10.96988,-0.0751 21.96955,1.95921 32.25476,5.85073 10.4687,3.96202 20.21673,9.86428 28.58091,17.30338 8.7383,7.76792 15.97112,17.24972 21.20919,27.71584 5.78026,11.5278 9.12379,24.28938 10.20329,37.22809 1e-5,10e-6 1e-5,3e-5 1e-5,4e-5 1.28772,15.34889 -0.61194,30.9657 -4.60276,46.01613 -0.29396,0.99045 -0.37908,2.1705 -0.18477,3.48831 10e-6,3e-5 10e-6,6e-5 2e-5,9e-5 0.22456,1.19498 0.69977,2.26374 1.38601,3.15986 10e-6,2e-5 3e-5,4e-5 5e-5,6e-5 1.60044,1.87571 3.34413,2.91611 4.81812,3.37408 10e-6,10e-6 3e-5,10e-6 4e-5,2e-5 4.06167,1.53757 8.01948,1.98479 11.5112,2.40916 10e-6,10e-6 2e-5,10e-6 4e-5,10e-6 3.75653,0.52571 7.23157,0.81948 10.17622,1.80441 10e-6,1e-5 2e-5,1e-5 3e-5,2e-5 1.0414,0.42296 1.79339,0.62629 1.93777,0.90548 0.008,0.0401 -0.006,-0.024 -0.10962,-0.2079 -0.0547,-0.22647 -0.0865,-0.32166 -0.0626,-0.35284 -1.68867,13.35514 -7.68419,26.21509 -16.51128,36.49662 z"
       id="path5615"
       inkscape:connector-curvature="0"
       sodipodi:nodetypes="csssssc"
       inkscape:path-effect="#path-effect8776"
       inkscape:original-d="m 858.70338,751.45829 c 8.83439,-10.26574 15.68204,-24.73078 17.44738,-38.60073 1.18358,-9.29917 -32.34004,-3.66585 -29.57504,-14.05725 36.44066,-136.95081 -131.45866,-192.82485 -177.66632,-74.9368 -14.73795,37.60043 -45.98174,45.58 -86.68347,46.63948 C 469.04781,673.44904 391.42514,605.25001 342,655.36218 c -43.2244,43.82523 -13.22183,82.80761 -39.87868,92.70711"
       clip-path="url(#clipPath8805)" />
    <path
       style="fill:#decc36;fill-opacity:1;stroke:none"
       d="m 309.2007,743.62226 c 2.22401,-2.77408 4.14697,-6.09588 5.32233,-9.97191 -0.85887,-1.90502 -1.91206,-3.74334 -3.1745,-5.47233 -2.75313,-3.814 -6.79812,-6.8872 -11.71832,-8.20459 -65.96645,-16.47828 -134.60042,-19.53292 -202.209008,-15.27498 -2.534234,0.1711 -4.948841,0.99507 -7.028901,2.36287 -6e-6,10e-6 -1.2e-5,10e-6 -1.7e-5,10e-6 -2.194906,1.48087 -3.913883,3.32758 -5.21491,5.27281 -4e-6,10e-6 -7e-6,10e-6 -1e-5,2e-5 -3.331252,4.97316 -5.035993,10.50292 -6.09765,15.75569 -2e-6,1e-5 -4e-6,2e-5 -6e-6,3e-5 -1.445449,6.8175 -2.036188,13.70312 -2.198629,20.493 -0.189646,7.60003 0.159597,15.19077 0.940121,22.71499 0.768314,7.4343 1.961803,14.85219 3.699157,22.17028 1.499,6.35189 3.425476,12.73253 6.218188,18.86341 1.138124,2.50206 2.467141,4.99927 4.089643,7.39161 1.322202,1.97341 2.943069,3.91991 4.972382,5.62747 1e-5,0 1.9e-5,10e-6 2.9e-5,2e-5 1.683203,1.44223 3.801711,2.62078 6.293261,3.23975 2.4773,0.54048 4.97587,0.35399 7.23709,-0.45615 39.36166,-13.8773 80.0467,-24.24375 121.43044,-27.9996 0,0 1e-5,-1e-5 2e-5,-1e-5 26.65366,-2.43945 53.62174,-1.54937 80.62358,-0.12142 10.28763,0.55071 20.70074,1.08438 31.21713,0.75328 2.37571,-0.0731 4.75859,-0.19807 7.14271,-0.38559 7.07197,-0.55626 14.23332,-1.73146 21.21725,-3.83212 9.76346,-2.95886 18.89953,-7.74886 26.86317,-13.73461 10.41263,-7.83755 18.88797,-17.39998 25.88186,-27.15912 -9.00116,7.96963 -18.5668,15.9541 -29.1328,22.36211 -8.03461,4.8782 -16.70802,8.77295 -25.69964,11.1567 -6.44293,1.72433 -13.08789,2.70225 -19.75654,3.2248 -2.24815,0.17617 -4.50743,0.29655 -6.77191,0.37193 -10.07004,0.32774 -20.2563,-0.20353 -30.53659,-0.7461 -27.11045,-1.44835 -54.46189,-2.3312 -81.77367,0.1431 -42.22614,3.85714 -83.55667,14.36454 -123.36691,28.42249 -0.93997,0.31938 -1.95496,0.42144 -2.78634,0.20287 -0.93839,-0.16792 -1.95221,-0.80105 -2.97919,-1.6035 -1e-5,0 -1e-5,0 -1e-5,0 -1.26189,-1.01835 -2.37999,-2.41267 -3.464072,-3.97089 -1.298409,-1.89459 -2.406169,-3.99953 -3.425875,-6.2148 -2.506695,-5.45441 -4.263747,-11.34227 -5.709915,-17.38506 -1.648944,-6.9331 -2.784383,-14.00921 -3.525009,-21.14496 -0.746589,-7.2213 -1.082485,-14.47041 -0.900079,-21.6901 0.1705,-6.47199 0.70342,-12.86829 2.025169,-19.02504 2e-6,-10e-6 4e-6,-2e-5 6e-6,-3e-5 1.084588,-4.81006 2.380167,-9.38737 4.870163,-12.89832 5e-6,0 1e-5,-10e-6 1.5e-5,-2e-5 0.928093,-1.30357 1.912255,-2.43015 3.010464,-3.1124 6e-6,0 1.2e-5,-10e-6 1.7e-5,-10e-6 0.943676,-0.61836 2.061166,-1.00973 3.13755,-1.06507 67.036196,-4.18642 134.856176,-1.20625 199.767046,15.05156 2.73787,0.59811 5.2863,2.67051 7.22863,5.2022 2.24562,2.97853 3.59883,6.75289 4.28308,10.68573 z"
       id="path5617"
       inkscape:connector-curvature="0"
       sodipodi:nodetypes="csssc"
       inkscape:path-effect="#path-effect8744"
       inkscape:original-d="M 313.14645,742.96573 C 311.56757,733.4766 306.18528,725.73626 298.6596,723.85388 235.17075,707.97354 168.26064,704.26356 97.671573,708.69061 67.897453,710.55791 81.345141,834.12 109,824.36218 307.81076,754.2132 347.8797,841.83137 424.70711,755.65507" />
    <path
       style="fill:#decc36;fill-opacity:1;stroke:none"
       d="m 377.56536,789.70882 c -4.55661,1.91777 -9.17339,3.76928 -13.84613,5.553 34.19789,6.84956 69.18268,10.05539 104.09308,8.82895 29.14857,-1.03588 57.97836,-5.13877 86.53903,-9.77 0,0 0,0 10e-6,0 28.50422,-4.61208 56.89114,-9.4127 85.42329,-11.64801 33.7873,-2.65567 67.85427,-1.68776 101.44706,2.83182 19.88717,2.67343 40.13951,2.35842 59.93851,-0.72558 10e-6,0 2e-5,0 3e-5,0 8.29308,-1.28923 16.53633,-3.07665 24.62429,-5.48603 10e-6,0 10e-6,0 2e-5,0 6.46521,-1.92039 12.90472,-4.25035 19.08737,-7.31372 0.36396,-0.17566 0.72944,-0.35508 1.09589,-0.53877 3.82367,-1.91668 7.78207,-4.38891 11.07658,-7.93726 10e-6,0 10e-6,0 10e-6,0 1.1816,-1.21952 2.32348,-2.86416 3.07174,-4.94938 0,0 0,-1e-5 0,-1e-5 0.63013,-1.74844 0.59201,-3.79067 -0.23097,-5.78763 0,0 -10e-6,0 -10e-6,0 -1.09761,-2.08094 -2.61753,-3.39402 -4.11473,-4.09388 0,0 0,0 0,0 -2.18329,-1.12652 -4.37438,-1.67331 -6.41291,-1.96429 -3.62325,-0.54321 -7.18064,-0.59011 -10.62773,-0.33574 -3.44708,0.25436 -6.78372,0.80859 -10.008,1.47687 6.49814,1.22005 13.22777,2.17001 19.31094,4.30704 1.69697,0.61314 3.23786,1.23184 4.36056,2.09553 0,0 0,0 0,0 0.66474,0.60446 1.17002,1.01829 1.06175,1.25057 0,0 0,0 0,0 0.031,-0.0135 -0.10854,0.26072 -0.21214,0.55975 0,0 0,0 0,0 -0.2178,0.61037 -0.89172,1.28917 -1.69683,2.14602 0,0 0,0 0,0 -2.4441,2.44747 -5.72824,4.27176 -9.22184,6.08554 -0.33482,0.17383 -0.67204,0.34726 -1.01111,0.5208 -5.6272,2.8026 -11.64225,4.96531 -17.81396,6.81194 -10e-6,0 -10e-6,0 -2e-5,10e-6 -7.69623,2.29583 -15.58783,4.00385 -23.56935,5.24783 -19.06307,2.96508 -38.54972,3.27217 -57.64145,0.70182 0,-10e-6 -10e-6,-10e-6 -2e-5,-10e-6 -34.15161,-4.59401 -68.78302,-5.57753 -103.14035,-2.87866 -29.00404,2.28567 -57.60835,7.11239 -86.07548,11.72631 -10e-6,0 -10e-6,0 -2e-5,0 -28.46268,4.60318 -56.96011,8.67342 -85.54192,9.67208 -30.07879,1.06344 -60.26195,-1.24384 -89.96519,-6.38691 z"
       id="path5623"
       inkscape:connector-curvature="0"
       sodipodi:nodetypes="csc"
       inkscape:path-effect="#path-effect8712"
       inkscape:original-d="m 364.50451,791.33966 c 156.45591,31.32499 222.34697,-30.6384 377.2505,-9.79937 83.57738,11.24359 157.66705,-35.06245 86.96678,-33.69113" />
    <g
       id="g5107">
      <path
         clip-path="none"
         sodipodi:nodetypes="ccccsscc"
         inkscape:connector-curvature="0"
         d="M 545.07135,695.60773 C 418.44702,647.85131 419.59005,576.97187 475.80003,602.21966 357.62062,463.81554 418.75665,452.16295 470.03418,511.23633 c -85.34035,-174.07372 -4.68631,-188.3132 43.73483,-39.57161 -6.88395,-49.74168 -15.44493,-93.94745 3.62401,-99.38346 10.28706,-2.93255 30.6222,17.75992 38.6323,45.85852 27.71406,97.21805 -26.70709,196.01434 12.68369,264.48881 z"
         style="fill:#e8db6f;fill-opacity:1;stroke:none"
         id="path5089" />
      <path
         inkscape:original-d="m 545.07135,695.60773 c -154.04883,-58.09958 -118.99292,-150.42287 -25.5333,-62.04118 33.64032,31.81256 -2.6615,-53.01774 -0.79818,-86.731 3.88275,-70.25093 -30.0645,-166.36771 -1.34685,-174.55429 10.28707,-2.93253 30.6222,17.75992 38.6323,45.85852 27.71406,97.21805 -26.70709,196.01434 12.68369,264.48881"
         inkscape:path-effect="#path-effect5072"
         id="path6228-5"
         style="fill:#decc36;fill-opacity:1;stroke:none"
         d="m 471.877,661.56744 c 7.06547,5.34818 14.51039,10.07297 22.17004,14.27464 16.02547,8.7987 33.11365,15.3733 51.02431,19.76565 -16.42844,-8.32239 -32.22983,-16.72639 -47.32918,-26.11797 -7.21994,-4.49435 -14.28553,-9.19306 -21.04038,-14.30005 -3.83005,-2.89569 -7.52726,-5.94378 -11.05512,-9.16936 -6.84344,-6.28398 -13.11226,-13.09 -17.52127,-20.8634 -1.58681,-2.79736 -2.92421,-5.65377 -3.75879,-8.57245 -0.64443,-2.3046 -1.04097,-4.57362 -0.88517,-6.68153 0,-10e-6 0,-10e-6 0,-2e-5 0.13151,-1.68655 0.51792,-3.28864 1.29266,-4.49744 0.67815,-1.15688 1.78774,-2.1525 3.05685,-2.84951 0,0 1e-5,0 1e-5,0 1.52216,-0.86443 3.45394,-1.28184 5.50989,-1.47846 2.65018,-0.23194 5.45057,0.081 8.2945,0.64567 8.26276,1.64536 16.15557,5.59722 23.77482,10.1716 0,0 1e-5,0 1e-5,10e-6 11.29982,6.83631 21.62703,15.37 31.3795,24.57801 1.80395,1.71565 3.755,3.43597 5.95469,4.9996 1.33418,0.99913 3.04204,2.02318 5.20782,2.71986 0.75781,0.24803 1.69574,0.3953 2.79483,0.38034 0.94038,-0.0172 1.93815,-0.27284 2.94434,-0.78507 0.9617,-0.54528 1.71145,-1.21672 2.23887,-1.9658 10e-6,-2e-5 3e-5,-4e-5 4e-5,-6e-5 0.58829,-0.83884 0.97785,-1.64025 1.20173,-2.36211 0.59065,-1.87942 0.76026,-3.59447 0.75139,-5.04353 0,-10e-6 0,-2e-5 0,-2e-5 0.034,-2.04902 -0.1158,-4.00894 -0.33099,-5.87013 -0.57142,-5.02164 -1.5583,-9.88164 -2.58743,-14.6181 0,-10e-6 0,-2e-5 -10e-6,-3e-5 -2.60653,-12.04883 -5.71111,-23.86307 -8.24472,-35.68284 -1.23411,-5.76338 -2.35692,-11.50196 -3.13803,-17.23948 0,-10e-6 0,-2e-5 0,-3e-5 -0.63809,-4.77661 -1.11307,-9.44732 -0.84844,-13.94914 1.03549,-18.96386 -0.48105,-37.84233 -2.63094,-56.43787 -2.12056,-18.42113 -5.00965,-36.64999 -7.38305,-54.85135 -1.02215,-7.84865 -1.95182,-15.66551 -2.50705,-23.46608 -0.44765,-6.38929 -0.70185,-12.69658 -0.1917,-18.84643 0.43293,-4.56995 1.03983,-8.91923 2.90011,-12.37244 10e-6,0 10e-6,-10e-6 2e-5,-2e-5 0.6919,-1.30106 1.48917,-2.4547 2.44039,-3.26102 0.87124,-0.77694 1.96894,-1.36134 3.12806,-1.69307 1.33007,-0.70928 3.63315,0.44094 6.18443,1.6121 3.63452,2.01393 6.84303,5.09132 9.89512,8.48641 0,1e-5 10e-6,2e-5 2e-5,3e-5 8.28724,9.32589 14.12393,20.85641 17.60939,33.00983 6.58731,23.03439 8.55977,47.32631 7.98232,71.51626 -0.56299,23.26527 -3.462,46.5463 -6.14635,69.95383 -1.67907,14.53682 -3.33343,29.21747 -3.95085,44.00982 -0.296,7.09152 -0.28391,14.30109 0.17856,21.53007 0.6511,10.14736 2.2842,20.34291 5.2831,29.95515 3.0389,9.73726 7.53831,18.804 13.18366,26.42708 -3.64662,-8.77288 -6.36147,-18.08985 -8.1122,-27.68137 -1.73259,-9.48155 -2.5396,-19.24246 -2.77657,-29.02402 -0.17097,-6.98527 -0.0626,-13.9604 0.23001,-20.87119 0.61033,-14.41537 2.25174,-28.90356 3.912,-43.43243 2.68843,-23.35748 5.60407,-46.87743 6.19623,-70.67062 0.62417,-24.76155 -1.44966,-49.84997 -8.28641,-73.90578 -3.73371,-13.1707 -10.139,-25.73862 -19.31518,-36.12204 -10e-6,-10e-6 -2e-5,-10e-6 -3e-5,-2e-5 -3.32167,-3.79836 -7.21362,-7.4286 -11.9454,-10.14497 -3.0787,-2.01204 -7.42532,-3.40544 -12.31503,-2.34164 -2.27988,0.64863 -4.4087,1.79606 -6.22142,3.38219 -1.84583,1.65634 -3.25166,3.59048 -4.26606,5.60253 0,2e-5 -10e-6,3e-5 -2e-5,4e-5 -2.52361,5.05907 -3.41765,10.41294 -3.76153,15.38625 -0.54317,6.79056 -0.29099,13.50403 0.18563,20.06499 0.57606,8.05016 1.52134,16.02198 2.55391,23.93096 2.39233,18.34715 5.2765,36.53597 7.36831,54.73125 2.1082,18.41826 3.61133,36.84481 2.59072,55.08209 -1e-5,10e-6 -1e-5,2e-5 -1e-5,4e-5 -0.27832,5.32214 0.21709,10.50067 0.90976,15.47261 0,1e-5 0,2e-5 0,3e-5 0.82654,6.03938 1.98412,11.97646 3.24237,17.83495 10e-6,10e-6 10e-6,2e-5 10e-6,3e-5 2.58702,12.0577 5.69256,23.8764 8.24761,35.69622 0,10e-6 0,2e-5 0,3e-5 1.00674,4.67799 1.95014,9.27287 2.45697,13.82274 0.18456,1.68741 0.31814,3.2966 0.28225,4.81793 0,10e-6 0,2e-5 0,3e-5 -0.0597,1.14464 -0.0889,2.05663 -0.3303,2.63435 -0.0827,0.18368 -0.0963,0.26253 -0.0737,0.19442 1e-5,0 1e-5,0 1e-5,0 0.0432,-0.0893 0.18004,-0.18857 0.42098,-0.3462 0.27194,-0.11731 0.43706,-0.17788 0.54432,-0.1637 0.0776,0.0235 -0.004,-0.0163 -0.22688,-0.058 -0.76889,-0.17054 -1.69382,-0.81523 -2.85899,-1.5818 -1.72715,-1.21052 -3.38462,-2.69037 -5.07395,-4.2782 -10.00171,-9.47286 -20.77884,-18.34945 -32.72927,-25.6067 -10e-6,-1e-5 -2e-5,-1e-5 -3e-5,-2e-5 -7.97513,-4.87844 -16.71634,-9.16255 -26.32,-11.16835 -3.3451,-0.70009 -6.89412,-1.05836 -10.54038,-0.78169 -2.8659,0.20095 -5.85196,0.931 -8.67274,2.41636 -10e-6,10e-6 -3e-5,10e-6 -4e-5,2e-5 -2.45343,1.31712 -4.57427,3.2755 -6.09058,5.73778 -1.52713,2.58751 -2.29491,5.40803 -2.43676,8.15271 0,10e-6 0,2e-5 0,4e-5 -0.17864,3.31357 0.31831,6.4893 1.18638,9.40167 1e-5,10e-6 1e-5,3e-5 1e-5,4e-5 1.08304,3.69558 2.66641,7.13262 4.49667,10.31433 5.05083,8.7791 11.83689,16.23128 19.07298,22.80191 3.73122,3.40196 7.61817,6.60662 11.62434,9.63907 z"
         inkscape:connector-curvature="0"
         sodipodi:nodetypes="cssssc"
         clip-path="url(#clipPath5097)" />
      <path
         transform="matrix(1.5465775,0.38814863,-0.38814863,1.5465775,-455.89108,-164.34877)"
         style="fill:none;stroke:#decc36;stroke-width:5.0171175;stroke-linecap:butt;stroke-linejoin:miter;stroke-miterlimit:20;stroke-opacity:1;stroke-dasharray:none"
         d="M 709.83514,341.68866 C 584.8274,260.9746 622.77023,239.12684 666.3527,269.5896 576.6313,163.43848 650.74955,151.22635 709.41377,281.07065"
         id="path5046"
         inkscape:connector-curvature="0"
         sodipodi:nodetypes="ccc"
         clip-path="url(#clipPath5093)" />
      <path
         style="fill:none;stroke:#decc36;stroke-width:8;stroke-linecap:butt;stroke-linejoin:miter;stroke-miterlimit:20;stroke-opacity:1;stroke-dasharray:none"
         d="m 506.48538,682.68286 c -58.27822,-42.65282 -31.79483,-68.29314 0.78967,-51.09395 -64.08818,-84.12671 -12.14216,-127.24127 12.56175,-47.97124 1.96368,-80.88897 39.30283,-104.32684 42.04942,-17.82522"
         id="path6294-4"
         inkscape:connector-curvature="0"
         sodipodi:nodetypes="cccc"
         clip-path="url(#clipPath5103)" />
    </g>
    <g
       id="g2989"
       transform="matrix(0.42603139,0.07279244,-0.10379448,0.43334495,341.54517,652.59989)">
      <path
         style="fill:#da121a"
         inkscape:connector-curvature="0"
         id="path4"
         d="M 112,0 224,112 112,224 0,112 z" />
      <path
         style="fill:#ffffff"
         inkscape:connector-curvature="0"
         id="path6"
         d="m 70,42 14,-14 0,112 112,0 -84,84 -42,-42 0,-28 -28,0 -14,-14 42,0 z" />
    </g>
    <g
       id="g3828">
      <path
         sodipodi:nodetypes="ccccc"
         inkscape:connector-curvature="0"
         id="path5554"
         d="m 829.10646,595.61447 c 10.76058,0.79278 26.63263,2.08558 37.65189,3.88981 3.39957,-102.16642 -84.84882,-125.71204 -196.99634,-55.19677 l 2.60553,9.94654 c 76.43351,-34.55998 142.08138,-19.55845 156.73892,41.36042 z"
         style="fill:#ed6464;fill-opacity:1;stroke:#ea4c4c;stroke-width:8;stroke-linecap:butt;stroke-linejoin:miter;stroke-miterlimit:20;stroke-opacity:1;stroke-dasharray:none" />
      <path
         sodipodi:nodetypes="ccccc"
         inkscape:connector-curvature="0"
         id="path5560"
         d="m 674.36754,554.23936 6.41049,33.69199 c 23.73239,-6.44844 47.947,0.86332 54.91901,27.28244 35.98129,-8.72233 66.66051,-11.64623 103.82861,-8.90786 2.55093,-82.97041 -82.30208,-105.29681 -165.15811,-52.06657 z"
         style="fill:#321667;fill-opacity:1;stroke:#251149;stroke-width:8;stroke-linecap:butt;stroke-linejoin:miter;stroke-miterlimit:20;stroke-opacity:1;stroke-dasharray:none" />
      <path
         sodipodi:nodetypes="ccccc"
         transform="translate(0,308.2677)"
         inkscape:connector-curvature="0"
         id="path5548"
         d="m 675.51388,254.55822 c 67.86492,-36.23179 128.64346,-25.00016 130.52956,50.56968 -12.51888,-0.55368 -23.47916,0.3918 -34.75491,2.48901 -4.38862,-45.97136 -41.03312,-56.54089 -90.9924,-38.80111 z"
         style="fill:#ed6464;fill-opacity:1;stroke:#ea4c4c;stroke-width:8;stroke-linecap:butt;stroke-linejoin:miter;stroke-miterlimit:20;stroke-opacity:1;stroke-dasharray:none" />
    </g>
    <g
       id="g3843">
      <path
         sodipodi:nodetypes="ccccc"
         inkscape:connector-curvature="0"
         id="path3837"
         d="m 663.5088,544.53819 2.7071,15.26345 c -56.92209,80.25662 -78.51575,145.23076 -68.70205,256.77165 -13.90621,-0.60902 -27.227,-0.0472 -41.08326,1.56497 2.82842,-118.79394 32.832,-200.76807 107.07821,-273.60007 z"
         style="fill:#ed6464;fill-opacity:1;fill-rule:nonzero;stroke:#ea4c4c;stroke-width:8;stroke-linecap:butt;stroke-linejoin:miter;stroke-miterlimit:20;stroke-opacity:1;stroke-dasharray:none" />
      <path
         sodipodi:nodetypes="ccccc"
         inkscape:connector-curvature="0"
         id="path3824"
         d="m 653.50464,562.25843 c -48.02387,78.22168 -61.01793,166.15626 -40.01076,254.12378 27.32524,-4.54954 66.66278,-6.54837 98.23579,-4.12947 -37.67963,-54.47037 -53.28619,-110.24742 -50.6603,-168.87389 z"
         style="fill:#321667;fill-opacity:1;fill-rule:nonzero;stroke:#251149;stroke-width:8;stroke-linecap:butt;stroke-linejoin:miter;stroke-miterlimit:20;stroke-opacity:1;stroke-dasharray:none" />
      <path
         sodipodi:nodetypes="ccccc"
         inkscape:connector-curvature="0"
         id="path3826"
         d="m 656.88827,577.69035 c -36.72986,75.5272 -39.07073,158.47148 -12.28138,245.81418 12.81653,-2.23457 25.13307,-2.98944 38.4496,-2.31295 -36.10608,-75.49451 -43.31875,-149.39372 -25.59396,-218.32349 z"
         style="fill:#ed6464;fill-opacity:1;fill-rule:nonzero;stroke:#ea4c4c;stroke-width:8;stroke-linecap:butt;stroke-linejoin:miter;stroke-miterlimit:20;stroke-opacity:1;stroke-dasharray:none" />
    </g>
    <g
       id="g4789">
      <path
         style="fill:#e8db6f;fill-opacity:1;stroke:none"
         d="m 668.01146,677.5626 c -54.28739,-81.97606 -2.09182,-160.47115 6.00369,-160.09356 8.09552,0.37762 37.63174,39.58147 41.2723,88.02361 -33.25801,8.84983 -30.18385,47.14462 -47.27599,72.06995 z"
         id="path3801"
         inkscape:connector-curvature="0"
         sodipodi:nodetypes="cscc" />
      <path
         inkscape:original-d="m 668.01146,677.5626 c -54.28739,-81.97606 -2.09182,-160.47115 6.00369,-160.09356 8.09552,0.37762 37.63174,39.58147 41.2723,88.02361"
         inkscape:path-effect="#path-effect3786"
         sodipodi:nodetypes="csc"
         inkscape:connector-curvature="0"
         id="path4747"
         d="m 643.32377,631.10505 c 2.05933,8.69232 5.11283,17.07186 9.21715,24.91085 4.10432,7.83899 9.26542,15.13566 15.47054,21.5467 -3.61705,-8.12494 -6.84013,-16.10778 -9.67926,-24.10265 -2.83913,-7.99486 -5.29349,-16.0045 -7.2334,-24.19651 -0.93067,-3.93013 -1.67755,-7.90099 -2.22799,-11.90083 -2.29365,-16.53625 -1.32678,-33.53185 2.63496,-49.78148 2.99329,-12.22317 7.50655,-24.06952 13.94626,-34.71743 2.05798,-3.38194 4.18927,-6.58245 6.69326,-9.27304 0.7995,-0.84091 1.4966,-1.56052 2.17807,-2.01826 0,0 10e-6,0 10e-6,0 0.23137,-0.14595 0.34451,-0.2337 0.35198,-0.21989 0.0431,0.0521 -0.23395,0.0637 -0.84657,0.11219 0,0 0,0 -1e-5,-10e-6 -0.22668,-0.077 -0.15465,0.0142 0.20428,0.12479 0,0 0,0 10e-6,0 0.43923,0.19844 0.93609,0.54777 1.51689,0.97312 1.67534,1.2484 3.23099,2.87941 4.8202,4.65625 4.80605,5.41871 8.81034,11.65739 12.45661,18.18303 2.10882,3.79294 4.06114,7.67589 5.84633,11.63371 3.48374,7.72358 6.64089,15.80389 9.40333,23.96546 2.76243,8.16158 5.12854,16.40182 7.21103,24.4916 1.0129,-8.32241 0.58315,-17.24638 -1.08418,-26.07393 -1.66732,-8.82754 -4.56588,-17.55063 -8.23211,-25.6756 -1.8787,-4.16351 -3.9336,-8.2458 -6.1541,-12.2317 -3.79244,-6.8401 -8.12874,-13.54794 -13.45263,-19.59054 -1.72598,-1.97408 -3.67065,-3.9656 -5.98729,-5.7378 -0.79934,-0.61897 -1.74546,-1.24303 -2.86467,-1.79733 -10e-6,0 -10e-6,0 -10e-6,0 -0.74833,-0.42427 -1.85591,-0.77805 -3.31094,-0.91237 -1.21974,0.0201 -2.0961,0.21225 -2.61368,0.49894 -0.78493,0.34531 -1.40634,0.71427 -1.87678,1.06352 0,0 0,0 -10e-6,10e-6 -1.39797,1.00956 -2.51699,2.09914 -3.44384,3.12819 -3.04186,3.31662 -5.49673,6.94786 -7.66401,10.56522 -6.91702,11.47799 -11.73804,24.07053 -14.86954,36.95601 -4.19918,17.20619 -5.21681,35.1995 -2.78724,52.77459 0.59271,4.25605 1.38937,8.47503 2.37735,12.64519 z"
         style="fill:#decc36;fill-opacity:1;stroke:none" />
      <path
         sodipodi:nodetypes="ccc"
         transform="translate(0,308.2677)"
         inkscape:connector-curvature="0"
         id="path4778"
         d="m 675.40075,244.83094 c -12.29181,24.68918 -11.7485,63.80326 1.28398,88.32503 -7.50887,-28.27946 -8.11982,-61.25054 -1.28398,-88.32503 z"
         style="fill:#decc36;fill-opacity:1;stroke:none" />
    </g>
    <g
       id="g5709"
       inkscape:transform-center-x="-131.87563"
       inkscape:transform-center-y="17.630607"
       transform="matrix(0.99988227,0.01534294,-0.01534294,0.99988227,11.739626,-8.8413219)">
      <path
         sodipodi:nodetypes="ccssccc"
         transform="translate(0,308.2677)"
         inkscape:connector-curvature="0"
         id="path5707"
         d="m 569.08579,464.50869 c 53.97885,90.66858 93.41521,47.30393 133.25757,22.82402 25.95637,10.22672 48.64103,21.39076 70.8086,35.46805 24.97453,15.85983 101.3045,-64.42149 77.33499,-75.92073 -118.20787,-56.70958 -167.31868,-44.27209 -216.93483,11.36222 -13.40633,-4.53166 -29.11064,-12.5466 -42.99296,-21.91599 z"
         style="fill:#e8db6f;fill-opacity:1;stroke:none" />
      <path
         inkscape:original-d="m 688.22212,482.06387 c 32.11913,11.67596 58.88148,24.19514 84.92984,40.73689 24.97453,15.85983 101.3045,-64.42149 77.33499,-75.92073 -126.98386,-60.91981 -174.22999,-42.04419 -228.02248,24.45709"
         inkscape:path-effect="#path-effect5663"
         sodipodi:nodetypes="cssc"
         transform="translate(0,308.2677)"
         inkscape:connector-curvature="0"
         id="path4890"
         d="m 757.26711,508.71123 c -10.85303,-6.03845 -21.99434,-11.33806 -33.48516,-15.81429 -11.49082,-4.47623 -23.33064,-8.12586 -35.55983,-10.83307 11.16867,5.62455 22.14182,11.08983 32.98253,16.61415 10.8407,5.52432 21.55085,11.10755 32.17571,17.01898 5.97646,3.32516 11.85743,6.81377 17.62728,10.48043 2.1372,1.33461 4.473,2.14184 6.8153,2.46889 2.57461,0.35713 5.08194,0.25511 7.42963,-0.13161 0,0 0,0 10e-6,0 5.76741,-0.95123 11.01849,-3.17067 15.76841,-5.7372 0,0 0,0 0,-10e-6 5.84508,-3.11659 11.26543,-6.84475 16.36326,-10.84884 5.52526,-4.33243 10.73703,-9.03743 15.64071,-14.02344 4.73829,-4.81381 9.22283,-9.92152 13.31093,-15.36778 1e-5,0 1e-5,-1e-5 1e-5,-1e-5 3.48014,-4.61962 6.74515,-9.57282 9.31259,-15.01365 1.03058,-2.1792 1.94708,-4.50441 2.61012,-6.98756 0,0 0,-1e-5 0,-1e-5 0.5536,-2.00903 0.89724,-4.24115 0.80689,-6.63532 -0.059,-2.0182 -0.62022,-4.16509 -1.82018,-6.20216 -1.30037,-2.02086 -3.06683,-3.51391 -5.02819,-4.42515 -26.4097,-12.68637 -53.66832,-24.33487 -82.39902,-31.50592 -10.71623,-2.67315 -21.6837,-4.65425 -32.81719,-5.44525 -10e-6,0 -10e-6,0 -2e-5,0 -9.48587,-0.67472 -19.10064,-0.43644 -28.59397,1.05192 -8.65922,1.36264 -17.15357,3.79376 -25.2187,7.26316 -2.86396,1.23434 -5.66631,2.59318 -8.40454,4.06204 -4.91122,2.63452 -9.64147,5.69722 -14.11291,9.08935 -7.96948,6.05832 -15.13822,13.05284 -21.48916,20.47914 -6.35094,7.4263 -11.88953,15.27412 -16.71715,23.0691 6.71334,-6.26963 13.53291,-12.89346 20.59923,-19.2977 7.06631,-6.40424 14.38864,-12.58159 22.14623,-18.01144 4.33039,-3.03742 8.79213,-5.8306 13.35591,-8.28111 2.54452,-1.36627 5.14027,-2.62475 7.78476,-3.76095 7.43522,-3.2011 15.29013,-5.44746 23.30037,-6.70891 8.79383,-1.39041 17.8062,-1.60287 26.78678,-0.97444 0,0 10e-6,0 10e-6,0 10.55476,0.73951 21.06567,2.64822 31.44751,5.22809 27.90723,6.93074 54.65669,18.39587 80.8715,30.95582 0.75077,0.38989 1.40239,0.88076 1.68366,1.41861 0.38192,0.52206 0.54793,1.39575 0.63443,2.3826 0.0864,1.25804 -0.17205,2.68081 -0.55144,4.20725 0,0 0,1e-5 0,1e-5 -0.48447,1.86521 -1.23654,3.73777 -2.11684,5.62962 -2.21356,4.74493 -5.19772,9.23091 -8.47002,13.61198 0,10e-6 -10e-6,10e-6 -10e-6,2e-5 -3.83796,5.11881 -8.09038,9.9567 -12.61457,14.5583 -4.6836,4.75955 -9.63957,9.23599 -14.87332,13.33776 -4.8467,3.79163 -9.87425,7.2642 -15.18486,10.08205 -4.38818,2.29462 -8.80292,4.23432 -13.25939,4.898 -1.77044,0.26376 -3.47735,0.36097 -5.02839,0.11718 -1.36431,-0.21284 -2.65492,-0.63237 -3.67974,-1.30577 -5.90944,-3.75016 -11.92438,-7.31625 -18.02917,-10.71286 z"
         style="fill:#decc36;fill-opacity:1;stroke:none" />
      <path
         inkscape:original-d="m 569.08579,464.50869 c 55.31332,92.91009 95.35622,45.07789 136.32849,21.02771"
         inkscape:path-effect="#path-effect5695"
         style="fill:#decc36;fill-opacity:1;stroke:none"
         d="m 604.34998,502.65933 c -4.37704,-3.65009 -8.44536,-7.73644 -12.41603,-11.9797 -7.71947,-8.26842 -14.96908,-17.15609 -22.84816,-26.17094 4.35502,11.11288 10.00348,21.54419 17.32511,30.91114 3.75638,4.81632 8.00311,9.37015 12.82461,13.38071 2.07373,1.72494 4.23393,3.36206 6.48938,4.88903 5.73129,3.88388 12.17012,6.94392 19.11369,8.54387 0,0 0,0 0,0 6.05293,1.36848 12.31526,1.53106 18.39036,0.6038 6.04958,-0.9332 11.82101,-2.82532 17.24222,-5.22703 0,0 10e-6,0 10e-6,0 5.70129,-2.51871 11.07452,-5.54822 16.23783,-8.74505 10.59562,-6.55014 20.42408,-13.83861 30.73016,-19.87914 -3.11564,-1.26483 -6.30035,-2.44118 -9.52226,-3.56292 -8.71394,5.48541 -16.94898,11.40773 -25.41347,16.63668 -4.9902,3.0778 -10.03684,5.9355 -15.25806,8.22962 0,0 0,0 0,0 -4.95791,2.17169 -10.05475,3.86769 -15.21845,4.63866 -5.13781,0.77684 -10.40828,0.65033 -15.4148,-0.49555 -5.78423,-1.29371 -11.32371,-3.96464 -16.41561,-7.37654 -2.01805,-1.35374 -3.96397,-2.82674 -5.84653,-4.39664 z"
         id="path4892"
         inkscape:connector-curvature="0"
         transform="translate(0,308.2677)"
         sodipodi:nodetypes="cc" />
      <path
         sodipodi:nodetypes="cccc"
         transform="translate(0,308.2677)"
         inkscape:connector-curvature="0"
         id="path5703"
         d="m 590.55916,436.32626 c 16.88846,8.94239 29.93072,14.22424 45.23707,18.87221 l -4.65165,5.77297 c -14.84924,-6.65685 -25.53796,-12.77449 -40.58542,-24.64518 z"
         style="fill:#decc36;fill-opacity:1;fill-rule:nonzero;stroke:none" />
    </g>
    <g
       id="g3889">
      <path
         sodipodi:nodetypes="cccc"
         inkscape:connector-curvature="0"
         id="path3887"
         d="m 595.85559,744.73958 c -1.22162,21.90212 -0.65181,45.57779 1.65826,71.83371 -13.90621,-0.60902 -27.227,-0.0472 -41.08326,1.56497 0.75043,-31.51801 3.41379,-60.44417 8.30886,-87.29539 l 26.7918,13.95681 z"
         style="fill:#ed6464;fill-opacity:1;stroke:none" />
      <path
         style="fill:none;stroke:#ea4c4c;stroke-width:8;stroke-linecap:butt;stroke-linejoin:miter;stroke-miterlimit:20;stroke-opacity:1;stroke-dasharray:none"
         d="m 595.85559,744.73958 c -1.22162,21.90212 -0.65181,45.57779 1.65826,71.83371 -13.90621,-0.60902 -27.227,-0.0472 -41.08326,1.56497 0.75043,-31.51801 3.41379,-60.44417 8.30886,-87.29539"
         id="path3878"
         inkscape:connector-curvature="0"
         sodipodi:nodetypes="cccc" />
    </g>
  </g>
</svg>
