<svg xmlns="http://www.w3.org/2000/svg" xmlns:inkscape="http://www.inkscape.org/namespaces/inkscape" xmlns:sodipodi="http://sodipodi.sourceforge.net/DTD/sodipodi-0.dtd" xmlns:xlink="http://www.w3.org/1999/xlink" height="600" viewBox="0 0 1800 600" width="1800">
  <defs>
    <inkscape:path-effect effect="join_type" id="path-effect4864" line_width="11" />
    <inkscape:path-effect effect="powerstroke" id="path-effect4220" interpolator_type="CubicBezierSmooth" offset_points="0.69,5.5 | 2,5.5" start_linecap_type="zerowidth" />
    <inkscape:path-effect effect="powerstroke" end_linecap_type="zerowidth" id="path-effect4218" interpolator_type="CubicBezierSmooth" offset_points="0.31,5.5 | 2.51,5.5" start_linecap_type="zerowidth" />
    <inkscape:path-effect effect="powerstroke" id="path-effect4204" interpolator_type="CubicBezierSmooth" offset_points="0.68,5.5 | 3,5.5" start_linecap_type="zerowidth" />
    <linearGradient id="linearGradient4320">
      <stop offset="0" stop-color="#128690" />
      <stop offset="1" stop-color="#35dede" />
    </linearGradient>
    <inkscape:path-effect effect="powerstroke" end_linecap_type="zerowidth" id="path-effect5002" interpolator_type="CubicBezierSmooth" offset_points="0.38,5.5 | 1.81,5.5" start_linecap_type="zerowidth" />
    <linearGradient gradientUnits="userSpaceOnUse" id="linearGradient4322" x1="1455.3638" x2="1530.8535" y1="646.6228" y2="644.7193" xlink:href="#linearGradient4320" />
    <linearGradient gradientUnits="userSpaceOnUse" id="linearGradient4330" x1="1647.489" x2="1649.6493" y1="698.80872" y2="778.78851" xlink:href="#linearGradient4320" />
    <clipPath id="clipPath4360">
      <use xlink:href="#path4895" />
    </clipPath>
    <clipPath id="clipPath4219">
      <use xlink:href="#path4875" />
    </clipPath>
    <filter color-interpolation-filters="sRGB" height="1.044327" id="filter5480" width="1.0523367" x="-0.026168372" y="-0.022163482">
      <feGaussianBlur stdDeviation="7.6035059" />
    </filter>
    <filter color-interpolation-filters="sRGB" height="1.0356117" id="filter5528" width="1.0477579" x="-0.02387893" y="-0.017805858">
      <feGaussianBlur stdDeviation="7.4217411" />
    </filter>
    <clipPath id="clipPath6023">
      <use xlink:href="#rect27" />
    </clipPath>
    <clipPath id="clipPath6328">
      <use xlink:href="#rect4402" />
    </clipPath>
    <linearGradient gradientUnits="userSpaceOnUse" id="linearGradient6429" x1="177.28116" x2="254.66995" y1="261.84598" y2="895.87628" xlink:href="#linearGradient6427" />
    <linearGradient id="linearGradient6427">
      <stop offset="0" stop-color="#48377d" />
      <stop offset="0.46747154" stop-color="#986eb2" />
      <stop offset="1" stop-color="#48377d" />
    </linearGradient>
    <clipPath id="clipPath4225">
      <use xlink:href="#path4210" />
    </clipPath>
    <linearGradient id="linearGradient4395">
      <stop offset="0" stop-color="#afdef5" />
      <stop offset="1" stop-color="#deeaf4" />
    </linearGradient>
    <linearGradient id="linearGradient4192">
      <stop offset="0" stop-color="#2190b1" />
      <stop offset="1" stop-color="#82cbea" />
    </linearGradient>
    <inkscape:path-effect effect="powerstroke" end_linecap_type="zerowidth" id="path-effect4260" interpolator_type="CubicBezierSmooth" offset_points="0.37,5.5 | 2.54,5.5" start_linecap_type="zerowidth" />
    <clipPath id="clipPath6155">
      <use transform="translate(-10 76.562201)" xlink:href="#path5996" />
    </clipPath>
    <inkscape:path-effect effect="powerstroke" end_linecap_type="zerowidth" id="path-effect7896-6" interpolator_type="CubicBezierSmooth" offset_points="0.13,5 | 0.85,5" start_linecap_type="zerowidth" />
    <inkscape:path-effect effect="powerstroke" end_linecap_type="zerowidth" id="path-effect7892" interpolator_type="CubicBezierSmooth" offset_points="0.15,5 | 0.78,5" start_linecap_type="zerowidth" />
    <inkscape:path-effect effect="powerstroke" end_linecap_type="zerowidth" id="path-effect7894" interpolator_type="CubicBezierSmooth" offset_points="0.2,5 | 0.81,5" start_linecap_type="zerowidth" />
    <inkscape:path-effect effect="powerstroke" end_linecap_type="zerowidth" id="path-effect4901" interpolator_type="CubicBezierSmooth" offset_points="0.31,5.5 | 1.83,5.5" start_linecap_type="zerowidth" />
    <clipPath id="clipPath5178">
      <use xlink:href="#path4283" />
    </clipPath>
    <clipPath id="clipPath4410">
      <use xlink:href="#path4777" />
    </clipPath>
    <linearGradient gradientTransform="translate(-2.3017675,2.2634891)" gradientUnits="userSpaceOnUse" id="linearGradient6781" x1="449.13538" x2="453.53555" y1="546.27765" y2="641.52234" xlink:href="#linearGradient4192" />
    <clipPath id="clipPath6163">
      <path d="M 273.44149,597.83915 C 336.85595,620.25841 422.48692,693.28112 451.95224,769.5066 255.30333,824.59392 201.69987,719.54369 273.44149,597.83915 Z" />
    </clipPath>
    <clipPath id="clipPath6418">
      <use xlink:href="#rect5255" />
    </clipPath>
    <clipPath id="clipPath4273">
      <use xlink:href="#path9170" />
    </clipPath>
    <clipPath id="clipPath4259">
      <use xlink:href="#ellipse4208" />
    </clipPath>
    <linearGradient id="linearGradient4222">
      <stop offset="0" stop-color="#2a1045" />
      <stop offset="1" stop-color="#7b3eb6" />
    </linearGradient>
    <clipPath id="clipPath4597">
      <use xlink:href="#path9168" />
    </clipPath>
    <clipPath id="clipPath4581">
      <use xlink:href="#path7647" />
    </clipPath>
    <inkscape:path-effect effect="powerstroke" end_linecap_type="zerowidth" id="path-effect4614" interpolator_type="CubicBezierSmooth" offset_points="0.5,5.5 | 1.81,5.5" start_linecap_type="zerowidth" />
    <inkscape:path-effect effect="powerstroke" end_linecap_type="zerowidth" id="path-effect14036" interpolator_type="CubicBezierSmooth" offset_points="0.32,5.5 | 1.82,5.5" start_linecap_type="zerowidth" />
    <clipPath id="clipPath4365">
      <path d="m 441.74438,751.00617 44.75,16.11611 -30.07322,47.17678 -44.35355,29.82322 z" />
    </clipPath>
    <linearGradient gradientUnits="userSpaceOnUse" id="linearGradient7554" x1="308.40436" x2="317.81122" y1="522.59021" y2="601.72913" xlink:href="#linearGradient4395" />
    <linearGradient gradientUnits="userSpaceOnUse" id="linearGradient7556" x1="295.64877" x2="372.16788" y1="563.44244" y2="561.47345" xlink:href="#linearGradient4192" />
    <linearGradient gradientUnits="userSpaceOnUse" id="linearGradient7558" x1="483.81268" x2="481.48465" y1="525.1308" y2="616.94379" xlink:href="#linearGradient4395" />
    <linearGradient gradientUnits="userSpaceOnUse" id="linearGradient7560" x1="595.92828" x2="593.40887" y1="332.9267" y2="452.18433" xlink:href="#linearGradient4222" />
    <linearGradient gradientUnits="userSpaceOnUse" id="linearGradient7562" x1="273.40988" x2="378.84494" y1="538.005" y2="540.6084" xlink:href="#linearGradient4222" />
    <clipPath id="clipPath4871">
      <path d="m 321.9835,267.84312 c 14.5423,10.46118 19.3575,28.86853 15.8691,44.51167 l 26.9893,105.7184 106.1167,-71.04379 -69.0877,-71.54421 C 387.8996,269.03755 379.4733,255.41277 375.7483,236.49337 289.7638,34.227764 207.9681,64.735064 321.9835,267.84312 Z" />
    </clipPath>
  </defs>
  <g transform="translate(-1325.9084-339.41229)" inkscape:groupmode="layer" inkscape:label="Drawing">
    <g clip-path="url(#clipPath6023)" transform="translate(53.036338 37.576492)scale(.96)">
      <rect fill="#181025" height="625" id="rect27" width="625" x="1325.9084" y="314.41229" />
      <g>
        <g opacity=".9">
          <path d="m 1971.2921,95.01563 c -524.6581,23.42111 -612.2637,795.62621 -149.8118,814.94178 213.1205,8.90156 255.284,164.28769 445.3476,185.41319" style="stroke-width:4;stroke:#8541d5;fill:#b68de6;fill-opacity:.668;filter:url(#filter5528)" />
          <path d="m 1935.2921,175.01563 c -478.6581,55.42111 -456.34,741.95884 -113.8118,689.94178 231.1205,-35.09844 255.284,112.28769 445.3476,133.41321" fill="#244abf" filter="url(#filter5480)" />
        </g>
        <use transform="rotate(280.37477 1567.7786 329.42805)scale(.78320688)" xlink:href="#path4228" />
        <path fill="#b0e4f9" id="path4228" sodipodi:arg1="1.2315037" sodipodi:arg2="2.0169019" sodipodi:cx="1941" sodipodi:cy="653" sodipodi:r1="18.027756" sodipodi:r2="2.7041633" sodipodi:sides="4" sodipodi:type="star" />
        <use transform="translate(780.23534 386.8823)scale(.5882352)" xlink:href="#path4228" />
        <use transform="rotate(295.20241 1815.9617-149.75542)scale(.53113562)" xlink:href="#path4228" />
        <use transform="rotate(280.37477 1623.7415 28.997068)scale(.6061208)" xlink:href="#path4228" />
        <use transform="rotate(213.62815 1543.003 376.54058)scale(.59962596)" xlink:href="#path4228" />
        <use transform="rotate(169.0769 1416.1673 365.00751)scale(.46110373)" xlink:href="#path4228" />
        <use transform="rotate(219.50523 1644.5991 458.23157)scale(.87392932)" xlink:href="#path4228" />
        <use transform="rotate(219.50523 1739.5991 424.11818)scale(.87392932)" xlink:href="#path4228" />
        <use transform="rotate(310.37477 1548.2311-619.69783)scale(.52212995)" xlink:href="#path4228" />
        <path d="m 1568.7055,1072.8664 267.855,-6.8906 c -20.9025,-211.48323 50.1636,-315.49544 16.7704,-486.26762 -61.9352,-316.73551 -522.5749,-178.88194 -391.4334,168.38787 -17.4436,10.94317 -31.7113,17.38977 -39.0785,32.73698 -12.6122,26.27337 28.6426,89.22399 70.7365,84.94629 59.7082,-6.06771 97.4578,5.88612 137.6645,5.94875 -26.3841,55.71038 -48.4943,128.58633 -62.5145,201.13833 z" fill="#050c0f" />
        <path d="m 1738.7071,885 c 73.7782,59.12994 97.9853,-100.55025 28.7929,-71.5 18.8787,-35.12132 30.7019,-69.98959 38.2409,-109.15138 -14.398,8.39006 -32.3245,12.60945 -52.0338,10.94427 C 1895.7071,413.29289 1484,443 1545,769 c -20.8885,-15.2872 -45.6399,-25.09956 -71.6085,-29.55898 9.9901,-7.32301 18.1947,-15.33921 25.0158,-24.57881 17.2675,-88.16677 3.9678,-178.84398 -32.3787,-197.86646 58.1483,-107.80882 196.9595,-146.91767 293.2761,-86.93537 4.613,53.5328 40.6209,108.15338 89.5962,129.66877 1.5462,6.41193 3.0825,13.08789 4.43,19.97903 27.278,139.49912 -15.1477,234.45059 -20.3393,379.88007 -42.7048,-2.67124 -74.0961,-22.33063 -94.2845,-74.58825 z" fill="#668af6" />
        <path d="m 1632.9124,868.89853 c -27.2587,55.85323 -49.9283,130.07856 -64.2069,203.96787 l 267.855,-6.8906 c -20.9025,-211.48323 50.1636,-315.49544 16.7704,-486.26762 -61.9352,-316.73551 -522.5749,-178.88194 -391.0377,168.5993" fill="none" stroke="#3e46a7" stroke-width="11" />
        <g>
          <path d="m 1767.402,450.07482 c 2.0553,-52.76534 40.4912,-112.77835 56.388,-111.63616 26.4172,1.89808 85.9912,116.54967 10.5408,227.53346 z" fill="#050c0f" />
          <path fill="#3e46a7" inkscape:original-d="m 1767.402,450.07482 c 2.0553,-52.76534 40.4912,-112.77835 56.388,-111.63616 26.4172,1.89808 85.9912,116.54967 10.5408,227.53346" inkscape:path-effect="#path-effect5002" />
          <path d="m 1825.7239,402.8267 c 7.9922,25.89521 8.6926,64.24814 -0.2216,94.37221 14.3998,-27.65747 14.5671,-68.36777 0.2216,-94.37221 z" fill="#3e46a7" />
        </g>
        <path d="m 1812.4797,535.73622 c 9.4248,8.55313 19.818,15.82621 30.953,21.39827 L 1835,575.5 Z" fill="#668af6" />
        <path d="m 1589.1852,466.01676 c 19.0466,30.78546 -52.9514,70.32076 -65.2323,40.34572 -186.8922,-456.164494 -191.1558,-454.752752 65.2323,-40.34572 z" fill="#050c0f" stroke="#3e46a7" stroke-width="11" />
        <path d="m 1431.7581,213.56737 c -2.3023,12.62791 -6.6264,24.55336 -12.707,35.20764 m 49.5998,23.01942 c -4.0939,16.84849 -11.7654,32.20014 -22.2489,44.73873 m 54.6083,6.90131 c -4.0892,22.04237 -14.21,41.89587 -28.7512,56.79057 m 63.6184,-0.40684 c -6.5522,24.55323 -20.5645,45.69104 -39.3147,59.70573 m 73.6524,-4.24784 c -10.2645,25.87096 -28.8676,46.61458 -51.6132,58.03485" fill="none" stroke="#3e46a7" stroke-width="7.5" />
        <g>
          <g clip-path="url(#clipPath4219)">
            <path d="m 1453.4411,540.6452 c 30.5952,17.00642 59.6296,74.02951 44.9662,174.21701 -11.4614,12.93106 -19.8068,20.84609 -34.8417,29.03105 -30.0398,-48.05567 -35.4032,-142.99652 -10.1245,-203.24806 z" fill="#a1e8f3" id="path4875" />
            <g>
              <ellipse cx="1479.5142" cy="642.66412" fill="url(#linearGradient4322)" rx="78.502678" ry="21.085289" transform="rotate(84.874358 1479.5142 642.6641)" />
              <path d="m 1474,583.64645 c -1.4822,38.53984 3.2574,80.97309 10.7071,117.85355 1.0503,-38.86396 -2.6109,-80.24085 -10.7071,-117.85355 z" />
              <ellipse cx="1484.2385" cy="607.87817" fill="#a1e8f3" rx="26.74102" ry="7.25668" transform="rotate(77.8955 1484.2385 607.87819)" />
            </g>
          </g>
          <path d="m 1453.4411,540.6452 c 30.5952,17.00642 59.6296,74.02951 44.9662,174.21701 26.7972,-97.73754 -0.8784,-171.35498 -44.9662,-174.21701 z" fill="#38147a" />
          <path d="m 1456.9924,543.15759 -6.4286,-3.48041 c -23.2376,53.36637 -24.4593,151.5352 13.0018,204.21608 -28.7666,-61.02522 -29.2365,-144.52562 -6.5732,-200.73567 z m -2.2455,-5.5671 c -9.3389,-4.84805 -16.3785,-9.82046 -22.5625,-17.34429 2.1565,10.89145 9.7023,18.94877 19.55,24.0925 32.5358,16.99433 54.9838,75.7645 46.6729,170.52351 19.6965,-94.99806 -9.4708,-159.52297 -43.6604,-177.27172 z m -12.3058,38.80919 c -9.6068,1.61439 -18.9195,0.0544 -26.9716,-4.9946 5.1732,9.19761 16.2649,12.8963 26.2838,12.57089 z m 5.0702,-19.50259 c -10.5726,-0.52509 -18.9068,-4.00945 -25.8667,-11.44958 3.5225,10.44506 12.1174,17.11519 24.5962,18.98854 z" fill="#8b5be1" />
        </g>
        <path d="m 1441.3334,837.55736 c 30.8972,6.24296 55.9496,-1.69126 72.5975,-18.18513 -12.1317,21.95022 -38.4925,30.31988 -65.3849,27.13507 z m 17.9577,-44.71634 c 5.1463,6.006 9.3838,5.49639 13.3196,-0.71432 0.4395,13.31144 -11.4076,13.97269 -13.3196,0.71432 z m -38.0354,-5.02147 c 3.0491,5.57518 6.4632,5.8981 10.5979,1.65514 -1.8188,10.79132 -11.1099,9.8287 -10.5979,-1.65514 z" fill="#3e46a7" />
        <path fill="#3e46a7" inkscape:original-d="m 1827.4142,685.58579 c -14.5459,19.66726 -41.7886,32.4038 -73.7071,29.7071 C 1895.7071,413.29289 1484,443 1545,769 c -20.8885,-15.2872 -45.6399,-25.09956 -71.6085,-29.55898" inkscape:path-effect="#path-effect4204" />
        <path d="m 1759.3215,429.85306 c 4.5962,53.74012 40.6041,108.3607 89.7479,129.92746 m -43.1855,144.28014 c -7.682,39.44975 -19.5052,74.31802 -38.3839,109.43934 69.1924,-29.05025 44.9853,130.62994 -28.7929,71.5 20.1884,52.25762 51.5797,71.91701 94.1528,74.64346" fill="none" stroke="#3e46a7" stroke-width="11" />
        <path fill="#3e46a7" inkscape:original-d="m 1699.8964,856.64059 c -75.1006,32.70555 -115.0604,-0.13744 -206.3409,9.13873 -42.0939,4.27769 -83.3487,-58.67292 -70.7365,-84.94629 12.3208,-25.66635 43.9412,-26.43902 75.5883,-65.97082" inkscape:path-effect="#path-effect4218" />
        <path fill="#3e46a7" inkscape:original-d="m 1498.4073,714.86221 c 15.6951,-79.07952 6.3169,-152.50807 -18.321,-185.49852 -3.8203,-5.11548 -8.7154,-9.69261 -13.9611,-13.22278" inkscape:path-effect="#path-effect4220" />
        <g>
          <path d="m 1564.3704,764.76321 c -15.6544,-121.80065 60.507,-217.53077 184.9274,-229.39273 -124.7893,-12.30389 -220.9565,98.16931 -184.9274,229.39273 z" fill="#38147a" />
          <g clip-path="url(#clipPath4360)">
            <path d="m 1564.3704,764.76321 c -15.6544,-121.80065 60.507,-217.53077 184.9274,-229.39273 19.8989,110.08171 -27.939,206.07311 -184.9274,229.39273 z" fill="#a1e8f3" id="path4895" />
            <g transform="translate(-144.46799-53.449667)scale(1.0849898)">
              <ellipse cx="1654.2188" cy="731.59485" fill="url(#linearGradient4330)" rx="56.609398" ry="82.427429" transform="rotate(356.88637)" />
              <path d="m 1687.3639,580.01275 c -3.682,42.0348 -0.5399,84.51145 10.1066,124.48633 4.2426,-41.0122 0.1464,-84.18124 -10.1066,-124.48633 z" />
              <ellipse cx="1709.5" cy="603.14655" fill="#a1e8f3" rx="29.967594" ry="18.336147" transform="rotate(62.83819 1709.5 603.14654)" />
            </g>
          </g>
          <path d="m 1751.8112,558.03507 c 28.4637,5.4669 50.2079,0.91198 66.3811,-9.06708 -10.0435,16.85885 -32.7819,24.95509 -67.3382,19.68221 z m 2.0686,28.09252 c 27.2386,9.90596 49.4299,8.85232 66.9794,1.56067 -12.5869,15.05538 -36.3206,19.44815 -69.6055,8.76891 z m 0.418,-50.75711 c 20.3989,109.58171 -30.939,213.07311 -189.9274,229.39273 -22.1544,-128.80065 61.1193,-220.65969 184.6345,-235.03918 30.582,-3.56032 45.9031,-8.67736 60.3672,-19.14235 -8.7773,17.78651 -30.4668,26.8228 -59.8672,29.7888 -115.8877,11.69108 -195.2889,99.09208 -185.1345,224.39273 149.9884,-27.31962 200.3263,-117.31102 179.9274,-227.89273 z" fill="#8b5be1" />
        </g>
      </g>
    </g>
    <g clip-path="url(#clipPath6328)" transform="translate(1745.9872 132.11323)">
      <rect fill="#1d044e" height="600" id="rect4402" width="600" x="179.92116" y="207.29906" />
      <g>
        <g>
          <path d="M 491.95332,842.5034 C 201.41732,1089.5477 8.711556,907.81988 89.870552,608.79098 147.76823,395.46799 15.595852,289.83622 97.82338,157.67583 237.68439,-67.116125 441.95989,84.029702 536.98694,99.73471 Z" fill="url(#linearGradient6429)" />
          <path d="m 172.70926,177.15036 c 123.81957,145.21072 54.60307,270.79644 50.98041,389.0667 -5.90725,192.85613 87.65496,268.38593 72.14804,386.4733 M 100.0209,228.11518 C 329.73161,472.38505 32.74075,662.99553 208.73794,955.61503" fill="none" stroke="#332553" stroke-width="6" />
        </g>
        <g id="g6345">
          <path d="m 399.29442,949.6029 244.17935,-0.7416 C 627.5777,744.36548 703.46911,638.63434 673.7689,486.74781 617.10494,196.96904 177.658,323.86178 303.67825,643.2013 c -13.43473,6.40669 -23.57936,9.59607 -30.0907,23.16033 -14.67281,30.56604 22.06499,108.83081 68.09273,97.22337 66.07647,-16.6634 102.38859,-9.77902 132.8329,-5.99726 C 439.4416,811.4835 415.40894,880.2122 399.29442,949.6029 Z" fill="#211b33" />
          <path d="m 285.45801,732.36759 c 36.73491,6.99377 64.05744,-3.02082 82.82598,-22.50026 -13.04802,25.74723 -42.40623,36.43956 -74.5408,32.78119 z m 20.83627,-54.04232 c 5.91155,6.89915 10.77923,6.31375 15.30037,-0.82058 0.50481,15.29104 -13.10405,16.0506 -15.30037,0.82058 z" fill="#625686" />
          <path d="m 474.45162,757.26702 c -35.01002,54.21645 -59.04268,122.94519 -75.1572,192.33586 l 244.17935,-0.7416 C 627.5777,744.36548 703.46911,638.63434 673.7689,486.74781 617.10494,196.96904 177.658,323.86178 304.2231,643.37416" fill="none" stroke="#625686" stroke-width="11" />
          <g>
            <path d="m 290.27712,463.59469 c 32.82815,10.5279 56.03465,57.11267 48.74477,149.91576 22.09336,-95.52866 -3.01238,-153.92136 -48.74477,-149.91576 z" fill="#53c4e6" />
            <g clip-path="url(#clipPath4225)">
              <path d="m 290.27712,463.59469 c 32.82815,10.5279 56.03465,57.11267 48.74477,149.91576 -10.50641,12.23274 -19.6282,23.36691 -36.68203,30.36172 -26.26361,-67.44734 -30.49854,-123.69664 -12.06274,-180.27748 z" fill="url(#linearGradient7554)" id="path4210" />
              <g>
                <ellipse cx="324.10208" cy="556.94604" fill="url(#linearGradient7556)" rx="74.826256" ry="25.279732" transform="rotate(86.072525 324.10207 556.94604)" />
                <path d="m 320.28622,503.19487 c -4.07213,34.27974 -2.01453,72.59955 7.8481,109.21412 4.7395,-37.95217 1.29842,-76.60985 -7.8481,-109.21412 z" fill="#175b94" />
                <path d="m 309.57816,564.2198 c 2.21931,-2.59997 2.29709,-7.76495 2.27402,-16.70183 1.33198,8.44288 2.80736,13.89287 5.02662,15.57978 -1.86713,2.32317 -2.05999,6.69391 -1.79679,16.38228 -1.75016,-9.60715 -2.89616,-13.96254 -5.50385,-15.26023 z m -0.009,-34.7286 c 3.35746,-4.74296 4.67572,-12.22712 4.8872,-26.21148 1.77801,13.87802 3.15281,21.02981 6.95761,24.65407 -3.45218,3.57362 -3.93649,8.57498 -3.94464,24.52786 -2.01354,-15.76819 -3.87883,-21.23231 -7.90017,-22.97045 z" fill="#fff" />
              </g>
            </g>
            <path d="m 307.45293,473.5931 c -4.90028,-11.59867 -6.91461,-24.71209 -6.75575,-37.41492 -3.69509,10.14774 -4.53956,20.72561 -3.15176,30.98524 z m -8.63428,-4.81266 c -8.686,-11.9806 -13.20712,-25.8517 -15.73971,-40.86796 -1.69549,11.31825 -0.54553,23.23291 2.73122,34.18382 z m -9.86634,-1.91578 c 30.06405,10.54466 52.44404,48.82166 50.06958,146.64579 13.1338,-99.21249 -15.13327,-142.52426 -47.19739,-153.29679 -10.77261,-3.61926 -21.74874,-14.00905 -26.84992,-28.47774 1.58142,17.5191 10.01739,30.23229 23.97773,35.12874 z" fill="#175b94" />
          </g>
          <path fill="#625686" inkscape:original-d="m 545.27244,750.58424 c -63.02582,27.60757 -86.87173,-16.43421 -203.59216,13.00076 -46.02774,11.60744 -82.76555,-66.65733 -68.09273,-97.22337 11.73813,-24.45259 35.28377,-15.18882 65.43434,-52.85118" inkscape:path-effect="#path-effect4260" />
        </g>
        <g>
          <path d="m 671.23672,475.08709 c 15.28427,192.02438 -119.31368,222.62918 -85.16652,350.06811 40.94676,152.81538 271.79075,46.33698 320.41126,202.0021 26.4864,84.7998 -87.99495,177.3208 20.89949,281.9726 C 891.46926,1080.8558 1090.7098,1098.5008 1063.4886,936.53492 1039.8662,795.98194 765.37381,874.94199 861.54033,599.17035 937.98431,379.95598 788.19005,221.21494 625.21234,232.35707 Z" fill="#634a9e" id="path5996" />
          <g clip-path="url(#clipPath6155)" fill="#fff" fill-opacity=".276" transform="translate(10-76.562201)">
            <path d="m 839.61788,898.40553 c 3,-1 4,-4 5,-11 1,7 2,10 5,11 -3,1 -4,4 -5,11 -1,-7 -2,-10 -5,-11 z" fill="#fff" fill-opacity=".276" />
            <path d="m 978.76292,946.78866 c 3,-1 4,-4 5,-11 1,7 2,10 5,11 -3,1 -4,4 -5,11.00004 -1,-7.00004 -2,-10.00004 -5,-11.00004 z" fill="#fff" fill-opacity=".276" />
            <path d="m 599.09388,866.14466 c 3.75,-1.25 5,-5 6.25,-13.75 1.25,8.75 2.5,12.5 6.25,13.75 -3.75,1.25 -5,5 -6.25,13.75 -1.25,-8.75 -2.5,-12.5 -6.25,-13.75 z" fill="#fff" fill-opacity=".276" />
            <path d="m 650.51188,870.67866 c 3,-1 4,-4 5,-11 1,7 2,10 5,11 -3,1 -4,4 -5,11 -1,-7 -2,-10 -5,-11 z" fill="#fff" fill-opacity=".276" />
            <path d="m 844.42188,580.29866 c 3.75,-1.25 5,-5 6.25,-13.75 1.25,8.75 2.5,12.5 6.25,13.75 -3.75,1.25 -5,5 -6.25,13.75 -1.25,-8.75 -2.5,-12.5 -6.25,-13.75 z" fill="#fff" fill-opacity=".276" />
            <path d="m 670.87788,903.90066 c 3,-1 4,-4 5,-11 1,7 2,10 5,11 -3,1 -4,4 -5,11 -1,-7 -2,-10 -5,-11 z" fill="#fff" fill-opacity=".276" />
            <path d="m 793.61888,584.71466 c 3,-1 4,-4 5,-11 1,7 2,10 5,11 -3,1 -4,4 -5,11 -1,-7 -2,-10 -5,-11 z" fill="#fff" fill-opacity=".276" />
            <path d="m 657.03288,954.8407 c 3,-1 4,-4.00004 5,-11.00004 1,7 2,10.00004 5,11.00004 -3,1 -4,4 -5,11 -1,-7 -2,-10 -5,-11 z" fill="#fff" fill-opacity=".276" />
            <path d="m 619.83688,892.40666 c 3,-1 4,-4 5,-11 1,7 2,10 5,11 -3,1 -4,4 -5,11 -1,-7 -2,-10 -5,-11 z" fill="#fff" fill-opacity=".276" />
            <path d="m 625.17588,833.65066 c 3,-1 4,-4 5,-11 1,7 2,10 5,11 -3,1 -4,4 -5,11 -1,-7 -2,-10 -5,-11 z" fill="#fff" fill-opacity=".276" />
            <path d="m 781.51288,460.23766 c 4.5,-1.5 6,-6 7.5,-16.5 1.5,10.5 3,15 7.5,16.5 -4.5,1.5 -6,6 -7.5,16.5 -1.5,-10.5 -3,-15 -7.5,-16.5 z" fill="#fff" fill-opacity=".276" />
            <path d="m 702.22588,442.16866 c 3.75,-1.25 5,-5 6.25,-13.75 1.25,8.75 2.5,12.5 6.25,13.75 -3.75,1.25 -5,5 -6.25,13.75 -1.25,-8.75 -2.5,-12.5 -6.25,-13.75 z" fill="#fff" fill-opacity=".276" />
            <path d="m 772.34588,386.86366 c 3,-1 4,-4 5,-11 1,7 2,10 5,11 -3,1 -4,4 -5,11 -1,-7 -2,-10 -5,-11 z" fill="#fff" fill-opacity=".276" />
            <path d="m 634.55888,945.71766 c 3,-1 4,-4 5,-11 1,7 2,10 5,11 -3,1 -4,4 -5,11.00004 -1,-7.00004 -2,-10.00004 -5,-11.00004 z" fill="#fff" fill-opacity=".276" />
            <path d="m 685.71789,944.34216 c 6,-2 8,-8 10,-22 2,14 4,20 10,22 -6,2 -8,8 -10,22.00004 -2,-14.00004 -4,-20.00004 -10,-22.00004 z" fill="#fff" fill-opacity=".276" />
            <path d="m 725.28288,1001.3787 c 3.75,-1.25 5,-5 6.25,-13.75 1.25,8.75 2.5,12.5 6.25,13.75 -3.75,1.25 -5,5 -6.25,13.75 -1.25,-8.75 -2.5,-12.5 -6.25,-13.75 z" fill="#fff" fill-opacity=".276" />
            <path d="m 844.2364,524.36278 c 4.5,-1.5 6,-6 7.5,-16.5 1.5,10.5 3,15 7.5,16.5 -4.5,1.5 -6,6 -7.5,16.5 -1.5,-10.5 -3,-15 -7.5,-16.5 z" fill="#fff" fill-opacity=".276" />
            <path d="m 809.22488,964.2597 c 3.75,-1.25 5,-5 6.25,-13.75004 1.25,8.75004 2.5,12.50004 6.25,13.75004 -3.75,1.25 -5,5 -6.25,13.75 -1.25,-8.75 -2.5,-12.5 -6.25,-13.75 z" fill="#fff" fill-opacity=".276" />
            <path d="m 839.07188,675.42566 c 3.75,-1.25 5,-5 6.25,-13.75 1.25,8.75 2.5,12.5 6.25,13.75 -3.75,1.25 -5,5 -6.25,13.75 -1.25,-8.75 -2.5,-12.5 -6.25,-13.75 z" fill="#fff" fill-opacity=".276" />
            <path d="m 815.38488,429.54366 c 3.75,-1.25 5,-5 6.25,-13.75 1.25,8.75 2.5,12.5 6.25,13.75 -3.75,1.25 -5,5 -6.25,13.75 -1.25,-8.75 -2.5,-12.5 -6.25,-13.75 z" fill="#fff" fill-opacity=".276" />
            <path d="m 908.11388,1034.4307 c 3,-1 4,-4 5,-11 1,7 2,10 5,11 -3,1 -4,4 -5,11 -1,-7 -2,-10 -5,-11 z" fill="#fff" fill-opacity=".276" />
            <path d="m 854.35562,895.86479 c 4.5,-1.5 6,-6 7.5,-16.5 1.5,10.5 3,15 7.5,16.5 -4.5,1.5 -6,6 -7.5,16.5 -1.5,-10.5 -3,-15 -7.5,-16.5 z" fill="#fff" fill-opacity=".276" />
            <path d="m 623.25288,756.46066 c 3.75,-1.25 5,-5 6.25,-13.75 1.25,8.75 2.5,12.5 6.25,13.75 -3.75,1.25 -5,5 -6.25,13.75 -1.25,-8.75 -2.5,-12.5 -6.25,-13.75 z" fill="#fff" fill-opacity=".276" />
            <path d="m 792.79388,987.0847 c 3.75,-1.25 5,-5 6.25,-13.75 1.25,8.75 2.5,12.5 6.25,13.75 -3.75,1.25 -5,5 -6.25,13.75 -1.25,-8.75 -2.5,-12.5 -6.25,-13.75 z" fill="#fff" fill-opacity=".276" />
            <path d="m 1020.0719,985.3697 c 3,-1 4,-4 5,-11 1,7 2,10 5,11 -3,1 -4,4 -5,11 -1,-7 -2,-10 -5,-11 z" fill="#fff" fill-opacity=".276" />
            <path d="m 581.59498,830.22865 c 3.75,-1.25 5,-5 6.25,-13.75 1.25,8.75 2.5,12.5 6.25,13.75 -3.75,1.25 -5,5 -6.25,13.75 -1.25,-8.75 -2.5,-12.5 -6.25,-13.75 z" fill="#fff" fill-opacity=".276" />
            <path d="m 672.98188,876.60366 c 3,-1 4,-4 5,-11 1,7 2,10 5,11 -3,1 -4,4 -5,11 -1,-7 -2,-10 -5,-11 z" fill="#fff" fill-opacity=".276" />
            <path d="m 869.11648,996.6047 c 3,-1 4,-4 5,-11 1,7 2,10 5,11 -3,1 -4,4 -5,11 -1,-7 -2,-10 -5,-11 z" fill="#fff" fill-opacity=".276" />
            <path d="m 791.11588,506.62066 c 4.5,-1.5 6,-6 7.5,-16.5 1.5,10.5 3,15 7.5,16.5 -4.5,1.5 -6,6 -7.5,16.5 -1.5,-10.5 -3,-15 -7.5,-16.5 z" fill="#fff" fill-opacity=".276" />
            <path d="m 668.70988,837.60066 c 3,-1 4,-4 5,-11 1,7 2,10 5,11 -3,1 -4,4 -5,11 -1,-7 -2,-10 -5,-11 z" fill="#fff" fill-opacity=".276" />
            <path d="m 997.97892,1017.0547 c 2.99998,-1 3.99998,-4 4.99998,-11 1,7 2,10 5,11 -3,1 -4,4 -5,11 -1,-7 -2,-10 -4.99998,-11 z" fill="#fff" fill-opacity=".276" />
            <path d="m 756.41188,993.1037 c 3,-1 4,-4 5,-11 1,7 2,10 5,11 -3,1 -4,4 -5,11 -1,-7 -2,-10 -5,-11 z" fill="#fff" fill-opacity=".276" />
            <path d="m 747.30088,423.63366 c 3.75,-1.25 5,-5 6.25,-13.75 1.25,8.75 2.5,12.5 6.25,13.75 -3.75,1.25 -5,5 -6.25,13.75 -1.25,-8.75 -2.5,-12.5 -6.25,-13.75 z" fill="#fff" fill-opacity=".276" />
            <path d="m 685.71588,373.94666 c 3.75,-1.25 5,-5 6.25,-13.75 1.25,8.75 2.5,12.5 6.25,13.75 -3.75,1.25 -5,5 -6.25,13.75 -1.25,-8.75 -2.5,-12.5 -6.25,-13.75 z" fill="#fff" fill-opacity=".276" />
          </g>
          <path d="M 927.38095,1309.1299 C 900.89753,1140.787 1002.3009,1106.1863 1046.4538,1034.6628 1042.1059,959.86899 985.9825,898.77574 897.42763,857.39784 706.92476,768.384 948.9373,530.65564 677.4083,353.87893 l -1.51472,78.06602 c 80.78175,178.19091 -71.38089,372.06232 125.5513,446.60722 146.45906,55.43927 190.38833,141.79513 96.43774,241.41213 -17.88396,58.77 -40.9869,121.4265 29.49833,189.1656 z" fill="#fff" stroke="#332553" stroke-width="6" />
          <path d="m 671.23672,475.08709 c 15.28427,192.02438 -119.31368,222.62918 -85.16652,350.06811 40.94676,152.81538 271.79075,46.33698 320.41126,202.0021 26.4864,84.7998 -87.99495,177.3208 20.89949,281.9726 C 891.46926,1080.8558 1090.7098,1098.5008 1063.4886,936.53492 1039.8662,795.98194 765.37381,874.94199 861.54033,599.17035 937.98431,379.95598 788.19005,221.21494 625.21234,232.35707 Z" fill="none" stroke="#332553" stroke-width="11" />
          <path fill="#fff" fill-opacity=".196" inkscape:original-d="M 793.0252,336.1421 C 950.74418,489.12952 700.39381,759.98336 927.50915,864.07789" inkscape:path-effect="#path-effect7896-6" />
        </g>
        <g>
          <path d="M 104.40163,520.26781 C 113.14938,363.45171 27.83486,270.16537 97.823442,157.67592 237.68436,-67.116144 441.95989,84.029702 536.98694,99.73471 647.37637,117.97864 700.25197,197.85894 604.49752,375.91238 332.08854,272.88393 153.68872,571.5942 304.46507,643.67496 612.21413,790.79874 340.82546,1075.3999 343.65389,1262.0761 186.67619,961.99072 517.60216,932.29228 164.04877,737.13081 -20.107065,635.47679 55.894319,496.60876 180.41631,424.60686 385.96674,305.75219 115.96562,143.90125 107.99964,329.00011 c -2.77665,64.51866 34.35683,119.96938 -3.59801,191.2677 z" fill="#634a9e" />
          <g fill="#fff" fill-opacity=".276" transform="translate(-50-42)">
            <path d="m 289.07273,308.96778 c 4.5,-1.5 6,-6 7.5,-16.5 1.5,10.5 3,15 7.5,16.5 -4.5,1.5 -6,6 -7.5,16.5 -1.5,-10.5 -3,-15 -7.5,-16.5 z" fill="#fff" fill-opacity=".276" />
            <path d="m 574.19273,348.80478 c 3,-1 4,-4 5,-11 1,7 2,10 5,11 -3,1 -4,4 -5,11 -1,-7 -2,-10 -5,-11 z" fill="#fff" fill-opacity=".276" />
            <path d="m 398.97673,1162.4658 c 3,-1 4,-4 5,-11 1,7 2,10 5,11 -3,1 -4,4 -5,11 -1,-7 -2,-10 -5,-11 z" fill="#fff" fill-opacity=".276" />
            <path d="m 382.63273,1230.6168 c 3,-1 4,-4 5,-11 1,7 2,10 5,11 -3,1 -4,4 -5,11 -1,-7 -2,-10 -5,-11 z" fill="#fff" fill-opacity=".276" />
            <path d="m 615.13273,354.78678 c 6,-2 8,-8 10,-22 2,14 4,20 10,22 -6,2 -8,8 -10,22 -2,-14 -4,-20 -10,-22 z" fill="#fff" fill-opacity=".276" />
            <path d="m 173.68073,178.98278 c 3,-1 4,-4 5,-11 1,7 2,10 5,11 -3,1 -4,4 -5,11 -1,-7 -2,-10 -5,-11 z" fill="#fff" fill-opacity=".276" />
            <path d="m 154.34473,541.73578 c 3,-1 4,-4 5,-11 1,7 2,10 5,11 -3,1 -4,4 -5,11 -1,-7 -2,-10 -5,-11 z" fill="#fff" fill-opacity=".276" />
            <path d="m 510.96573,144.42078 c 3,-1 4,-4 5,-11 1,7 2,10 5,11 -3,1 -4,4 -5,11 -1,-7 -2,-10 -5,-11 z" fill="#fff" fill-opacity=".276" />
            <path d="m 345.29373,232.37278 c 3,-1 4,-4 5,-11 1,7 2,10 5,11 -3,1 -4,4 -5,11 -1,-7 -2,-10 -5,-11 z" fill="#fff" fill-opacity=".276" />
            <path d="m 165.15773,608.66578 c 3,-1 4,-4 5,-11 1,7 2,10 5,11 -3,1 -4,4 -5,11 -1,-7 -2,-10 -5,-11 z" fill="#fff" fill-opacity=".276" />
            <path d="m 476.81473,887.09582 c 3,-1 4,-4 5,-11 1,7 2,10 5,11 -3,1 -4,4 -5,11 -1,-7 -2,-10 -5,-11 z" fill="#fff" fill-opacity=".276" />
            <path d="m 149.33073,209.52778 c 3.75,-1.25 5,-5 6.25,-13.75 1.25,8.75 2.5,12.5 6.25,13.75 -3.75,1.25 -5,5 -6.25,13.75 -1.25,-8.75 -2.5,-12.5 -6.25,-13.75 z" fill="#fff" fill-opacity=".276" />
            <path d="m 293.52373,754.11682 c 3.75,-1.25 5,-5 6.25,-13.75 1.25,8.75 2.5,12.5 6.25,13.75 -3.75,1.25 -5,5 -6.25,13.75 -1.25,-8.75 -2.5,-12.5 -6.25,-13.75 z" fill="#fff" fill-opacity=".276" />
            <path d="m 600.05673,311.44578 c 4.5,-1.5 6,-6 7.5,-16.5 1.5,10.5 3,15 7.5,16.5 -4.5,1.5 -6,6 -7.5,16.5 -1.5,-10.5 -3,-15 -7.5,-16.5 z" fill="#fff" fill-opacity=".276" />
            <path d="m 247.22873,654.26178 c 3,-1 4,-4 5,-11 1,7 2,10 5,11 -3,1 -4,4 -5,11 -1,-7 -2,-10 -5,-11 z" fill="#fff" fill-opacity=".276" />
            <path d="m 646.80473,289.67078 c 3,-1 4,-4 5,-11 1,7 2,10 5,11 -3,1 -4,4 -5,11 -1,-7 -2,-10 -5,-11 z" fill="#fff" fill-opacity=".276" />
            <path d="m 488.62573,365.09878 c 3,-1 4,-4 5,-11 1,7 2,10 5,11 -3,1 -4,4 -5,11 -1,-7 -2,-10 -5,-11 z" fill="#fff" fill-opacity=".276" />
            <path d="m 281.81173,569.58678 c 3,-1 4,-4 5,-11 1,7 2,10 5,11 -3,1 -4,4 -5,11 -1,-7 -2,-10 -5,-11 z" fill="#fff" fill-opacity=".276" />
            <path d="m 578.52573,290.38878 c 3,-1 4,-4 5,-11 1,7 2,10 5,11 -3,1 -4,4 -5,11 -1,-7 -2,-10 -5,-11 z" fill="#fff" fill-opacity=".276" />
            <path d="m 429.89673,1031.8628 c 5.25,-1.75 7,-7 8.75,-19.25 1.75,12.25 3.5,17.5 8.75,19.25 -5.25,1.75 -7,7 -8.75,19.25 -1.75,-12.25 -3.5,-17.5 -8.75,-19.25 z" fill="#fff" fill-opacity=".276" />
            <path d="m 267.03573,797.00682 c 3,-1 4,-4 5,-11 1,7 2,10 5,11 -3,1 -4,4 -5,11 -1,-7 -2,-10 -5,-11 z" fill="#fff" fill-opacity=".276" />
            <path d="m 473.26273,850.36582 c 3,-1 4,-4 5,-11 1,7 2,10 5,11 -3,1 -4,4 -5,11 -1,-7 -2,-10 -5,-11 z" fill="#fff" fill-opacity=".276" />
            <path d="m 276.38773,770.89082 c 3,-1 4,-4 5,-11 1,7 2,10 5,11 -3,1 -4,4 -5,11 -1,-7 -2,-10 -5,-11 z" fill="#fff" fill-opacity=".276" />
            <path d="m 310.81773,774.75682 c 3,-1 4,-4 5,-11 1,7 2,10 5,11 -3,1 -4,4 -5,11 -1,-7 -2,-10 -5,-11 z" fill="#fff" fill-opacity=".276" />
            <path d="m 431.77473,999.4638 c 3,-1 4,-4 5,-10.99998 1,6.99998 2,9.99998 5,10.99998 -3,1 -4,4 -5,11 -1,-7 -2,-10 -5,-11 z" fill="#fff" fill-opacity=".276" />
            <path d="m 635.60873,165.1535 c 3,-1 4,-4 5,-11 1,7 2,10 5,11 -3,1 -4,4 -5,11 -1,-7 -2,-10 -5,-11 z" fill="#fff" fill-opacity=".276" />
            <path d="m 299.92573,514.42778 c 3,-1 4,-4 5,-11 1,7 2,10 5,11 -3,1 -4,4 -5,11 -1,-7 -2,-10 -5,-11 z" fill="#fff" fill-opacity=".276" />
            <path d="m 236.67773,242.63878 c 3,-1 4,-4 5,-11 1,7 2,10 5,11 -3,1 -4,4 -5,11 -1,-7 -2,-10 -5,-11 z" fill="#fff" fill-opacity=".276" />
            <path d="m 422.78673,187.96054 c 3,-1 4,-4 5,-11 1,7 2,10 5,11 -3,1 -4,4 -5,11 -1,-7 -2,-10 -5,-11 z" fill="#fff" fill-opacity=".276" />
            <path d="m 388.88473,1198.2968 c 3,-1 4,-4 5,-11 1,7 2,10 5,11 -3,1 -4,4 -5,11 -1,-7 -2,-10 -5,-11 z" fill="#fff" fill-opacity=".276" />
            <path d="m 474.02073,203.47478 c 3.75,-1.25 5,-5 6.25,-13.75 1.25,8.75 2.5,12.5 6.25,13.75 -3.75,1.25 -5,5 -6.25,13.75 -1.25,-8.75 -2.5,-12.5 -6.25,-13.75 z" fill="#fff" fill-opacity=".276" />
            <path d="m 470.60673,360.44578 c 3.75,-1.25 5,-5 6.25,-13.75 1.25,8.75 2.5,12.5 6.25,13.75 -3.75,1.25 -5,5 -6.25,13.75 -1.25,-8.75 -2.5,-12.5 -6.25,-13.75 z" fill="#fff" fill-opacity=".276" />
            <path d="m 477.13973,318.26278 c 3.75,-1.25 5,-5 6.25,-13.75 1.25,8.75 2.5,12.5 6.25,13.75 -3.75,1.25 -5,5 -6.25,13.75 -1.25,-8.75 -2.5,-12.5 -6.25,-13.75 z" fill="#fff" fill-opacity=".276" />
            <path d="m 159.95073,585.86678 c 3,-1 4,-4 5,-11 1,7 2,10 5,11 -3,1 -4,4 -5,11 -1,-7 -2,-10 -5,-11 z" fill="#fff" fill-opacity=".276" />
            <path d="m 265.85573,575.41478 c 3,-1 4,-4 5,-11 1,7 2,10 5,11 -3,1 -4,4 -5,11 -1,-7 -2,-10 -5,-11 z" fill="#fff" fill-opacity=".276" />
            <path d="m 400.54173,1098.7128 c 3,-1 4,-4 5,-11 1,7 2,10 5,11 -3,1 -4,4 -5,11 -1,-7 -2,-10 -5,-11 z" fill="#fff" fill-opacity=".276" />
            <path d="m 474.54373,951.68382 c 3,-1 4,-4 5,-11 1,7 2,10 5,11 -3,1 -4,4 -5,11 -1,-7 -2,-10 -5,-11 z" fill="#fff" fill-opacity=".276" />
            <path d="m 472.63573,828.94182 c 3,-1 4,-4 5,-11 1,7 2,10 5,11 -3,1 -4,4 -5,11 -1,-7 -2,-10 -5,-11 z" fill="#fff" fill-opacity=".276" />
            <path d="m 331.30973,282.14778 c 5.25,-1.75 7,-7 8.75,-19.25 1.75,12.25 3.5,17.5 8.75,19.25 -5.25,1.75 -7,7 -8.75,19.25 -1.75,-12.25 -3.5,-17.5 -8.75,-19.25 z" fill="#fff" fill-opacity=".276" />
            <path d="m 363.65473,1240.4308 c 4.5,-1.5 6,-6 7.5,-16.5 1.5,10.5 3,15 7.5,16.5 -4.5,1.5 -6,6 -7.5,16.5 -1.5,-10.5 -3,-15 -7.5,-16.5 z" fill="#fff" fill-opacity=".276" />
            <path d="m 533.84273,241.15878 c 3,-1 4,-4 5,-11 1,7 2,10 5,11 -3,1 -4,4 -5,11 -1,-7 -2,-10 -5,-11 z" fill="#fff" fill-opacity=".276" />
            <path d="m 136.94373,354.03878 c 3,-1 4,-4 5,-11 1,7 2,10 5,11 -3,1 -4,4 -5,11 -1,-7 -2,-10 -5,-11 z" fill="#fff" fill-opacity=".276" />
            <path d="m 599.83973,341.60378 c 3.75,-1.25 5,-5 6.25,-13.75 1.25,8.75 2.5,12.5 6.25,13.75 -3.75,1.25 -5,5 -6.25,13.75 -1.25,-8.75 -2.5,-12.5 -6.25,-13.75 z" fill="#fff" fill-opacity=".276" />
          </g>
          <path d="m 298.45462,1104.9965 c -2.48153,-129.43785 90.75213,-188.11313 -11.6377,-284.33511 13.42974,-87.41256 -46.11181,-127.77178 -29.97042,-225.3461 8.34588,20.09361 23.91413,37.02743 47.61857,48.35967 47.07995,22.50723 80.60612,48.2319 103.63377,76.33119 15.05426,134.03523 -22.90063,271.22504 -109.64422,384.99035 z M 233.18112,779.14311 C 152.75146,653.10628 205.65509,427.03588 353.63151,385.59949 l 21.11638,-14.75287 C 244.14454,363.93302 70.520274,558.88129 105.4878,696.98083 c 40.14593,34.71697 86.96027,52.87965 127.69332,82.16228 z M 503.36359,354.05599 c -26.17122,-89.99587 27.00837,-181.90968 -16.22764,-268.839068 17.51585,5.933076 40.35263,13.871927 53.8876,15.543048 23.80355,85.53061 -39.82584,176.91544 -22.29424,254.8095 z M 326.54961,37.503218 C 407.65966,157.06862 369.75766,274.10599 443.41087,358.5378 l -26.40485,6.41804 C 330.21092,293.81137 329.33252,48.570072 113.4215,134.49167 178.0234,45.886007 254.25592,28.838764 326.54961,37.503218 Z" fill="#fff" stroke="#332553" stroke-width="6" />
          <path d="M 331.86205,941.37723 C 135.6972,1012.7697 24.823617,848.45527 89.87055,608.79098 147.76823,395.46799 15.595852,289.83622 97.82338,157.67583 237.68439,-67.116125 441.95989,84.029702 536.98694,99.73471 647.37637,117.97864 700.25197,197.85894 604.49752,375.91238 332.08854,272.88393 153.68872,571.5942 304.46507,643.67496 612.21413,790.79874 340.82546,1075.3999 343.65389,1262.0761 186.67619,961.99072 517.60216,932.29228 164.04877,737.13081 -20.107065,635.47679 55.894319,496.60876 180.41631,424.60686 385.96674,305.75219 115.96545,143.90124 108,329 c -3.04849,70.83984 42.03215,130.74517 -17.01193,212.70187" style="stroke-width:11;fill:none;stroke-miterlimit:20;stroke:#332553" />
          <path d="M 89.249308,679.90281 C 8.4839592,588.16255 78.057177,483.79361 180.41631,424.60686 147.54928,502.69066 94.126371,570.22194 89.249308,679.90281 Z" fill="#634a9e" />
          <path d="M 89.249308,679.90281 C 8.4839592,588.16255 78.057177,483.79361 180.41631,424.60686" style="stroke-width:11;fill:none;stroke-miterlimit:20;stroke:#332553" />
          <path d="m 109.95073,543.86678 c 3,-1 4,-4 5,-11 1,7 2,10 5,11 -3,1 -4,4 -5,11 -1,-7 -2,-10 -5,-11 z m -5.606,-44.131 c 3,-1 4,-4 5,-11 1,7 2,10 5,11 -3,1 -4,4 -5,11 -1,-7 -2,-10 -5,-11 z" fill="#fff" fill-opacity=".276" />
          <path fill="#fff" fill-opacity=".196" inkscape:original-d="M 131.99095,180.08833 C 214.69303,-22.526193 460.58144,144.36826 582.22638,148.56291" inkscape:path-effect="#path-effect7892" />
          <path fill="#fff" fill-opacity=".196" inkscape:original-d="M 222.39656,560.68263 C 204.85082,660.2862 374.16395,672.75441 417.1219,771.60761" inkscape:path-effect="#path-effect7894" />
        </g>
        <g>
          <path d="m 575.0053,381.83336 c 7.63202,-75.99947 59.28638,-135.43099 71.88775,-134.02697 12.5712,1.40066 112.55954,119.98695 16.21447,276.21797 z" fill="#211b33" />
          <path fill="#625686" inkscape:original-d="m 575.0053,381.83336 c 7.63202,-75.99947 59.28638,-135.43099 71.88775,-134.02697 12.5712,1.40066 112.55954,119.98695 16.21447,276.21797" inkscape:path-effect="#path-effect4901" />
          <path d="m 645.97076,324.27804 c 12.5863,36.03572 12.53461,80.65636 1.10748,122.67219 17.65641,-34.77074 20.25089,-91.48847 -1.10748,-122.67219 z" fill="#625686" />
          <path d="M 347.7733,436.97262 C 129.73966,-94.687657 127.68351,-92.00545 411.0625,403.3803 Z" fill="#211b33" stroke="#625686" stroke-width="11" />
          <path d="m 231.9358,92.925684 c -2.06018,11.975146 -5.66204,23.198186 -10.50239,33.423196 m 39.66414,15.95285 c -3.30191,15.35106 -9.07169,29.32264 -16.64107,41.47348 m 45.33424,8.12711 c -4.23817,18.70986 -12.04936,35.28986 -22.23103,49.06209 m 50.63082,0.0401 c -4.54932,22.6036 -14.24617,42.22346 -27.06498,57.75507 m 57.44751,-4.6499 c -6.72035,24.21463 -19.28893,44.45493 -34.98448,59.4769 m 64.76259,-7.40858 c -9.2578,25.44275 -24.8539,45.74147 -43.32134,59.70763" fill="none" stroke="#625686" stroke-width="6" />
          <path d="m 347.33597,391.1724 c 81.63151,-46.11245 174.53578,-58.82156 259.90613,-34.51905 -89.1092,12.46281 -174.78206,39.04136 -256.41357,94.50093 z" style="stroke-width:11;fill:#5e7cbc;stroke-miterlimit:20;stroke:#344c7e" />
          <path d="m 423.61562,392.95401 c 28.00802,-21.54258 58.23349,-37.58354 91.00626,-48.69636 m -165.67932,86.82074 c 68.27131,-41.10741 150.51858,-71.1048 228.56688,-81.33698" fill="none" stroke="#344c7e" stroke-width="6" />
          <path d="m 284.49019,353.54673 c -28.44158,55.64933 8.30419,120.69177 49.73153,114.22147 56.0373,-8.75215 60.69399,-95.62222 8.56973,-127.73826 12.19905,33.11458 0.10791,57.61631 -23.69443,61.14972 -15.29122,2.26995 -31.10769,-18.68895 -34.60683,-47.63293 z" stroke="#223152" stroke-width="11" />
          <g clip-path="url(#clipPath5178)">
            <path d="m 293.35479,395.85419 c -0.2854,-27.85803 3.63148,-55.71605 6.68198,-83.57408 12.36859,25.33657 26.09268,50.13094 44.29637,73.13347 -7.10847,25.59074 -9.7067,51.18148 -9.77819,76.77222 -15.28641,-22.11054 -29.42871,-44.22107 -41.20016,-66.33161 z" fill="#4dc5e9" id="path4283" />
            <path d="m 339.76778,475.14521 c -9.00044,-21.67847 -15.81331,-43.99159 -21.18681,-64.46839 l -8.23772,-5.88949 c -2.31068,14.57903 -2.41365,31.41255 -1.28239,47.31346 z" fill="#28b9e4" />
            <path d="m 359.77282,384.13987 c -12.53285,0.72175 -25.13585,2.60768 -37.09581,5.47921 l 0.72166,12.00157 c 8.21669,14.03755 18.12945,26.93949 30.72429,38.78178 z" fill="#84d7f0" />
            <path d="m 319.24106,379.0367 c 1.44614,-16.53088 3.74703,-32.69826 7.11603,-46.56388 L 299.52398,292.4098 c -0.22315,23.28494 3.4694,52.01035 10.11743,78.42139 z" fill="#aae3f5" />
            <path d="m 304.75503,381.18146 c -9.22209,-13.73731 -15.26296,-25.83349 -20.06996,-39.74466 m 25.65818,63.35053 c -2.31068,14.57903 -2.41365,31.41255 -1.28239,47.31346 m 14.33781,-50.48014 c 8.21669,14.03755 18.12945,26.93949 30.72429,38.78178 m -35.54199,-29.72561 c 5.3735,20.4768 12.18637,42.78992 21.18681,64.46839 M 309.64141,370.83119 c -6.64803,-26.41104 -10.34058,-55.13645 -10.11743,-78.42139 m 23.15303,97.20928 c 11.95996,-2.87153 24.56296,-4.75746 37.09581,-5.47921 m -53.87498,8.97101 c -8.46254,1.72696 -16.70167,4.27373 -24.84223,7.20392 m 38.18545,-21.2781 c 1.44614,-16.53088 3.74703,-32.69826 7.11603,-46.56388" style="stroke-width:2;fill:none;stroke-miterlimit:20;stroke:#2d86be" />
            <ellipse cx="224.84738" cy="448.0697" rx="8.6456842" ry="20.634146" style="stroke-width:2;fill:#84d7f0;stroke-miterlimit:20;stroke:#2d86be" transform="rotate(347.84763)" />
          </g>
        </g>
        <g>
          <g clip-path="url(#clipPath4410)">
            <path d="M 391.07203,659.26641 C 391.15821,530.9467 436.67736,480.82078 564.53814,449.60434 607.84924,673.40073 418.56485,613.0349 391.07203,659.26641 Z" fill="url(#linearGradient7558)" id="path4777" />
            <g transform="rotate(2.3929946 408.135 509.63915)">
              <ellipse cx="459.2984" cy="586.31793" fill="url(#linearGradient6781)" rx="60.583843" ry="84.653603" transform="rotate(355.20939)" />
              <path d="m 499.42188,485.3576 c -12.45099,39.40724 -7.84616,81.39907 14.90481,120.8227 13.19441,-43.57035 5.93734,-86.22164 -14.90481,-120.8227 z" fill="#175b94" />
              <path d="m 470.73383,556.07063 c 5.01343,-4.00637 6.11169,-9.39636 6.22931,-19.51543 3.02729,9.46362 5.89441,14.52394 11.36625,16.57006 -4.73797,2.87211 -5.33651,8.54793 -5.31855,19.50749 -3.18035,-10.4635 -6.23617,-15.68306 -12.27701,-16.56212 z m 3.03532,-39.12993 c 9.35507,-6.03048 12.35185,-14.75833 13.27776,-30.71362 3.028,15.36684 6.90825,23.45451 15.88556,27.61133 -7.96237,3.89564 -10.38209,13.12744 -11.27384,31.63787 -3.66382,-18.22548 -7.83036,-26.59196 -17.88948,-28.53558 z" fill="#fff" />
            </g>
          </g>
          <path d="M 564.53814,449.60434 C 454.74536,445.0536 366.85936,505.98065 391.07203,659.26641 391.15821,530.9467 436.67736,480.82078 564.53814,449.60434 Z" fill="#53c4e6" />
          <path d="m 529.29797,461.08649 c 16.39082,-18.01376 22.49921,-34.67075 24.41321,-54.83286 5.10276,15.539 4.16718,32.21679 -4.57583,48.65046 z m 18.25639,-5.23323 c 21.49533,-16.55715 32.02966,-36.83144 36.49329,-57.53422 3.00609,16.78198 -0.47529,35.4858 -13.86556,49.69355 z m 9.69854,1.0408 c -103.63219,27.30809 -159.98787,68.03488 -166.18087,202.37235 -8.45191,-145.89812 64.66195,-185.30373 163.82573,-211.87459 30.72192,-8.23192 49.29908,-22.26809 59.1916,-39.72876 -2.90294,23.78218 -22.93369,40.2973 -56.83646,49.231 z" fill="#175b94" />
        </g>
        <use clip-path="url(#clipPath6163)" xlink:href="#g6345" />
      </g>
    </g>
    <g clip-path="url(#clipPath6418)" transform="translate(2345.9872 132.11323)">
      <rect fill="#262651" height="600" id="rect5255" width="600" x="179.92116" y="207.29906" />
      <g transform="translate(0 14.941176)">
        <g>
          <path d="m 245.80687,278.21681 c -123.13696,169.13695 38.03117,342.43723 -17.87185,581.02338 49.43412,-25.00866 76.77661,-55.80963 98.7593,-105.3658 9.07003,31.34868 10.54923,64.16412 2,95.86147 33.15878,-20.23491 55.21208,-45.54904 68.13528,-78.37446 5.19289,20.2067 5.82742,43.33903 2.25303,65.88571 30.94632,-16.97057 52.89091,-41.06008 66.86667,-72.7551 17.78468,-225.8157 -52.75248,-398.46895 -220.14243,-486.2752 z" fill="#e7e3e7" />
          <path d="m 331.08135,771.82417 c -1.21589,-5.9903 -2.66458,-11.99649 -4.38703,-17.94978 -21.98269,49.55617 -49.32518,80.35714 -98.7593,105.3658 55.90302,-238.58615 -105.26511,-411.88643 17.87185,-581.02338 22.55677,11.8324 43.35478,25.20555 62.4149,40.04192 -34.68156,158.33505 46.81756,308.93148 22.85958,453.56544 z" fill="#d98cbd" fill-rule="evenodd" />
          <path d="m 399.08263,837.24711 c 30.94632,-16.97057 52.89091,-41.06008 66.86667,-72.7551 12.53638,-159.17698 -18.81267,-291.93856 -97.03512,-387.18722 -12.79116,174.55465 116.70245,338.76443 30.16845,459.94232 z" fill="#340b28" fill-rule="evenodd" />
        </g>
        <g id="g4359">
          <path d="m 414.18542,914.14094 242.297,0.43487 c -16.60195,-192.4958 39.87697,-325.99412 14.29513,-456.81938 -54.21188,-277.239 -483.83726,-175.98206 -365.12206,153.15456 -17.58626,7.17509 -33.47626,12.90609 -30.0961,35.89175 8.908,60.57585 83.6658,99.80299 192.08024,79.60085 -26.88245,57.06407 -42.62246,123.57941 -53.45421,187.73735 z" fill="#2a90cd" />
          <path d="m 653.16296,821.89384 c -28.4312,-10.79468 -56.28502,-24.9158 -81.68787,-44.22235 -36.82285,-2.11248 -69.12106,-9.63102 -92.16666,-20.93661 m -28.76019,75.09263 c 9.54745,15.02506 23.21408,31.17454 38.46476,44.07728 33.66215,-24.81304 60.33995,-57.4678 82.46209,-98.2333 41.1165,-13.73726 68.25471,-30.1412 88.05935,-50.34925 M 499.43688,610.0339 c 53.61715,0.75859 97.15649,12.96463 125.21284,32.25969 -10.40895,46.73153 -26.68447,91.83063 -53.17463,135.3779 8.71829,36.74785 13.68981,72.21738 15.66985,110.24354" style="stroke-linecap:round;stroke-width:5;stroke-linejoin:round;fill:none;stroke:#f0f0f0" />
          <path d="M 467.663,726.48843 C 440.75718,783.46766 425.01717,849.983 414.18542,914.14094 l 242.297,0.43487 C 639.88047,722.08001 696.35939,588.58169 670.77755,457.75643 616.56567,180.51743 186.94029,281.77437 305.5076,611.55478" fill="none" stroke="#1a6694" stroke-width="11" />
          <path d="m 293.40582,686.69459 c 26.11992,-0.67271 49.62311,-8.26914 65.21843,-22.83848 -10.68903,21.27984 -34.91676,30.82866 -58.68361,31.61747 z m 3.54565,-46.78067 c 5.46172,4.44572 11.29574,2.99933 12.95524,-3.57029 2.78072,13.54801 -7.59506,16.10673 -12.95524,3.57029 z" fill="#1a6694" fill-rule="evenodd" />
          <g>
            <g clip-path="url(#clipPath4273)">
              <ellipse cx="630.15906" cy="326.54907" fill="#f0f0f0" id="path9170" rx="85.389885" ry="107.32491" transform="rotate(20.287796)" />
              <g clip-path="url(#clipPath4259)">
                <ellipse cx="625.47791" cy="393.33893" fill="url(#linearGradient7560)" id="ellipse4208" rx="68.020866" ry="85.494225" transform="rotate(14.042677)" />
                <path d="m 524.52026,533.60484 -78.30875,73.65314 -22.25669,-53.2751 z" fill="#c199e6" fill-rule="evenodd" />
                <path d="m 524.52026,533.60484 -105.55346,1.56797 8.22219,40.21312 z" fill="#9350d4" fill-rule="evenodd" />
                <ellipse cx="631.784" cy="393.33813" fill="#f0f0f0" rx="55.597191" ry="69.879112" transform="rotate(14.042677)" />
                <ellipse cx="670.09979" cy="185.03979" fill="#fff" rx="23.240906" ry="38.066994" transform="rotate(30)" />
                <ellipse cx="716.46832" cy="189.9377" fill="#fff" rx="10.179921" ry="15.373526" transform="rotate(31.909271)" />
              </g>
            </g>
            <path d="m 541.44499,438.67605 c 43.76198,-40.12232 48.7481,-32.6662 7.07439,6.74028 z m 14.88292,18.61311 c 51.97314,-28.70026 55.0651,-20.28036 5.29008,8.21544 z M 435.9446,435.14128 c 52.66298,-40.05146 114.83676,-18.85335 134.80213,41.91992 50.91169,-11.97922 51.65692,-2.93425 -6.43961,11.37259 -13.40599,-59.40155 -71.7335,-84.79772 -122.79358,-45.85507 -39.52488,30.14495 -57.264,83.55143 -44.88127,137.31279 -22.03921,-49.47233 -4.69841,-111.279 39.31233,-144.75023 z" />
          </g>
          <g>
            <path d="m 287.33828,471.95118 c -43.51246,-8.52146 -44.67571,0.18422 -1.46315,7.95371 z m 4.022,-20.87133 c -42.36626,-14.1894 -44.60765,-6.43697 -2.04446,7.69245 z" fill-rule="evenodd" />
            <g clip-path="url(#clipPath4597)">
              <path d="m 294.27652,432.48822 c 33.09188,17.83293 59.57854,66.64551 39.67803,159.63728 -8.31705,8.28124 -19.26916,14.72098 -29.66262,19.19193 -22.17716,-58.52864 -27.89682,-124.61562 -10.01541,-178.82921 z" fill="#f0f0f0" fill-rule="evenodd" id="path9168" />
              <g clip-path="url(#clipPath4581)" transform="translate(0 1.9965368)">
                <ellipse cx="326.51923" cy="525.82886" fill="url(#linearGradient7562)" fill-rule="evenodd" id="path7647" rx="77.409897" ry="29.16634" transform="rotate(86.233267 326.51922 525.82885)" />
                <path d="m 332.13277,525.91337 -28.35087,67.00096 -8.79607,-40.37554 z" fill="#c199e6" fill-rule="evenodd" />
                <path d="m 332.13277,525.91337 -43.06842,6.26048 5.5738,32.87556 z" fill="#9350d4" fill-rule="evenodd" />
                <ellipse cx="329.2562" cy="527.1571" fill="#f0f0f0" fill-rule="evenodd" rx="63.271355" ry="23.839254" transform="rotate(86.233262 329.25621 527.15712)" />
                <ellipse cx="371.84243" cy="449.06359" fill="#fff" rx="10.279459" ry="30.789687" transform="rotate(7.1177778)" />
                <ellipse cx="393.94201" cy="480.47626" fill="#fff" rx="4.5778299" ry="12.621511" transform="rotate(8.052769)" />
              </g>
            </g>
            <path d="m 292.71734,436.51686 c 29.26656,14.15986 56.09455,61.05925 41.23721,155.60864 24.89705,-84.54569 -1.54355,-145.52964 -37.64382,-163.01409 -17.28978,-8.37396 -28.55924,-10.15278 -27.98834,-7.42441 0.48822,2.33327 12.21821,8.93846 24.39495,14.82986 z" fill-rule="evenodd" />
          </g>
          <path fill="#1a6694" inkscape:original-d="m 333.95455,592.1255 c -22.436,24.89615 -63.64341,18.98831 -58.39516,54.67724 11.45509,77.89647 131.80093,120.49023 292.53074,46.62446" inkscape:path-effect="#path-effect4614" />
        </g>
        <g>
          <path d="m 665.0796,283.20815 c 65.88571,96.3329 60.90476,203.57403 136.77316,258.47879 -21.82064,0.90529 -40.74062,-1.97838 -65.37618,-10.43333 130.49545,145.28447 1.72398,301.7409 181.16146,442.75974 -94.96521,3.15138 -164.5154,-36.97581 -178.36648,-144.30079 -25.30535,48.40993 -29.52071,105.31217 1.59078,166.99826 -177.88236,-87.52941 -57.64707,-220.94117 -53.41177,-331.7647 -14.90916,30.545 -41.03374,53.55533 -72.1782,70.75951 46.54254,-107.95431 55.70777,-208.8773 40.1782,-306.28892 z" fill="#e7e3e7" />
          <path d="m 740.86234,996.71082 c -177.88236,-87.52941 -57.64707,-220.94117 -53.41177,-331.7647 -14.90916,30.545 -41.03374,53.55533 -72.1782,70.75951 46.54254,-107.95431 55.70777,-208.8773 40.1782,-306.28892 l 3.39306,-51.52077 c 183.43202,398.56949 -89.2298,447.12102 82.01871,618.81488 z" fill="#340b28" />
          <path d="m 665.0796,283.20815 c 65.88571,96.3329 60.90476,203.57403 136.77316,258.47879 -19.32776,0.80187 -36.37976,-1.36895 -57.12697,-7.86331 -14.46123,-60.92721 -39.05416,-127.36742 -82.64692,-201.32327 z m 82.07189,260.75871 c 112.60914,141.63513 -3.74585,293.11829 170.48655,430.04649 -37.66653,1.24995 -71.33478,-4.30866 -99.01391,-18.15453 C 747.73437,833.49683 783.87384,709.6415 747.15149,543.96686 Z" fill="#d98cbd" />
          <path d="m 665.0796,283.20815 c 65.88571,96.3329 60.90476,203.57403 136.77316,258.47879 -21.82064,0.90529 -40.74062,-1.97838 -65.37618,-10.43333 130.49545,145.28447 1.72398,301.7409 181.16146,442.75974 -94.96521,3.15138 -164.5154,-36.97581 -178.36648,-144.30079 -25.30535,48.40993 -29.52071,105.31217 1.59078,166.99826 -177.88236,-87.52941 -57.64707,-220.94117 -53.41177,-331.7647 -14.90916,30.545 -41.03374,53.55533 -72.1782,70.75951 46.54254,-107.95431 55.70777,-208.8773 40.1782,-306.28892 z" style="stroke-width:11;fill:none;stroke-miterlimit:20;stroke:#7e466b" />
          <g fill="#fff" transform="rotate(356.22092 2436.9778 4045.7034)">
            <path fill="#fff" sodipodi:arg1="0.26639279" sodipodi:arg2="1.051791" sodipodi:cx="943.75806" sodipodi:cy="306.85464" sodipodi:r1="14.4" sodipodi:r2="1.8" sodipodi:sides="4" sodipodi:type="star" />
            <path fill="#fff" sodipodi:arg1="0.78053026" sodipodi:arg2="1.5659284" sodipodi:cx="963.67999" sodipodi:cy="501.69501" sodipodi:r1="4.8000002" sodipodi:r2="0.60000002" sodipodi:sides="4" sodipodi:type="star" />
            <path fill="#fff" sodipodi:arg1="1.3710286" sodipodi:arg2="2.1564267" sodipodi:cx="953.07001" sodipodi:cy="377.15601" sodipodi:r1="4.8000002" sodipodi:r2="0.60000002" sodipodi:sides="4" sodipodi:type="star" />
            <path fill="#fff" sodipodi:arg1="0.68771274" sodipodi:arg2="1.4731109" sodipodi:cx="985.74213" sodipodi:cy="487.40146" sodipodi:r1="4.8000002" sodipodi:r2="0.60000002" sodipodi:sides="4" sodipodi:type="star" />
            <path fill="#fff" sodipodi:arg1="1.2286497" sodipodi:arg2="2.0140479" sodipodi:cx="977.94098" sodipodi:cy="648.52802" sodipodi:r1="4.8000002" sodipodi:r2="0.60000002" sodipodi:sides="4" sodipodi:type="star" />
            <path fill="#fff" sodipodi:arg1="0.003218801" sodipodi:arg2="0.78861696" sodipodi:cx="963.00165" sodipodi:cy="430.29663" sodipodi:r1="14.4" sodipodi:r2="1.8" sodipodi:sides="4" sodipodi:type="star" />
            <path fill="#fff" sodipodi:arg1="1.2836603" sodipodi:arg2="2.0690585" sodipodi:cx="999.89062" sodipodi:cy="821.77814" sodipodi:r1="9.6000004" sodipodi:r2="1.2" sodipodi:sides="4" sodipodi:type="star" />
            <path fill="#fff" sodipodi:arg1="0.06633455" sodipodi:arg2="0.85173271" sodipodi:cx="981.03998" sodipodi:cy="551.784" sodipodi:r1="9.6000004" sodipodi:r2="1.2" sodipodi:sides="4" sodipodi:type="star" />
            <path fill="#fff" sodipodi:arg1="1.0398487" sodipodi:arg2="1.8252469" sodipodi:cx="924.33698" sodipodi:cy="712.48401" sodipodi:r1="14.4" sodipodi:r2="1.8" sodipodi:sides="4" sodipodi:type="star" />
          </g>
        </g>
        <g>
          <path d="m 262.39171,582.33806 c 2.66873,-86.49689 13.95879,-159.74008 43.05886,-225.59522 8.57523,42.92514 27.50518,78.65148 60.62109,105.28372 14.82352,-61.05881 59.19106,-103.98164 114.53901,-125.86504 0.58477,37.53288 16.71532,74.10558 45.19284,101.60813 -0.0355,-54.67471 23.3763,-101.79325 67.0304,-115.6712 l 38.8345,-66.8818 C 470.49877,256.49569 347.62126,138.36785 245.80687,278.21681 196.55,345.87446 192.7858,414.1983 202.3951,486.89584 c 25.57595,28.94801 45.10035,59.51392 59.99661,95.44222 z" fill="#e7e3e7" />
          <path d="M 262.39171,582.33806 C 247.49545,546.40976 227.97105,515.84385 202.3951,486.89584 192.7858,414.1983 196.55,345.87446 245.80687,278.21681 347.62126,138.36785 470.49877,256.49569 631.66841,255.21665 l -10.6282,18.50385 c -118.26152,34.39043 -257.14873,-97.69247 -338.80177,29.71042 -43.21458,67.42752 -29.42081,122.72041 -13.5685,193.40433 -3.38585,27.03812 -5.35166,55.47164 -6.27823,85.50281 z" fill="#d98cbd" />
          <path d="m 387.23204,296.19127 c -40.73053,25.87035 -45.03451,93.18484 -21.16038,165.83529 14.82352,-61.05881 59.19106,-103.98164 114.53901,-125.86504 0.58477,37.53288 16.71532,74.10558 45.19284,101.60813 -0.0355,-54.67471 23.3763,-101.79325 67.0304,-115.6712 l 13.76053,-23.69875 c -85.3886,23.39756 -141.56707,-51.62081 -219.3624,-2.20843 z" fill="#340b28" />
          <path d="m 202.3681,486.69103 c 25.60295,29.15282 45.12735,59.71873 60.02361,95.64703 2.66873,-86.49689 13.95879,-159.74008 43.05886,-225.59522 8.57523,42.92514 27.50518,78.65148 60.62109,105.28372 14.82352,-61.05881 59.19106,-103.98164 114.53901,-125.86504 0.58477,37.53288 16.71532,74.10558 45.19284,101.60813 -0.0355,-54.67471 23.3763,-101.79325 67.0304,-115.6712 l 38.8345,-66.8818 c -161.16964,1.27904 -284.04715,-116.8488 -385.86154,23.00016 -123.13696,169.13695 38.03117,342.43723 -17.87185,581.02338 49.43412,-25.00866 76.77661,-55.80963 98.7593,-105.3658 9.07003,31.34868 10.54923,64.16412 2,95.86147 33.15878,-20.23491 55.21208,-45.54904 68.13528,-78.37446 5.19289,20.2067 5.82742,43.33903 2.25303,65.88571 30.94632,-16.97057 52.89091,-41.06008 66.86667,-72.7551" style="stroke-width:11;fill:none;stroke-miterlimit:20;stroke:#7e466b" />
          <g fill="#fff" transform="rotate(240 426.05044 195.84488)">
            <path fill="#fff" transform="rotate(180)" sodipodi:arg1="0.10052882" sodipodi:arg2="0.88592698" sodipodi:cx="-289.67755" sodipodi:cy="-248.39429" sodipodi:r1="4.8000002" sodipodi:r2="0.60000002" sodipodi:sides="4" sodipodi:type="star" />
            <path fill="#fff" transform="rotate(180)" sodipodi:arg1="1.0770167" sodipodi:arg2="1.8624148" sodipodi:cx="-364.1904" sodipodi:cy="-57.365864" sodipodi:r1="9.6000004" sodipodi:r2="1.2" sodipodi:sides="4" sodipodi:type="star" />
            <path fill="#fff" sodipodi:arg1="1.1806849" sodipodi:arg2="1.9660831" sodipodi:cx="347.60043" sodipodi:cy="197.88179" sodipodi:r1="9.6000004" sodipodi:r2="1.2" sodipodi:sides="4" sodipodi:type="star" />
            <path fill="#fff" sodipodi:arg1="0.67540465" sodipodi:arg2="1.4608028" sodipodi:cx="305.41711" sodipodi:cy="-56.842239" sodipodi:r1="19.200001" sodipodi:r2="2.4000001" sodipodi:sides="4" sodipodi:type="star" />
            <path fill="#fff" transform="rotate(180)" sodipodi:arg1="0.13477026" sodipodi:arg2="0.92016843" sodipodi:cx="-317.76349" sodipodi:cy="-206.42316" sodipodi:r1="9.6000004" sodipodi:r2="1.2" sodipodi:sides="4" sodipodi:type="star" />
            <path fill="#fff" transform="rotate(180)" sodipodi:arg1="1.0127643" sodipodi:arg2="1.7981624" sodipodi:cx="-284.53656" sodipodi:cy="-262.71628" sodipodi:r1="4.8000002" sodipodi:r2="0.60000002" sodipodi:sides="4" sodipodi:type="star" />
            <path fill="#fff" sodipodi:arg1="0.32150989" sodipodi:arg2="1.1069081" sodipodi:cx="407.23734" sodipodi:cy="38.72501" sodipodi:r1="4.8000002" sodipodi:r2="0.60000002" sodipodi:sides="4" sodipodi:type="star" />
            <path fill="#fff" sodipodi:arg1="1.0763591" sodipodi:arg2="1.8617573" sodipodi:cx="324.11053" sodipodi:cy="12.852152" sodipodi:r1="9.6000004" sodipodi:r2="1.2" sodipodi:sides="4" sodipodi:type="star" />
          </g>
          <g>
            <g clip-path="url(#clipPath4871)">
              <path d="M 372.15645,391.52398 C 251.53369,56.168574 250.14186,57.698824 438.9869,341.08802 Z" style="stroke-width:11;fill-rule:evenodd;fill:#2a90cd;stroke:#1a6694" />
              <path d="m 330.40638,179.44028 c -3.06539,17.21528 -9.05791,33.01497 -17.59509,47.45954 m 54.36791,7.54737 c -4.42479,23.98791 -14.35397,45.00991 -28.79631,63.27164 m 64.67461,-10.44375 c -7.78335,28.85641 -22.99131,52.3183 -43.97602,70.97635" fill="none" stroke="#1a6694" stroke-width="6" />
            </g>
            <path d="m 387.23204,296.19127 c -34.0149,21.60486 -42.62497,72.11394 -30.63439,130.49659 36.98871,-43.70513 79.41385,-80.64291 124.01302,-100.52634 l -49.31952,-46.41605 c -14.102,1.75748 -28.65689,6.66295 -44.05911,16.4458 z" fill="#340b28" />
            <path d="m 375.54524,246.0472 c 6.18776,9.20976 12.72336,18.97438 19.61279,29.28922 -12.40147,15.90956 -32.46326,26.11013 -53.72388,30.70779 -4.30275,-12.01565 -8.36105,-23.38715 -12.16882,-34.11921 19.15029,-4.53104 35.33147,-12.86586 46.27991,-25.8778 z" fill="#ebebeb" fill-rule="evenodd" />
            <path d="m 362.13002,258.29966 4.47426,39.90587 16.29149,-9.60487 -14.13081,-35.11933 z" fill="#fff" fill-rule="evenodd" />
            <path fill="#d7d7d7" inkscape:original-d="m 375.54524,246.0472 c 6.18776,9.20976 12.72336,18.97438 19.61279,29.28922 -12.40147,15.90956 -32.46326,26.11013 -53.72388,30.70779 -4.30275,-12.01565 -8.36105,-23.38715 -12.16882,-34.11921 19.15029,-4.53104 35.33147,-12.86586 46.27991,-25.8778 z" inkscape:path-effect="#path-effect4864" />
            <path d="m 289.86044,153.42158 42.07306,117.54437 m -31.03188,-121.90725 59.7295,109.17846 m -64.92946,-106.6945 50.92989,114.6958 M 305.71163,145.6876 373.86077,248.50491" style="stroke-width:4;stroke-linecap:round;fill:none;stroke:#d7d7d7" />
          </g>
        </g>
        <g fill="#fff">
          <path fill="#fff" transform="rotate(195 85.278628-56.864925)" sodipodi:arg1="0.26639279" sodipodi:arg2="1.051791" sodipodi:cx="-382.41971" sodipodi:cy="-801.01807" sodipodi:r1="14.4" sodipodi:r2="1.8" sodipodi:sides="4" sodipodi:type="star" />
          <path fill="#fff" transform="rotate(195 102.41028-58.103014)" sodipodi:arg1="0.86352129" sodipodi:arg2="1.6489195" sodipodi:cx="-383.14969" sodipodi:cy="-785.51807" sodipodi:r1="4.8000002" sodipodi:r2="0.60000002" sodipodi:sides="4" sodipodi:type="star" />
          <path fill="#fff" transform="rotate(195 83.306629-33.20666)" sodipodi:arg1="0.87700607" sodipodi:arg2="1.6624042" sodipodi:cx="-453.31366" sodipodi:cy="-752.96912" sodipodi:r1="4.8000002" sodipodi:r2="0.60000002" sodipodi:sides="4" sodipodi:type="star" />
          <path fill="#fff" transform="rotate(195 102.41028-58.103014)" sodipodi:arg1="0.38216984" sodipodi:arg2="1.167568" sodipodi:cx="-364.99771" sodipodi:cy="-761.87714" sodipodi:r1="4.8000002" sodipodi:r2="0.60000002" sodipodi:sides="4" sodipodi:type="star" />
        </g>
        <g>
          <path d="m 559.33628,356.59962 c 7.89461,-78.61388 63.20988,-128.16224 76.24475,-126.71 13.00365,1.44885 113.85661,118.62207 12.52894,267.99349 z" fill="#2a90cd" />
          <path fill="#1a6694" inkscape:original-d="m 559.33628,356.59962 c 7.89461,-78.61388 63.20988,-128.16224 76.24475,-126.71 13.00365,1.44885 113.85661,118.62207 12.52894,267.99349" inkscape:path-effect="#path-effect14036" />
          <path d="m 635.28379,305.29771 c 12.84086,35.30119 11.59565,73.13543 -0.58472,112.92163 19.69548,-35.01023 20.69179,-82.7358 0.58472,-112.92163 z" fill="#1a6694" />
        </g>
        <use clip-path="url(#clipPath4365)" xlink:href="#g4359" />
      </g>
    </g>
  </g>
</svg>