<?xml version="1.0" encoding="UTF-8" standalone="no"?>
<!-- Created with Inkscape (http://www.inkscape.org/) -->

<svg
   xmlns:dc="http://purl.org/dc/elements/1.1/"
   xmlns:cc="http://creativecommons.org/ns#"
   xmlns:rdf="http://www.w3.org/1999/02/22-rdf-syntax-ns#"
   xmlns:svg="http://www.w3.org/2000/svg"
   xmlns="http://www.w3.org/2000/svg"
   xmlns:sodipodi="http://sodipodi.sourceforge.net/DTD/sodipodi-0.dtd"
   xmlns:inkscape="http://www.inkscape.org/namespaces/inkscape"
   id="svg2"
   version="1.1"
   inkscape:version="0.48.3.1 r9886"
   width="472.86151"
   height="466.54019"
   sodipodi:docname="Lamia Colgate.svg"
   inkscape:export-filename="/home/parclytaxel/Pictures/Lamia Colgate.png"
   inkscape:export-xdpi="1226.8436"
   inkscape:export-ydpi="1226.8436">
  <metadata
     id="metadata8">
    <rdf:RDF>
      <cc:Work
         rdf:about="">
        <dc:format>image/svg+xml</dc:format>
        <dc:type
           rdf:resource="http://purl.org/dc/dcmitype/StillImage" />
        <dc:title></dc:title>
      </cc:Work>
    </rdf:RDF>
  </metadata>
  <defs
     id="defs6">
    <inkscape:path-effect
       effect="skeletal"
       id="path-effect3934"
       is_visible="true"
       pattern="m 1171.5984,763.67532 c -7.2385,0 -16.5761,0.51256 -23.257,1.75 6.7693,1.14905 16.1435,1.75 23.257,1.75 l 43.2626,0 0,-3.5 z"
       copytype="single_stretched"
       prop_scale="1"
       scale_y_rel="false"
       spacing="0"
       normal_offset="0"
       tang_offset="0"
       prop_units="false"
       vertical_pattern="false"
       fuse_tolerance="0"
       pattern-nodetypes="scsccs" />
    <inkscape:path-effect
       effect="skeletal"
       id="path-effect3887"
       is_visible="true"
       pattern="m 1157.2197,745.0933 c -8.424,0 -19.3906,0.64429 -28.1791,1.75 8.7452,0.88561 19.7483,1.75 28.1791,1.75 l 509.9697,0 0,-3.5 z"
       copytype="single_stretched"
       prop_scale="1"
       scale_y_rel="false"
       spacing="0"
       normal_offset="0"
       tang_offset="0"
       prop_units="false"
       vertical_pattern="false"
       fuse_tolerance="0"
       pattern-nodetypes="scsccs" />
    <inkscape:path-effect
       effect="skeletal"
       id="path-effect3950"
       is_visible="true"
       pattern="m 1155.632,426.5 c -10.2385,0 -45.0761,0.26256 -57.257,1.75 12.0193,1.39905 46.8935,1.75 57.257,1.75 l 103.9697,0 c 6.405,0 9.754,-0.38756 15.1483,-1.75 -5.3211,-1.36244 -8.8683,-1.75 -15.1483,-1.75 z"
       copytype="single_stretched"
       prop_scale="1"
       scale_y_rel="false"
       spacing="0"
       normal_offset="0"
       tang_offset="0"
       prop_units="false"
       vertical_pattern="false"
       fuse_tolerance="0"
       pattern-nodetypes="scsscss" />
    <inkscape:path-effect
       effect="skeletal"
       id="path-effect3825"
       is_visible="true"
       pattern="m 1106.2953,677.23153 -2.3125,3.5 15.3285,0 c 6.655,0 17.504,-0.63756 22.6483,-1.75 -5.0711,-1.23744 -16.2438,-1.82561 -22.6483,-1.75 z"
       copytype="single_stretched"
       prop_scale="1"
       scale_y_rel="false"
       spacing="0"
       normal_offset="0"
       tang_offset="0"
       prop_units="false"
       vertical_pattern="false"
       fuse_tolerance="0"
       pattern-nodetypes="ccscsc" />
    <inkscape:path-effect
       effect="skeletal"
       id="path-effect3803"
       is_visible="true"
       pattern="m 1146.1672,675.99409 c -3.8635,0 -6.9511,0.51256 -11.132,1.75 4.0193,1.39905 7.3935,1.75 11.132,1.75 l 69.9697,0 c 6.655,0 7.504,-0.38756 12.6483,-1.75 -5.3211,-1.23744 -6.2433,-1.75 -12.6483,-1.75 z"
       copytype="single_stretched"
       prop_scale="1"
       scale_y_rel="false"
       spacing="0"
       normal_offset="0"
       tang_offset="0"
       prop_units="false"
       vertical_pattern="false"
       fuse_tolerance="0"
       pattern-nodetypes="scsscss" />
    <inkscape:path-effect
       effect="skeletal"
       id="path-effect3882"
       is_visible="true"
       pattern="m 965.757,469.5 c -7.2385,0 -16.5761,0.51256 -23.257,1.75 6.7693,1.14905 16.1435,1.75 23.257,1.75 l 69.9697,0 c 7.78,0 16.129,-0.51256 23.1483,-1.75 -6.9461,-1.23744 -15.3683,-1.75 -23.1483,-1.75 z"
       copytype="single_stretched"
       prop_scale="1"
       scale_y_rel="false"
       spacing="0"
       normal_offset="0"
       tang_offset="0"
       prop_units="false"
       vertical_pattern="false"
       fuse_tolerance="0"
       pattern-nodetypes="scsscss" />
    <inkscape:path-effect
       effect="skeletal"
       id="path-effect3783"
       is_visible="true"
       pattern="m 912.7608,526.79455 c -6.1135,0 -9.4511,0.51256 -15.257,1.75 5.7693,1.27405 9.1435,1.75 15.257,1.75 l 13.6673,0 c 13.818,0 25.0867,-0.49955 36.6066,-0.49955 l 17.7444,0 c 10.19406,0 19.5615,0.49955 29.4905,0.49955 l 148.4609,0 c 7.78,0 27.129,-0.63756 34.2733,-1.75 -7.0711,-1.23744 -26.4933,-1.75 -34.2733,-1.75 l -148.4609,0 c -10.1058,0 -19.47322,0.50045 -29.4905,0.50045 l -17.7444,0 c -11.5199,0 -22.7002,-0.50045 -36.6066,-0.50045 z"
       copytype="single_stretched"
       prop_scale="1"
       scale_y_rel="false"
       spacing="0"
       normal_offset="0"
       tang_offset="0"
       prop_units="false"
       vertical_pattern="false"
       fuse_tolerance="0"
       pattern-nodetypes="scsssssscssssss" />
    <clipPath
       clipPathUnits="userSpaceOnUse"
       id="clipPath3814">
      <path
         id="path3816"
         style="fill:none;stroke:#ffff00;stroke-width:0.5;stroke-miterlimit:4;stroke-dasharray:none"
         d="m 1109.737,553.81855 c 11.9739,0.20754 24.0963,-1.08477 35.5485,-4.91616 l -9.1763,-29.89719 c -1.0721,-2.12719 -1.8633,-4.47077 -2.4822,-6.82289 z"
         inkscape:connector-curvature="0"
         sodipodi:nodetypes="ccccc" />
    </clipPath>
    <clipPath
       clipPathUnits="userSpaceOnUse"
       id="clipPath3818">
      <path
         style="font-size:medium;font-style:normal;font-variant:normal;font-weight:normal;font-stretch:normal;text-indent:0;text-align:start;text-decoration:none;line-height:normal;letter-spacing:normal;word-spacing:normal;text-transform:none;direction:ltr;block-progression:tb;writing-mode:lr-tb;text-anchor:start;baseline-shift:baseline;color:#000000;fill:none;stroke:#ff0000;stroke-width:0.5;stroke-miterlimit:4;stroke-dasharray:none;marker:none;visibility:visible;display:inline;overflow:visible;enable-background:accumulate;font-family:Sans;-inkscape-font-specification:Sans"
         d="m 1149.6875,553.8125 c -10.5459,-3.78315 -16.0286,-9.69099 -17.625,-16.71875 L 1128,545.75 l -62.25,-8.5 1.75,25.75 z m -12.9687,-42.25 c -6.2087,9.0449 -8.9013,18.10518 -7.0938,26.0625 l 1.875,-6.875 17,7.75 19.5,-13.75 0,-22.5 -31.25,-13 z"
         id="path3820"
         inkscape:connector-curvature="0"
         sodipodi:nodetypes="cccc" />
    </clipPath>
    <clipPath
       clipPathUnits="userSpaceOnUse"
       id="clipPath4345">
      <path
         d="M 1.0284216,2504.6746 C 3.5112508,2634.6463 65.279467,2843.728 65.279467,2843.728 903.36864,2877.969 1230.5364,2909.366 1687.6272,2829.0957 l 54.7533,-298.1536 C 1567.8454,2519.8273 326.14938,2492.2697 1.0284216,2504.6746 z M 133.44191,136.25983 143.98636,514.40584 C 583.74685,407.309 1150.9178,414.18717 1526.4009,449.32109 L 1513.0983,45.35934 C 1232.0654,-20.393898 779.82475,-28.416063 133.44191,136.25983 z"
         style="fill:#ffce00;fill-opacity:1;stroke:none"
         id="path4347"
         inkscape:connector-curvature="0" />
    </clipPath>
  </defs>
  <sodipodi:namedview
     pagecolor="#ffffff"
     bordercolor="#666666"
     borderopacity="1"
     objecttolerance="10"
     gridtolerance="10"
     guidetolerance="10"
     inkscape:pageopacity="0"
     inkscape:pageshadow="2"
     inkscape:window-width="1364"
     inkscape:window-height="698"
     id="namedview4"
     showgrid="true"
     fit-margin-top="0"
     fit-margin-left="0"
     fit-margin-right="0"
     fit-margin-bottom="0"
     inkscape:zoom="1.1445959"
     inkscape:cx="236.43076"
     inkscape:cy="233.2701"
     inkscape:window-x="0"
     inkscape:window-y="0"
     inkscape:window-maximized="1"
     inkscape:current-layer="layer2"
     showguides="false"
     inkscape:guide-bbox="true" />
  <g
     inkscape:groupmode="layer"
     id="layer2"
     inkscape:label="Drawing"
     style="display:inline"
     transform="translate(-922.31326,-393.23337)">
    <path
       style="fill:#7bbeea;fill-opacity:1;stroke:#447dc0;stroke-width:3.5;stroke-miterlimit:4;stroke-opacity:1;stroke-dasharray:none"
       d="m 1132.8263,618.85875 c 40.9237,7.15165 120.0398,-2.55767 120.0398,17.77513 0,9.43698 -14.1156,29.9415 -25.5481,29.9415 -10.6081,0 -28.2096,-13.75431 -96.1893,-19.38084 z"
       id="path3845"
       inkscape:connector-curvature="0"
       sodipodi:nodetypes="csscc" />
    <g
       id="g3847">
      <path
         sodipodi:nodetypes="ccc"
         inkscape:connector-curvature="0"
         id="path3822"
         d="m 1137.2929,549.05119 c 0.6187,-11.22532 3.6239,-18.11961 9.1924,-26.69327 -23.8226,-30.50783 -43.7448,18.91404 -9.1924,26.69327 z"
         style="fill:#ad047a;fill-opacity:1;stroke:none" />
      <path
         sodipodi:nodetypes="ccc"
         inkscape:connector-curvature="0"
         id="path3824"
         d="m 1128.5424,530.31287 c 7.2478,2.03292 9.6344,7.68978 6.6292,16.26345 -8.1318,-2.38649 -9.8995,-9.45755 -6.6292,-16.26345 z"
         style="fill:#ff6600;fill-opacity:1;stroke:none" />
    </g>
    <g
       id="g3914">
      <path
         id="path3912"
         style="fill:#84c8f3;fill-opacity:1;stroke:none"
         d="m 1167.2763,796.6174 c -10.7952,-5.07242 -16.4558,-18.56714 -9.9547,-41.18382 l -23.8226,-41.56813 c -11.1094,5.93848 -20.4271,16.85689 -27.7112,31.93927 -16.7261,34.63292 -8.8446,63.75551 10.771,82.52899 z"
         inkscape:connector-curvature="0"
         sodipodi:nodetypes="cccscc" />
      <path
         sodipodi:nodetypes="csccc"
         inkscape:connector-curvature="0"
         d="m 1133.499,713.86545 c -11.1094,5.93848 -20.4271,16.85689 -27.7112,31.93927 -16.7261,34.63292 -8.8446,63.75551 10.771,82.52899 m 50.7175,-31.71631 c -10.7952,-5.07242 -16.4558,-18.56714 -9.9547,-41.18382"
         style="fill:none;stroke:#447dc0;stroke-width:3.5;stroke-linecap:butt;stroke-linejoin:miter;stroke-miterlimit:4;stroke-opacity:1;stroke-dasharray:none;stroke-dashoffset:13.2"
         id="path3909" />
    </g>
    <g
       id="g3965">
      <path
         id="path3963"
         style="fill:#84c8f3;fill-opacity:1;stroke:none"
         d="m 1184.1277,797.37486 c 12.9536,-12.66132 23.7718,-24.67497 44.88,-36.17535 l 40.7596,-14.11952 c -12.2408,-35.60509 -64.01,-47.62295 -117.0125,9.81465 -2.9871,3.23703 -6.043,6.29233 -9.1557,9.172 z"
         inkscape:connector-curvature="0"
         sodipodi:nodetypes="cccscc" />
      <path
         sodipodi:nodetypes="csccc"
         inkscape:connector-curvature="0"
         d="m 1269.7673,747.07999 c -12.2408,-35.60509 -64.01,-47.62295 -117.0125,9.81465 -2.9871,3.23703 -6.043,6.29233 -9.1557,9.172 m 40.5286,31.30822 c 12.9536,-12.66132 23.7718,-24.67497 44.88,-36.17535"
         style="fill:none;stroke:#447dc0;stroke-width:3.5;stroke-linecap:butt;stroke-linejoin:miter;stroke-miterlimit:4;stroke-opacity:1;stroke-dasharray:none;stroke-dashoffset:13.2"
         id="path3960" />
    </g>
    <g
       id="g3897">
      <path
         sodipodi:nodetypes="cssssssscc"
         inkscape:connector-curvature="0"
         id="path3895"
         d="m 1138.5739,749.90299 c 68.346,12.07978 82.5693,95.82311 164.3172,96.8631 125.8589,1.60117 101.4084,-116.26128 41.3154,-114.33711 -47.7091,1.52764 -46.7419,58.12243 -16.2327,58.61744 26.9318,0.43698 24.7901,-34.46163 17.2094,-21.98496 -8.2106,13.51336 -23.0822,12.60905 -23.0087,1.43135 0.1958,-29.77273 42.863,-28.4022 41.8441,9.20046 -1.3013,48.02703 -84.7903,33.27416 -128.833,-18.38142 -45.8745,-53.80403 -83.758,-63.36305 -109.6778,-42.07245 11.1125,7.01039 15.0068,18.00988 13.0661,30.66359 z"
         style="fill:#84c8f3;fill-opacity:1;stroke:none" />
      <path
         inkscape:original-d="m 1138.5739,749.90299 c 68.346,12.07978 82.5693,95.82311 164.3172,96.8631 125.8589,1.60117 101.4084,-116.26128 41.3154,-114.33711 -47.7091,1.52764 -46.7419,58.12243 -16.2327,58.61744 26.9318,0.43698 24.7901,-34.46163 17.2094,-21.98496 -8.2106,13.51336 -23.0822,12.60905 -23.0087,1.43135 0.1958,-29.77273 42.863,-28.4022 41.8441,9.20046 -1.3013,48.02703 -84.7903,33.27416 -128.833,-18.38142 -45.8745,-53.80403 -83.758,-63.36305 -109.6778,-42.07245"
         inkscape:path-effect="#path-effect3887"
         style="fill:#447dc0;fill-opacity:1;stroke:none"
         d="m 1183.2923,769.10417 c -0.2076,-0.16446 -0.4169,-0.32915 -0.6279,-0.494 -5.6692,-4.42595 -12.6251,-8.91545 -20.1962,-12.27917 -3.9271,-1.74354 -8.0033,-3.17451 -12.0478,-4.24823 -4.0444,-1.07371 -8.0551,-1.79034 -11.8465,-2.17978 3.6911,0.87746 7.5503,2.04043 11.4054,3.49536 3.8551,1.45494 7.7046,3.20153 11.3965,5.17881 7.1055,3.80307 13.6195,8.45736 19.1322,12.78803 0.2056,0.16142 0.4099,0.32235 0.6128,0.48273 11.9757,9.4674 22.4449,20.84133 33.3415,31.85684 11.213,11.35965 23.0589,22.46961 36.9898,30.6943 7.2833,4.29127 15.0863,7.72841 23.2251,10.08296 9.1655,2.64724 18.6871,3.91513 28.1916,4.03393 13.6976,0.18105 27.5393,-0.97483 40.8574,-4.59347 0,0 0,-10e-6 0,-10e-6 10.0321,-2.72193 19.7899,-6.94237 28.2142,-13.21403 6.82,-5.08252 12.6567,-11.5617 16.7181,-19.09368 3.6493,-6.78474 5.8108,-14.33847 6.3677,-22.01158 0.5361,-7.40302 -0.387,-14.88829 -2.6307,-21.95034 -2.1913,-6.90512 -5.6465,-13.42188 -10.2381,-19.05175 -4.495,-5.51432 -10.1173,-10.15306 -16.5386,-13.3164 -6.6443,-3.26402 -14.0776,-4.84098 -21.4683,-4.60481 -10.058,0.28744 -20.3851,3.33307 -28.0688,10.18225 -6.0217,5.42832 -9.9901,13.00164 -11.0583,21.03294 -0.9747,7.18353 0.352,14.82547 4.455,20.9758 1.945,2.8956 4.5433,5.37296 7.6215,7.10422 3.3309,1.85411 7.0984,2.76669 10.8455,2.8211 5.7789,0.12127 11.757,-1.55093 16.2935,-5.43448 3.4261,-2.9917 5.8273,-7.02493 6.9734,-11.37456 0.4592,-1.71361 0.7318,-3.51823 0.708,-5.36445 0.028,-1.24534 -0.1563,-2.71886 -0.9139,-4.18344 0,-2e-5 0,-4e-5 0,-6e-5 -0.2469,-0.52349 -0.7384,-1.06429 -1.4989,-1.50623 -0.8112,-0.36425 -1.6221,-0.4034 -2.3296,-0.15343 -0.863,0.3273 -1.483,0.78987 -1.8865,1.24634 0,10e-6 0,3e-5 0,4e-5 -0.6695,0.68864 -1.1843,1.42153 -1.6038,2.12684 -3.0741,4.85487 -7.8604,9.21283 -13.1396,9.13369 0,0 -10e-5,0 -10e-5,0 -1.796,-0.004 -3.6244,-0.52027 -4.7547,-1.66639 -1.2896,-1.13975 -1.8406,-3.1446 -1.8687,-5.11574 0.08,-5.70819 1.9867,-11.58462 6.159,-15.09875 3.5199,-3.07842 8.5426,-4.42526 13.2514,-3.84183 5.1443,0.62131 9.9901,3.58092 13.2228,7.71749 4.3739,5.52012 5.8685,13.05382 5.7115,20.36464 0,1e-5 0,3e-5 0,4e-5 -0.1536,5.0437 -1.2803,10.08377 -3.848,14.25462 -2.2793,3.76441 -5.7459,6.81335 -9.7013,8.89645 0,0 0,1e-5 0,2e-5 -4.4342,2.34162 -9.4804,3.54148 -14.5979,4.0647 0,0 0,0 0,0 -6.0257,0.60725 -12.1628,0.23362 -18.222,-0.70723 -14.5035,-2.25497 -28.4519,-7.71717 -41.3289,-14.94984 -14.3487,-8.07282 -27.3939,-18.52137 -38.0538,-31.02816 0,-10e-6 0,-2e-5 0,-3e-5 -10.0193,-11.75759 -20.8602,-22.94354 -33.0999,-32.5101 0,-10e-6 0,-2e-5 -10e-5,-3e-5 -9.0547,-7.08735 -18.9869,-13.34432 -29.9756,-17.20298 -8.4372,-2.9684 -17.6132,-4.33218 -26.5875,-2.9266 -8.2753,1.32609 -16.0345,5.06683 -22.4572,10.35038 l 2.2216,2.70458 c 5.9918,-4.91371 13.1935,-8.40376 20.7847,-9.59831 8.2501,-1.33075 16.8578,-0.018 24.8824,2.77356 10.4952,3.65852 20.0945,9.73372 28.9771,16.65765 11.9906,9.3603 22.662,20.38376 32.5911,32.02267 10.9535,12.84252 24.3147,23.55102 39.0015,31.808 13.1567,7.40885 27.4971,13.00688 42.5049,15.35735 6.2778,0.98443 12.7109,1.36622 19.1097,0.73174 0,0 0,0 0,0 5.4413,-0.53206 10.9136,-1.85969 15.876,-4.44804 4.4711,-2.33792 8.3918,-5.8129 11.064,-10.17456 2.9289,-4.84974 4.2255,-10.4653 4.358,-15.98106 0,0 0,-10e-6 0,-2e-5 0.2544,-7.87107 -1.4863,-16.15366 -6.45,-22.61133 -3.7701,-4.84623 -9.3912,-8.24618 -15.5487,-9.03854 -5.6613,-0.7137 -11.5921,0.9085 -15.9758,4.6679 -5.0593,4.47282 -7.369,11.22388 -7.369,17.7226 -0.059,2.71472 0.8526,5.57057 2.9502,7.66878 2.0157,1.86102 4.6665,2.70054 7.2219,2.63603 0,0 0,0 10e-5,0 7.0081,-0.25009 12.7753,-5.1688 16.0821,-10.81595 0.3628,-0.58208 0.7097,-1.10001 1.1,-1.48194 0,0 0,-10e-6 0,-10e-6 0.279,-0.23299 0.4344,-0.4081 0.493,-0.38399 -0.06,0.037 -0.1403,0.009 -0.3435,-0.0477 -0.094,-0.10489 -0.094,-0.0351 0.024,0.0932 0,0 0,10e-6 0,10e-6 0.3689,0.54651 0.4044,1.46805 0.468,2.52752 0.027,1.45149 -0.2064,2.93923 -0.5918,4.41377 -0.987,3.7035 -3.0259,7.15504 -5.8866,9.6295 -3.6623,3.24506 -8.856,4.63117 -13.9402,4.57619 -3.2239,-0.0587 -6.4402,-0.82267 -9.1921,-2.37527 -2.5621,-1.42758 -4.7628,-3.53865 -6.4285,-6.00534 0,-10e-6 0,-2e-5 0,-3e-5 -3.5835,-5.26496 -4.7214,-12.10204 -3.8885,-18.56121 0,-10e-6 0,-3e-5 0,-4e-5 0.9485,-7.18872 4.5409,-14.04813 9.9302,-18.89126 6.8154,-6.20186 16.3994,-8.94854 25.8392,-9.28542 6.8179,-0.21879 13.6991,1.23906 19.812,4.24749 5.9305,2.90971 11.1637,7.23913 15.3713,12.38846 4.3008,5.2665 7.5479,11.39876 9.6139,17.89824 2.11,6.64687 2.9815,13.69449 2.4757,20.63737 -0.5224,7.18646 -2.5476,14.2718 -5.9589,20.60641 -3.7802,7.03808 -9.2873,13.13509 -15.7291,17.94715 -7.9701,5.96025 -17.3367,9.9901 -27.0408,12.64224 -12.9,3.52041 -26.4203,4.6354 -39.8932,4.47079 -10e-5,0 -10e-5,0 -10e-5,0 -9.224,-0.11947 -18.4364,-1.34156 -27.264,-3.8965 -7.8386,-2.26485 -15.3736,-5.58647 -22.4208,-9.73638 -13.5002,-7.93323 -25.1085,-18.85815 -36.2772,-30.13919 -10.8314,-10.96389 -21.4064,-22.43219 -33.659,-32.13999 z"
         id="path3873"
         inkscape:connector-curvature="0"
         sodipodi:nodetypes="csssssssc" />
    </g>
    <path
       style="fill:#bbe0f9;fill-opacity:1;stroke:#90b1da;stroke-width:3.5;stroke-linecap:butt;stroke-linejoin:round;stroke-miterlimit:4;stroke-opacity:1;stroke-dasharray:none;stroke-dashoffset:13.2;display:inline"
       d="m 1306.5949,826.39495 c 90.9143,8.45365 88.1908,-81.66693 36.0199,-84.67987 -31.3915,-1.8129 -35.6487,39.45738 -17.653,42.35876 6.2949,1.01489 11.3065,-2.02449 12.0883,-6.88117 -7.3336,4.03471 -14.9282,1.2958 -14.8756,-6.69985 0.1958,-29.77273 42.863,-28.4022 41.8441,9.20046 -1.3013,48.02703 -84.7903,33.27416 -128.833,-18.38142 -41.2487,-48.37858 -76.037,-60.98533 -101.4763,-47.5583 73.9018,9.61055 89.4383,104.88206 172.8856,112.64139 z"
       id="path5549"
       inkscape:connector-curvature="0"
       sodipodi:nodetypes="ssscssscs" />
    <path
       id="path3860"
       style="fill:none;stroke:#90b1da;stroke-width:3;stroke-linecap:butt;stroke-linejoin:miter;stroke-miterlimit:4;stroke-opacity:1;stroke-dasharray:none;stroke-dashoffset:13.2"
       d="m 1314.4426,771.80436 c 2.7535,-0.44346 5.1325,-0.70235 7.8633,-0.79869 m -4.4759,-16.06364 c 2.5601,1.19705 4.8407,2.37877 7.229,3.87813 m 10.9652,-16.50606 c 0.6597,2.6628 1.178,5.24015 1.5818,7.96593 m 28.1342,0.40756 c -2.4207,2.84987 -4.8201,5.36356 -7.6264,7.92317 m 21.0408,24.19502 c -5.4042,0.15808 -10.0675,-0.0543 -15.547,-0.83878 m -2.9284,33.34005 c -3.3572,-4.57476 -5.7347,-8.44467 -7.9819,-13.21459 m -42.4053,24.83476 c -0.4319,-6.56997 -0.1073,-13.32664 0.5734,-19.81056 m -47.9581,4.86515 c 3.0685,-6.80666 6.4279,-13.10912 10.5586,-19.1641 m -46.9104,-11.31075 c 4.3137,-4.72624 9.6561,-9.95274 14.439,-13.77506 m -44.0176,-17.38037 c 3.5817,-4.94972 8.4363,-10.56515 13.259,-14.68277 m -49.0016,-13.7395 c 1.9907,-3.80067 5.2412,-7.65523 8.4666,-10.67558"
       inkscape:connector-curvature="0" />
    <g
       style="fill:none;stroke:none"
       id="brushie"
       transform="matrix(0.13427875,-0.99094361,0.99094361,0.13427875,480.35111,1689.2653)">
      <path
         sodipodi:nodetypes="ccccc"
         transform="translate(922.31326,393.5892)"
         inkscape:connector-curvature="0"
         id="path5428"
         d="m 435,211.18435 5,35 -75,0 5,-35 z"
         style="fill:#ffffff;fill-opacity:1;fill-rule:evenodd;stroke:none" />
      <path
         sodipodi:nodetypes="sssss"
         inkscape:connector-curvature="0"
         id="path5430"
         d="m 930.3133,609.77355 432,0 c 5,0 5,-15 0,-15 l -432,0 c -10,0 -10,15 0,15 z"
         style="fill:#a11573;fill-opacity:1;stroke:none" />
      <path
         style="fill:none;stroke:#dedede;stroke-width:1.25311136;stroke-linecap:round;stroke-linejoin:round;stroke-miterlimit:4;stroke-opacity:1;stroke-dasharray:none;display:inline"
         d="m 1350.0164,626.92127 -19.8353,-13.95598 -5.368,23.65699 -5.3679,-23.657 -19.835,13.95599"
         id="path5432"
         inkscape:connector-curvature="0"
         sodipodi:nodetypes="ccccc" />
    </g>
    <g
       id="g3953">
      <path
         sodipodi:nodetypes="cscccc"
         inkscape:connector-curvature="0"
         d="m 1102.488,808.91849 c 22.327,47.68275 103.5737,61.66172 148.9824,6.31985 27.9097,-34.01503 25.6438,-68.15286 7.0601,-85.81527 -2.6685,11.17817 -11.7569,14.80967 -22.6643,11.35566 -12.695,57.56524 -71.4242,74.5099 -80.2042,41.27696 z"
         style="fill:#84c8f3;fill-opacity:1;stroke:none"
         id="path3950" />
      <path
         style="fill:none;stroke:#447dc0;stroke-width:3.5;stroke-linecap:butt;stroke-linejoin:miter;stroke-miterlimit:4;stroke-opacity:1;stroke-dasharray:none;stroke-dashoffset:13.2"
         d="m 1102.488,808.91849 c 22.327,47.68275 103.5737,61.66172 148.9824,6.31985 27.9097,-34.01503 25.6438,-68.15286 7.0601,-85.81527"
         id="path3918"
         inkscape:connector-curvature="0"
         sodipodi:nodetypes="csc" />
      <path
         inkscape:original-d="m 1235.8662,740.77873 c -12.695,57.56524 -71.4242,74.5099 -80.2042,41.27696"
         inkscape:path-effect="#path-effect3934"
         style="fill:#447dc0;fill-opacity:1;stroke:none"
         d="m 1219.3236,778.79404 c 0.4174,-0.49003 0.8332,-0.99277 1.2463,-1.50744 2.016,-2.50949 3.9638,-5.30996 5.7265,-8.30182 1.7628,-2.99187 3.3402,-6.17405 4.6668,-9.40954 1.3267,-3.23549 2.4029,-6.52283 3.2163,-9.70723 0.8135,-3.1844 1.3651,-6.26455 1.6867,-9.08928 -0.8831,2.7368 -1.9181,5.68706 -3.1295,8.70783 -1.2114,3.02077 -2.5997,6.11101 -4.15,9.13464 -1.5503,3.02363 -3.2629,5.97948 -5.0783,8.75528 -1.8153,2.77581 -3.7333,5.37086 -5.6512,7.71133 -0.4005,0.48826 -0.8006,0.96595 -1.1992,1.43246 -6.333,7.41221 -14.137,13.61612 -23.0384,17.33225 -3.9305,1.64207 -8.0537,2.79821 -12.232,3.18311 0,0 0,0 0,0 -3.6512,0.33195 -7.3458,0.0993 -10.7492,-0.98338 -3.1313,-0.99071 -6.0387,-2.71834 -8.2604,-5.07202 -2.4371,-2.54698 -4.0867,-5.86688 -5.0241,-9.37155 l -3.3838,0.89402 c 1.0418,3.98691 2.9729,7.81174 5.8687,10.88633 2.6813,2.81476 6.0846,4.85224 9.7482,6.00157 3.9487,1.23281 8.1022,1.51429 12.1258,1.12988 0,0 0,0 0,0 4.5964,-0.43412 9.0621,-1.67587 13.2595,-3.43994 9.4888,-3.99049 17.7305,-10.51248 24.3513,-18.2865 z"
         id="path3920"
         inkscape:connector-curvature="0"
         sodipodi:nodetypes="cc" />
    </g>
    <g
       id="g3972">
      <path
         sodipodi:nodetypes="csssccssscccsc"
         inkscape:connector-curvature="0"
         id="path3970"
         style="fill:#84c8f3;fill-opacity:1;stroke:none"
         d="M 1154.6642,505.96966 C 1156,421.51255 1034.548,390.55607 1022.4462,474.24203 c -12.4698,86.23107 82.9404,140.49075 17.3247,163.68179 -215.86695,76.29541 -95.64328,283.52535 83.425,201.028 37.1649,-17.12201 52.3504,-33.09143 67.5838,-48.14652 -17.6576,-6.37039 -32.8701,-16.53214 -40.5069,-31.27883 -62.8115,65.16618 -153.90493,52.66527 -163.58233,16.5487 -9.74606,-36.37279 20.64513,-64.46606 79.10463,-75.5767 38.9666,-7.40587 75.8089,-24.66302 75.8089,-71.23326 0,-40.66033 -22.1827,-44.23549 -30.6231,-77.50431 9.2126,0.54088 19.2942,-0.42251 27.6289,-2.6359 -8.5303,-5.29917 -10.9963,-19.65165 -4.3598,-30.91421 10.3975,19.80285 28.5884,8.46713 28.5884,-5.96447 0,-4.25131 -2.6057,-6.01149 -8.1742,-6.27666 z" />
      <path
         d="m 1150.2728,759.52647 c -62.8115,65.16618 -153.90493,52.66527 -163.58233,16.5487 -9.74606,-36.37279 20.64513,-64.46606 79.10463,-75.5767 38.9666,-7.40587 75.8089,-24.66302 75.8089,-71.23326 0,-40.66033 -22.1827,-44.23549 -30.6231,-77.50431 m 43.6833,-45.79124 C 1156,421.51255 1034.548,390.55607 1022.4462,474.24203 c -12.4698,86.23107 82.9404,140.49075 17.3247,163.68179 -215.86695,76.29541 -95.64328,283.52535 83.425,201.028 37.1649,-17.12201 52.3504,-33.09143 67.5838,-48.14652"
         style="fill:none;stroke:#447dc0;stroke-width:3.5;stroke-linecap:butt;stroke-linejoin:miter;stroke-miterlimit:4;stroke-opacity:1;stroke-dasharray:none;stroke-dashoffset:13.2"
         id="path3867"
         inkscape:connector-curvature="0" />
      <g
         id="g3862">
        <path
           d="m 1155.4846,504.44862 c -2.5279,-0.26812 -4.4653,-0.47456 -6.2335,-0.9074 -1.3065,-0.30577 -2.5572,-0.72478 -3.8711,-1.30944 -1.3138,-0.58467 -2.6973,-1.33623 -4.1732,-2.44185 0.9098,1.5964 1.9647,2.8984 3.133,3.97604 1.1684,1.07763 2.4541,1.93791 3.9359,2.59345 2.0028,0.86647 4.2509,1.31492 6.8505,1.57417 0.1484,0.0148 0.2962,0.0292 0.4436,0.0432 1.8255,0.24992 3.4399,0.23984 4.3392,0.95135 0,0 0,0 0,0 0.3441,0.21039 0.6347,0.58378 0.8136,0.99804 0.3071,0.64892 0.3608,1.52701 0.3848,2.50324 0,0.86599 -0.078,1.73396 -0.2329,2.59026 -0.4713,2.60506 -1.5926,4.99898 -3.1384,6.92957 -2.0748,2.57327 -4.8864,4.42398 -7.8616,5.03899 -3.13,0.6879 -6.5369,-0.173 -9.0507,-2.0997 -2.0132,-1.50276 -3.54,-3.55301 -4.7146,-5.88334 -1.0721,-2.12719 -1.8633,-4.47077 -2.4822,-6.82289 -0.8845,-3.52213 -1.5964,-7.12391 -1.9908,-10.72584 -0.679,-6.20119 -0.2233,-12.09909 1.6501,-17.5434 1.2743,-3.66433 3.2856,-7.15327 6.0167,-9.79527 1.3753,-1.33047 2.9388,-2.41272 4.6817,-3.13922 4.4647,-1.98475 9.9962,-1.39742 14.3406,1.06578 5.6994,3.17789 9.5497,9.24825 11.7877,15.67151 2.4542,7.2344 4.1049,14.75885 3.88,22.24552 -0.1698,5.74668 -1.5017,11.47666 -4.2415,16.43722 0,0 0,0 0,10e-6 -2.5076,4.58102 -6.1976,8.51696 -10.4717,11.63695 -4.5279,3.30556 -9.7116,5.7312 -15.1078,7.54871 -10.9589,3.68893 -22.6906,4.91962 -34.3764,4.73128 -0.6961,-0.0112 -1.4818,-0.0242 -2.3411,-0.0422 -2.3138,-0.0507 -5.163,-0.14668 -8.2315,-0.34661 -3.0686,-0.19993 -6.3556,-0.5068 -9.547,-0.90682 0,0 0,0 0,0 -3.0475,-0.38309 -6.0039,-0.84345 -8.6014,-1.32315 -2.5975,-0.4797 -4.8373,-0.97707 -6.4858,-1.30899 1.4569,0.82033 3.5755,1.76851 6.1128,2.65282 2.5372,0.88431 5.4917,1.70149 8.5569,2.37722 0,0 0,0 0,0 3.2037,0.70727 6.5392,1.25994 9.6667,1.63959 3.1275,0.37966 6.0454,0.58931 8.4152,0.68813 0.8791,0.0375 1.6838,0.0607 2.3966,0.073 11.9739,0.20754 24.0963,-1.08477 35.5485,-4.91616 5.6573,-1.89166 11.1566,-4.4802 16.0544,-8.0374 4.646,-3.37472 8.6716,-7.69187 11.4788,-12.78058 0,0 0,-10e-6 0,-10e-6 3.0303,-5.53759 4.506,-11.79673 4.6729,-18.02468 0.2121,-8.05696 -1.5006,-15.99081 -4.066,-23.47372 0,-10e-6 0,-10e-6 0,-10e-6 -2.3475,-7.02143 -6.7245,-13.72888 -13.3677,-17.58277 -5.239,-2.99662 -11.8124,-3.64053 -17.4661,-1.23554 -2.1381,0.9572 -4.0373,2.27492 -5.6891,3.84564 -3.3024,3.14033 -5.4603,7.22204 -6.618,11.36529 -1.7276,6.12662 -1.8329,12.35775 -1.148,18.74852 0.4019,3.74997 1.1394,7.46692 2.0674,11.07132 0.6125,2.49014 1.4666,5.00804 2.671,7.34581 1.3213,2.56449 3.0266,4.90964 5.3164,6.80888 3.0436,2.46725 7.1312,3.7002 11.2478,3.0147 3.7619,-0.66199 7.3129,-2.745 9.917,-5.86542 1.9559,-2.33099 3.3787,-5.23862 3.9601,-8.46102 0.1907,-1.05708 0.2895,-2.1323 0.291,-3.21203 0.024,-1.19184 -0.1227,-2.52642 -0.6639,-3.87272 -0.4316,-1.02167 -1.1577,-1.91517 -2.1198,-2.55838 0,0 0,0 0,0 -2.0677,-1.22758 -4.2044,-1.40178 -5.906,-1.5042 -0.1447,-0.0151 -0.2891,-0.0303 -0.4331,-0.0455 z"
           style="fill:#447dc0;fill-opacity:1;stroke:none"
           id="path2994"
           inkscape:connector-curvature="0"
           sodipodi:nodetypes="csssc"
           inkscape:path-effect="#path-effect3783"
           inkscape:original-d="m 1141.2068,499.78993 c 9.8978,11.13878 21.6506,1.83619 21.6506,12.63952 0,16.28465 -23.7206,26.49098 -30.4423,0.0611 -12.3586,-48.59406 28.2356,-57.93906 39.3542,-25.33956 23.5346,69.00295 -63.2493,71.49783 -97.1805,59.23687"
           clip-path="url(#clipPath3818)" />
        <path
           style="fill:none;stroke:#447dc0;stroke-width:2.5;stroke-linecap:butt;stroke-linejoin:miter;stroke-miterlimit:4;stroke-opacity:1;stroke-dasharray:none;stroke-dashoffset:13.2"
           d="m 1137.7359,512.26415 c -12.1658,17.72336 -10.0859,34.95367 11.5358,42.71004"
           id="path3764"
           inkscape:connector-curvature="0"
           sodipodi:nodetypes="cc"
           clip-path="url(#clipPath3814)" />
      </g>
    </g>
    <g
       id="g4447"
       transform="matrix(-0.00566194,-0.01399632,-0.01399632,0.00566194,1065.5542,659.05176)">
      <path
         sodipodi:nodetypes="csssccssscc"
         inkscape:connector-curvature="0"
         id="path4427"
         d="m 1452.2262,2540.3958 c 99.6887,-92.9694 120.8639,-220.6861 120.8639,-302.6348 0,-448.477 -552.7865,-517.4328 -552.7865,-794.7158 0,-270.1513 496.8141,-323.5797 496.8141,-697.56837 0,-107.1024 -52.0504,-242.09681 -160.6802,-325.4676 L 360.7688,412.31121 C 259.63101,508.30394 207.47978,601.7536 207.47978,743.15912 c 0,503.77928 504.39042,461.52198 504.39042,714.46038 0,265.463 -594.10904,285.8625 -594.10904,795.3203 0,93.9966 24.3396,199.4419 99.71928,263.4531 z"
         style="fill:#bde7f4;fill-opacity:1;stroke:none" />
      <path
         sodipodi:nodetypes="csccscc"
         inkscape:connector-curvature="0"
         id="path4429"
         d="M 361.44173,2516.0149 C 52.918303,1862.2377 806.59386,1868.3915 806.59386,1452.374 c 0,-293.6923 -426.51577,-422.2329 -432.08387,-770.71128 670.53091,-70.96109 872.96361,-53.17151 1002.81411,-15.27128 58.1764,280.70069 -476.31852,514.86036 -476.31852,814.46826 0,408.6886 775.92652,267.6111 460.32012,1060.2633 z"
         style="fill:#dfd47b;fill-opacity:1;stroke:none" />
      <path
         transform="matrix(0.90320299,0.42921365,-0.42921365,0.90320299,980.94626,-362.21477)"
         d="m 1418.3882,2014.6274 c 0,75.3672 -70.4779,136.4644 -157.4166,136.4644 -86.9388,0 -157.4166,-61.0972 -157.4166,-136.4644 0,-75.3672 70.4778,-136.4643 157.4166,-136.4643 86.9387,0 157.4166,61.0971 157.4166,136.4643 z"
         sodipodi:ry="136.46439"
         sodipodi:rx="157.4166"
         sodipodi:cy="2014.6274"
         sodipodi:cx="1260.9716"
         id="path4431"
         style="fill:#ffffff;stroke:none"
         sodipodi:type="arc" />
      <path
         transform="matrix(0.81335019,-0.58177442,0.58177442,0.81335019,-195.65947,817.53865)"
         d="m 1333.078,696.20679 c 0,89.76612 -63.2133,162.53595 -141.1909,162.53595 -77.9776,0 -141.1909,-72.76983 -141.1909,-162.53595 0,-89.76613 63.2133,-162.53595 141.1909,-162.53595 77.9776,0 141.1909,72.76982 141.1909,162.53595 z"
         sodipodi:ry="162.53595"
         sodipodi:rx="141.19089"
         sodipodi:cy="696.20679"
         sodipodi:cx="1191.8871"
         id="path4433"
         style="fill:#ffffff;stroke:none"
         sodipodi:type="arc" />
      <path
         id="path4413"
         style="fill:#ffce00;fill-opacity:1;stroke:none"
         d="M 1.0284216,2504.6746 C 3.5112508,2634.6463 65.279467,2843.728 65.279467,2843.728 903.36864,2877.969 1230.5364,2909.366 1687.6272,2829.0957 l 54.7533,-298.1536 C 1567.8454,2519.8273 326.14938,2492.2697 1.0284216,2504.6746 z M 133.44191,136.25983 143.98636,514.40584 C 583.74685,407.309 1150.9178,414.18717 1526.4009,449.32109 L 1513.0983,45.35934 C 1232.0654,-20.393898 779.82475,-28.416063 133.44191,136.25983 z"
         inkscape:connector-curvature="0" />
      <path
         id="path4415"
         style="fill:#f4ef9c;fill-opacity:1;stroke:none"
         d="m 849.47748,2491.6731 c 91.95031,191.8232 79.08877,302.8912 -1.63086,405.4269 l 429.85058,2.5345 c 120.7158,-125.8063 122.8974,-285.7911 19.6345,-402.1437 z M 751.77617,1.4480329 C 824.7941,177.30812 862.97047,371.37858 786.7425,446.75457 l 422.6812,4.11369 c 112.2227,-145.68297 93.0357,-333.73793 19.4884,-464.846551 z"
         clip-path="url(#clipPath4345)"
         inkscape:connector-curvature="0" />
    </g>
    <path
       style="fill:#447dc0;fill-opacity:1;stroke:none"
       d="m 1147.4358,513.87278 c 1.4461,2.39493 3.499,2.78421 5.7151,1.05766 -1.108,4.50653 -6.3267,3.77661 -5.7151,-1.05766 z"
       id="path3766"
       inkscape:connector-curvature="0"
       sodipodi:nodetypes="ccc" />
    <g
       id="g3839">
      <path
         style="fill:#84c8f3;fill-opacity:1;stroke:none"
         d="m 1118.8719,639.23169 c -0.3157,3.00629 0.1433,5.71393 1.2704,8.23311 15.0806,-7.36635 33.5682,-5.73318 33.5682,12.15839 0,41.14393 -20.6698,76.31975 -43.1598,76.31975 -10.7599,0 -13.6556,-31.38253 -8.4726,-43.44469 3.8272,-8.90685 14.9028,-11.74844 22.3954,-20.84622 -29.2309,3.12815 -33.559,-2.47701 -27.117,-25.48349 z"
         id="path3837"
         inkscape:connector-curvature="0"
         sodipodi:nodetypes="ccsssccc" />
      <path
         inkscape:original-d="m 1114.8447,650.40533 c 15.8463,-10.35503 38.8658,-10.79442 38.8658,9.21786 0,41.14393 -20.6698,76.31975 -43.1598,76.31975 -10.7599,0 -13.6556,-31.38252 -8.4726,-43.44469 4.4624,-10.38511 18.7789,-12.5246 25.7969,-25.87325"
         inkscape:path-effect="#path-effect3803"
         sodipodi:nodetypes="csssc"
         inkscape:connector-curvature="0"
         id="path3784"
         d="m 1141.0423,641.97911 c -0.1928,-0.0313 -0.3851,-0.0595 -0.5766,-0.0847 0,0 0,0 0,0 -2.3895,-0.32623 -4.6778,-0.28944 -6.8742,-0.0147 -2.1965,0.27472 -4.3029,0.79055 -6.3395,1.48478 -2.1499,0.72732 -4.2467,1.65708 -6.3125,2.81672 -2.0659,1.15964 -4.1022,2.54993 -6.0948,4.22414 4.5548,-2.133 8.8624,-3.50483 13.1248,-4.38418 2.0121,-0.40994 4.0158,-0.71341 6.0147,-0.84976 1.999,-0.13635 3.9945,-0.10681 5.99,0.18738 0,0 0,0 0,0 0.1619,0.0248 0.3238,0.0514 0.4858,0.0799 3.1288,0.54965 6.1413,1.81977 8.119,4.03115 2.4154,2.52234 3.3362,6.37311 3.3815,10.15341 -0.017,18.34664 -3.849,36.91875 -12.9149,52.71939 0,0 0,0 0,10e-6 -3.5318,6.13918 -7.8441,11.8567 -13.3331,16.07642 -4.4515,3.40121 -9.7723,5.81639 -15.1618,5.77393 -0.8584,0.0298 -1.7902,-0.38089 -2.5707,-0.98695 0,0 0,0 0,-1e-5 -0.9901,-0.76617 -1.7716,-1.92165 -2.4842,-3.19151 -1.8885,-3.42561 -2.7883,-7.43971 -3.4298,-11.53342 -0.7025,-4.62449 -0.9081,-9.32717 -0.6171,-13.99691 0,0 0,0 0,0 0.2683,-3.97011 0.7444,-7.87917 2.2371,-11.29501 0.6737,-1.60371 1.7138,-3.07408 2.9532,-4.41773 0.5059,-0.54842 1.0218,-1.05282 1.5334,-1.52073 1.2407,-1.12742 2.463,-2.05834 3.604,-2.90451 1.141,-0.84617 2.2036,-1.60417 3.1812,-2.32779 3.0099,-2.21665 5.2164,-4.06026 7.3018,-6.37801 1.0026,-1.11503 1.9666,-2.34428 2.9138,-3.80284 0.9473,-1.45856 1.8849,-3.14718 2.7016,-5.21252 -1.2068,1.84803 -2.4454,3.26997 -3.6285,4.46261 -1.1831,1.19265 -2.3169,2.15417 -3.4254,3.01234 -2.4136,1.87079 -4.7153,3.29345 -7.7236,5.25458 -1.0136,0.65719 -2.118,1.37557 -3.3291,2.22597 -1.2112,0.85039 -2.5321,1.82917 -3.9312,3.07269 -0.5907,0.52217 -1.1887,1.09934 -1.7796,1.74319 -1.4469,1.57624 -2.6983,3.3777 -3.5874,5.41099 -1.7095,4.03651 -2.278,8.33354 -2.5146,12.45892 0,0 0,0 0,10e-6 -0.3069,4.91751 -0.09,9.86805 0.6501,14.74047 0.6299,4.2748 1.6584,8.6713 3.8158,12.68066 0.8053,1.51945 1.8814,3.02722 3.3681,4.24841 0,0 0,10e-6 0,10e-6 1.2957,1.05981 2.9576,1.72725 4.7611,1.75709 6.3942,-0.0425 12.4282,-2.70109 17.3016,-6.50426 5.9618,-4.62722 10.5733,-10.68832 14.2308,-17.10719 0,0 0,0 0,-10e-6 9.4081,-16.4693 13.3943,-35.62105 13.3774,-54.45829 0.045,-4.39405 -1.184,-9.03531 -4.3073,-12.52489 -2.716,-2.88342 -6.3925,-4.51623 -10.1109,-5.11919 z"
         style="fill:#447dc0;fill-opacity:1;stroke:none" />
      <path
         inkscape:original-d="m 1126.1774,671.41099 c -30.7643,3.57843 -35.3868,-1.79333 -28.8209,-25.24245"
         inkscape:path-effect="#path-effect3825"
         sodipodi:nodetypes="cc"
         inkscape:connector-curvature="0"
         id="path3789"
         d="m 1123.1512,673.51124 c 0.9567,-1.27741 1.892,-2.56036 2.8236,-3.84174 -6.0952,0.70028 -12.1458,1.3335 -18.065,0.85672 -0.9417,-0.0778 -1.8696,-0.18057 -2.7723,-0.33233 -0.9032,-0.15187 -1.8428,-0.35463 -2.7825,-0.65755 -1.2499,-0.41084 -2.504,-0.9607 -3.481,-1.81934 -0.8393,-0.7071 -1.5277,-1.69605 -1.9813,-2.81038 -0.5416,-1.31166 -0.7636,-2.83745 -0.8547,-4.39498 -0.1513,-2.72109 0.1,-5.42481 0.4183,-7.89041 0.3186,-2.46561 0.692,-4.6896 0.9033,-6.45182 -0.7533,1.5753 -1.6206,3.65618 -2.3787,6.09606 -0.7581,2.43988 -1.3928,5.24409 -1.5564,8.2397 -0.098,1.74131 0.026,3.59942 0.5883,5.41382 0.5056,1.60308 1.4113,3.08141 2.6226,4.24351 1.427,1.33222 3.0745,2.16469 4.6197,2.67537 1.1587,0.38903 2.27,0.6394 3.2948,0.80742 1.0353,0.17816 2.0675,0.29357 3.0851,0.37013 5.2335,0.40348 10.4219,0.0402 15.5162,-0.50418 z"
         style="fill:#447dc0;fill-opacity:1;stroke:none" />
      <path
         sodipodi:nodetypes="cccc"
         inkscape:connector-curvature="0"
         id="path3811"
         d="m 1119.0915,648.04419 2.1086,-0.98169 c -1.4584,-2.2539 -2.1256,-4.62684 -2.3282,-7.83081 -0.8018,3.22726 -0.5196,6.06748 0.2196,8.8125 z"
         style="fill:#447dc0;fill-opacity:1;fill-rule:evenodd;stroke:none" />
    </g>
    <path
       id="path3817"
       style="fill:#000000;stroke:none"
       d="m 1147.4854,479.6243 c 11.6794,-4.88305 12.1725,-3.2254 0.7425,1.749 z m 1.4846,3.8744 c 12.411,-2.57873 12.7678,-0.81429 0.5538,1.85169 z m 1.114,5.85424 c -11.2126,-34.09142 -17.5923,-27.81512 -8.8772,10.43699 -14.1913,-37.7351 -1.2612,-51.31318 9.8444,-12.44883 11.2504,0.22299 11.287,1.98744 -0.9672,2.01184 z"
       inkscape:connector-curvature="0" />
    <path
       id="path3806"
       style="fill:#000000;stroke:none"
       d="m 1073.0217,493.18846 c -18.3621,-1.08276 -18.3227,-3.2938 0.07,-2.61522 z m 0.2573,5.39176 c -18.2971,1.88333 -18.6137,-0.30528 -0.3496,-2.59267 z m 47.22,6.09952 c -6.4027,-42.09256 -54.7828,-50.87108 -45.2951,-1.68382 -17.7878,6.46739 -18.8402,3.59955 -2.6703,-1.57379 -8.4297,-52.48774 47.0422,-40.82944 47.9654,3.25761 z"
       inkscape:connector-curvature="0" />
    <path
       style="fill:#bbe0f9;stroke:#90b1da;stroke-width:3.5;stroke-linejoin:round;stroke-miterlimit:4"
       d="m 1137.5849,771.35744 c -61.7181,51.59454 -141.85148,38.46644 -150.89442,4.71774 -9.56009,-35.67872 19.49992,-63.39089 75.78882,-74.92217 -7.2511,-8.9963 -13.1439,-19.2541 -17.0724,-29.5119 -59.3643,19.6426 -104.96293,55.70146 -83.80844,114.80008 23.4237,65.43801 167.33244,58.00595 175.98644,-15.08375 z"
       id="path3909-5"
       inkscape:connector-curvature="0"
       sodipodi:nodetypes="csccsc" />
    <path
       id="path3835"
       style="stroke:#90b1da;stroke-width:3;fill:none"
       d="m 1100.4452,794.01671 c 4.5042,6.35593 7.3855,12.1305 10.2594,19.77705 m -56.6045,-8.60433 c 1.1179,8.84905 0.9922,16.99745 -0.024,26.35623 m -48.3038,-34.8253 c -3.4456,8.85872 -8.04681,15.4852 -15.32204,22.34338 M 985.569,757.28837 c -9.97334,0.443 -19.23152,-0.95071 -29.29971,-4.51865 M 1013.324,719.4381 c -8.3885,-6.3412 -14.84526,-13.10564 -20.65672,-22.62095"
       inkscape:connector-curvature="0" />
    <path
       style="fill:#230f38;stroke:#170925;stroke-width:3"
       d="m 1031.6255,636.74147 c 4.4079,25.62503 12.432,47.15222 29.0112,69.26389 1.6273,2.17041 9.7459,-0.71044 8.5526,-2.3071 -16.7147,-22.36421 -25.0657,-44.31414 -29.9238,-69.43695 -0.7541,-3.89965 -8.1313,-0.37582 -7.64,2.48016 z"
       id="path4020"
       inkscape:connector-curvature="0"
       sodipodi:nodetypes="sssss" />
    <g
       id="g4164">
      <path
         sodipodi:nodetypes="cccscsc"
         inkscape:connector-curvature="0"
         id="path3804"
         d="m 1163.9304,457.65643 c -7.8318,-31.04234 -44.6209,-57.66115 -90.2264,-38.73586 3.2551,-7.9248 3.5944,-14.70445 1.4777,-23.9372 -19.2459,33.37387 -41.1898,29.77192 -60.6368,52.73273 -67.69119,79.92189 55.0547,108.58158 50.3669,182.98373 66.8459,-76.55199 -73.61816,-72.01714 -37.8782,-153.41128 17.6981,-40.30552 99.725,-55.5743 136.8968,-19.63212 z"
         style="fill:#d2d5f1;stroke:#a1a4d7;stroke-width:3.5" />
      <g
         id="g4150">
        <path
           style="fill:#84c8f3;stroke:none"
           d="m 1118.5615,462.80263 c 33.7049,-83.34072 32.5712,-85.81862 -19.2919,-15.57271 -2.0264,2.74467 -0.2678,4.70502 2.3839,7.53345 z"
           id="path4148"
           inkscape:connector-curvature="0"
           sodipodi:nodetypes="cscc" />
        <path
           sodipodi:nodetypes="csc"
           inkscape:connector-curvature="0"
           id="path3936"
           d="m 1133.892,418.65076 c -0.7088,1.96065 -1.8417,5.0999 -3.2131,8.84858 -1.3714,3.74868 -2.9824,8.10668 -4.5993,12.52054 -3.2339,8.82773 -6.4663,17.88937 -7.6431,22.78275 2.49,-4.29106 6.5218,-12.99408 10.2434,-21.65585 1.8608,-4.33089 3.6375,-8.65348 5.1173,-12.39803 1.4798,-3.74456 2.6637,-6.9104 3.386,-8.90813 0.4725,-1.30701 0.9401,-2.61613 1.4021,-3.92756 1.4648,-4.14814 2.9455,-8.37701 3.9413,-12.80132 0.2769,-1.19241 0.5326,-2.49927 0.5618,-3.92021 0,0 0,0 0,0 0.017,-0.43767 -0.019,-0.96644 -0.1634,-1.56651 -0.065,-0.42751 -0.3458,-0.95774 -0.8876,-1.51505 -0.6029,-0.47174 -1.2341,-0.67963 -1.826,-0.63589 0,0 0,0 0,0 -0.6837,0.0567 -1.2035,0.22338 -1.5537,0.42175 0,0 0,0 0,0 -1.2122,0.60956 -2.141,1.39948 -2.9063,2.12078 -3.1229,2.84219 -5.7567,6.05362 -8.3237,9.17913 0,0 0,0 0,0 -4.3334,5.26144 -8.4745,10.65651 -12.5752,16.05864 -5.0519,6.65463 -10.0348,13.35601 -14.9966,20.06763 -0.7887,1.06675 -1.4615,2.01958 -2.0515,2.91847 -1.1354,1.6458 -1.1893,3.64845 -0.3383,5.2118 0.5059,0.77528 1.1155,1.38289 1.8001,1.90241 0.6846,0.51952 1.4473,0.94428 2.2623,1.40868 -0.4022,-0.83361 -0.8194,-1.60294 -1.1489,-2.30958 -0.3295,-0.70663 -0.5776,-1.35178 -0.6818,-1.97529 -0.084,-0.38485 -0.024,-0.77361 0.1216,-1.15855 0.1454,-0.38493 0.3775,-0.76835 0.6638,-1.10173 0.6921,-0.83518 1.4061,-1.75915 2.1871,-2.81554 4.958,-6.70644 9.932,-13.39594 14.9699,-20.032 4.0938,-5.39196 8.2061,-10.75071 12.489,-15.94967 0,0 0,0 0,0 2.5815,-3.12478 5.0986,-6.21382 7.9736,-8.81195 0.7677,-0.66913 1.4181,-1.27169 2.0712,-1.55869 0.1906,-0.0615 0.2467,-0.11379 0.1626,-0.0785 0,0 0,0 0,0 -0.1571,0.0282 -0.3401,-0.0556 -0.6169,-0.23923 -0.1674,-0.22651 -0.2421,-0.27412 -0.1799,-0.21848 0.043,0.11441 0.041,0.332 0.049,0.63298 -0,0.9811 -0.2289,2.04768 -0.4773,3.19938 -0.9274,4.15903 -2.37,8.2554 -3.8273,12.40384 -0.4584,1.30194 -0.9226,2.60202 -1.392,3.90043 z"
           style="fill:#447dc0;stroke:none"
           inkscape:path-effect="#path-effect3950"
           inkscape:original-d="m 1118.4365,462.80263 c 33.7049,-83.34072 32.5712,-85.81862 -19.2919,-15.57271 -2.0264,2.74467 -0.2678,4.70502 2.3839,7.53345" />
        <path
           id="path3855"
           style="stroke:#447dc0;stroke-width:2;fill:none"
           d="m 1124.9944,413.03703 c 4.8431,-0.5053 9.4687,-1.62021 13.9147,-3.34321 m -25.4095,18.03388 c 6.7704,0.68343 13.2589,0.18543 19.5604,-1.47815 m -29.6394,15.38076 c 7.6211,2.15747 15.063,2.72656 22.4635,1.74953"
           inkscape:connector-curvature="0"
           sodipodi:nodetypes="cccccc" />
      </g>
      <path
         id="path3034"
         style="fill:#3a39b3;stroke:#30309a;stroke-width:3.5;stroke-miterlimit:20"
         d="m 1037.6095,465.78943 c 21.8288,-11.46667 49.192,-9.92315 72.8263,3.56217 -6.1666,-9.07938 -15.0282,-15.04577 -28.3383,-19.05252 29.5798,-6.14774 61.7212,-0.27631 87.5574,16.13105 -7.723,-47.68701 -111.8609,-63.7337 -135.0936,-4.96402 z m -17.3971,27.25321 c -30.80186,58.9779 92.205,64.93896 39.4958,143.05245 60.9262,-29.12062 39.6413,-77.60346 1.5024,-85.8138 4.9497,-2.56192 8.7998,-5.49643 13.2128,-8.88846 -30.1154,4.43345 -45.7035,-17.14005 -44.8541,-38.4052 z"
         inkscape:connector-curvature="0" />
      <g
         id="g3892">
        <path
           sodipodi:nodetypes="cscc"
           inkscape:connector-curvature="0"
           id="path3890"
           d="m 1039.75,519 c -40.96967,-21.79289 -32.75,-74.5 -27.5,-78 4.2471,-2.83141 23.8431,6.12652 34.75,24.60355 z"
           style="fill:#84c8f3;stroke:none" />
        <path
           style="fill:#447dc0;stroke:none"
           d="m 1018.1581,502.38958 c 2.5135,3.53245 5.9422,7.18129 9.7898,10.13485 3.8476,2.95355 8.0836,5.19843 11.8021,6.47557 -3.2034,-2.35474 -6.8323,-5.27717 -10.1414,-8.53545 -3.3091,-3.25827 -6.2829,-6.8413 -8.6008,-10.10177 -0.7314,-1.02887 -1.4264,-2.08348 -2.0824,-3.16218 -4.4854,-7.35207 -7.2549,-15.73442 -8.5265,-24.31581 0,0 0,0 0,0 -1.0258,-6.9771 -1.1435,-14.09232 -0.098,-21.02499 0.3602,-2.36028 0.8218,-4.66319 1.5914,-6.81052 0,0 0,0 0,0 0.2621,-0.72219 0.529,-1.38963 0.8647,-1.95776 0.2729,-0.3829 0.3919,-0.65167 0.4634,-0.63543 0.1343,-0.17887 0.631,-0.16705 1.2762,-0.21977 0.9302,-7.2e-4 1.9254,0.21759 2.9683,0.50017 0,0 0,0 0,0 3.0366,0.84074 5.9349,2.34118 8.7429,4.06358 0.4858,0.30001 0.9671,0.60749 1.4436,0.92227 3.6592,2.41697 7.2332,5.25861 10.5047,8.32637 3.2716,3.06775 6.2371,6.3564 8.8436,9.55484 -1.5192,-3.79084 -3.8638,-7.75185 -6.8688,-11.36603 -3.0051,-3.61418 -6.6641,-6.86883 -10.5505,-9.43564 -0.5062,-0.33429 -1.0174,-0.66093 -1.5336,-0.97973 -2.9552,-1.83663 -6.1516,-3.46778 -9.637,-4.4557 -1.1899,-0.34346 -2.488,-0.60503 -3.8766,-0.62994 -0.9255,-0.0691 -2.0815,0.11495 -3.2542,0.8074 -0.8099,0.60384 -1.2908,1.25787 -1.5494,1.79124 -0.489,0.85313 -0.8459,1.7149 -1.1347,2.54076 0,0 0,0 0,0 -0.871,2.46346 -1.3871,4.98391 -1.7551,7.46316 -1.0982,7.31787 -0.9809,14.77692 0.096,22.05647 0,0 0,0 0,1e-5 1.3201,8.98928 4.2473,17.8082 8.9997,25.62548 0.7011,1.1497 1.4426,2.2731 2.222,3.36855 z"
           id="path3866"
           inkscape:connector-curvature="0"
           sodipodi:nodetypes="csc"
           inkscape:path-effect="#path-effect3882"
           inkscape:original-d="m 1039.75,519 c -40.96967,-21.79289 -32.75,-74.5 -27.5,-78 4.2471,-2.83141 23.8431,6.12652 34.75,24.60355" />
        <path
           style="fill:#447dc0;stroke:none"
           d="m 1019.4712,463.57966 c -0.5178,12.90623 6.9335,26.79684 17.1473,34.11791 -8.0888,-8.68871 -15.0992,-22.35077 -17.1473,-34.11791 z"
           id="path3868"
           inkscape:connector-curvature="0"
           sodipodi:nodetypes="ccc" />
      </g>
    </g>
  </g>
</svg>
