<svg xmlns="http://www.w3.org/2000/svg" xmlns:inkscape="http://www.inkscape.org/namespaces/inkscape" xmlns:sodipodi="http://sodipodi.sourceforge.net/DTD/sodipodi-0.dtd" xmlns:xlink="http://www.w3.org/1999/xlink" height="1080" viewBox="0 0 1080 1080" width="1080">
  <defs>
    <linearGradient id="linearGradient1546">
      <stop offset="0" stop-color="#cb4db6" stop-opacity=".4" />
      <stop offset="0.35872465" stop-color="#cb4db6" stop-opacity=".7" />
      <stop offset="0.63273585" stop-color="#cb4db6" stop-opacity=".7" />
      <stop offset="1" stop-color="#cb4db6" stop-opacity=".4" />
    </linearGradient>
    <inkscape:path-effect effect="powerstroke" id="path-effect1133" interpolator_type="CubicBezierSmooth" offset_points="0.31,3 | 4,3" start_linecap_type="zerowidth" />
    <inkscape:path-effect effect="powerstroke" id="path-effect1073" interpolator_type="CubicBezierSmooth" offset_points="0.31,3 | 8,3" start_linecap_type="zerowidth" />
    <inkscape:path-effect effect="powerstroke" end_linecap_type="zerowidth" id="path-effect1000" interpolator_type="CubicBezierSmooth" offset_points="0.4,3 | 3.6,3" start_linecap_type="zerowidth" />
    <inkscape:path-effect effect="powerstroke" id="path-effect155" interpolator_type="CubicBezierSmooth" offset_points="0.45,3 | 1,3" start_linecap_type="zerowidth" />
    <inkscape:path-effect effect="powerstroke" end_linecap_type="zerowidth" id="path-effect153" interpolator_type="CubicBezierSmooth" offset_points="0.18,3 | 3.53,3" start_linecap_type="zerowidth" />
    <inkscape:path-effect bendpath1="m -9.9832742,-9.9 h 19.9832742" bendpath2="m 8.3969501,-9.6350306 c 10.8486459,10.16466316 11.7782369,22.0926696 0.5506421,32.1622796" bendpath3="m -9.9832742,22.9 h 19.9832742" bendpath4="m -10.490407,-9.5212606 c 9.62401113,9.94293854 10.06105953,23.7474156 -0.694812,32.7004236" effect="envelope" id="path-effect517" yy="false" />
    <inkscape:path-effect effect="powerstroke" end_linecap_type="zerowidth" id="path-effect146" interpolator_type="CubicBezierSmooth" offset_points="0.49,3 | 3.83,3" start_linecap_type="zerowidth" />
    <inkscape:path-effect effect="powerstroke" id="path-effect138" interpolator_type="CubicBezierSmooth" offset_points="0.37,3" start_linecap_type="zerowidth" />
    <inkscape:path-effect effect="powerstroke" end_linecap_type="zerowidth" id="path-effect131" interpolator_type="CubicBezierSmooth" offset_points="0.5,3 | 3.85,3" start_linecap_type="zerowidth" />
    <inkscape:path-effect effect="powerstroke" id="path-effect539" interpolator_type="CubicBezierSmooth" offset_points="0.39,3 | 3,3" start_linecap_type="zerowidth" />
    <inkscape:path-effect bendpath1="m -23.625489,-38.348994 h 47.033104" bendpath2="m 15.813891,-41.854686 c 10.36423,31.8938792 2.022541,65.043767 -11.4457552,89.85579" bendpath3="m -23.625489,38.753571 h 47.033104" bendpath4="m -12.222827,-38.703873 c 4.3582245,26.004609 1.050324,51.882484 -9.119896,80.194838" effect="envelope" id="path-effect474" yy="false" />
    <inkscape:path-effect effect="powerstroke" id="path-effect188" interpolator_type="CubicBezierSmooth" offset_points="0.37,3" start_linecap_type="zerowidth" />
    <inkscape:path-effect effect="powerstroke" end_linecap_type="zerowidth" id="path-effect186" interpolator_type="CubicBezierSmooth" offset_points="0.5,3 | 3.85,3" start_linecap_type="zerowidth" />
    <inkscape:path-effect effect="powerstroke" end_linecap_type="zerowidth" id="path-effect182" interpolator_type="CubicBezierSmooth" offset_points="0.49,3 | 3.83,3" start_linecap_type="zerowidth" />
    <inkscape:path-effect effect="powerstroke" id="path-effect4348" interpolator_type="CubicBezierSmooth" offset_points="0.56,3 | 2.5,3 | 4.8,3" start_linecap_type="zerowidth" />
    <inkscape:path-effect effect="powerstroke" id="path-effect977" interpolator_type="CubicBezierSmooth" offset_points="0.4,3" start_linecap_type="zerowidth" />
    <inkscape:path-effect effect="powerstroke" id="path-effect926" interpolator_type="CubicBezierSmooth" offset_points="0.4,3 | 8,3" start_linecap_type="zerowidth" />
    <linearGradient id="linearGradient2992">
      <stop offset="0" stop-color="#580d36" />
      <stop offset="1" stop-color="#bc1d75" />
    </linearGradient>
    <inkscape:path-effect effect="powerstroke" end_linecap_type="zerowidth" id="path-effect2927" interpolator_type="CubicBezierSmooth" offset_points="0.2,3 | 1.64,3" start_linecap_type="zerowidth" />
    <inkscape:path-effect effect="powerstroke" end_linecap_type="zerowidth" id="path-effect2925" interpolator_type="CubicBezierSmooth" offset_points="0.2,3 | 1.64,3" start_linecap_type="zerowidth" />
    <clipPath id="clipPath3584">
      <use xlink:href="#path2994" />
    </clipPath>
    <clipPath id="clipPath3874">
      <use xlink:href="#path3588" />
    </clipPath>
    <linearGradient id="linearGradient4518">
      <stop offset="0" stop-color="#491e59" />
      <stop offset="1" stop-color="#b465cb" />
    </linearGradient>
    <clipPath id="clipPath6076">
      <use xlink:href="#ellipse5256" />
    </clipPath>
    <clipPath id="clipPath6092">
      <use xlink:href="#path5254" />
    </clipPath>
    <clipPath id="clipPath4363">
      <path d="m 365.69084,499.59177 18.11573,55.09299 -44.62875,-7.45155 -20.93155,-40.81653 z" />
    </clipPath>
    <clipPath id="clipPath478">
      <use transform="rotate(35.662142 1091.6283-147.00334)scale(.6490005)" xlink:href="#path190" />
    </clipPath>
    <clipPath id="clipPath1143">
      <path d="m 336.66798,1341.9089 -35.43441,0.01 8.16852,33.0665 43.80291,-3.6278 z" />
    </clipPath>
    <clipPath id="clipPath1243">
      <use xlink:href="#path1147" />
    </clipPath>
    <filter color-interpolation-filters="sRGB" height="1.1507295" id="filter1482" width="1.0996784" x="-0.0498392" y="-0.075364733">
      <feGaussianBlur stdDeviation="5.9992489" />
    </filter>
    <filter color-interpolation-filters="sRGB" height="1.0300488" id="filter1518" width="1.0448906" x="-0.022445276" y="-0.015024421">
      <feGaussianBlur stdDeviation="1.1911279" />
    </filter>
    <mask id="mask1538">
      <path d="m 653.2168,402.84375 c -3.29102,-0.0339 -6.69244,0.72743 -10.12305,2.20117 -6.85569,2.94511 -11.58126,8.01715 -14.01563,13.74024 -2.43436,5.72308 -2.8907,11.84336 -2.84765,17.95898 0.0861,12.23125 2.07252,24.94247 -0.18555,34.71875 -1.5472,6.69863 -0.92125,12.40738 0.97656,16.85352 1.89782,4.44614 4.6577,7.46279 6.68164,10.06054 2.02395,2.59775 3.38403,4.6491 4.0254,7.4961 0.64136,2.847 0.63539,6.85382 -1.46875,13.4082 -5.02703,15.65915 -1.5389,25.19769 1.9375,31.81836 3.47639,6.62067 6.47002,10.50029 4.20507,24.3457 -0.92332,5.64422 2.00207,11.59384 6.47657,14.28711 4.4745,2.69327 9.7111,3.37197 15.58007,3.38086 11.73795,0.0178 26.38504,-3.2516 40.57618,-8.30469 14.19114,-5.05308 27.75043,-11.8068 36.94531,-19.79882 4.59744,-3.99601 8.26395,-8.33738 9.88281,-13.66016 1.61886,-5.32278 0.30035,-11.6801 -3.77734,-16.29688 -11.15544,-12.63022 -11.30546,-18.67124 -11.60742,-24.60742 -0.15098,-2.96808 -0.004,-6.4968 -2.01758,-10.36133 -2.01331,-3.86452 -5.84551,-6.7152 -11.29102,-9.01562 -3.54493,-1.49753 -4.94509,-3.17652 -6.21484,-5.85742 -1.26975,-2.68091 -2.0339,-6.52583 -2.85547,-11.07813 -1.64314,-9.10459 -4.17226,-21.55175 -16.49023,-30.04492 -7.78324,-5.36649 -13.69358,-14.62111 -19.76954,-23.2832 -3.03797,-4.33105 -6.12559,-8.51244 -9.99804,-11.9043 -3.87246,-3.39185 -8.86693,-5.9974 -14.625,-6.05664 z" style="stroke-miterlimit:20;fill:none;stroke-width:18;stroke:#fff;filter:url(#filter1518)" sodipodi:type="inkscape:offset" inkscape:original="M 653.1543 408.84375 C 650.81692 408.8197 648.27423 409.35088 645.46289 410.55859 C 622.97214 420.22031 637.19124 449.86353 631.89062 472.8125 C 626.59002 495.76147 651.28776 492.09879 641.97266 521.11523 C 632.65756 550.13167 653.26951 546.18395 648.32422 576.41406 C 643.37893 606.64417 767.37805 565.95848 743.58984 539.02539 C 719.80162 512.0923 740.02121 504.70038 720.83594 496.5957 C 701.65066 488.49101 715.18775 463.49612 694.20312 449.02734 C 675.84158 436.36717 669.51594 409.01209 653.1543 408.84375 z " inkscape:radius="6" />
    </mask>
    <clipPath id="clipPath1559">
      <use xlink:href="#path1440" />
    </clipPath>
    <filter color-interpolation-filters="sRGB" height="1.1779658" id="filter1671" width="1.27471" x="-0.13735501" y="-0.088982899">
      <feGaussianBlur stdDeviation="6.6095745" />
    </filter>
    <linearGradient gradientUnits="userSpaceOnUse" id="linearGradient2173" x1="649.13232" x2="698.27246" y1="416.90216" y2="570.68823" xlink:href="#linearGradient1546" />
    <linearGradient gradientTransform="matrix(1.1503872,0,0,1.1503872,-494.88568,190.2047)" gradientUnits="userSpaceOnUse" id="linearGradient2175" x1="705.87689" x2="708.34485" y1="437.69339" y2="496.48184" xlink:href="#linearGradient4518" />
    <linearGradient gradientTransform="translate(-1242.3011,165.89066)" gradientUnits="userSpaceOnUse" id="linearGradient2177" x1="750.39008" x2="687.8504" y1="668.49719" y2="666.25085" xlink:href="#linearGradient2992" />
    <clipPath id="clipPath2604">
      <rect height="1080" style="stroke-miterlimit:20;fill:none;stroke-width:5;stroke:#ff0" width="540" x="583.69043" y="367.3577" />
    </clipPath>
    <clipPath id="clipPath2648">
      <rect fill="#1f3e7d" height="1080" width="540" x="43.690472" y="367.3577" />
    </clipPath>
    <clipPath id="clipPath249">
      <use transform="matrix(-.38101588-.18433985-.33390485.15556812 581.36973-10.823814)" xlink:href="#Q" />
    </clipPath>
  </defs>
  <g transform="translate(-43.690472-367.3577)" inkscape:groupmode="layer" inkscape:label="Drawing">
    <rect fill="#8f8041" height="1080" width="1080" x="43.690472" y="367.3577" />
    <path d="m 275.14529,243.26933 h 160.53898 v 584.32538 h -160.53898 z m -160.53899,124.08837 v 1080 m 160.53898,-1080 v 1080 m 160.53898,-1080 v 1080 m -321.07796,-924.68521 h 160.539 v 544.38891 h -160.539 z m 321.07797,274.68524 h 160.539 v 619.93057 h -160.539 z m -481.616971,181.24011 h 160.538971 v 502.29846 h -160.538971 z" style="fill:#7f6e3f;clip-path:url(#clipPath2648);stroke-width:5;stroke:#665b36;stroke-linejoin:round" />
    <g clip-path="url(#clipPath2604)">
      <g id="g2141" transform="translate(-231.05501-161.55008)">
        <path d="m 966.4424,1044.494 68.7679,10e-5 -68.76866,119.1115 -59.55569,34.3837 -34.3836,-59.5554 z" style="fill:#5c1c5c;stroke-width:3.643785;stroke:#4a164a;stroke-linejoin:round" />
        <path d="m 1035.2104,1044.4942 -68.7679,-1e-4 68.7687,-119.1115 59.5557,-34.3837 34.3836,59.5554 z" style="fill:#5c1c5c;stroke-width:3.643785;stroke:#4a164a;stroke-linejoin:round" />
        <path d="m 906.88595,1197.9893 59.5548,-34.3839 3.4e-4,137.5379 -34.38489,59.5551 -59.55477,-34.3847 z" style="fill:#742574;stroke-width:3.643785;stroke:#4a164a;stroke-linejoin:round" />
        <path d="m 906.88577,1197.9892 -34.38404,-59.5547 -68.76926,119.1112 6.9e-4,68.7686 68.76829,-6e-4 z" style="fill:#682068;stroke-width:3.643785;stroke:#4a164a;stroke-linejoin:round" />
        <path d="m 932.05822,1429.4669 59.55469,-34.3841 -119.11115,-68.7692 -68.76859,7e-4 6.3e-4,68.7682 z" style="fill:#802980;stroke-width:3.643785;stroke:#4a164a;stroke-linejoin:round" />
        <path d="m 932.05816,1429.4671 34.38386,59.5548 -137.53792,3e-4 -59.555,-34.3849 34.38469,-59.5548 z" style="fill:#8c2e8c;stroke-width:3.643785;stroke:#4a164a;stroke-linejoin:round" />
        <path d="m 1094.7672,1454.6373 34.3838,-59.5548 -137.53789,-3e-4 -59.555,34.3849 34.38469,59.5548 z" style="fill:#993499;stroke-width:3.643785;stroke:#4a164a;stroke-linejoin:round" />
        <path d="m 1094.7667,890.99889 -59.5548,34.38386 -3e-4,-137.53792 34.3849,-59.555 59.5547,34.38469 z" style="fill:#742574;stroke-width:3.643785;stroke:#4a164a;stroke-linejoin:round" />
        <path d="m 1094.7669,890.9989 34.384,59.55469 68.7692,-119.11115 -6e-4,-68.76859 -68.7683,6.3e-4 z" style="fill:#682068;stroke-width:3.643785;stroke:#4a164a;stroke-linejoin:round" />
        <path d="m 1069.5944,659.52129 -59.5547,34.38404 119.1112,68.76926 68.7686,-6.9e-4 -7e-4,-68.76829 z" style="fill:#802980;stroke-width:3.643785;stroke:#4a164a;stroke-linejoin:round" />
        <path d="m 1069.5945,659.52113 -34.3839,-59.5548 137.5379,-3.5e-4 59.555,34.38489 -34.3847,59.55478 z" style="fill:#8c2e8c;stroke-width:3.643785;stroke:#4a164a;stroke-linejoin:round" />
        <path d="m 906.88545,634.35082 -34.38386,59.55479 137.53791,3.5e-4 59.555,-34.38489 -34.3847,-59.55477 z" style="fill:#993499;stroke-width:3.643785;stroke:#4a164a;stroke-linejoin:round" />
      </g>
      <use transform="translate(162.7071-93.93896)" xlink:href="#g2141" />
      <use transform="translate(325.4144-187.87815)" xlink:href="#g2141" />
      <use transform="translate(-162.70728 93.93922)" xlink:href="#g2141" />
      <use transform="translate(59.558295 854.67094)" xlink:href="#g2141" />
      <use transform="translate(222.26729 760.73097)" xlink:href="#g2141" />
      <use transform="translate(-103.1507 948.61091)" xlink:href="#g2141" />
      <use transform="translate(-222.26558-760.73172)" xlink:href="#g2141" />
      <use transform="translate(-59.556576-854.67101)" xlink:href="#g2141" />
      <use transform="translate(103.14882-948.60987)" xlink:href="#g2141" />
      <use transform="translate(488.1217-281.81734)" xlink:href="#g2141" />
      <use transform="translate(384.97607 666.79162)" xlink:href="#g2141" />
      <use transform="translate(-325.41631 187.87922)" xlink:href="#g2141" />
    </g>
    <g>
      <ellipse cx="583.69049" cy="907.35767" opacity=".25" rx="254.70534" ry="374.17484" />
      <g>
        <path d="m 243.79724,871.29795 c 11.44704,38.06946 43.63539,55.2142 90.44719,46.21367 -63.18179,58.89245 -130.57253,23.92214 -95.6822,-95.69512 z" fill="#343434" />
        <path d="m 334.24443,917.51162 c -49.76556,9.56845 -83.00401,-10.41192 -92.36479,-53.66869 l -5.77648,-33.08861 c 4.05727,-15.71596 9.96407,-33.00843 17.98997,-51.8541 41.7942,-98.13728 23.43078,-157.45322 76.73369,-246.58054 z" fill="#343434" />
        <path d="m 342.93875,739.72418 c -14.9977,79.88374 -55.71165,120.7043 -49.08477,178.21622 m 47.26213,-280.86448 c -26.55554,51.68437 -17.38856,87.80179 -37.41427,148.91436 -19.43229,59.30162 -38.77978,70.48934 -27.30145,126.46155 m 67.99252,-316.90119 c -36.22337,51.14726 -34.41872,101.65267 -57.23808,166.07479 -19.16584,54.10774 -38.68807,74.17358 -38.36301,122.57274" style="stroke-miterlimit:20;fill:none;stroke:#656565;stroke-width:3" />
        <path inkscape:original-d="m 241.87964,863.84293 c 9.36078,43.25677 42.59923,63.23714 92.36479,53.66869 -70.19003,65.4249 -145.57451,15.00935 -80.1513,-138.6114 41.7942,-98.13728 23.43078,-157.45322 76.73369,-246.58054" inkscape:path-effect="#path-effect539" />
      </g>
      <path d="m 524.75662,754.21356 c -14.70342,-11.4407 -16.76034,-35.94192 -6.91646,-61.31746 15.69487,21.22532 38.24617,14.92505 42.60668,-7.47429 4.25916,-21.87876 -26.99184,-13.03275 -25.97715,-20.27019 24.27126,-173.11784 -260.06714,-185.51057 -215.72518,26.4706 21.0462,100.61344 12.60176,174.13925 -13.79876,256.90279 l 146.53629,88.47319 c 35.54475,-83.36246 28.93969,-187.92159 -8.089,-266.39991 28.58516,0.0921 55.79498,-5.20371 81.36358,-16.38473 z" fill="#bab8af" />
      <path d="m 510.73489,722.38185 c 11.30715,6.15214 17.74812,17.27566 11.22572,30.36626 -7.53081,-7.98928 -10.79821,-18.06625 -11.22572,-30.36626 z" fill="#ef6f2f" />
      <path fill="#666052" inkscape:original-d="m 382.22214,762.45698 c 51.04604,12.75582 99.15257,10.72727 142.53448,-8.24342 -14.70342,-11.4407 -16.76034,-35.94192 -6.91646,-61.31746 15.69487,21.22532 38.24617,14.92505 42.60668,-7.47429 4.25916,-21.87876 -26.99184,-13.03275 -25.97715,-20.27019 24.27126,-173.11784 -260.06714,-185.51057 -215.72518,26.4706 21.0462,100.61344 12.60176,174.13925 -13.79876,256.90279 l 146.53629,88.47319 c 35.54475,-83.36246 28.93969,-187.92159 -8.18861,-266.34427" inkscape:path-effect="#path-effect926" />
      <path d="m 538.22454,682.45037 c 1.8927,4.33727 5.59095,5.01371 9.07896,1.59671 -2.51067,7.50515 -9.82462,7.09275 -9.07896,-1.59671 z" fill="#666052" />
      <path d="m 391.44014,551.0124 -7.07907,17.84338 -10.48968,-28.47912 z" fill="#343434" />
      <g id="g2945">
        <path d="m 332.27042,658.24705 c -54.08178,-71.26106 -10.78072,-146.96932 2.1409,-148.92142 11.17117,-1.68765 48.24361,30.72332 49.54969,72.14524 z" fill="#bab8af" />
        <path fill="#666052" inkscape:original-d="m 332.27042,658.24705 c -54.08178,-71.26106 -10.78072,-146.96932 2.1409,-148.92142 11.17117,-1.68765 48.24361,30.72332 49.54969,72.14524" inkscape:path-effect="#path-effect2927" />
        <path d="m 336.22449,554.15696 c -8.95364,19.85406 -6.71626,44.81465 4.31045,63.80305 -7.12172,-20.58289 -8.56249,-44.0368 -4.31045,-63.80305 z" fill="#666052" />
      </g>
      <g>
        <path d="m 397.95851,660.86075 1.53421,4.17773 c -7.62398,0.37985 -13.18017,3.25623 -18.55091,10.02413 3.04706,-9.33479 8.40041,-13.09795 17.0167,-14.20186 z m 3.92111,7.33637 2.25641,4.02944 c -7.37312,1.97646 -11.93071,6.09238 -15.75622,13.83927 1.0135,-9.76701 5.30903,-14.97554 13.49981,-17.86871 z m 5.72897,7.06292 3.23237,3.19676 c -6.80746,3.4536 -10.70934,8.34447 -12.85607,16.7135 -1.02123,-9.76622 2.20495,-15.39109 9.6237,-19.91026 z" />
        <g clip-path="url(#clipPath6092)">
          <path d="m 489.58899,690.26955 c 3.88802,-64.37926 -45.89917,-100.47393 -104.55268,-75.77031 -3.06611,73.35629 53.01205,105.0151 104.55268,75.77031 z" fill="#fff" id="path5254" />
          <g clip-path="url(#clipPath6076)">
            <ellipse cx="331.13217" cy="727.34424" fill="url(#linearGradient2175)" id="ellipse5256" rx="35.713062" ry="46.778301" transform="rotate(349.6158)" />
            <path d="m 463.47265,654.60882 -28.65747,58.0696 -24.55907,-23.17582 z" fill="#c98eda" />
            <path d="m 463.47265,654.60882 -61.18559,20.23705 13.39814,22.02641 z" fill="#9852b0" />
            <ellipse cx="718.10718" cy="-354.63809" rx="38.155933" ry="30.19022" transform="rotate(81.082264)" />
            <ellipse cx="-420.23666" cy="653.22131" fill="#fff" rx="17.140615" ry="11.667708" transform="rotate(292.66799)" />
            <ellipse cx="-419.36115" cy="684.0351" fill="#fff" rx="6.2303324" ry="4.2410164" transform="rotate(294.11133)" />
          </g>
        </g>
        <path d="m 403.42759,609.97656 c -10.73116,-3.21659 -18.25964,-7.92617 -26.92438,-17.37905 4.43708,9.68296 9.94284,15.56465 17.46293,20.14825 z m -12.02377,2.51683 c -11.55081,-1.36577 -20.81398,-4.78654 -31.04307,-13.97049 5.07811,9.04402 12.97169,14.6596 23.01393,17.67335 z m 98.18517,77.77616 c 7.80412,-59.66125 -41.68916,-104.84048 -105.71815,-77.31964 -8.88065,3.81706 -21.65906,2.67732 -33.83536,-1.1994 10.47934,8.40104 26.02081,9.41192 34.97637,5.82601 57.62984,-23.07557 103.24036,6.37291 104.57714,72.69303 z" />
      </g>
      <g>
        <path d="m 387.59672,552.33357 c -0.5185,15.0966 -10.72501,26.01927 -25.73067,33.85916 52.61944,14.57797 101.98978,13.79284 150.25588,-8.9464 -0.42565,9.84014 -3.5709,18.02125 -9.64771,27.17128 113.4891,-22.75876 54.72639,-198.30739 -59.96134,-125.28974 -34.04733,21.67675 -65.3647,34.94424 -107.46557,43.33542" fill="#343434" />
        <path d="m 351.64034,532.20202 c 29.09713,-3.88585 66.71664,-15.70377 93.16114,-32.64665 71.31183,-45.6892 118.37767,5.50144 92.9191,54.7395 -5.48827,-12.4151 -12.99815,-21.05578 -25.23209,-28.52846 -3.69455,18.37269 -17.43462,30.25407 -39.0949,40.50996 4.23753,-7.92148 4.29961,-16.90818 0.35025,-24.69655 -6.17201,13.36633 -21.45266,23.16373 -45.28403,29.06446 9.04321,-9.41451 11.34555,-17.70444 10.47716,-27.80359 -13.91889,13.98392 -32.10564,21.64092 -55.8033,25.06085" style="stroke-miterlimit:20;fill:none;stroke-width:3;stroke:#656565" />
        <path inkscape:original-d="m 387.59672,552.33357 c -0.5185,15.0966 -10.72501,26.01927 -25.73067,33.85916 52.61944,14.57797 101.98978,13.79284 150.25588,-8.9464 -0.42565,9.84014 -3.5709,18.02125 -9.64771,27.17128 113.4891,-22.75876 54.72639,-198.30739 -59.96134,-125.28974 -34.04733,21.67675 -65.3647,34.94424 -107.46557,43.33542" inkscape:path-effect="#path-effect4348" />
      </g>
      <use clip-path="url(#clipPath4363)" xlink:href="#g2945" />
      <g>
        <path d="m 467.62468,785.83815 c -4.18077,18.79417 -0.2429,36.42059 11.17732,52.76253 4.4345,-21.46765 0.96818,-37.42854 -11.17732,-52.76253 z" style="stroke-miterlimit:20;fill:#e490dc;stroke:#b456aa;stroke-width:6" />
        <path d="m 323.94139,790.01037 c 44.53437,7.07654 88.15398,5.66271 130.53617,-3.22396 5.88671,13.86227 9.52687,23.61616 13.37896,37.76233 -50.19169,6.23212 -99.80066,5.54727 -143.74898,-3.05588 z" style="stroke-miterlimit:20;fill:#fff;stroke:#cce2f6;stroke-width:6" />
        <path d="m 453.41498,803.09759 c 13.8256,-17.43897 27.30451,34.29649 4.76166,26.89494 z" style="stroke-miterlimit:20;fill:#e490dc;stroke:#b456aa;stroke-width:6" />
        <path d="m 439.69167,786.94806 c -2.69207,19.83396 0.5431,42.07749 11.56601,59.75624 5.49127,-8.73408 8.27295,-15.45803 7.75708,-22.91424 -0.38102,-5.50686 -1.95535,-12.51176 -4.16214,-18.06447 -2.89152,-7.27569 -8.41793,-13.3515 -15.16095,-18.77753 z" style="stroke-miterlimit:20;fill:#e490dc;stroke:#b456aa;stroke-width:6" />
        <path d="m 458.13752,820.53237 c -2.90052,1.50466 -5.16746,3.20808 -7.81223,5.61541 1.82331,-3.83023 4.08635,-7.17859 6.8423,-10.36059 z m -2.63985,-13.96342 c -2.72682,1.14345 -5.88648,1.50898 -9.47337,1.39302 3.35878,1.84293 6.74902,2.75292 10.33887,2.91195 z" fill="#b456aa" />
      </g>
      <g>
        <path d="m 665.65272,516.87883 c -59.77804,46.14844 -106.99366,125.13465 -97.18684,221.81098 14.47973,-36.85323 29.4501,-60.05496 49.0464,-80.29169 -27.50495,64.63785 -24.12807,148.17198 7.68593,218.71719 3.83214,-38.77716 15.24745,-67.5204 30.2429,-94.87823 1.44447,18.39154 5.22674,31.93387 18.28056,43.31206 4.16414,-18.0486 12.05699,-32.2537 21.45626,-42.19008 1.34276,10.74204 4.56536,19.0671 10.47348,25.24377 82.51653,-74.27747 33.83018,-248.73095 -39.99869,-291.724 z" fill="#3167cc" />
        <path d="m 665.65272,516.87883 c -59.77804,46.14844 -106.99366,125.13465 -97.18684,221.81098 14.47973,-36.85323 29.4501,-60.05496 49.0464,-80.29169 -11.55328,27.15071 -17.65787,57.63542 -18.49496,89.09108 28.27358,-69.11911 74.13042,-110.61695 134.19645,-137.06048 -14.9645,-41.72268 -39.43876,-77.17333 -67.56105,-93.54989 z" fill="#05ece6" />
        <path d="m 665.65272,516.87883 c -59.77804,46.14844 -106.99366,125.13465 -97.18684,221.81098 14.47973,-36.85323 29.4501,-60.05496 49.0464,-80.29169 -27.50495,64.63785 -24.12807,148.17198 7.68593,218.71719 3.83214,-38.77716 15.24745,-67.5204 30.2429,-94.87823 1.44447,18.39154 5.22674,31.93387 18.28056,43.31206 4.16414,-18.0486 12.05699,-32.2537 21.45626,-42.19008 1.34276,10.74204 4.56536,19.0671 10.47348,25.24377 82.51653,-74.27747 33.83018,-248.73095 -39.99869,-291.724 z" style="stroke-miterlimit:20;fill:none;stroke-width:6;stroke:#1f3e7d" />
      </g>
      <path d="m 639.14614,746.43322 c 15.54982,-10.26079 19.50866,-34.52745 11.67092,-60.59252 -17.30023,19.93849 -39.29232,11.90103 -41.89516,-10.76983 -2.54229,-22.14403 27.84745,-10.88671 27.4769,-18.18552 -2.27514,-44.81352 13.20998,-77.33849 36.92171,-97.82921 -34.0486,-160.04034 -28.20223,-163.41912 44.27874,-22.75055 74.78811,-18.86139 168.81486,37.06496 131.80797,163.77078 -28.81812,98.66875 -37.56454,165.53239 -10.41706,248.05395 l -159.24979,83.27478 c -23.38396,-86.83563 -5.84441,-184.84777 39.61773,-263.17607 -27.38193,-2.14275 -54.47808,-8.99424 -80.21196,-21.79581 z" fill="#ffffe2" />
      <path d="m 655.60442,715.79023 c -11.75197,5.25284 -19.03968,15.84096 -13.55659,29.39975 8.13015,-7.37849 12.17243,-17.1704 13.55659,-29.39975 z" fill="#ef6f2f" />
      <path d="m 631.30812,673.83913 c -2.22473,4.17667 -5.96442,4.56307 -9.17574,0.88479 1.91854,7.67785 9.24244,7.83633 9.17574,-0.88479 z" fill="#bea2b0" />
      <g>
        <g clip-path="url(#clipPath3874)">
          <ellipse cx="-307.90463" cy="936.83124" fill="#fff" id="path3588" rx="57.558636" ry="47.898846" transform="rotate(293.45195)" />
          <g clip-path="url(#clipPath3584)">
            <ellipse cx="-522.67419" cy="820.40265" fill="url(#linearGradient2177)" id="path2994" rx="43.495068" ry="35.404171" transform="rotate(279.78602)" />
            <path d="m 712.32922,657.50832 29.12204,51.65321 25.52144,-22.39437 z" fill="#fcb6df" />
            <path d="m 712.32922,657.50832 56.79637,14.73776 -7.94263,21.81213 z" fill="#d9539d" />
            <ellipse cx="-523.54547" cy="817.02673" rx="34.484085" ry="28.069401" transform="rotate(279.78602)" />
            <ellipse cx="-176.0374" cy="952.2605" fill="#fff" rx="17.140617" ry="11.667707" transform="rotate(300.80521)" />
            <ellipse cx="-192.25729" cy="972.29462" fill="#fff" rx="6.2303295" ry="4.2410178" transform="rotate(300.80528)" />
          </g>
        </g>
        <path d="m 771.45254,608.68933 c 19.70397,-23.14191 23.79675,-20.33468 3.79089,3.33752 m 6.4136,8.57951 c 26.35166,-13.92647 28.19671,-9.71476 2.16814,4.41226 m 2.23805,15.83574 c -5.99231,-37.87993 -42.46355,-50.90257 -70.30414,-29.86653 -22.18143,16.76003 -32.39799,43.88674 -23.86392,74.41705 -13.51144,-26.66832 -2.99083,-59.81355 21.40551,-78.34119 29.26664,-22.22636 67.19163,-9.28114 76.20835,28.29342 25.70495,-3.69656 26.85565,1.25319 -3.4458,5.49725 z" />
        <path d="m 679.15448,680.29851 c 29.63278,-11.59108 72.2157,3.62273 83.33163,30.33372 -30.68351,15.38517 -73.61287,0.20836 -83.33163,-30.33372 z" fill="#ffffe2" />
        <path d="m 679.15448,680.29851 c 28.74259,-15.26825 75.70116,2.11022 83.33163,30.33372 -14.11921,-24.25172 -53.64867,-39.19465 -83.33163,-30.33372 z" fill="#bea2b0" />
      </g>
      <path fill="#bea2b0" inkscape:original-d="m 780.60569,765.75231 c -47.70673,7.2224 -96.6485,2.97261 -141.45955,-19.31909 15.54982,-10.26079 19.50866,-34.52745 11.67092,-60.59252 -17.30023,19.93849 -39.29232,11.90103 -41.89516,-10.76983 -2.54229,-22.14403 27.84745,-10.88671 27.4769,-18.18552 -2.27514,-44.81352 13.20998,-77.33849 36.92171,-97.82921 -34.0486,-160.04034 -28.20223,-163.41912 44.27874,-22.75055 74.78811,-18.86139 168.81486,37.06496 131.80797,163.77078 -28.81812,98.66875 -37.56454,165.53239 -10.41706,248.05395 l -159.24979,83.27478 c -23.38396,-86.83563 -5.84441,-184.84777 39.55746,-263.17899" inkscape:path-effect="#path-effect977" />
      <g>
        <path d="m 462.42116,936.79136 c 24.54817,34.03151 36.81506,80.35144 38.5566,123.81004 2.9922,74.6679 118.1355,61.8933 108.9796,-15.0092 -6.54979,-55.0132 -55.23548,-132.98128 -107.29227,-168.81064 -32.83669,-22.60066 -63.62012,-20.50514 -76.37325,16.39239 z" fill="#bab8af" />
        <path d="m 519.30973,1029.5204 c -14.40726,26.2947 -3.72519,67.2724 37.883,65.4626 39.82338,-1.7322 53.07702,-43.0577 28.77626,-71.347 18.8832,38.8792 1.07148,64.8041 -28.9626,66.3421 -34.29877,1.7564 -45.64153,-29.5524 -37.69666,-60.4577 z" fill="#666052" />
        <path fill="#666052" inkscape:original-d="m 462.42116,936.79136 c 24.54817,34.03151 36.81506,80.35144 38.5566,123.81004 2.9922,74.6679 118.1355,61.8933 108.9796,-15.0092 -6.54979,-55.0132 -55.23548,-132.98128 -107.29227,-168.81064 -32.83669,-22.60066 -63.62012,-20.50514 -76.37325,16.39239" inkscape:path-effect="#path-effect1000" />
      </g>
      <g>
        <path d="m 726.0174,876.23752 c -19.27824,-29.52996 -63.34617,-29.89286 -82.37107,20.25357 -63.49887,-52.69965 -185.28509,-36.02465 -218.1815,18.44843 -14.87422,24.63018 72.4567,73.82952 98.62976,52.83537 32.65796,-26.19558 66.94686,-30.25891 108.75696,-2.0637 25.06074,16.90005 52.79273,0.64597 76.5009,-26.62239 z" fill="#ffffe2" />
        <path fill="#bea2b0" inkscape:original-d="m 651.94846,904.12253 c -60.46859,-61.77809 -192.08183,-46.14887 -226.48363,10.81699 -14.87425,24.63016 72.4567,73.82952 98.62976,52.83537 32.65796,-26.19558 66.94686,-30.25891 108.75696,-2.0637 25.06074,16.90005 52.79273,0.64597 76.5009,-26.62239" inkscape:path-effect="#path-effect153" />
        <path fill="#bea2b0" inkscape:original-d="m 726.0174,876.23752 c -19.33717,-29.62023 -63.61583,-29.89481 -82.51394,20.75219" inkscape:path-effect="#path-effect155" />
      </g>
      <path d="m 851.19455,624.14258 c -1.43933,49.94599 -25.9389,99.94068 -59.82057,140.51183 20.56868,-6.73028 34.24652,-17.85084 50.27087,-31.28162 -8.03174,31.70588 -21.51695,62.96645 -43.2077,90.98389 25.18096,-13.70042 41.04407,-35.31462 51.99891,-56.40216 -0.58774,16.75259 -2.20239,31.9517 -6.08766,48.4097 18.04008,-26.75682 29.11191,-55.59561 37.54313,-88.27205 4.29677,13.98089 6.55615,24.70892 8.61029,40.29117 17.95663,-74.43949 11.38793,-154.68301 -28.06682,-214.01254 z m -26.28417,-46.60203 c -34.79229,-12.88909 -69.24621,-16.00465 -109.87125,-8.49037 11.61262,-16.35935 24.35811,-28.21641 39.11524,-39.40514 -62.84289,-2.76598 -127.25033,15.35603 -187.70841,51.29969 19.13883,-31.65207 45.44502,-53.43966 76.06553,-69.1438 -20.54791,-0.87805 -40.98814,2.27029 -63.59219,9.41556 30.78421,-39.78778 66.8076,-54.3682 121.32045,-55.06385 -17.10779,-10.58514 -37.38066,-18.34309 -63.64401,-24.28872 82.40973,-9.53407 165.66405,21.65907 208.16957,90.89499 z" fill="#3167cc" />
      <path d="m 858.91737,576.20545 -5.61615,34.6724 c 8.97163,43.87999 3.54768,82.73428 -12.76356,126.9083 -8.23108,30.27047 -21.44548,59.89091 -42.10051,86.57053 25.18096,-13.70042 41.04407,-35.31462 51.99891,-56.40216 -0.58774,16.75259 -2.20239,31.9517 -6.08766,48.4097 17.25315,-25.58966 28.13272,-53.08362 36.60395,-83.95497 16.24827,-52.05944 5.22429,-113.08094 -22.03498,-156.2038 z m -216.40588,-64.40452 c -20.54791,-0.87805 -40.98814,2.27029 -63.59219,9.41556 30.78421,-39.78778 66.8076,-54.3682 121.32045,-55.06385 -5.00018,-3.09377 -10.27074,-5.94603 -15.87318,-8.54153 59.52733,14.7728 114.19334,43.14046 158.77943,78.56214 l -10.41087,23.2866 c -51.02668,-38.86881 -124.62982,-53.0618 -196.87148,-44.0866 2.1121,-1.20012 4.36801,-2.40308 6.64784,-3.57232 z" fill="#05ece6" />
      <path d="m 851.19455,624.14258 c -1.43933,49.94599 -25.9389,99.94068 -59.82057,140.51183 20.56868,-6.73028 34.24652,-17.85084 50.27087,-31.28162 -8.03174,31.70588 -21.51695,62.96645 -43.2077,90.98389 25.18096,-13.70042 41.04407,-35.31462 51.99891,-56.40216 -0.58774,16.75259 -2.20239,31.9517 -6.08766,48.4097 18.04008,-26.75682 29.11191,-55.59561 37.54313,-88.27205 4.29677,13.98089 6.55615,24.70892 8.61029,40.29117 17.95663,-74.43949 11.38793,-154.68301 -28.06682,-214.01254 z m -26.28417,-46.60203 c -34.79229,-12.88909 -69.24621,-16.00465 -109.87125,-8.49037 11.61262,-16.35935 24.35811,-28.21641 39.11524,-39.40514 -62.84289,-2.76598 -127.25033,15.35603 -187.70841,51.29969 19.13883,-31.65207 45.44502,-53.43966 76.06553,-69.1438 -20.54791,-0.87805 -40.98814,2.27029 -63.59219,9.41556 30.78421,-39.78778 66.8076,-54.3682 121.32045,-55.06385 -17.10779,-10.58514 -37.38066,-18.34309 -63.64401,-24.28872 82.40973,-9.53407 165.66405,21.65907 208.16957,90.89499 z" style="stroke-miterlimit:20;fill:none;stroke-width:6;stroke:#1f3e7d" />
      <g>
        <path d="m 838.52167,665.74915 c 59.46739,-66.8327 22.19404,-145.68333 9.46372,-148.63582 -11.00583,-2.55254 -50.48983,26.87276 -55.01795,68.06716 z" fill="#ffffe2" />
        <path fill="#bea2b0" inkscape:original-d="m 838.52167,665.74915 c 59.46739,-66.8327 22.19404,-145.68333 9.46372,-148.63582 -11.00583,-2.55254 -50.48983,26.87276 -55.01795,68.06716" inkscape:path-effect="#path-effect2925" />
        <path d="m 842.68622,561.6673 c 7.38019,20.49106 3.20568,45.20158 -9.26637,63.27352 8.70308,-19.96571 11.96607,-43.23617 9.26637,-63.27352 z" fill="#bea2b0" />
      </g>
      <g>
        <path d="m 417.14967,1058.3029 c 4.82714,4.2138 9.89366,8.1997 15.18595,11.9211 -4.8611,5.1322 -4.96918,11.294 1.7074,18.7213 41.83003,46.5336 77.56582,124.1689 91.68918,199.4406 12.62815,67.3027 128.14871,24.9916 107.00092,-51.9682 -21.29414,-77.4924 -83.60875,-153.8776 -145.30506,-204.5575 -10.05785,-275.47169 -310.68072,-132.20128 -137.55753,56.4178 -7.4637,4.37 -8.74403,11.524 -3.93201,19.4447 33.10957,54.4989 49.44022,133.3946 49.50074,212.1282 0.0526,68.4773 121.37903,48.1019 114.72523,-31.4328 -6.24163,-74.6078 -47.65555,-154.8096 -94.76396,-214.7996 1.16832,-5.1052 1.58791,-10.2104 1.74914,-15.3156 z" fill="#bab8af" id="path190" />
        <path fill="#666052" inkscape:original-d="m 354.20349,931.04374 c 0.69215,49.89012 30.12213,105.42116 78.04675,139.06606" inkscape:path-effect="#path-effect188" />
        <path fill="#666052" inkscape:original-d="m 363.50066,1083.8271 c -18.59138,2.7498 -24.60849,12.2972 -17.56214,23.8956 33.10952,54.4989 49.44022,133.3946 49.50074,212.1282 0.0526,68.4773 121.37903,48.1019 114.72523,-31.4328 -6.72924,-80.4364 -54.34094,-167.3749 -105.89487,-228.4769" inkscape:path-effect="#path-effect182" />
        <path fill="#666052" inkscape:original-d="m 446.91777,1062.2306 c -16.65014,5.9082 -23.73013,14.6387 -12.87475,26.7147 41.8301,46.5335 77.56582,124.1689 91.68918,199.4406 12.62815,67.3027 128.14873,24.9916 107.00092,-51.9682 -22.84159,-83.1238 -92.88223,-164.9736 -158.65434,-215.0909" inkscape:path-effect="#path-effect186" />
        <g clip-path="url(#clipPath478)" transform="rotate(324.33786 1682.0145-226.50727)scale(1.5408309)" inkscape:path-effect="#path-effect474">
          <path fill="#a75cbe" inkscape:original-d="m -5.4,18.2 c -2.6,-5.8 7.3,-4.6 3.7,1.9 -3.6,6.5 -18.9,-0.3 -6.9,-12.3 12,-12 29.4,1.3 16.1,20.6 -13.3,19.3 -36.5,9.4 -30,-11.5 6.5,-20.9 19.5,-27.8 24.2,-41.6 4.7,-13.8 -6.2,-12.6 -6.4,8.3 -0.2,20.9 7.8,33.5 15.9,42.4 8.1,8.9 5.9,-0.7 10.7,1.3 4.8,2 -2.6,12.5 -11.8,4.3 -9.2,-8.2 -14.6,-17.1 -18.5,-38.1 -3.9,-21 0.2,-34.2 13,-31.5 12.8,2.7 4.6,17 -14.5,42 -19.1,25 2.6,35.6 12,21.9 9.4,-13.7 -0.8,-21.2 -6.6,-17.1 -5.8,4.1 -4.8,9.5 -0.9,9.4 z" />
        </g>
        <path d="m 350.11735,1088.5938 c -173.37001,-188.74499 127.25286,-332.20529 137.2496,-56.8135 m -69.83686,26.6466 c -0.41961,5.2966 -1.08637,10.1241 -2.02629,15.254" style="stroke-miterlimit:20;fill:none;stroke:#666052;stroke-width:6" />
        <path d="m 540.6993,1284.7943 c 1.19466,-40.3497 53.80248,-62.6195 80.2325,-41.5626 -31.77094,-12.0036 -71.45037,6.0581 -80.2325,41.5626 z m -130.79933,33.9312 c 8.89622,-39.3746 64.7941,-51.1628 86.70469,-25.4361 -28.88572,-17.8629 -71.28875,-7.7307 -86.70469,25.4361 z" fill="#666052" />
      </g>
      <g>
        <path d="m 606.64844,1186.9355 c -18.08105,1.0635 -33.43197,13.005 -46.71094,29.4043 -5.09264,6.2894 -9.94292,8.4445 -16.83594,9.5957 -6.89302,1.1513 -15.71044,0.5539 -25.54101,-0.1679 -9.83058,-0.7219 -20.71117,-1.556 -32.09375,0.8105 -11.38258,2.3666 -23.18008,8.5635 -32.28125,20.0723 -11.06327,13.9898 -34.93309,18.8876 -57.72657,27.3945 -11.39673,4.2535 -23.01152,9.8172 -30.59375,20.9883 -7.58222,11.1711 -9.0225,26.5503 -3.98046,44.6348 9.93863,35.6473 34.48136,56.8151 61.34765,61.2929 26.86629,4.4779 55.13682,-7.0418 73.16602,-30.8671 6.04984,-7.9949 12.36036,-11.2174 20.55664,-13.0079 8.19627,-1.7904 18.25573,-1.5066 29.08594,-0.8535 10.8302,0.6532 22.37215,1.6943 34.14062,-0.1445 11.76847,-1.8389 24.16687,-7.3857 32.85938,-18.8281 11.1326,-14.6546 27.16562,-20.4881 41.64648,-32.3086 7.24043,-5.9103 14.0631,-14.3947 16.2168,-25.6387 2.15369,-11.244 0.0324,-23.9528 -6.10352,-39.7656 -6.79977,-17.5238 -14.63949,-30.5331 -24.16601,-39.5567 -9.52652,-9.0236 -21.36291,-13.7384 -32.98633,-13.0547 z" fill="#cb4db6" opacity=".1" sodipodi:type="inkscape:offset" inkscape:original="M 607.35352 1198.9141 C 594.5242 1199.6687 581.39661 1208.9066 569.26367 1223.8906 C 541.53123 1258.1398 492.33379 1216.4914 462.59766 1254.0938 C 432.86152 1291.696 354.53795 1272.2232 372.44336 1336.4453 C 390.34877 1400.6674 454.77284 1403.8953 485.83008 1362.8535 C 516.88732 1321.8117 575.70968 1365.2477 602.48633 1330 C 629.26298 1294.7523 675.30342 1302.3636 652.61328 1243.8887 C 639.85008 1210.9965 623.84835 1197.9438 607.35352 1198.9141 z " inkscape:radius="12" />
        <g clip-path="url(#clipPath1243)" filter="url(#filter1482)">
          <path d="m 372.44423,1336.4459 c -17.90541,-64.2221 60.41748,-44.7508 90.15362,-82.353 29.73613,-37.6023 78.93309,4.0472 106.66553,-30.202 27.73244,-34.2492 60.65973,-38.4765 83.34987,19.9984 22.69014,58.4749 -23.35035,50.8628 -50.127,86.1105 -26.77665,35.2477 -85.5983,-8.1887 -116.65554,32.8531 -31.05724,41.0418 -95.48107,37.8151 -113.38648,-26.407 z" id="path1147" style="stroke-miterlimit:20;fill:none;stroke-width:24;stroke:#cb4db6" />
        </g>
        <path fill="#fff" id="path1405" transform="rotate(300 397.54537 1313.1993)scale(1.0466341)" sodipodi:arg1="1.373401" sodipodi:arg2="2.1587991" sodipodi:cx="443.07324" sodipodi:cy="1281.6436" sodipodi:r1="10.098313" sodipodi:r2="1.5147469" sodipodi:sides="4" sodipodi:type="star" />
        <use transform="translate(322.95624 591.5659)scale(.58038364)" xlink:href="#path1405" />
        <use transform="translate(223.22912 195.34803)scale(.82150328)" xlink:href="#path1405" />
        <use transform="translate(194.35659 642.49948)scale(.58038364)" xlink:href="#path1405" />
        <use transform="translate(316.79123 680.92296)scale(.48713556)" xlink:href="#path1405" />
        <use transform="translate(458.22596 721.34645)scale(.39388748)" xlink:href="#path1405" />
        <use transform="translate(317.35659 527.49948)scale(.58038364)" xlink:href="#path1405" />
        <use transform="translate(154.42071 368.11927)scale(.7668798)" xlink:href="#path1405" />
        <use transform="translate(354.5768 448.22234)scale(.62369426)" xlink:href="#path1405" />
      </g>
      <g>
        <path d="m 690.03526,1059.6023 c 3.52118,5.8285 2.22954,12.2871 -5.68083,18.0411 -50.60017,36.8068 -101.71367,105.3029 -131.19617,175.9858 -26.36123,63.1998 -130.54387,-2.2312 -93.83938,-73.1031 37.03253,-71.5053 114.11654,-133.3503 184.91556,-169.94 66.88774,-262.09034 318.57448,-74.97726 151.15356,88.442 8.0128,4.5984 9.49577,11.8454 4.33507,20.0181 -34.04717,53.9184 -51.73958,132.5199 -53.16163,211.2407 -1.23668,68.4658 -122.19266,45.9959 -114.1645,-33.4119 7.53075,-74.4878 50.32402,-153.96 98.39119,-213.0775 -3.2162,-17.9209 -2.5888,-34.1414 1.3023,-49.1533 -12.6617,9.9604 -26.8173,18.4693 -42.05517,24.9581 z" fill="#ffffe2" id="Q" />
        <g clip-path="url(#clipPath249)" transform="matrix(-1.2875396-1.5256651-2.7635206 3.153429 718.62471 921.10763)" inkscape:path-effect="#path-effect517">
          <path inkscape:original-d="m 9,6.9 v 7.9 c -4.6,-5 -8.8,1.3 1,8.1 v -22.1 l -15.2,-10.7 v 16.9 c -4.3,-4.2 -8.6,1.4 1,7.9 v -17.3 z" />
        </g>
        <path fill="#bea2b0" inkscape:original-d="m 795.31378,939.82002 c -11.06209,48.6532 -51.40672,96.84168 -105.28505,119.77368" inkscape:path-effect="#path-effect138" />
        <path fill="#bea2b0" inkscape:original-d="m 677.32262,1048.8339 c 15.05557,9.2446 20.16314,19.2577 7.03181,28.8095 -50.6002,36.8068 -101.71367,105.3029 -131.19617,175.9858 -26.36123,63.1998 -130.54386,-2.2312 -93.83938,-73.1031 39.64425,-76.5482 125.18845,-142.0255 199.95221,-177.3539" inkscape:path-effect="#path-effect131" />
        <path fill="#bea2b0" inkscape:original-d="m 782.57679,1094.8506 c 18.54105,3.0708 24.39213,12.7208 17.14628,24.1956 -34.04698,53.9185 -51.73958,132.5199 -53.16163,211.2407 -1.23668,68.4658 -122.19273,45.9959 -114.1645,-33.4119 8.11921,-80.3084 57.22716,-166.4105 109.83001,-226.6117" inkscape:path-effect="#path-effect146" />
        <path d="m 731.58193,1328.7378 c -8.03821,-39.559 -63.66662,-52.5595 -86.1313,-27.3151 29.26721,-17.2308 71.43999,-6.1793 86.1313,27.3151 z m -192.31529,-81.737 c 7.23068,-39.7146 -39.58909,-72.4473 -69.82335,-57.3534 33.57366,-5.1272 68.62419,20.7985 69.82335,57.3534 z" fill="#bea2b0" />
        <path d="m 794.75975,1099.6122 c 168.64392,-163.56076 -83.55857,-351.42598 -150.66174,-88.9815 m 87.93732,24.021 c -3.836,15.0044 -4.4634,31.2249 -1.3178,49.1942" style="stroke-miterlimit:20;fill:none;stroke:#bea2b0;stroke-width:6" />
      </g>
      <g>
        <path d="m 673.32051,559.05614 c -34.0486,-160.04034 -28.20223,-163.41912 44.27874,-22.75055 -16.09547,2.69422 -31.86978,10.73432 -44.27874,22.75055 z" fill="#ffffe2" />
        <path d="m 673.32051,559.05614 c -34.0486,-160.04034 -28.20223,-163.41912 44.27874,-22.75055" style="stroke-miterlimit:20;fill:none;stroke:#bea2b0;stroke-width:6" />
        <path d="m 656.59751,474.48454 c 6.01558,-6.75871 10.81616,-14.38648 14.15159,-22.82388 m -7.5336,58.0952 c 10.5998,-7.96775 19.00989,-18.10371 24.44532,-30.32818 m -17.90208,62.2565 c 14.15844,-7.05238 25.99539,-18.00643 33.80691,-32.18313" style="stroke-miterlimit:20;fill:none;stroke:#bea2b0;stroke-width:3" />
      </g>
      <g>
        <path d="m 783.38432,935.3298 c 11.74364,-78.36022 83.70556,-132.93212 142.81424,-140.55825 -6.90927,5.9482 -13.34924,11.51641 -19.59241,17.27462 53.24979,-15.87532 111.52425,-6.66059 141.44565,31.4742 -10.841,-4.07667 -21.061,-6.43354 -30.6636,-7.75967 53.6375,47.85618 74.1696,117.69123 40.3331,203.258 -1.7126,-17.1533 -4.7955,-33.1855 -11.7397,-49.12567 -15.8942,48.66927 -49.89256,86.48487 -86.89054,119.63037 7.93597,-18.2538 14.01966,-37.0033 15.24086,-58.9282 -40.08619,38.422 -78.38703,62.2236 -84.29864,128.6059 -18.4319,-69.1153 27.3209,-110.2802 42.60438,-154.5879 -17.64518,12.1823 -28.16312,22.5666 -45.1424,42.2627 1.21466,-47.408 25.54134,-62.1865 25.54134,-93.30269 0,-46.98498 -69.81965,-62.09413 -100.66018,-27.48132 -11.83081,13.27791 -31.79747,7.95691 -28.9921,-10.76209 z" fill="#3167cc" />
        <path d="m 783.38432,935.3298 c 11.74365,-78.36022 83.70556,-132.93212 142.81424,-140.55825 -6.90927,5.9482 -13.34924,11.51641 -19.59241,17.27462 53.24979,-15.87532 111.52425,-6.66059 141.44565,31.4742 -10.841,-4.07667 -21.061,-6.43354 -30.6636,-7.75967 -56.84375,-40.68758 -187.32232,-15.78242 -232.22092,111.20375 -1.74253,-3.00836 -2.49382,-6.89137 -1.78296,-11.63465 z m 11.37261,18.30965 -6.34789,-3.16081 c 107.85498,-156.08934 311.67256,-67.51221 185.92288,100.11656 -40.08619,38.422 -78.38703,62.2236 -84.29864,128.6059 -18.4319,-69.1153 27.3209,-110.2802 42.60438,-154.5879 83.78824,-102.96172 -28.80089,-201.41696 -137.88073,-70.97375 z" fill="#05ece6" />
        <path d="m 783.38432,935.3298 c 11.74364,-78.36022 83.70556,-132.93212 142.81424,-140.55825 -6.90927,5.9482 -13.34924,11.51641 -19.59241,17.27462 53.24979,-15.87532 111.52425,-6.66059 141.44565,31.4742 -10.841,-4.07667 -21.061,-6.43354 -30.6636,-7.75967 53.6375,47.85618 74.1696,117.69123 40.3331,203.258 -1.7126,-17.1533 -4.7955,-33.1855 -11.7397,-49.12567 -15.8942,48.66927 -49.89256,86.48487 -86.89054,119.63037 7.93597,-18.2538 14.01966,-37.0033 15.24086,-58.9282 -40.08619,38.422 -78.38703,62.2236 -84.29864,128.6059 -18.4319,-69.1153 27.3209,-110.2802 42.60438,-154.5879 -17.64518,12.1823 -28.16312,22.5666 -45.1424,42.2627 1.21466,-47.408 25.54134,-62.1865 25.54134,-93.30269 0,-46.98498 -69.81965,-62.09413 -100.66018,-27.48132 -11.83081,13.27791 -31.79747,7.95691 -28.9921,-10.76209 z" style="stroke-miterlimit:20;fill:none;stroke:#1f3e7d;stroke-width:6" />
      </g>
      <g>
        <g>
          <path d="m 310.54556,1361.262 c 20.24103,90.8651 234.90577,58.1679 69.39778,-215.3324 -58.83271,-97.2205 -67.25536,-181.61187 -24.04576,-200.81345 15.98404,-7.10303 11.79754,-27.50514 -2.34808,-28.37004 -141.65458,-8.66112 -196.59148,143.19909 -79.51989,291.68809 27.66095,35.0841 45.38248,73.6435 54.28776,114.3795 -12.4327,1.9835 -23.20822,14.0434 -17.77181,38.4483 z" fill="#343434" />
          <path d="m 328.76755,996.67592 c -42.4529,97.15138 117.23609,233.69018 88.41388,390.28388 m -79.53028,-470.70406 c -71.70269,35.49908 -92.55538,130.06686 -4.43871,255.25376 40.71358,57.8416 60.28392,126.6193 53.08855,180.0561 m -82.09052,-430.71918 c -86.45548,49.67776 -106.59092,152.18478 0.73599,264.55598 66.60245,69.7327 64.20737,140.0093 41.0889,189.8562" style="stroke-miterlimit:20;fill:none;stroke-width:3;stroke:#656565" />
          <path inkscape:original-d="m 391.30099,1330.7727 c -2.67845,48.7213 -54.91755,55.3843 -61.83381,29.5724 -6.91626,-25.8118 11.19496,-28.8485 26.36226,-9.2856 5.09917,-37.7552 -56.86252,-41.7758 -45.28388,10.2025 20.24103,90.8651 234.90577,58.1679 69.39778,-215.3324 -58.83271,-97.2205 -67.25536,-181.61187 -24.04576,-200.81345 15.98404,-7.10303 11.79754,-27.50514 -2.34808,-28.37004 -141.65458,-8.66112 -196.59148,143.19909 -79.51989,291.68809 27.66095,35.0841 45.38248,73.6435 54.28602,114.4155" inkscape:path-effect="#path-effect1073" />
        </g>
        <g transform="rotate(356.67467 49227.317-2352.9337)scale(1-1)">
          <path d="m 229.51195,1494.5396 412.64483,-1.0065" style="stroke-miterlimit:20;fill:none;stroke:#efdcb8;stroke-width:6.5" />
          <path d="m 173.86017,1475.335 c 8.19161,6.7968 11.28423,14.7339 11.91655,24.1978 h 46.77689 l 2.99798,-12.1466 h -22.38062 l 2.85705,-12.0512 z" fill="#616d7b" />
          <path d="m 155.43193,1470.6089 1.81984,8.7574 429.8621,-10e-5 c 25.19437,10e-5 44.73067,7.5833 54.7168,28.4129 h 26.99628 c -19.32838,-23.4182 -35.58101,-37.1702 -81.7499,-37.1702 z" fill="#683618" />
        </g>
        <g clip-path="url(#clipPath1143)">
          <path d="m 391.30099,1330.7727 c -2.67845,48.7213 -54.91755,55.3843 -61.83381,29.5724 -6.91626,-25.8118 11.19496,-28.8485 26.36226,-9.2856 5.09917,-37.7552 -56.86252,-41.7758 -45.28388,10.2025 8.08608,36.2996 47.20057,52.8798 80.70998,42.2656 -17.64142,-16.0472 32.7711,-65.2862 0.0455,-72.7549 z" fill="#343434" />
          <path inkscape:original-d="m 391.30099,1330.7727 c -2.67845,48.7213 -54.91755,55.3843 -61.83381,29.5724 -6.91626,-25.8118 11.19496,-28.8485 26.36226,-9.2856 5.09917,-37.7552 -56.86252,-41.7758 -45.28388,10.2025 8.08608,36.2996 47.20057,52.8798 80.70998,42.2656" inkscape:path-effect="#path-effect1133" />
        </g>
      </g>
      <g>
        <path d="m 653.2168,402.84375 c -3.29102,-0.0339 -6.69244,0.72743 -10.12305,2.20117 -6.85569,2.94511 -11.58126,8.01715 -14.01563,13.74024 -2.43436,5.72308 -2.8907,11.84336 -2.84765,17.95898 0.0861,12.23125 2.07252,24.94247 -0.18555,34.71875 -1.5472,6.69863 -0.92125,12.40738 0.97656,16.85352 1.89782,4.44614 4.6577,7.46279 6.68164,10.06054 2.02395,2.59775 3.38403,4.6491 4.0254,7.4961 0.64136,2.847 0.63539,6.85382 -1.46875,13.4082 -5.02703,15.65915 -1.5389,25.19769 1.9375,31.81836 3.47639,6.62067 6.47002,10.50029 4.20507,24.3457 -0.92332,5.64422 2.00207,11.59384 6.47657,14.28711 4.4745,2.69327 9.7111,3.37197 15.58007,3.38086 11.73795,0.0178 26.38504,-3.2516 40.57618,-8.30469 14.19114,-5.05308 27.75043,-11.8068 36.94531,-19.79882 4.59744,-3.99601 8.26395,-8.33738 9.88281,-13.66016 1.61886,-5.32278 0.30035,-11.6801 -3.77734,-16.29688 -11.15544,-12.63022 -11.30546,-18.67124 -11.60742,-24.60742 -0.15098,-2.96808 -0.004,-6.4968 -2.01758,-10.36133 -2.01331,-3.86452 -5.84551,-6.7152 -11.29102,-9.01562 -3.54493,-1.49753 -4.94509,-3.17652 -6.21484,-5.85742 -1.26975,-2.68091 -2.0339,-6.52583 -2.85547,-11.07813 -1.64314,-9.10459 -4.17226,-21.55175 -16.49023,-30.04492 -7.78324,-5.36649 -13.69358,-14.62111 -19.76954,-23.2832 -3.03797,-4.33105 -6.12559,-8.51244 -9.99804,-11.9043 -3.87246,-3.39185 -8.86693,-5.9974 -14.625,-6.05664 z" fill="url(#linearGradient2173)" mask="url(#mask1538)" sodipodi:type="inkscape:offset" inkscape:original="M 653.1543 408.84375 C 650.81692 408.8197 648.27423 409.35088 645.46289 410.55859 C 622.97214 420.22031 637.19124 449.86353 631.89062 472.8125 C 626.59002 495.76147 651.28776 492.09879 641.97266 521.11523 C 632.65756 550.13167 653.26951 546.18395 648.32422 576.41406 C 643.37893 606.64417 767.37805 565.95848 743.58984 539.02539 C 719.80162 512.0923 740.02121 504.70038 720.83594 496.5957 C 701.65066 488.49101 715.18775 463.49612 694.20312 449.02734 C 675.84158 436.36717 669.51594 409.01209 653.1543 408.84375 z " inkscape:radius="6" />
        <g clip-path="url(#clipPath1559)" filter="url(#filter1671)">
          <path d="m 648.32456,576.41486 c -4.94529,30.23011 119.05344,-10.45596 95.26523,-37.38905 -23.78822,-26.93309 -3.56918,-34.32627 -22.75445,-42.43095 -19.18528,-8.10469 -5.64769,-33.09808 -26.63232,-47.56686 -20.98462,-14.46877 -26.24931,-48.13078 -48.74006,-38.46907 -22.49075,9.66172 -8.27178,39.30491 -13.57239,62.25388 -5.3006,22.94897 19.39711,19.28578 10.08201,48.30222 -9.3151,29.01644 11.29727,25.06972 6.35198,55.29983 z" id="path1440" style="stroke-miterlimit:20;fill:#cb4db6;stroke-width:24;fill-opacity:.1;stroke:#cb4db6" />
        </g>
        <use transform="translate(576.25242 108.50555)scale(.34960645)" xlink:href="#path1405" />
        <use transform="translate(449.61438-147.34867)scale(.44051152)" xlink:href="#path1405" />
        <use transform="translate(495.07276-44.82238)scale(.42119922)" xlink:href="#path1405" />
        <use transform="translate(508.50749 111.94097)scale(.32795114)" xlink:href="#path1405" />
        <use transform="translate(494.96819-141.23607)scale(.5144473)" xlink:href="#path1405" />
        <use transform="translate(292.05312-472.05243)scale(.80784741)" xlink:href="#path1405" />
        <use transform="translate(358.18254-350.9212)scale(.62369426)" xlink:href="#path1405" />
      </g>
    </g>
    <g transform="translate(1092.0041 1417.7222)scale(.58781952)">
      <path d="m -2,-18 c 6,-6 4,-14 -4,-18 17,-2 22,-10 12,-21 10,2 19,-3 20,-14 18,33 -13,37 -13,53 0,16 31,20 13,53 -1,-11 -10,-16 -20,-14 10,-11 5,-19 -12,-21 8,-4 10,-12 4,-18 z" fill="#fff" />
      <path d="m -12,-18 40,-7 -9,7 9,7 z" fill="#fff" />
      <path d="m 8,-48 25.980762,15 v 30 l -25.980762,15 -25.980762,-15 v -30 z" fill="none" stroke="#fff" stroke-width="1.79999995" />
    </g>
    <text style="fill:#fff;line-height:14.03926659px;font-family:Junction;font-size:12.35456657px" x="1067.512" y="1387.0402" xml:space="preserve"><tspan x="1067.512" y="1387.0402" sodipodi:role="line">2017</tspan></text>
  </g>
</svg>
