<svg xmlns="http://www.w3.org/2000/svg" xmlns:inkscape="http://www.inkscape.org/namespaces/inkscape" xmlns:xlink="http://www.w3.org/1999/xlink" height="1000" viewBox="0 0 1000 1000" width="1000">
  <defs>
    <inkscape:path-effect effect="powerstroke" id="path-effect5857" interpolator_type="CubicBezierSmooth" offset_points="0.2,4 | 5,4" start_linecap_type="zerowidth" />
    <inkscape:path-effect effect="powerstroke" id="path-effect4480" interpolator_type="CubicBezierSmooth" offset_points="0.17,4 | 5,4" start_linecap_type="zerowidth" />
    <inkscape:path-effect effect="powerstroke" end_linecap_type="zerowidth" id="path-effect3618" interpolator_type="CubicBezierSmooth" offset_points="0.38,3.8194 | 0.63,4" start_linecap_type="zerowidth" />
    <inkscape:path-effect effect="powerstroke" id="path-effect4479" interpolator_type="CubicBezierSmooth" offset_points="0.21,4" start_linecap_type="zerowidth" />
    <inkscape:path-effect effect="powerstroke" end_linecap_type="zerowidth" id="path-effect4477" interpolator_type="CubicBezierSmooth" offset_points="0.26,4 | 7.68,4" start_linecap_type="zerowidth" />
    <linearGradient id="linearGradient4411">
      <stop offset="0" stop-color="#c922e7" />
      <stop offset="1" stop-color="#cd90cc" />
    </linearGradient>
    <inkscape:path-effect effect="powerstroke" end_linecap_type="zerowidth" id="path-effect3577" interpolator_type="CubicBezierSmooth" offset_points="0.22,4 | 2.75,4" start_linecap_type="zerowidth" />
    <inkscape:path-effect effect="powerstroke" end_linecap_type="zerowidth" id="path-effect3544" interpolator_type="CubicBezierSmooth" offset_points="0.2,4 | 1.66,4" start_linecap_type="zerowidth" />
    <linearGradient gradientUnits="userSpaceOnUse" id="linearGradient4413" x1="241.81361" x2="225.62326" y1="472.42059" y2="559.4267" xlink:href="#linearGradient4411" />
    <clipPath id="clipPath4429">
      <use xlink:href="#ellipse3550" />
    </clipPath>
    <clipPath id="clipPath4445">
      <use xlink:href="#path3593" />
    </clipPath>
    <clipPath id="clipPath4868">
      <path d="m 349.89698,180.39537 c 63.26537,-50.70941 72.65248,125.9822 4.68198,86.92023 -9.85765,-28.08756 -13.49258,-55.35492 -4.68198,-86.92023 z" />
    </clipPath>
    <filter color-interpolation-filters="sRGB" height="1.2970722" id="filter4968" width="1.7914868" x="-0.39574341" y="-0.14853612">
      <feGaussianBlur stdDeviation="4.6039889" />
    </filter>
  </defs>
  <g inkscape:groupmode="layer" inkscape:label="Drawing">
    <path d="m 505.49624,352.94198 c -39.56963,112.41302 13.20269,128.56713 27.99345,120.35501 14.79077,-8.21212 10.30984,-28.10988 -6.1144,-29.83874 36.6522,-29.34755 65.05658,72.20202 -12.71486,54.90351 63.70652,58.30747 46.95623,127.79315 137.60779,141.19143 86.51577,12.78702 80.52359,-65.50596 8.03964,-35.68256 9.12094,-52.72048 94.0635,-41.38114 92.98692,16.50978 -1.98337,106.65176 -364.82677,122.05038 -398.26431,-141.36894 z" style="stroke:#a1400c;fill:#b36d49;stroke-width:8;stroke-miterlimit:20" />
    <path d="m 400.62164,569.17959 c 116.82485,-16.23895 204.62755,-47.36472 279.56518,-110.70779 37.34573,-31.56749 94.20441,102.59537 43.57115,122.64502 -103.36374,40.92976 -205.47979,57.70759 -325.22437,50.10283 z" style="fill:#bf70bd;stroke:#a1499e;stroke-width:8;stroke-miterlimit:20" />
    <path d="m 177.37478,787.49286 21.12729,-312.98372 c -138.318332,13.45127 -86.84165,128.69097 -197.2690257,147.47572 -109.0044743,18.5427 -70.5788103,178.08445 144.0527557,166.84858 11.25237,-0.58906 21.9382,-1.03751 32.08898,-1.34058" style="stroke:#a1400c;fill:#b36d49;stroke-width:8;stroke-miterlimit:20" />
    <path d="m 614.88015,293.63576 c 16.36199,-14.41594 23.27166,-39.38596 -2.62572,-52.50525 -97.02862,-49.1535 -229.3544,13.87602 -257.22396,237.88096 -57.63007,73.38645 -127.2675,-36.87811 -60.01774,-44.89252 -27.53652,33.72625 25.04522,52.37464 24.41307,21.3856 -1.60891,-78.871 -77.94203,-189.30103 29.02057,-283.74922 154.21035,-136.168041 327.77233,-31.4811 336.46352,81.77507 8.96114,116.77396 -90.86338,156.38021 -110.94415,76.67386 21.50906,21.6701 45.562,13.04992 44.45347,-20.36303 -0.20833,-6.27946 -1.43655,-11.62778 -3.53906,-16.20547" style="stroke:#a1400c;fill:#b36d49;stroke-width:8;stroke-miterlimit:20" />
    <path d="m 590.4302,436.35747 c -1.81535,-21.70471 2.38671,-40.60059 17.44382,-57.54558 -80.80239,-44.75571 -129.46474,51.85443 -17.44382,57.54558 z" fill="#bb1c76" />
    <path d="m 167.71307,622.46147 c -23.58896,24.06333 -3.99783,57.52122 9.85747,52.54814 128.86927,-46.25506 187.86884,-24.19606 192.22529,5.6023 5.41953,37.06969 138.30371,30.35787 138.07132,-7.28888 -0.54865,-88.8847 -132.45687,-146.20627 -238.38827,-96.37482 z" style="stroke:#a1499e;fill:#bf70bd;stroke-width:8;stroke-miterlimit:20" />
    <path d="m 248.78934,640.5734 c 213.48579,93.55854 276.91552,-84.45835 220.06521,-196.99213 38.11551,6.84072 71.58531,17.04621 118.8277,7.58826 l 13.43835,-19.23197 c -29.19154,0.24047 -42.21582,-21.98783 -46.08469,-52.97289 22.09533,12.12155 44.52119,15.75477 65.94349,11.73012 4.19557,-8.44359 7.85144,-17.60381 12.44679,-30.84944 -29.78725,-13.47472 -50.70765,-25.28462 -65.68298,-89.37094 -29.49661,-126.22955 -224.51471,-130.54534 -236.97026,39.33328 -4.85602,66.23019 23.93275,124.94151 8.26483,180.92924 -49.82805,7.52459 -66.8729,-22.33874 -125.35411,-22.33874 -84.283,0 -118.788228,150.5125 -65.83882,207.24099 -24.01431,23.27688 -5.55298,56.40681 8.48912,51.9886 z" fill="#cd90cc" />
    <path d="m 561.58081,402.0562 c 13.80021,-0.0442 23.65189,12.37096 22.70628,27.2765 -11.91213,-3.73288 -20.63332,-14.82206 -22.70628,-27.2765 z" fill="#ef6f2f" />
    <path fill="#a1499e" inkscape:original-d="m 320.7771,527.78501 c 48.38696,-67.31023 4.06059,-137.02759 9.99585,-217.97732 12.45555,-169.87862 207.47365,-165.56283 236.97026,-39.33328 14.97533,64.08632 35.89573,75.89622 65.68298,89.37094 -4.59535,13.24563 -8.25122,22.40585 -12.44679,30.84944 -21.4223,4.02465 -43.84816,0.39143 -65.94349,-11.73012 3.86887,30.98506 16.89315,53.21336 46.08469,52.97289 l -13.43835,19.23197 c -71.42579,14.29948 -111.3696,-16.34857 -183.44927,-12.08598" inkscape:path-effect="#path-effect4477" />
    <path d="m 591.369,364.12579 c 2.5345,5.05364 6.90275,5.75759 10.80487,1.63617 -2.32552,9.74873 -10.1074,8.01439 -10.80487,-1.63617 z" fill="#a1499e" />
    <g>
      <g clip-path="url(#clipPath4445)">
        <path d="m 395.58645,314.73853 c 39.94862,-90.86852 130.49897,-56.73675 120.75466,31.1047 -5.36746,48.38595 -88.73654,62.08285 -120.75466,-31.1047 z" fill="#fff" id="path3593" />
        <g clip-path="url(#clipPath4429)">
          <ellipse cx="252.13297" cy="519.10077" fill="url(#linearGradient4413)" id="ellipse3550" rx="50.712173" ry="59.055683" transform="rotate(330)" />
          <path d="m 487.49139,322.47446 -27.74407,67.18321 -32.16814,-21.75468 z" fill="#f1c0f5" />
          <path d="m 487.49139,322.47446 -72.36288,28.62492 17.63727,24.58351 z" fill="#dc68e7" />
          <ellipse cx="257.3183" cy="522.2843" rx="41.115986" ry="47.88076" transform="rotate(330)" />
          <ellipse cx="544.44537" cy="33.62405" fill="#fff" rx="19.104477" ry="25.787521" transform="rotate(30)" />
          <ellipse cx="576.07581" cy="50.40937" fill="#fff" rx="6.3304591" ry="8.5449514" transform="rotate(30)" />
        </g>
      </g>
      <path d="m 399.31928,302.17599 c -9.17481,7.44813 -18.50879,8.60992 -31.86215,6.3545 12.70604,7.75959 24.04566,8.01136 33.82915,-0.0229 z m -32.64967,29.45599 c 14.79098,1.69752 25.48238,-2.87127 31.048,-14.41446 44.16922,-91.60746 122.21202,-51.56709 118.6235,28.62571 17.83252,-74.01952 -72.7391,-137.01725 -123.43499,-33.3742 -5.19249,10.61555 -13.17269,15.59431 -26.23651,19.16295 z" />
    </g>
    <path d="m 468.84437,443.50215 c 56.86049,112.6129 -6.56924,290.62979 -220.05503,197.07125" style="fill:none;stroke-width:8;stroke:#a1499e;stroke-miterlimit:20" />
    <g>
      <path d="m 585.51636,601.87336 33.53638,121.42018 c 45.3242,29.92147 163.63776,30.33391 202.4384,-2.19778 l 21.21812,-127.78734 z" fill="#e3df5b" stroke="#b9b62d" stroke-width="8" />
      <path d="m 639.14932,733.67754 -28.58567,-132.75514 m 192.38937,131.02191 20.35279,-138.82148 m -59.78394,149.2209 7.78681,-146.62104 m -100.09447,145.75442 -7.3535,-142.28795 m 48.3384,146.03906 v -147.87744" fill="none" stroke="#b9b62d" stroke-width="4" />
      <path d="m 643.23209,421.37853 c 36.02102,-13.69551 34.6651,-42.25902 28.35343,-66.21134 -11.89236,-45.1306 32.36073,-72.35252 76.48992,-64.73688 -26.24686,19.99793 -30.3618,49.76469 -10.45296,66.78788 22.27254,19.04429 38.15899,41.97847 31.128,80.15069 z" fill="#a1208e" stroke="#701762" stroke-width="8" />
      <path d="m 639.9321,496.09665 c -36.65775,-41.95824 -16.00865,-102.65851 28.86072,-91.77036 43.94662,10.66423 69.0189,12.79075 102.42596,11.96634 45.56809,-1.12452 41.09966,48.8315 11.07629,65.14371 z" style="stroke:#701762;fill:#cb29b1;stroke-width:8;stroke-miterlimit:20" />
      <path d="m 601.13356,548.01893 c -40.94583,-32.23367 -15.94686,-87.87511 22.8768,-79.97295 59.27517,12.06493 127.8004,9.19674 173.59778,-7.42152 33.94853,-12.31868 68.67943,48.06948 19.42917,79.86567 -76.60981,27.0231 -147.80436,25.44867 -215.90375,7.5288 z" fill="#df63cc" stroke="#701762" stroke-width="8" />
      <path d="m 814.36487,523.59753 c 56.1669,-31.19294 95.32775,48.97534 31.28282,81.72343 -72.59212,37.11852 -216.91391,42.28048 -281.75995,4.55259 -28.38971,-16.51734 -31.29865,-52.82711 1.2557,-66.83304 49.52714,-21.30817 148.04982,36.74384 249.22143,-19.44298 z" fill="#eca3e2" stroke="#701762" stroke-width="8" />
      <path d="m 724.06507,448.92204 c 15.02141,-1.23778 15.85158,-24.05329 -0.59318,-24.05329 -20.97711,0 -37.87942,-2.59917 -58.25156,-9.10724 -17.64455,-5.63672 -23.94265,20.91271 -9.00989,25.35567 21.91875,6.52153 46.75052,9.54387 67.85463,7.80486 z m -59.84983,128.22437 c 64.0436,5.66965 129.8084,-2.65451 166.55207,-19.36192 16.56729,-7.53317 10.32834,-29.59136 -6.90199,-21.5273 -44.50486,20.82895 -104.64375,26.42999 -157.8895,22.76077 -25.13035,-1.73176 -26.68361,15.92207 -1.76058,18.12845 z m -3.27564,-76.04289 c -15.68714,-1.63544 -16.46442,-16.8698 0.7067,-15.25298 42.27406,3.98049 81.35677,1.95609 109.93498,-5.70142 15.32122,-4.10531 20.80044,11.66755 1.98924,17.35255 -27.82776,8.40996 -69.78293,8.06891 -112.63092,3.60185 z m 27.84534,-179.05481 c -5.05244,-7.48983 25.99527,-27.95382 33.71154,-18.94474 5.42838,6.33787 -28.71738,26.34816 -33.71154,18.94474 z" fill="#fff" opacity=".25" />
    </g>
    <g>
      <path d="m 408.7042,583.97032 c 117.77007,-6.47766 207.85502,-30.20167 287.79581,-87.10038 39.83909,-28.3559 85.35572,110.06671 33.23187,125.84073 -106.40667,32.20139 -209.56355,40.43798 -328.26245,22.91179" fill="#cd90cc" />
      <path fill="#a1499e" inkscape:original-d="m 408.7042,583.97032 c 117.77007,-6.47766 207.85502,-30.20167 287.79581,-87.10038 39.83909,-28.3559 85.35572,110.06671 33.23187,125.84073 -106.40667,32.20139 -209.56355,40.43798 -328.26245,22.91179" inkscape:path-effect="#path-effect3577" />
      <path d="m 612.22228,540.77125 c 17.8043,30.40853 24.62941,61.76955 23.90844,106.66497 l 32.86419,-5.86035 c 1.74756,-42.35172 -8.94568,-84.69676 -28.71358,-113.8895 z" style="stroke:#7d0d9c;fill:#a349a4;stroke-width:4;stroke-miterlimit:20" />
      <path d="m 653.31703,571.28261 c -13.04557,-14.18434 -25.99331,-1.79068 -14.77582,4.56383 -6.09088,10.18007 9.9663,15.67395 14.77582,-4.56383 z" style="stroke:#7d0d9c;fill:#bc5fd6;stroke-width:1.89522016;stroke-miterlimit:20" />
    </g>
    <path fill="#a1499e" inkscape:original-d="m 158.07173,684.8293 c -67.255345,-46.71843 -33.88555,-216.43111 55.61194,-216.43111 58.48121,0 75.52606,29.86333 125.55625,22.30068" inkscape:path-effect="#path-effect4479" />
    <g>
      <path d="m 250.57987,532.86045 c 13.65677,23.72701 17.73165,67.56592 2.35007,100.07945 107.50838,-45.22109 236.49268,17.30033 233.50648,106.13657 -1.26479,37.62619 -134.31075,39.0487 -138.25195,1.79282 -3.16811,-29.94801 -61.24387,-54.33563 -191.8505,-13.24151 z" fill="#cd90cc" />
      <path fill="#a1499e" inkscape:original-d="m 250.57987,532.86045 c 16.8067,29.19963 19.10163,88.8587 -10.92178,119.71538" inkscape:path-effect="#path-effect3618" />
      <path d="m 148.35772,675.80978 c -24.52718,23.10628 -6.06585,56.23621 7.97625,51.818 130.60663,-41.09412 188.68239,-16.7065 191.8505,13.24151 3.9412,37.25588 136.98716,35.83337 138.25195,-1.79282 2.9862,-88.83624 -125.9981,-151.35766 -233.82721,-105.7779" style="stroke:#a1499e;fill:none;stroke-width:8;stroke-miterlimit:20" />
    </g>
    <g transform="rotate(6.6763856-4862.7947 1928.5655)scale(.84619966)">
      <path d="m -46.7,-32.4 45.2,67.8 10.8,3.2 1.2,-11.2 -45.2,-67.8 h -9 z" fill="#faf891" />
      <path d="m 6.2,38.6 -52.8,-79.2 h 6.2 l 52.8,79.2" fill="none" stroke="#d6d30f" />
      <path d="m -1.5,35.4 c 1.7,-2 3.5,-1.9 5.5,-0.2 -2.6,-3.9 1.6,-6.7 4.2,-2.8 -0.8,-2.5 -0.2,-4.2 2.3,-5 l 3.9,14.3 v 2.8 h -4.2 z" fill="#ffe1ba" />
      <path d="m -38.3,-45.8 -3.2,-4.8 -12,8 3.2,4.8 h 10 z" fill="#ff8285" />
      <path d="m -38.3,-45.8 -12,8 3.6,5.4 12,-8 z" fill="silver" />
      <path d="m 14.9,47.4 c 16.7,16.8 38.1,-11.2 14.8,-34.5 -46.5,-46.5 -0.9,-79.9 -1.5,-36.8 14.6,-40.6 49.3,-8 -2.2,22.2" style="stroke:#000;stroke-linecap:round;fill:none;stroke-linejoin:round" />
      <path d="m 10.2,44.5 6.3,4.9 -2.1,-7.7 z" />
    </g>
    <g>
      <path d="m 321.46098,294.85559 c -49.02767,153.20865 164.23416,117.19058 77.89972,33.25625 10.7107,44.25253 -38.2157,60.50534 -42.14464,13.0677 -3.7429,-45.1914 58.53064,-66.81073 73.15563,-119.57351 52.48142,65.44336 185.6878,17.10942 188.04752,88.2352 0.18771,5.65783 -0.34603,10.60478 -1.46671,14.81416 120.77018,-183.7509 -288.0445,-258.325335 -295.49152,-29.7998 z" fill="#b36d49" />
      <path d="m 350.52506,317.89684 c -67.74309,-89.64395 -13.7883,-178.83964 -1.07402,-181.61061 12.95309,-2.82296 54.64283,35.73754 62.19138,85.78608 z" fill="#b36d49" />
      <path clip-path="url(#clipPath4868)" d="m 341.59381,188.83815 c 29.40899,18.27328 30.1239,48.90072 3.82139,69.98975 -8.1593,-23.24833 -11.11398,-43.86293 -3.82139,-69.98975 z" fill="#fff" filter="url(#filter4968)" />
      <path d="m 349.89698,180.39537 c -11.52288,29.68152 -8.4201,56.27337 4.68198,86.92023 -8.94609,-34.79643 -9.82017,-57.59731 -4.68198,-86.92023 z" fill="#a1400c" />
      <path fill="#a1400c" inkscape:original-d="m 350.52506,317.89684 c -67.74309,-89.64395 -13.7883,-178.83964 -1.07402,-181.61061 12.95309,-2.82296 54.64283,35.73754 62.19138,85.78608" inkscape:path-effect="#path-effect3544" />
      <path fill="#a1400c" inkscape:original-d="m 321.46098,294.85559 c -49.02767,153.20865 164.23416,117.19058 77.89972,33.25625 10.7107,44.25253 -38.2157,60.50534 -42.14464,13.0677 -3.7429,-45.1914 58.53064,-66.81073 73.15563,-119.57351 52.48142,65.44336 185.6878,17.10942 188.04752,88.2352 0.18771,5.65783 -0.34603,10.60478 -1.46671,14.81416" inkscape:path-effect="#path-effect4480" />
      <path d="m 495.98275,206.52665 c 135.89514,-174.127297 146.58634,-173.379943 51.05788,36.67265 z" style="stroke:#a1499e;fill:#cd90cc;stroke-width:8;stroke-miterlimit:20" />
      <path d="m 564.67589,121.30831 c 14.24967,-1.44024 27.03873,-4.85473 38.66938,-10.05396 m -69.55073,47.17946 c 20.07988,1.29401 37.73393,-1.2423 53.63793,-7.09879 m -79.97284,40.06622 c 22.70141,5.38403 42.89924,5.4757 61.45522,1.12129" style="stroke:#a1499e;fill:none;stroke-width:4;stroke-miterlimit:20" />
      <path d="m 501.63617,176.62476 c 14.24053,24.84138 37.89593,37.18519 73.26331,36.06013 -11.70209,90.51915 -133.28765,7.5461 -73.26331,-36.06013 z" fill="#b36d49" />
      <path d="m 501.63617,176.62476 c 17.34126,22.75652 40.47652,33.9008 73.26331,36.06013 -31.61315,7.51227 -64.64162,-10.30303 -73.26331,-36.06013 z" fill="#a1400c" />
    </g>
    <path d="m 118.42471,560.02477 c -1.77339,126.28319 256.66233,128.12689 299.04513,211.10828 -20.74641,-10.80542 -36.79021,-15.14328 -60.99433,-17.73658 47.11163,28.95854 51.8798,68.4256 14.46767,105.93206 -21.92714,-59.55249 -68.62118,-78.71587 -225.65738,-70.49509 -11.14004,0.58318 -21.8054,0.70629 -32.0001,0.41293 40.32485,-64.18226 -39.83768,-152.48611 5.13901,-229.2216 z" fill="#b36d49" />
    <path fill="#a1400c" inkscape:original-d="m 118.42471,560.02477 c -1.77339,126.28319 256.66233,128.12689 299.04513,211.10828 -20.74641,-10.80542 -36.79021,-15.14328 -60.99433,-17.73658 47.11163,28.95854 51.8798,68.4256 14.46767,105.93206 -21.92714,-59.55249 -68.62118,-78.71587 -225.65738,-70.49509 -11.14004,0.58318 -21.8054,0.70629 -32.0001,0.41293" inkscape:path-effect="#path-effect5857" />
  </g>
</svg>