<?xml version="1.0" encoding="UTF-8" standalone="no"?>
<!-- Created with Inkscape (http://www.inkscape.org/) -->

<svg
   xmlns:dc="http://purl.org/dc/elements/1.1/"
   xmlns:cc="http://creativecommons.org/ns#"
   xmlns:rdf="http://www.w3.org/1999/02/22-rdf-syntax-ns#"
   xmlns:svg="http://www.w3.org/2000/svg"
   xmlns="http://www.w3.org/2000/svg"
   xmlns:xlink="http://www.w3.org/1999/xlink"
   xmlns:sodipodi="http://sodipodi.sourceforge.net/DTD/sodipodi-0.dtd"
   xmlns:inkscape="http://www.inkscape.org/namespaces/inkscape"
   width="744.09448819"
   height="1052.3622047"
   id="svg2"
   version="1.1"
   inkscape:version="0.48.3.1 r9886"
   sodipodi:docname="Andrea Pony.svg"
   inkscape:export-filename="/home/parclytaxel/Pictures/Andrea Pony.png"
   inkscape:export-xdpi="1098.4852"
   inkscape:export-ydpi="1098.4852">
  <defs
     id="defs4">
    <linearGradient
       inkscape:collect="always"
       id="linearGradient5920">
      <stop
         style="stop-color:#e96813;stop-opacity:0.25"
         offset="0"
         id="stop5922" />
      <stop
         id="stop5928"
         offset="0.51677042"
         style="stop-color:#e96813;stop-opacity:0.749" />
      <stop
         style="stop-color:#e96813;stop-opacity:0.251"
         offset="1"
         id="stop5924" />
    </linearGradient>
    <linearGradient
       inkscape:collect="always"
       id="linearGradient4208">
      <stop
         style="stop-color:#623213;stop-opacity:1;"
         offset="0"
         id="stop4210" />
      <stop
         style="stop-color:#86451a;stop-opacity:1"
         offset="1"
         id="stop4212" />
    </linearGradient>
    <inkscape:path-effect
       effect="skeletal"
       id="path-effect3074"
       is_visible="true"
       pattern="m 142.12792,372.22535 813,0 c 14.72715,0 29.29907,1.10801 44,4 -14.70093,2.65099 -29.27285,4 -44,4 l -813,0 c -14.72714,0 -27.85307,-1.10802 -44,-4 16.14693,-2.89199 29.27286,-4 44,-4 z"
       copytype="single_stretched"
       prop_scale="1"
       scale_y_rel="false"
       spacing="0"
       normal_offset="0"
       tang_offset="0"
       prop_units="false"
       vertical_pattern="false"
       fuse_tolerance="0"
       pattern-nodetypes="sscsscs" />
    <inkscape:path-effect
       effect="skeletal"
       id="path-effect3046"
       is_visible="true"
       pattern="m 370.01806,436.40213 262,0 c 14.72715,0 29.29907,1.10801 44,4 -14.70093,2.65099 -29.27285,4 -44,4 l -262,0 c -14.72714,0 -27.85307,-1.10802 -44,-4 16.14693,-2.89199 29.27286,-4 44,-4 z"
       copytype="single_stretched"
       prop_scale="1"
       scale_y_rel="false"
       spacing="0"
       normal_offset="0"
       tang_offset="0"
       prop_units="false"
       vertical_pattern="false"
       fuse_tolerance="0"
       pattern-nodetypes="sscsscs" />
    <inkscape:path-effect
       effect="skeletal"
       id="path-effect6999"
       is_visible="true"
       pattern="m 401.94007,-117.92509 154,0 c 14.72715,0 29.29907,1.10801 44,4 -14.70093,2.65099 -29.27285,4 -44,4 l -154,0 c -14.72714,0 -27.85307,-1.10802 -44,-4 16.14693,-2.89199 29.27286,-4 44,-4 z"
       copytype="single_stretched"
       prop_scale="1"
       scale_y_rel="false"
       spacing="0"
       normal_offset="0"
       tang_offset="0"
       prop_units="false"
       vertical_pattern="false"
       fuse_tolerance="0"
       pattern-nodetypes="sscsscs" />
    <clipPath
       clipPathUnits="userSpaceOnUse"
       id="clipPath3828">
      <path
         style="fill:none;stroke:#000000"
         d="m 537.48056,448.45865 10.91006,-17.32773 36.5555,-107.11515 -120.25657,2.72279 -0.4538,119.34898 z"
         id="path3830"
         inkscape:connector-curvature="0"
         sodipodi:nodetypes="cccccc" />
    </clipPath>
    <clipPath
       clipPathUnits="userSpaceOnUse"
       id="clipPath3888">
      <path
         style="fill:none;stroke:#ffff00;stroke-width:1;stroke-linecap:butt;stroke-linejoin:miter;stroke-miterlimit:4;stroke-opacity:1;stroke-dasharray:none"
         d="m 330.81903,430.31804 -4.76489,16.79054 34.61938,37.93083 L 232.31996,671.79385 95.623413,585.79696 309.97387,415.72849 z"
         id="path3890"
         inkscape:connector-curvature="0"
         sodipodi:nodetypes="ccccccc" />
    </clipPath>
    <clipPath
       clipPathUnits="userSpaceOnUse"
       id="clipPath3894">
      <path
         style="fill:none;stroke:#ffff00;stroke-width:1;stroke-linecap:butt;stroke-linejoin:miter;stroke-miterlimit:4;stroke-opacity:1;stroke-dasharray:none"
         d="M 395.9391,523.57361 414.99863,518.46838 284.30315,753.94014 114.87644,631.36248 346.55463,459.3687 z"
         id="path3896"
         inkscape:connector-curvature="0" />
    </clipPath>
    <clipPath
       clipPathUnits="userSpaceOnUse"
       id="clipPath3923">
      <path
         sodipodi:nodetypes="ccc"
         inkscape:connector-curvature="0"
         id="path3925"
         d="m 555.86758,-172.74125 c 20.74364,4.14582 38.68465,14.24661 51.09601,29.79341 99.64361,-156.5272 28.64372,-164.48157 -51.09601,-29.79341 z"
         style="fill:none;stroke:#999999;stroke-width:0.30000001;stroke-miterlimit:4;stroke-dasharray:none" />
    </clipPath>
    <clipPath
       clipPathUnits="userSpaceOnUse"
       id="clipPath3327">
      <use
         x="0"
         y="0"
         xlink:href="#path3898"
         id="use3329"
         width="1"
         height="1" />
    </clipPath>
    <clipPath
       clipPathUnits="userSpaceOnUse"
       id="clipPath3375">
      <use
         x="0"
         y="0"
         xlink:href="#path6135"
         id="use3377"
         transform="translate(-3.5383391e-7,1.0079274e-6)"
         width="744.09448"
         height="1052.3622" />
    </clipPath>
    <clipPath
       clipPathUnits="userSpaceOnUse"
       id="clipPath3423">
      <use
         x="0"
         y="0"
         xlink:href="#path6131"
         id="use3425"
         width="744.09448"
         height="1052.3622" />
    </clipPath>
    <linearGradient
       inkscape:collect="always"
       xlink:href="#linearGradient4208"
       id="linearGradient5902"
       gradientUnits="userSpaceOnUse"
       x1="528.34021"
       y1="-84.277069"
       x2="523.0401"
       y2="-20.482182" />
    <linearGradient
       inkscape:collect="always"
       xlink:href="#linearGradient5920"
       id="linearGradient5926"
       x1="442.10071"
       y1="-21.901125"
       x2="493.67032"
       y2="88.534264"
       gradientUnits="userSpaceOnUse" />
    <filter
       inkscape:collect="always"
       id="filter6310"
       x="-0.10834506"
       width="1.2166901"
       y="-0.086180425"
       height="1.1723609">
      <feGaussianBlur
         inkscape:collect="always"
         stdDeviation="5.1746416"
         id="feGaussianBlur6312" />
    </filter>
    <mask
       maskUnits="userSpaceOnUse"
       id="mask6314">
      <path
         mask="none"
         d="m 447.90625,-38.875 c -15.67384,0.710677 -31.54187,12.458556 -32.25,30.8125 -0.49819,12.9126789 4.91478,21.116573 7.5625,25.625 2.64772,4.508427 3.97715,5.538955 1.28125,15.9375 -1.85032,7.136918 -1.88486,13.406225 0.28125,18.625 2.16611,5.218775 5.79885,8.242088 8.375,10.53125 5.1523,4.578325 8.58859,6.287198 9.84375,19.9375 0.54701,5.948914 3.38158,11.450476 7.46875,15.09375 4.08717,3.64327 9.05539,5.59132 14.125,6.59375 10.13922,2.00486 21.25795,0.53569 31.71875,-2.6875 10.4608,-3.223191 20.2175,-8.127511 27,-15.46875 3.39125,-3.670619 6.15692,-8.184068 6.8125,-13.65625 0.65558,-5.472182 -1.30621,-11.384681 -5.03125,-15.9375 -8.47419,-10.357335 -7.17102,-15.345154 -6.71875,-23.125 0.22614,-3.889923 0.69573,-8.995576 -2.09375,-14.4375 C 513.49177,13.526826 508.00432,9.7766641 500.875,7.25 490.61308,3.6131458 489.34583,0.9709014 487,-4.3125 484.65417,-9.5959014 482.51343,-18.760186 474.34375,-28 c -7.01443,-7.933175 -17.03981,-11.301105 -26.4375,-10.875 z"
         id="path6316"
         style="fill:none;stroke:#ffffff;stroke-width:40;stroke-linecap:round;stroke-linejoin:miter;stroke-miterlimit:4;stroke-opacity:1;stroke-dasharray:none;filter:url(#filter6310)"
         inkscape:original="M 448.3125 -29.9375 C 436.52363 -29.402974 425.11282 -21.172472 424.59375 -7.71875 C 423.76324 13.807206 439.42208 11.581613 433.15625 35.75 C 426.89036 59.918384 449.00201 50.196723 451.90625 81.78125 C 454.81049 113.36577 538.32784 86.803453 518.1875 62.1875 C 498.04716 37.57156 521.84489 24.151294 497.875 15.65625 C 473.90498 7.161206 481.14902 -6.8335765 467.65625 -22.09375 C 462.59642 -27.816314 455.38582 -30.258215 448.3125 -29.9375 z "
         inkscape:radius="8.9342728"
         sodipodi:type="inkscape:offset" />
    </mask>
    <filter
       inkscape:collect="always"
       id="filter6502">
      <feGaussianBlur
         inkscape:collect="always"
         stdDeviation="2.7868581"
         id="feGaussianBlur6504" />
    </filter>
    <clipPath
       clipPathUnits="userSpaceOnUse"
       id="clipPath6506">
      <path
         style="fill:none;stroke:#ff00ff;stroke-width:0.908427;stroke-linecap:round;stroke-linejoin:miter;stroke-miterlimit:4;stroke-opacity:1;stroke-dasharray:none"
         d="m 451.90661,81.778242 c -2.90424,-31.584527 -25.01028,-21.864063 -18.74439,-46.032447 6.26583,-24.168387 -9.41399,-21.954135 -8.58348,-43.4800915 0.83051,-21.5259545 29.57662,-29.6094925 43.06951,-14.3493205 13.49277,15.2601735 6.25902,29.247251 30.22904,37.742295 23.96989,8.495044 0.18151,21.917275 20.32185,46.533215 20.14034,24.615953 -63.38829,51.170867 -66.29253,19.586349 z"
         id="path6508"
         inkscape:connector-curvature="0"
         sodipodi:nodetypes="zzzzzzz" />
    </clipPath>
  </defs>
  <sodipodi:namedview
     id="base"
     pagecolor="#ffffff"
     bordercolor="#666666"
     borderopacity="1.0"
     inkscape:pageopacity="0.0"
     inkscape:pageshadow="2"
     inkscape:zoom="0.50742986"
     inkscape:cx="372.04724"
     inkscape:cy="526.18109"
     inkscape:document-units="px"
     inkscape:current-layer="layer2"
     showgrid="true"
     inkscape:window-width="1364"
     inkscape:window-height="698"
     inkscape:window-x="0"
     inkscape:window-y="0"
     inkscape:window-maximized="1"
     showguides="true"
     inkscape:object-paths="false"
     inkscape:guide-bbox="true">
    <inkscape:grid
       type="xygrid"
       id="grid7001"
       empspacing="5"
       visible="true"
       enabled="false"
       snapvisiblegridlinesonly="true"
       spacingx="8px"
       spacingy="8px" />
  </sodipodi:namedview>
  <metadata
     id="metadata7">
    <rdf:RDF>
      <cc:Work
         rdf:about="">
        <dc:format>image/svg+xml</dc:format>
        <dc:type
           rdf:resource="http://purl.org/dc/dcmitype/StillImage" />
        <dc:title></dc:title>
      </cc:Work>
    </rdf:RDF>
  </metadata>
  <g
     inkscape:groupmode="layer"
     id="layer2"
     inkscape:label="Drawing">
    <g
       id="g3058">
      <path
         style="fill:#3dd4ff;stroke:#00c6ff;stroke-width:8;stroke-miterlimit:4;stroke-dasharray:none;fill-opacity:1;stroke-opacity:1"
         d="m 485.26496,317.31583 c -46.43549,48.61657 -82.21632,93.69056 -113.66336,152.96148 -15.5472,29.30314 62.45589,79.14512 68.7617,54.09178 18.01705,-71.5828 38.96762,-131.20007 69.75348,-190.45346 z"
         id="path3038"
         inkscape:connector-curvature="0"
         sodipodi:nodetypes="csscc" />
      <path
         sodipodi:nodetypes="ccc"
         inkscape:connector-curvature="0"
         id="path3837-2"
         d="m 380.77526,478.97168 c 21.73363,2.65134 42.00498,19.55253 50.22165,38.7653 -2.67448,-21.96573 -28.11364,-41.01718 -50.22165,-38.7653 z"
         style="fill:#00c6ff;fill-opacity:1;fill-rule:evenodd;stroke:none" />
    </g>
    <g
       id="g3832"
       transform="translate(3.2088391,-1.9253035)">
      <path
         style="fill:#3dd4ff;fill-opacity:1;stroke:none"
         d="m 548.67314,552.54924 c -13.6845,20.37876 -50.27495,-58.23303 -33.47966,-76.00472 11.42929,-12.09374 20.99697,-24.59139 28.97758,-38.21375 -60.05733,-1.47485 -66.31852,-47.01504 -26.10988,-93.88585 8.09925,-9.44122 27.12778,-3.54783 25.83706,8.35298 -1.11054,10.23952 -0.43292,21.05524 0.86896,30.67256 68.13658,-0.30544 78.73432,57.64541 3.90594,169.07878 z"
         id="path3824"
         inkscape:connector-curvature="0"
         sodipodi:nodetypes="sscsscs" />
      <path
         inkscape:original-d="m 529.4821,384.20259 c 81.49574,-8.96586 99.31073,49.03353 19.19104,168.34665 -13.6845,20.37876 -50.27494,-58.23302 -33.47966,-76.00472 15.61158,-16.51917 27.74986,-33.79194 37.27219,-53.52474"
         inkscape:path-effect="#path-effect3046"
         sodipodi:nodetypes="cssc"
         inkscape:connector-curvature="0"
         id="path3032"
         d="m 580.11642,386.4693 c 6.09177,3.11519 11.55255,7.60417 15.63104,13.27384 4.23091,5.97313 6.76322,12.885 7.88353,19.88275 1.37619,8.57087 0.95168,17.20231 -0.38226,25.48646 0,0 0,1e-5 0,1e-5 -1.70137,10.68133 -4.81165,21.00386 -8.57055,30.94783 -10.6315,28.13967 -26.08629,54.0344 -42.68428,78.71897 -0.92918,1.47832 -2.33405,2.90607 -4.26036,4.00284 -1.74766,0.90307 -3.65391,1.25643 -5.52552,1.06033 0,0 -1e-5,-10e-6 -2e-5,-10e-6 -2.00778,-0.25204 -3.72842,-0.90381 -5.12029,-1.73841 0,0 -10e-6,-1e-5 -10e-6,-1e-5 -1.74289,-1.00652 -3.23311,-2.19226 -4.51886,-3.41802 -3.34519,-3.17068 -6.00494,-6.77325 -8.2978,-10.3838 0,0 -10e-6,-1e-5 -10e-6,-1e-5 -2.8415,-4.43501 -5.27402,-9.07487 -7.41097,-13.79766 -4.46834,-9.81862 -7.92928,-20.27968 -9.4097,-31.18866 0,0 0,-10e-6 0,-10e-6 -0.63122,-4.52752 -0.86996,-9.30986 -0.1561,-14.16913 0,0 0,-1e-5 0,-1e-5 0.47905,-3.82009 1.93487,-7.92537 4.99206,-11.34952 3.52346,-3.72986 6.92256,-7.57786 10.18225,-11.53755 5.20681,-6.32495 10.24451,-12.71969 15.21193,-19.23152 4.96742,-6.51184 9.86518,-13.13983 14.78517,-20.00823 -4.84787,16.14582 -13.02813,31.21511 -23.81881,44.32536 -3.37772,4.1038 -6.89814,8.08822 -10.54622,11.94682 -1.59872,1.50243 -2.35635,4.17743 -2.8975,7.05868 0,0 -10e-6,0 -10e-6,0 -0.59838,3.76043 -0.35298,7.78656 0.17608,11.90051 0,0 0,1e-5 0,1e-5 1.31572,9.9161 4.5626,19.63129 8.76751,28.95104 2.01721,4.44376 4.26537,8.7445 6.85789,12.78027 0,0 0,10e-6 0,10e-6 2.14861,3.31298 4.38925,6.41146 7.04047,8.87152 1.01242,0.93226 1.99386,1.74299 2.99249,2.293 0,0 1e-5,0 1e-5,0 0.80554,0.413 1.48205,0.73103 1.98791,0.7372 0.34901,0.032 0.73207,-0.0238 0.95596,-0.16773 0.39386,-0.13534 0.83559,-0.69453 1.37093,-1.39715 16.40983,-24.47022 31.58326,-49.81911 41.84018,-77.08146 3.61522,-9.61426 6.58686,-19.41309 8.15462,-29.37673 1.2019,-7.72998 1.62854,-15.51408 0.38864,-22.94443 -1.00369,-5.99361 -3.07382,-11.78522 -6.49702,-16.52197 -3.20978,-4.52834 -7.71969,-8.19567 -12.7784,-10.80886 -0.0483,-0.025 -0.0967,-0.0498 -0.14504,-0.0746 0,0 0,0 0,0 -3.08114,-1.58486 -6.27661,-2.80869 -9.56468,-3.82348 -3.28808,-1.0148 -6.67071,-1.81885 -10.13979,-2.50278 -8.296,-1.62088 -17.0993,-2.50787 -27.12879,-2.98242 9.68644,-2.64363 18.82628,-3.88167 27.88914,-3.4509 3.7971,0.17487 7.60134,0.66844 11.37835,1.57117 3.77701,0.90273 7.52865,2.21249 11.19214,4.05762 0,0 0,0 0,0 0.0583,0.0295 0.1165,0.0591 0.17469,0.0888 z"
         style="fill:#00c6ff;fill-opacity:1;stroke:none" />
      <path
         clip-path="url(#clipPath3828)"
         sodipodi:nodetypes="cssc"
         inkscape:connector-curvature="0"
         id="path3028"
         d="m 544.74885,383.6401 c -1.28353,-9.78696 -1.96115,-20.60268 -0.85061,-30.8422 1.29072,-11.90081 -17.73781,-17.7942 -25.83706,-8.35298 -40.74464,47.49562 -33.77226,93.62491 28.47597,93.86794"
         style="fill:none;stroke:#00c6ff;stroke-width:8;stroke-linecap:butt;stroke-linejoin:miter;stroke-miterlimit:4;stroke-opacity:1;stroke-dasharray:none" />
      <path
         style="fill:#00c6ff;fill-opacity:1;fill-rule:evenodd;stroke:none"
         d="m 519.78555,486.91959 c 15.87154,11.43894 24.63643,33.03011 23.18106,55.16084 7.26078,-20.64782 -5.22849,-49.75418 -23.18106,-55.16084 z"
         id="path3837"
         inkscape:connector-curvature="0"
         sodipodi:nodetypes="ccc" />
    </g>
    <path
       clip-path="none"
       style="fill:#58daff;stroke:none;stroke-width:1;stroke-miterlimit:4;stroke-opacity:1;stroke-dasharray:none;fill-opacity:1"
       d="m 340.78802,487.7777 c -47.06476,40.60146 -78.04866,80.89034 -116.79608,134.1621 -23.58289,32.42286 -91.48935,-35.06588 -63.65598,-62.72817 51.41995,-51.10391 103.47991,-90.20209 167.95482,-119.86979 6.0787,-20.53139 16.47504,-35.9561 30.49896,-44.16169 57.08689,-33.40235 107.72342,-79.16694 136.67572,-127.86058 2.92016,-4.91129 -15.27432,-16.92704 -25.87887,-33.97026 -63.87158,-102.65199 59.93847,-199.370389 140.32467,-117.25304 9.86664,10.07911 25.33604,-22.932525 33.65428,-16.559202 25.29829,19.383202 53.65404,98.513242 -24.23875,161.985362 -76.77433,62.56073 -76.12999,135.78468 -179.72964,239.38432 -9.20137,9.20137 -21.81106,16.93013 -36.80156,21.17056 -38.42813,63.1964 -78.10002,114.19502 -131.67391,164.27494 -28.66704,26.79743 -89.9095,-48.75001 -55.79547,-69.81245 57.23694,-35.33882 98.5928,-65.36929 140.52968,-109.7966 -7.34409,-4.47745 -12.02808,-10.82607 -15.06787,-18.9655 z"
       id="path3898"
       inkscape:connector-curvature="0"
       sodipodi:nodetypes="csscssssssscsscc" />
    <g
       id="g3309"
       clip-path="url(#clipPath3327)">
      <g
         id="g3009"
         transform="matrix(-0.6139875,0.4848244,0.11399515,0.15676981,465.55266,459.83511)">
        <path
           style="fill:#d59758;stroke:#8a5c28;stroke-width:2"
           d="M 51.95933,54.29343 C 65.1701,40.295645 75.02773,54.28633 66.3237,65.259228 54.18282,80.564806 40.31115,66.635526 51.95933,54.29343 z M 51.68958,1.3188127 C -25.05169,10.972918 -5.78942,127.47073 50.69354,115.47619 79.4263,109.37459 58.35995,76.881639 75.00825,68.221856 113.41688,48.243217 90.23834,-3.5306481 51.68958,1.3188127 z"
           id="path4"
           inkscape:connector-curvature="0" />
        <path
           d="m 33.6662,64.35351 36.81383,87.83608 c 1.49187,3.55953 6.21491,1.79073 4.53619,-2.31425 L 39.08781,62.018954 z"
           id="path6"
           inkscape:connector-curvature="0"
           style="fill:#df0023" />
        <path
           d="m 33.6662,64.35351 4.86108,11.598315 5.4043,-2.088318 -4.84377,-11.844553 z"
           id="path8"
           inkscape:connector-curvature="0"
           style="fill:#c1c1c1" />
        <path
           d="M 25.74707,52.977755 C 34.22302,45.266823 46.68667,64.746462 37.90072,67.526594 28.57284,70.478212 35.2887,54.113339 25.74707,52.977755 z"
           id="path10"
           inkscape:connector-curvature="0"
           style="fill:#000000" />
        <path
           d="m 64.68794,24.841003 c -8.56947,-8.806082 -1.5026,-14.617009 10.16466,-9.048543 2.98222,1.423333 -2.67617,2.679297 -2.97748,6.308505 -0.25936,3.123912 -4.77573,5.21807 -7.18718,2.740038 z"
           id="path12"
           inkscape:connector-curvature="0"
           style="fill:#e8641b" />
        <path
           d="m 22.39979,21.950201 c 2.7435,-3.623867 17.24244,-0.325442 10.5,8.5 -9.27237,12.136968 -12.6249,-5.693238 -10.5,-8.5 z"
           id="path14"
           inkscape:connector-curvature="0"
           style="fill:#008c28" />
        <path
           d="m 39.27479,104.7002 c 4.80885,-3.49384 -2.34196,-15.594895 -5.75,-10.374997 -3.12527,4.78679 -6.49095,2.27471 -6,5.874997 0.375,2.75 8.03711,7.19758 11.75,4.5 z"
           id="path16"
           inkscape:connector-curvature="0"
           style="fill:#ffffff" />
        <path
           d="M 21.42725,67.294985 C 21.84644,63.92169 19.18223,63.893531 15.83429,60.9665 12.34486,57.915771 9.36462,58.001658 9.92712,63.156196 c 0.35557,3.258349 -6.10174,9.218069 3.41164,8.342187 2.76376,-0.254455 7.17548,3.143759 8.08849,-4.203398 z"
           id="path18"
           inkscape:connector-curvature="0"
           style="fill:#67087b" />
        <path
           d="M 41.97929,22.105531 C 39.2349,20.702301 42.44,16.746233 39.6604,13.884191 35.35012,9.4460718 47.86516,9.9392388 49.91991,11.432102 c 4.62437,3.359804 5.24915,10.048261 1.95765,9.756615 -4.38315,-0.388372 -6.7327,2.535397 -9.89827,0.916814 z"
           id="path20"
           inkscape:connector-curvature="0"
           style="fill:#f8f400" />
        <path
           d="M 24.28107,90.986814 C 11.48222,88.401896 11.20632,78.364416 22.14979,77.950202 c 3.71819,-0.140734 1.92732,2.958053 5.21339,5.588388 3.94194,3.15533 0.47788,8.167216 -3.08211,7.448224 z"
           id="path22"
           inkscape:connector-curvature="0"
           style="fill:#000000" />
        <path
           d="m 11.50962,43.736813 c 3.84151,3.218814 -0.22595,6.616117 3.39905,8.103554 2.38093,0.976961 9.95363,-4.556233 7.61612,-9.890166 -4.20067,-9.585444 -16.20343,-2.56066 -11.01517,1.786612 z"
           id="path24"
           inkscape:connector-curvature="0"
           style="fill:#314396" />
        <path
           d="m 75.02479,33.590366 c -1.06417,-4.647456 10.40283,-11.056738 11.875,2.609835 0.97937,9.091814 -4.70041,4.570717 -6.88909,4.685825 -6.97715,0.366944 -4.27735,-4.201211 -4.98591,-7.29566 z"
           id="path26"
           inkscape:connector-curvature="0"
           style="fill:#df0023" />
      </g>
      <use
         height="1052.3622"
         width="744.09448"
         transform="matrix(0.31772541,-0.94818277,-0.94818277,-0.31772541,699.7408,970.48003)"
         id="use3307"
         xlink:href="#g3009"
         y="0"
         x="0" />
    </g>
    <path
       style="fill:none;stroke:#00c6ff;stroke-width:8;stroke-linecap:butt;stroke-linejoin:miter;stroke-miterlimit:4;stroke-opacity:1;stroke-dasharray:none"
       d="m 355.85589,506.7432 c -41.93688,44.42731 -83.29274,74.45778 -140.52968,109.7966 -34.11403,21.06244 27.12843,96.60988 55.79547,69.81245 54.72181,-51.15297 94.93948,-103.26444 134.17129,-168.30691"
       id="path4520"
       inkscape:connector-curvature="0"
       sodipodi:nodetypes="cssc"
       clip-path="url(#clipPath3894)" />
    <path
       style="fill:#00c6ff;fill-opacity:1;stroke:none"
       d="m 336.95303,476.73254 c 6.02489,14.93526 14.62898,26.0594 28.24337,35.54396 -17.58317,-1.61635 -29.70391,-19.51932 -28.24337,-35.54396 z"
       id="path3884"
       inkscape:connector-curvature="0"
       sodipodi:nodetypes="ccc" />
    <path
       sodipodi:nodetypes="csssssssc"
       inkscape:connector-curvature="0"
       id="path3774"
       d="m 345.19865,400.77527 c 3.44612,-3.45409 7.30264,-6.52384 11.57102,-9.04756 28.02545,-16.40107 54.40952,-35.63185 78.18919,-57.67719 21.98301,-20.39566 41.85745,-43.16346 57.06844,-68.77522 -0.21814,0.77188 -0.36803,1.0108 -0.24525,0.97704 -0.0309,-0.31228 -0.41822,-0.83274 -0.91212,-1.61951 -1.61278,-2.34126 -3.84104,-4.53753 -6.15998,-6.98118 -6.49771,-6.74608 -13.23701,-13.76835 -18.5196,-22.18915 -7.47174,-11.98529 -13.19312,-25.205 -16.12494,-39.17419 -2.52276,-12.05836 -2.8669,-24.60532 -0.74356,-36.80214 1.97705,-11.30927 6.06267,-22.22359 11.97141,-32.05919 5.74698,-9.56294 13.17932,-18.08435 21.84113,-25.1008 1e-5,-10e-6 1e-5,-10e-6 2e-5,-2e-5 17.35163,-14.061069 39.71738,-21.853306 62.11611,-20.9846 11.9593,0.484066 23.755,3.40315 34.59656,8.368818 12.41002,5.696645 23.48178,13.926082 32.92258,23.587752 0.51566,0.44528 1.03129,0.81786 1.29407,0.72478 1e-5,0 1e-5,1e-5 2e-5,1e-5 0.43037,0.12646 1.21155,-0.24536 2.22088,-0.68997 2e-5,0 3e-5,-1e-5 4e-5,-1e-5 2.80878,-1.40352 5.30803,-4.11252 8.19313,-6.94215 10e-6,-10e-6 2e-5,-2e-5 4e-5,-3e-5 2.74901,-2.80207 5.63741,-5.99508 9.33694,-8.759587 1.31651,-1.055562 3.1159,-2.101154 5.45989,-2.705201 3e-5,-7e-6 6e-5,-1.5e-5 9e-5,-2.2e-5 2.26217,-0.50528 4.651,-0.03133 6.72355,1.435956 4.02259,3.105645 7.36257,6.828014 10.20718,10.728554 3.53102,4.81324 6.4456,10.00585 8.84833,15.37024 5.84353,13.03412 8.85129,27.2459 9.08842,41.46742 0.2848,17.23806 -3.62572,34.42707 -10.99583,49.94749 -9.52482,19.98794 -24.3317,36.96396 -41.29283,50.74768 -2e-5,10e-6 -3e-5,3e-5 -4e-5,4e-5 -17.15197,13.97031 -32.27733,30.41546 -45.17603,48.45334 -10e-6,2e-5 -2e-5,3e-5 -3e-5,5e-5 -12.38609,17.3092 -22.95182,36.01232 -33.68521,54.73662 -12.25892,21.4052 -24.87568,42.7359 -39.12711,63.07695 -17.59233,25.09639 -37.434,48.56816 -58.95341,70.34406 -0.82678,0.83663 -1.65847,1.66728 -2.49515,2.49185 -6.69394,6.57966 -14.61698,11.70596 -23.13987,15.17744 -8.52288,3.47147 -17.64949,5.28369 -26.66143,5.34842 8.60175,-2.63343 16.67922,-6.21085 24.09326,-10.5841 7.41404,-4.37325 14.16675,-9.54255 20.07095,-15.57885 0.81225,-0.82669 1.62608,-1.65266 2.4416,-2.478 21.22634,-21.48217 40.78121,-44.61009 58.09297,-69.31249 14.02217,-19.99781 26.50875,-41.12351 38.73658,-62.46196 10.70824,-18.70384 21.41856,-37.6323 34.11896,-55.41266 13.27896,-18.57794 28.8891,-35.53945 46.63036,-50.00242 10e-6,0 2e-5,-1e-5 2e-5,-1e-5 16.21403,-13.24957 30.29628,-29.30164 39.11896,-47.97582 6.85261,-14.44989 10.506,-30.45009 10.22444,-46.38106 -0.23087,-13.18765 -3.00514,-26.35289 -8.38797,-38.32779 -2.21691,-4.92679 -4.84754,-9.63235 -7.99646,-13.90911 -2.57326,-3.47203 -5.38624,-6.65673 -8.6262,-9.11556 0.1546,-0.002 -0.0383,0.0112 -0.13564,0.0261 0,0 0,0 0,0 -0.56513,0.0374 -1.35833,0.62676 -2.44131,1.33663 -2.84808,2.05291 -5.42269,4.97505 -8.39556,7.94695 -2.73608,2.84273 -5.87761,6.02924 -10.11997,8.37468 -2e-5,10e-6 -4e-5,3e-5 -6e-5,4e-5 -1.65125,0.96996 -3.82748,1.65004 -6.40602,1.61473 -2.72552,-0.25375 -5.00357,-1.42372 -6.58135,-3.11696 -8.86928,-9.04272 -19.14528,-16.71284 -30.5353,-21.909808 -9.92898,-4.541303 -20.72141,-7.220591 -31.58676,-7.649433 -20.31514,-0.839701 -40.89576,6.360085 -56.7607,19.207241 -10e-6,2e-5 -2e-5,3e-5 -4e-5,4e-5 -7.93881,6.43147 -14.76384,14.25407 -20.0192,23.00441 -1e-5,1e-5 -2e-5,3e-5 -3e-5,4e-5 -5.40166,8.99047 -9.14624,18.99034 -10.94831,29.31585 -1.95094,11.12778 -1.62334,22.67075 0.69395,33.7902 10e-6,1e-5 10e-6,3e-5 10e-6,5e-5 2.67984,12.90361 8.05502,25.25963 15.08635,36.58312 4.62446,7.50144 11.02483,14.08735 17.50281,20.88006 2.261,2.33505 4.74747,4.84556 6.93462,7.92393 1e-5,10e-6 3e-5,3e-5 4e-5,4e-5 0.728,0.95599 1.49505,2.2717 2.05132,4.00526 0.53501,1.40256 0.41383,3.26213 -0.568,5.31843 -15.73184,26.42968 -36.08558,49.79035 -58.50633,70.55383 -24.24453,22.46968 -51.0947,42.04637 -79.58748,58.71492 -3.63153,2.09863 -6.94542,4.74416 -9.94314,7.77488 -4.05951,4.10421 -7.49835,8.6646 -10.55688,13.47138 -3.16563,4.9957 -5.92497,10.28165 -8.4746,16.00569 -2.54964,5.72403 -4.88692,11.89456 -7.06775,18.64713 0.26086,-7.0912 1.11465,-13.78715 2.62741,-20.14068 1.51276,-6.35353 3.67655,-12.37033 6.61704,-18.09822 2.84441,-5.56002 6.52001,-10.83996 11.18676,-15.5175 z"
       style="fill:#00c6ff;stroke:none;stroke-width:8;stroke-linecap:butt;stroke-linejoin:miter;stroke-miterlimit:4;stroke-opacity:1;stroke-dasharray:none;fill-opacity:1"
       inkscape:path-effect="#path-effect3074"
       inkscape:original-d="m 324.76744,454.53167 c 4.96766,-28.16534 16.74063,-49.23977 34.0223,-59.35152 57.08689,-33.40235 107.72342,-79.16694 136.67572,-127.86058 2.92016,-4.91129 -15.27432,-16.92704 -25.87887,-33.97026 -63.87158,-102.65199 59.93847,-199.370389 140.32467,-117.25304 9.86664,10.07911 25.33604,-22.932525 33.65428,-16.559202 25.29829,19.383202 53.65404,98.513242 -24.23875,161.985362 -76.77433,62.56073 -76.12999,135.78468 -179.72964,239.38432 -11.20706,11.20706 -27.47023,20.22954 -46.98185,23.34531" />
    <path
       sodipodi:nodetypes="csscc"
       inkscape:connector-curvature="0"
       id="path3908"
       d="m 276.92384,552.89318 c -17.60894,21.0123 -34.38062,43.54146 -52.9319,69.04662 -23.58289,32.42286 -91.48935,-35.06588 -63.65598,-62.72817 20.155,-20.03112 40.40832,-38.21769 61.46909,-54.71479 z"
       style="fill:#58daff;fill-opacity:1;stroke:none"
       clip-path="none" />
    <path
       sodipodi:nodetypes="cssc"
       inkscape:connector-curvature="0"
       id="path6983"
       d="M 340.78802,487.7777 C 293.72326,528.37916 262.73936,568.66804 223.99194,621.9398 200.40905,654.36266 132.50259,586.87392 160.33596,559.21163 212.5757,507.29297 265.47603,467.7659 331.38113,437.88449"
       style="fill:none;stroke:#00c6ff;stroke-width:8;stroke-miterlimit:4;stroke-dasharray:none;stroke-opacity:1"
       clip-path="url(#clipPath3888)" />
    <path
       id="path6127"
       style="fill:#00c6ff;fill-opacity:1;fill-rule:evenodd;stroke:none"
       d="m 662.84333,124.59257 2.577,6.61811 c -9.14122,11.57091 -20.0217,16.78471 -33.84902,13.47572 13.02124,-0.77719 23.05835,-7.06253 31.27202,-20.09383 z M 633.90467,121.262 c 4.44674,0.78692 7.42454,-1.44543 6.60903,-6.99098 5.79655,7.10801 0.17484,12.92467 -6.60903,6.99098 z"
       inkscape:connector-curvature="0"
       sodipodi:nodetypes="ccccccc" />
    <g
       id="g6253">
      <path
         style="fill:#000000;stroke:#555555;stroke-width:8;stroke-linecap:butt;stroke-linejoin:miter;stroke-miterlimit:20;stroke-opacity:1;stroke-dasharray:none;fill-opacity:1"
         d="m 375.40327,487.32304 c -42.33259,37.4181 -65.89233,91.29503 -69.2002,171.09905 -110.86688,-66.1979 -63.64146,-219.77516 62.11285,-193.44718 14.62739,3.0624 16.11972,14.36435 7.08735,22.34813 z"
         id="path6246"
         inkscape:connector-curvature="0"
         sodipodi:nodetypes="scss" />
      <path
         d="m 379.77717,477.62173 c -77.65391,15.40243 -113.01058,89.63866 -75.78806,177.56086 m 72.3914,-186.48616 c -79.17432,0.47858 -119.86624,48.11211 -124.17239,130.05217"
         style="fill:none;stroke:#555555;stroke-width:4;stroke-linecap:butt;stroke-linejoin:miter;stroke-miterlimit:20;stroke-opacity:1;stroke-dasharray:none"
         id="path6250" />
    </g>
    <g
       id="g6151"
       transform="matrix(0.50474489,-0.86326856,0.86326856,0.50474489,332.39972,658.90149)">
      <path
         sodipodi:nodetypes="cccccccccc"
         inkscape:connector-curvature="0"
         id="path6153"
         d="m 466.33638,-122.1358 c 46.28744,-4.53798 88.65248,9.37043 117.22606,39.54567 -2.26371,-12.510693 -5.22406,-24.17154 -12.00938,-36.39564 34.08658,16.27929 65.71465,15.56969 96.75559,-2.50941 -28.72518,-9.79901 -50.18067,-27.94425 -63.74402,-54.85058 13.32506,0.50923 25.82075,3.18037 38.49774,9.58605 -9.7525,-22.51168 -26.89125,-35.96517 -56.62109,-41.51787 15.88906,-7.27551 29.74698,-9.74493 46.62897,-10.06831 -63.92306,-46.31657 -149.96799,-29.15216 -193.53263,38.4638 z"
         style="fill:#000000;fill-opacity:1;stroke:#555555;stroke-width:8;stroke-linecap:butt;stroke-linejoin:miter;stroke-miterlimit:20;stroke-opacity:1;stroke-dasharray:none" />
      <path
         d="m 446.58406,-162.86595 c 39.8758,-42.13992 95.37932,-60.56126 151.50206,-50.30528 m -140.99803,72.05407 c 92.7263,-40.39702 121.77532,14.69337 174.2942,32.68265"
         style="fill:none;stroke:#555555;stroke-width:4;stroke-linecap:butt;stroke-linejoin:miter;stroke-miterlimit:4;stroke-opacity:1;stroke-dasharray:none"
         id="path6155"
         inkscape:connector-curvature="0" />
      <g
         clip-path="url(#clipPath3923)"
         id="g6157">
        <path
           style="fill:#58daff;fill-opacity:1;fill-rule:evenodd;stroke:#00c6ff;stroke-width:8;stroke-miterlimit:4;stroke-opacity:1;stroke-dasharray:none"
           d="m 588.5011,-123.93881 c 74.63365,-155.84097 69.89446,-157.29474 -40.7896,-25.40928 z"
           id="path6159"
           inkscape:connector-curvature="0"
           sodipodi:nodetypes="ccc" />
        <path
           id="path6161"
           style="fill:none;stroke:#00c6ff;stroke-width:4;stroke-linecap:butt;stroke-linejoin:miter;stroke-miterlimit:4;stroke-opacity:1;stroke-dasharray:none"
           d="m 601.31966,-212.74594 c 10.70191,-0.97905 20.84555,-3.24765 30.54457,-6.7546 m -54.90814,34.43524 c 14.60417,1.00361 28.37331,-0.36717 41.56063,-3.97038 m -62.72263,29.32651 c 16.69996,4.16593 32.67189,5.02967 48.271,2.85724"
           inkscape:connector-curvature="0"
           sodipodi:nodetypes="cccccc" />
      </g>
      <path
         sodipodi:nodetypes="ccc"
         inkscape:connector-curvature="0"
         id="path6163"
         d="m 555.86758,-172.74125 c 19.97022,5.74285 37.11476,15.40869 51.09601,29.79341 -10.06534,-16.99186 -30.17016,-27.6298 -51.09601,-29.79341 z"
         style="fill:#555555;fill-opacity:1;stroke:none" />
    </g>
    <g
       id="g6240">
      <path
         inkscape:transform-center-y="120.92061"
         inkscape:transform-center-x="65.619455"
         sodipodi:nodetypes="cccccccc"
         inkscape:connector-curvature="0"
         id="path6173"
         d="m 451.41995,256.7786 c -19.40798,38.48547 -17.5079,84.73517 3.12515,122.34201 -9.8785,-4.08863 -17.92629,-9.1668 -22.66086,-17.91302 -0.32791,36.10032 -11.48552,69.69914 -44.1837,106.84363 6.76062,-20.36803 9.78352,-34.60616 7.77156,-53.10829 -12.27642,27.63768 -38.77364,63.23923 -66.31228,74.08366 56.40178,-86.93159 2.06637,-127.03183 136.82037,-282.46574 z"
         style="fill:#000000;stroke:#555555;stroke-width:8;stroke-linecap:butt;stroke-linejoin:miter;stroke-miterlimit:20;stroke-opacity:1;stroke-dasharray:none;fill-opacity:1" />
      <path
         sodipodi:nodetypes="cccc"
         inkscape:connector-curvature="0"
         d="m 388.78659,317.53486 c -1.17693,46.66325 -0.86267,89.11287 -12.53662,129.50507 m 34.52886,-166.72801 c 3.31467,44.17257 12.13786,86.25728 9.52034,138.62247"
         style="fill:none;stroke:#555555;stroke-width:4;stroke-linecap:butt;stroke-linejoin:miter;stroke-miterlimit:20;stroke-opacity:1;stroke-dasharray:none"
         id="path6237" />
    </g>
    <g
       id="g6165"
       transform="matrix(0.50474489,-0.86326856,0.86326856,0.50474489,332.39972,658.90149)">
      <path
         sodipodi:nodetypes="cscc"
         inkscape:connector-curvature="0"
         id="path6167"
         d="m 437.38401,-29.989585 c -65.61813,-74.201295 -15.73722,-169.206285 -3.55783,-173.191165 8.19005,-2.67968 42.82411,37.28094 50.27376,90.17786 z"
         style="fill:#58daff;fill-opacity:1;stroke:none" />
      <path
         sodipodi:nodetypes="ccc"
         inkscape:connector-curvature="0"
         id="path6169"
         d="m 442.38951,-69.311972 c -15.33708,-25.220973 -17.72284,-66.393258 -5.79401,-91.955058 -6.13482,26.58427 -4.4307,64.348316 5.79401,91.955058 z"
         style="fill:#00c6ff;fill-opacity:1;stroke:none" />
      <path
         inkscape:original-d="m 437.38401,-29.989585 c -65.61813,-74.201295 -15.73722,-169.206285 -3.55783,-173.191165 8.19005,-2.67968 42.82411,37.28094 50.27376,90.17786"
         inkscape:path-effect="#path-effect6999"
         style="fill:#00c6ff;fill-opacity:1;stroke:none"
         d="m 406.83391,-74.998332 c -1.29053,-3.913009 -2.39559,-7.890107 -3.30384,-11.918557 -4.17187,-18.616491 -4.27886,-37.987231 -1.04068,-56.680231 0,0 0,0 0,-1e-5 2.56274,-14.88342 7.11332,-29.50727 13.95608,-43.07836 2.30043,-4.58096 4.91957,-9.14861 8.17404,-13.40049 1.0877,-1.43071 2.3301,-2.89194 3.81672,-4.2678 10e-6,0 10e-6,0 10e-6,0 0.83256,-0.88185 2.17833,-1.88386 4.14609,-2.63866 0,0 10e-6,0 2e-5,0 1.61856,-0.42641 2.96709,-0.41333 3.95264,-0.11113 0,0 1e-5,1e-5 1e-5,1e-5 1.35359,0.32962 2.48134,0.81029 3.39321,1.32655 2.70867,1.49054 4.94621,3.34177 6.88381,5.17737 6.23622,5.82207 11.30405,12.57784 15.77872,19.47089 3.20891,4.91687 6.15842,10.00389 8.8341,15.2316 4.20525,8.21616 7.46523,16.8675 9.62747,25.75802 2.16225,8.89053 3.22573,18.02208 3.04763,27.12624 -2.56631,-8.71765 -5.5335,-17.10655 -8.8407,-25.28015 -3.30721,-8.1736 -6.95467,-16.13231 -10.95905,-23.95798 -2.54786,-4.97924 -5.35584,-9.82451 -8.40951,-14.50632 -4.32055,-6.58742 -8.97035,-12.84695 -14.52465,-17.98217 -1.78155,-1.62073 -3.46771,-3.07725 -5.22971,-3.99324 -0.59258,-0.29358 -1.04062,-0.52047 -1.3541,-0.56519 -0.22071,0.0313 -0.15576,-0.0491 0.28781,-0.0911 -0.0913,-0.0811 -0.46504,0.35281 -1.23001,0.93436 0,0 0,0 0,0 -0.98957,0.89243 -1.91898,2.01245 -2.87779,3.24416 -2.82645,3.65912 -5.17924,7.80324 -7.37498,12.1299 -6.45221,12.76833 -10.75563,26.64443 -13.21459,40.83512 -3.0577,17.75816 -2.97671,36.09029 0.96271,53.564404 0.84479,3.771509 1.8779,7.499245 3.08797,11.170471 1.36323,4.135888 2.84474,8.11001 4.43727,12.017432 1.59253,3.907421 3.29642,7.748431 5.14333,11.607065 3.69383,7.717267 7.92178,15.531517 13.38007,23.886563 -7.62469,-6.439244 -13.73101,-13.383145 -18.73068,-20.816315 -4.99968,-7.433171 -8.91168,-15.375884 -11.81942,-24.192432 z"
         id="path6171"
         inkscape:connector-curvature="0"
         sodipodi:nodetypes="csc" />
    </g>
    <g
       id="g3427">
      <g
         clip-path="url(#clipPath3423)"
         id="g3412">
        <path
           sodipodi:type="arc"
           style="fill:#ffffff;stroke:none"
           id="path6131"
           sodipodi:cx="542.72961"
           sodipodi:cy="-50.930965"
           sodipodi:rx="39.02396"
           sodipodi:ry="51.371124"
           d="m 581.75357,-50.930965 c 0,28.371488 -17.47162,51.37112384 -39.02396,51.37112384 -21.55233,0 -39.02396,-22.99963584 -39.02396,-51.37112384 0,-28.371489 17.47163,-51.371125 39.02396,-51.371125 21.55234,0 39.02396,22.999636 39.02396,51.371125 z"
           transform="matrix(0.07202655,-0.96903616,0.96903616,0.07202655,570.41588,700.04352)" />
        <g
           clip-path="url(#clipPath3375)"
           id="g3366"
           transform="matrix(0.50474489,-0.86326856,0.86326856,0.50474489,332.39972,658.90149)">
          <path
             sodipodi:type="arc"
             style="fill:url(#linearGradient5902);fill-opacity:1;stroke:none"
             id="path6135"
             sodipodi:cx="542.72961"
             sodipodi:cy="-50.930965"
             sodipodi:rx="37.840118"
             sodipodi:ry="50.005363"
             d="m 580.56973,-50.930965 c 0,27.617199 -16.9416,50.00536304 -37.84012,50.00536304 -20.89852,0 -37.84011,-22.38816404 -37.84011,-50.00536304 0,-27.6172 16.94159,-50.005365 37.84011,-50.005365 20.89852,0 37.84012,22.388165 37.84012,50.005365 z"
             transform="matrix(0.70424092,-0.27602173,0.27602173,0.70424092,181.37114,136.01699)" />
          <g
             clip-path="none"
             id="g6137"
             transform="translate(0.07306036,-0.09323864)">
            <path
               style="fill:#ae7c5c;fill-opacity:1;stroke:none"
               d="m 519.56901,-28.948226 8.68392,18.767462 16.99483,-24.833784 -3.20859,-3.953731 z"
               id="path6139"
               inkscape:connector-curvature="0"
               sodipodi:nodetypes="ccccc" />
            <path
               style="fill:#7f4a25;fill-opacity:1;stroke:none"
               d="m 513.72154,-35.207104 28.64635,-6.37583 1.3633,3.907364 -25.35004,16.118552 z"
               id="path6141"
               inkscape:connector-curvature="0"
               sodipodi:nodetypes="ccccc" />
          </g>
          <path
             transform="matrix(0.56497414,-0.22993815,0.22993815,0.56497414,258.94918,104.07682)"
             d="m 580.56973,-50.930965 c 0,27.873622 -16.9416,50.46965747 -37.84012,50.46965747 -20.89852,0 -37.84011,-22.59603547 -37.84011,-50.46965747 0,-27.873623 16.94159,-50.469655 37.84011,-50.469655 20.89852,0 37.84012,22.596032 37.84012,50.469655 z"
             sodipodi:ry="50.469658"
             sodipodi:rx="37.840118"
             sodipodi:cy="-50.930965"
             sodipodi:cx="542.72961"
             id="path6143"
             style="fill:#000000;stroke:none"
             sodipodi:type="arc" />
          <path
             sodipodi:type="arc"
             style="fill:#ffffff;stroke:none"
             id="path6145"
             sodipodi:cx="542.72961"
             sodipodi:cy="-50.930965"
             sodipodi:rx="35.28648"
             sodipodi:ry="50.469658"
             d="m 578.01609,-50.930965 c 0,27.873622 -15.79829,50.46965747 -35.28648,50.46965747 -19.48818,0 -35.28648,-22.59603547 -35.28648,-50.46965747 0,-27.873623 15.7983,-50.469655 35.28648,-50.469655 19.48819,0 35.28648,22.596032 35.28648,50.469655 z"
             transform="matrix(0.27162247,0.09448362,-0.09448362,0.27162247,382.15463,-102.90123)" />
          <path
             transform="matrix(0.09168548,0.04004974,-0.04004974,0.09168548,492.30706,-65.486737)"
             d="m 578.01609,-50.930965 c 0,27.873622 -15.79829,50.46965747 -35.28648,50.46965747 -19.48818,0 -35.28648,-22.59603547 -35.28648,-50.46965747 0,-27.873623 15.7983,-50.469655 35.28648,-50.469655 19.48819,0 35.28648,22.596032 35.28648,50.469655 z"
             sodipodi:ry="50.469658"
             sodipodi:rx="35.28648"
             sodipodi:cy="-50.930965"
             sodipodi:cx="542.72961"
             id="path6147"
             style="fill:#ffffff;stroke:none"
             sodipodi:type="arc" />
        </g>
      </g>
      <path
         sodipodi:nodetypes="cccccccccc"
         inkscape:connector-curvature="0"
         d="m 598.40291,147.2963 c -49.52442,-34.69519 -119.43923,8.91922 -66.49229,53.5624 -21.77949,23.03721 -25.31474,19.98202 -7.08088,0.19852 -53.7277,-52.76056 34.26385,-96.22474 73.57317,-53.76092 z m -80.60263,41.88023 3.54728,4.08603 c -25.00312,19.78313 -28.00844,15.94208 -3.54728,-4.08603 z m -3.82741,-5.95687 c -27.61132,13.86581 -29.49186,10.32155 -2.38772,-4.81741 z"
         style="fill:#000000;stroke:none"
         id="path6149" />
    </g>
    <g
       id="g6586">
      <path
         mask="url(#mask6314)"
         d="m 447.90625,-38.875 c -15.67384,0.710677 -31.54187,12.458556 -32.25,30.8125 -0.49819,12.9126789 4.91478,21.116573 7.5625,25.625 2.64772,4.508427 3.97715,5.538955 1.28125,15.9375 -1.85032,7.136918 -1.88486,13.406225 0.28125,18.625 2.16611,5.218775 5.79885,8.242088 8.375,10.53125 5.1523,4.578325 8.58859,6.287198 9.84375,19.9375 0.54701,5.948914 3.38158,11.450476 7.46875,15.09375 4.08717,3.64327 9.05539,5.59132 14.125,6.59375 10.13922,2.00486 21.25795,0.53569 31.71875,-2.6875 10.4608,-3.223191 20.2175,-8.127511 27,-15.46875 3.39125,-3.670619 6.15692,-8.184068 6.8125,-13.65625 0.65558,-5.472182 -1.30621,-11.384681 -5.03125,-15.9375 -8.47419,-10.357335 -7.17102,-15.345154 -6.71875,-23.125 0.22614,-3.889923 0.69573,-8.995576 -2.09375,-14.4375 C 513.49177,13.526826 508.00432,9.7766641 500.875,7.25 490.61308,3.6131458 489.34583,0.9709014 487,-4.3125 484.65417,-9.5959014 482.51343,-18.760186 474.34375,-28 c -7.01443,-7.933175 -17.03981,-11.301105 -26.4375,-10.875 z"
         id="path5912"
         style="fill:url(#linearGradient5926);stroke:none;stroke-width:0.90842699999999998;stroke-linecap:round;stroke-linejoin:miter;stroke-miterlimit:4;stroke-opacity:1;stroke-dasharray:none;fill-opacity:1"
         inkscape:original="M 448.3125 -29.9375 C 436.52363 -29.402974 425.11282 -21.172472 424.59375 -7.71875 C 423.76324 13.807206 439.42208 11.581613 433.15625 35.75 C 426.89036 59.918384 449.00201 50.196723 451.90625 81.78125 C 454.81049 113.36577 538.32784 86.803453 518.1875 62.1875 C 498.04716 37.57156 521.84489 24.151294 497.875 15.65625 C 473.90498 7.161206 481.14902 -6.8335765 467.65625 -22.09375 C 462.59642 -27.816314 455.38582 -30.258215 448.3125 -29.9375 z "
         inkscape:radius="8.9342728"
         sodipodi:type="inkscape:offset" />
      <path
         clip-path="url(#clipPath6506)"
         style="fill:#e96813;stroke:#e96813;stroke-width:10;stroke-linecap:round;stroke-linejoin:miter;stroke-miterlimit:4;stroke-opacity:1;stroke-dasharray:none;fill-opacity:0.25098040999999999;filter:url(#filter6502)"
         d="m 451.90661,81.778242 c -2.90424,-31.584527 -25.01028,-21.864063 -18.74439,-46.032447 6.26583,-24.168387 -9.41399,-21.954135 -8.58348,-43.4800915 0.83051,-21.5259545 29.57662,-29.6094925 43.06951,-14.3493205 13.49277,15.2601735 6.25902,29.247251 30.22904,37.742295 23.96989,8.495044 0.18151,21.917275 20.32185,46.533215 20.14034,24.615953 -63.38829,51.170867 -66.29253,19.586349 z"
         id="path5914"
         inkscape:connector-curvature="0"
         sodipodi:nodetypes="zzzzzzz" />
      <path
         transform="matrix(0.48060146,0.19338221,-0.19338221,0.48060146,222.90728,-86.105606)"
         d="m 438.48424,17.243762 -3.76981,-15.50188 -15.93735,0.7215111 15.50188,-3.7698065 -0.72151,-15.9373506 3.76981,15.5018798 15.93735,-0.7215111 -15.50188,3.7698064 z"
         inkscape:randomized="0"
         inkscape:rounded="0"
         inkscape:flatsided="false"
         sodipodi:arg2="2.2142974"
         sodipodi:arg1="1.4288993"
         sodipodi:r2="2.1773539"
         sodipodi:r1="17.418831"
         sodipodi:cy="-1.1105481e-06"
         sodipodi:cx="436.02084"
         sodipodi:sides="4"
         id="path6510"
         style="fill:#ffffff;fill-opacity:1;fill-rule:evenodd;stroke:none"
         sodipodi:type="star" />
      <use
         height="1052.3622"
         width="744.09448"
         transform="matrix(1.4655647,-0.2231814,0.2231814,1.4655647,-175.07437,77.393943)"
         id="use6514"
         xlink:href="#path6510"
         y="0"
         x="0" />
      <use
         x="0"
         y="0"
         xlink:href="#path6510"
         id="use6516"
         transform="matrix(0.52353764,0.14028153,-0.14028153,0.52353764,224.30351,-2.5626586)"
         width="744.09448"
         height="1052.3622" />
      <use
         height="1052.3622"
         width="744.09448"
         transform="matrix(-0.50475861,0.80021202,-0.80021202,-0.50475861,711.86609,-285.92323)"
         id="use6518"
         xlink:href="#path6510"
         y="0"
         x="0" />
      <use
         height="1052.3622"
         width="744.09448"
         transform="matrix(-0.88010563,0.69316109,-0.69316109,-0.88010563,846.68303,-210.3692)"
         id="use6543"
         xlink:href="#path6510"
         y="0"
         x="0" />
      <use
         x="0"
         y="0"
         xlink:href="#path6510"
         id="use6545"
         transform="matrix(0.16024227,1.1087743,-1.1087743,0.16024227,399.79925,-457.08536)"
         width="744.09448"
         height="1052.3622" />
      <use
         height="1052.3622"
         width="744.09448"
         transform="matrix(-0.77584621,-0.08199242,0.08199242,-0.77584621,850.67698,106.99451)"
         id="use6547"
         xlink:href="#path6510"
         y="0"
         x="0" />
      <use
         x="0"
         y="0"
         xlink:href="#path6510"
         id="use6549"
         transform="matrix(-0.62147742,0.14070632,-0.14070632,-0.62147742,776.21752,-14.270654)"
         width="744.09448"
         height="1052.3622" />
    </g>
  </g>
</svg>
