<svg xmlns:svg="http://www.w3.org/2000/svg" xmlns="http://www.w3.org/2000/svg" xmlns:xlink="http://www.w3.org/1999/xlink" xmlns:sodipodi="http://sodipodi.sourceforge.net/DTD/sodipodi-0.dtd" xmlns:inkscape="http://www.inkscape.org/namespaces/inkscape" id="svg2" version="1.1" inkscape:version="0.48.3.1 r9886" sodipodi:docname="Sewing Button.svg">
  <defs>
    <inkscape:path-effect effect="skeletal" id="alpha" pattern="m 33.955964,794.75024 c -15.48441,0 -30.4098995,1.4766 -46.05876,6.0409 15.3228405,4.5642 30.57787,5.9591 46.05876,5.9591 l 52.999996,0 0,-12 z"/>
    <inkscape:path-effect effect="skeletal" id="beta" pattern="m 239.05876,-160 c -15.48441,0 -30.4099,1.4766 -46.05876,6.0409 15.32284,4.5642 29.34628,5.9591 46.05876,5.9591 l 19,0 0,-12 z"/>
    <inkscape:path-effect effect="skeletal" id="gamma" pattern="m 457.33559,622.18802 c -15.48441,0 -30.4099,1.4766 -46.05876,6.0409 15.32284,4.5642 30.57787,5.9591 46.05876,5.9591 l 310,0 c 16.427,0 32.94451,-1.3949 48.91938,-5.9591 -15.64886,-4.2383 -32.48906,-6.0409 -48.91938,-6.0409 z"/>
    <inkscape:path-effect effect="skeletal" id="delta" pattern="m 374.15958,719.58475 c -15.48441,0 -30.4099,1.4766 -46.05876,6.0409 15.32284,4.5642 30.57787,5.9591 46.05876,5.9591 l 63,0 0,-12 z"/>
    <inkscape:path-effect effect="skeletal" id="epsilon" pattern="m 149.94109,512.35168 c -15.48441,0 -30.4099,1.4766 -46.05876,6.0409 15.32284,4.5642 30.57787,5.9591 46.05876,5.9591 l 336,0 0,-12 z"/>
    <inkscape:path-effect effect="skeletal" id="zeta" pattern="m 111.36146,-151.77052 c -20.022962,0 -51.887062,1.4766 -79.919272,6.0409 28.06278,4.5642 60.9084,5.9591 79.919272,5.9591 l 83.93203,0 3.68417,-1.5002 262.43203,0 c 12.94327,0 25.07872,1.5002 41.55197,1.5002 l 867.53934,0 c 16.427,0 32.9445,-1.3949 48.9194,-5.9591 -15.6489,-4.2383 -32.4891,-6.0409 -48.9194,-6.0409 l -867.53934,0 c -16.72539,0 -28.35656,1.4998 -41.55197,1.4998 l -262.43203,0 -3.68417,-1.4998 z"/>
    <linearGradient id="linearGradient3850"><stop stop-color="#24cefa" offset="0"/><stop stop-color="#b1e1fa" offset="1"/></linearGradient>
    <linearGradient xlink:href="#linearGradient3850" id="linearGradient3990" gradientUnits="userSpaceOnUse" x1="561.77625" y1="103.85455" x2="546.15149" y2="233.85666"/>
    <inkscape:path-effect effect="skeletal" id="path-effect3790" pattern="m 352.96555,5971.6359 c -15.48441,0 -30.4099,1.4766 -46.05876,6.0409 15.32284,4.5642 30.57787,5.9591 46.05876,5.9591 l 203,0 c 16.427,0 32.94451,-1.3949 48.91938,-5.9591 -15.64886,-4.2383 -32.48906,-6.0409 -48.91938,-6.0409 z"/>
    <clipPath id="hydrogen"> <use xlink:href="#pluto"/></clipPath>
    <clipPath id="helium"><use xlink:href="#charon"/></clipPath>
    <clipPath id="lithium"><use xlink:href="#charon"/></clipPath>
    <clipPath id="beryllium"><path d="m 527.9375,-96.9375 c -14.6436,1.931746 -28.31984,-0.592376 -40.57292,-6.61824 L 275.56017,-36.583869 297.74863,22.921543 482.31626,-8.3440125 z M 422.28125,-198.90625 c 0.98993,14.13843 3.90695,27.76979 8.48207,40.36677 L 546.8645,-210.05727 377.42537,-396.64204 60.735548,-296.79397 216.05476,601.8386 373.3911,590.74437 339.37426,44.763916 307.16883,48.584025 234.42609,-52.685272 345.67969,-206.72871 z"/></clipPath>
    <clipPath id="boron"><path d="m 491.10162,-65.901325 c 10.43548,-9.754835 19.86699,-20.502459 28.32232,-31.942703 l -82.88651,-85.870222 c -3.95521,0.62562 -7.98276,0.9978 -12.15729,1.12027 -8.73223,0.25616 -17.60977,-0.27276 -26.45727,-1.11266 z"/></clipPath>
    <inkscape:path-effect effect="skeletal" id="taper" pattern="m -134.17922,144.40586 1220.00002,0 c 17.0522,0 34.4291,1.19928 51,4 -16.5709,2.80071 -33.9478,4 -51,4 l -1220.00002,0 c -17.05221,0 -33.72895,-1.66608 -51,-4 17.27105,-2.56732 33.94779,-4 51,-4 z"/>
    <clipPath id="carbon"><path d="m 224.0625,-136.125 c 1.36412,-28.64665 -5.1873,-49.42656 -16.34375,-62.96875 l 27.26296,-81.69074 75,84 z"/></clipPath>
    <clipPath id="nitrogen"><path d="m 202.85701,-149.89961 c 13.71952,-1.75555 27.80402,-6.30706 39.19082,-15.64746 l 270.93388,-64.23742 -52,-215 -405.999996,35 25,288 z"/></clipPath>
    <clipPath id="oxygen"><path d="m 268.09375,982.09375 c -7.58287,-25.7156 -13.84612,-51.01393 -18.88514,-75.81237 L 187.8149,702.69523 98.052501,723.87512 192.85773,1007.2822 z"/></clipPath>
    <clipPath id="fluorine"><path d="m 219.59413,927.04809 c 17.76756,16.53859 37.86154,30.22498 58.79597,41.96834 l 56.67548,-26.28243 14.11993,-631.3625 -447.803437,32.27413 32.274122,613.2083 z"/></clipPath>
    <clipPath id="neon"><use xlink:href="#nyx"/></clipPath>
    <clipPath id="sodium"><use xlink:href="#hydra"/></clipPath>
    <clipPath id="magnesium"><use xlink:href="#kerberos"/></clipPath></defs>
  <g inkscape:groupmode="layer" id="layer2" inkscape:label="Drawing" transform="translate(28.018286,430.93329)">
    <path style="fill:#9274b9;stroke:#6f4b9c;stroke-width:12" d="m 405.32402,114.05169 c 27.19095,-144.752551 44.53389,-303.33449 38.64898,-448.04254 -1.51892,-37.34982 187.97754,-11.57348 178.10856,35.38715 -30.63834,145.78969 -76.51531,284.948998 -155.17074,429.56906 z" id="path3932"/>
    <g id="g4011">
      <path transform="translate(-28.018286,-430.93329)" id="path3867" d="m 115.72287,184.02268 c 55.15433,-281.428491 423.66609,-290.90158 475.99199,3.25484 -23.66837,-16.01899 -51.01091,-28.45336 -82.22539,-36.35534 58.62741,85.35534 81.6518,149.80614 96.92388,244.2153 -96.40916,-55.92388 -201.38687,-44.07107 -292.38687,-3.07107 z"
         style="fill:#f9f4b2;stroke:#d1b467;stroke-width:12"/>
      <path d="M 96.616274,-237.49134 C 193.06296,-521.5637 469.03504,-481.56655 548.99968,-253.29078 M 238.72703,-418.44134 c 163.58272,-27.0888 238.59634,75.64732 286.3106,358.94771 m -29.33235,-137.7719 c 29.58632,48.99985 47.58738,91.95508 68.53712,153.31904 m -448.26069,-173.838 c 73.96875,-257.41127 340.52997,-235.66074 336.33461,144.87471" style="fill:none;stroke:#d1b467;stroke-width:6" id="path3991"/></g>
    <g id="g4129">
      <path transform="translate(-28.018286,-430.93329)" id="path4014" d="m 501.41588,224.93345 c -1.32931,47.18069 6.81768,79.93698 29.77613,114.56127 C 418.86867,368.37787 362.34889,227.78611 501.41588,224.93345 z" fill="#ad047a"/>
      <path transform="translate(-28.018286,-430.93329)" id="path4127" d="m 476.8891,302.56988 c 25.61707,-4.32966 42.78404,8.9901 46.54825,34.27413 -23.18474,3.45831 -44.10286,-8.57053 -46.54825,-34.27413 z" fill="#f60"/></g>
    <path id="path3830" d="m 518.17751,358.67741 c 21.0861,71.5348 18.73359,130.1819 -13.32471,205.3358 -34.15036,80.0583 -18.1186,225.1177 64.82352,354.9499 17.26108,27.0194 -194.02051,32.0046 -200.48395,0.5848 -27.92309,-135.7387 -29.58717,-277.5596 7.29739,-401.0118 2.56387,-10.3225 141.68775,-159.8587 141.68775,-159.8587 z" style="fill:#9274b9;stroke:#6f4b9c;stroke-width:12"/>
    <g id="g4135">
      <path style="fill:#f9f4b2;stroke-width:2;stroke-miterlimit:12" d="m 251.88146,945.54208 c -53.95478,-216.43826 -15.46577,-400.09296 57.97853,-499.9713 12.4093,-16.87564 6.96093,-41.35271 -10.67547,-50.09433 C 83.946374,288.79193 -68.159894,446.18514 -27.411778,627.88481 -3.295255,590.13781 21.75371,562.04856 58.298121,538.34114 -42.397764,725.12351 30.186397,874.96681 207.19463,905.19434 c 12.12392,14.51582 27.03214,27.76542 44.68683,40.34774 z" id="path4105" clip-path="none"/>
      <path clip-path="url(#oxygen)" inkscape:original-d="m 165.6607,745.05501 c -12.10279,101.86523 25.90577,168.30214 115.66817,218.7304" inkscape:path-effect="#alpha"
         id="path4064" d="m 186.7857,863.37161 c -7.40998,-15.63926 -12.51412,-32.1096 -15.79557,-49.01945 -2.16301,-11.12553 -3.55243,-22.44867 -4.38436,-33.99447 -0.83194,-11.54579 -1.10529,-23.31627 -0.98568,-35.30751 -5.34935,22.96707 -7.39941,46.9323 -4.64223,70.83324 2.0891,18.04177 7.06412,35.9252 14.9683,52.62177 1.28566,2.71579 2.64125,5.40045 4.06732,8.05028 0,0 0,0 0,10e-6 10.25122,18.98746 23.92005,35.91268 39.58064,50.4926 0,10e-6 0,10e-6 1e-5,10e-6 17.76756,16.53859 37.86154,30.22498 58.79597,41.96834 l 5.87754,-10.46204 c -20.3199,-11.4332 -39.64565,-24.5582 -56.49126,-40.28416 -14.81242,-13.82538 -27.68743,-29.72225 -37.19918,-47.40755 0,0 0,0 0,0 -1.32904,-2.46265 -2.59269,-4.9609 -3.7915,-7.49107 z" style="fill:#d1b467"/>
      <path clip-path="url(#fluorine)" id="path4060" d="M 262.32887,983.78541 C 193.58562,750.65816 232.16204,551.23374 309.85999,445.57078 322.26929,428.69514 316.82092,404.21807 299.18452,395.47645 83.946374,288.79193 -68.159894,446.18514 -27.411778,627.88481 -3.295255,590.13781 21.75371,562.04856 58.298121,538.34114 -42.397764,725.12351 30.186397,874.96681 207.36239,905.08771" style="fill:none;stroke:#d1b467;stroke-width:12;stroke-miterlimit:20"/>
      <path transform="translate(-28.018286,-430.93329)" d="M 25.628511,959.26589 C 112.2056,875.82364 217.08418,836.75181 337.32127,835.56091 M -4.8791083,1018.5247 C 44.048898,910.08688 120.99936,825.33736 235.9352,795.6888 m 12.63418,177.69951 c -39.71737,122.75799 -33.13556,244.80799 21.64028,358.74119 m 38.5443,-408.10997 C 189.51175,997.90523 141.02559,1142.4674 165.19948,1316.1934 M 343.66022,858.99001 C 163.97121,928.26083 114.51176,1088.2405 132.70621,1299.0609 M 344.01169,848.24815 C 148.07822,884.24102 50.814798,1042.1025 64.737435,1228.3516 M 281.0439,865.10714 C 157.22194,884.67978 60.966924,936.07698 -5.4205325,1032.5119" style="fill:none;stroke:#d1b467;stroke-width:6" id="path4131"/></g>
    <path id="path4125" d="m 305.48976,544.44831 c -64.27007,123.4522 -88.47038,260.1187 -84.02059,410.2022 0.95065,32.0637 213.19933,32.7606 200.48395,3.3274 -59.46882,-137.6566 -49.01523,-313.12703 -0.41184,-381.9647 7.65414,-10.84067 14.75252,-21.34615 21.1049,-31.60151 161.41775,-96.91406 145.10694,-371.46732 -29.87255,-569.999939 36.83946,-13.887509 69.4359,-36.065102 94.76648,-67.87675 -38.3002,-4.1158 -62.9778,-36.370601 -80.0552,-85.055701 56.5772,-0.1716 65.6985,-35.0297 51.7072,-65.2929 -9.2929,-20.1005 -52.0342,22.6151 -57.929,6.7782 -82.3118,-221.1409 -401.057496,-49.1298 -223.9926,177.425801 194.5232,248.893799 84.28556,349.511689 94.9718,484.340099 4.10149,51.74862 36.81111,78.97465 41.63628,117.21702 -8.54136,-2.38163 -23.47734,-6.93342 -28.38883,2.50078 z" style="fill:#a288c3;stroke-width:2"/>
    <path style="fill:#6f4b9c;fill-rule:evenodd" d="m 449.8816,-221.24629 c 7.60023,3.6688 12.3478,1.8242 15.52736,-5.877 3.39123,14.4947 -9.18192,17.7924 -15.52736,5.877 z" id="path3820"/>
    <path style="fill:none;stroke:#6f4b9c;stroke-width:9" d="m 528.54011,-92.464989 c -54.56366,7.1979 -97.41283,-44.642701 -101.76231,-106.762801" id="path3951" clip-path="url(#boron)"/>
    <path id="path3947" fill="#6f4b9c" inkscape:path-effect="#zeta" inkscape:original-d="m 306.65651,-5.8343887 c 104.94115,-4.4853003 173.63171,-39.6492003 218.8836,-111.6306013 39.46029,-62.7688 25.41697,-79.2289 -28.02487,-26.9728 -94.72879,92.627001 -193.24959,-43.9053 -100.03033,-34.79 88.43431,8.6474 95.6985,-34.3226 81.7072,-64.5858 -9.2929,-20.1005 -52.0342,22.6151 -57.929,6.7782 -82.3118,-221.1409 -401.057496,-49.1298 -223.9926,177.425801 194.5232,248.893799 84.2855,349.511699 94.9718,484.340099 4.8652,61.3843 49.98416,88.2635 40.56996,139.799" clip-path="url(#beryllium)"/>
    <g id="g3932" transform="translate(-215.73034,-3072)">
      <path d="m 444.08457,2899.7611 c -10.69057,9.1227 -24.53297,12.8384 -40.5397,11.6866 17.78567,-3.4712 29.08492,-9.3229 37.56457,-20.643 z m -3.19123,-14.3326 c -12.58275,9.2961 -28.01609,11.5548 -45.13009,7.6695 19.96631,-0.8256 32.5716,-5.7025 43.30167,-17.9831 z m 107.91747,83.3839 c -100.26638,0.9552 -132.08655,-92.5611 -103.14543,-133.9648 40.46773,-57.8938 161.78326,-23.367 167.43346,71.8109 z" fill="#000" id="path3927"/>
      <g clip-path="url(#lithium)" id="g3908">
        <path sodipodi:type="arc" fill="#fff" id="charon" sodipodi:cx="578.16797" sodipodi:cy="170.70685" sodipodi:rx="66.602943" sodipodi:ry="88.166588" d="m 644.77091,170.70685 c 0,48.69306 -29.81915,88.16659 -66.60294,88.16659 -36.78379,0 -66.60294,-39.47353 -66.60294,-88.16659 0,-48.69306 29.81915,-88.16659 66.60294,-88.16659 36.78379,0 66.60294,39.47353 66.60294,88.16659 z" transform="matrix(0.58986124,-0.86124394,0.86124394,0.58986124,39.689115,3288.6387)"/>
        <g id="g3872" clip-path="url(#helium)">
          <path sodipodi:type="arc" style="fill:url(#linearGradient3990)" id="pluto" sodipodi:cx="578.16797" sodipodi:cy="170.70685" sodipodi:rx="66.602943" sodipodi:ry="88.166588" d="m 644.77091,170.70685 c 0,48.69306 -29.81915,88.16659 -66.60294,88.16659 -36.78379,0 -66.60294,-39.47353 -66.60294,-88.16659 0,-48.69306 29.81915,-88.16659 66.60294,-88.16659 36.78379,0 66.60294,39.47353 66.60294,88.16659 z" transform="matrix(0.57056448,-0.6399894,0.6399894,0.57056448,112.61555,3158.0099)"/>
          <g clip-path="url(#hydrogen)" id="g3862">
            <path id="path3860" d="m 550.67205,2915.8714 -14.98214,49.0355 33.83745,6.3723 -6.0311,-51.6476 z" style="fill:#d6eded;fill-rule:evenodd"/>
            <path style="fill:#b1e5ff;fill-rule:evenodd" d="m 565.97832,161.50618 -27.16296,43.48707 26.16296,11.25305 8.48528,-52.67946 z" id="path3858" transform="translate(-20.731262,2752.6816)"/></g>
          <path transform="matrix(0.47241612,-0.51260832,0.51260832,0.47241612,199.41078,3098.4646)" d="m 644.77091,170.70685 c 0,48.69306 -29.81915,88.16659 -66.60294,88.16659 -36.78379,0 -66.60294,-39.47353 -66.60294,-88.16659 0,-48.69306 29.81915,-88.16659 66.60294,-88.16659 36.78379,0 66.60294,39.47353 66.60294,88.16659 z" sodipodi:ry="88.166588" sodipodi:rx="66.602943" sodipodi:cy="170.70685" sodipodi:cx="578.16797" id="path3842" fill="#000" sodipodi:type="arc"/>
          <path transform="matrix(0.45551934,-0.7328599,0.7328599,0.45551934,165.35181,3215.8655)" d="m 579,137.6488 c 0,20.71068 -11.19288,37.5 -25,37.5 -13.80712,0 -25,-16.78932 -25,-37.5 0,-20.71067 11.19288,-37.5 25,-37.5 13.80712,0 25,16.78933 25,37.5 z" sodipodi:ry="37.5" sodipodi:rx="25" sodipodi:cy="137.6488" sodipodi:cx="554" id="path3846" fill="#fff" sodipodi:type="arc"/>
          <path sodipodi:type="arc" fill="#fff" id="path3848" sodipodi:cx="554" sodipodi:cy="137.6488" sodipodi:rx="22.697929" sodipodi:ry="35.733448" d="m 576.69793,137.6488 c 0,19.73504 -10.16221,35.73345 -22.69793,35.73345 -12.53572,0 -22.69793,-15.99841 -22.69793,-35.73345 0,-19.73503 10.16221,-35.73344 22.69793,-35.73344 12.53572,0 22.69793,15.99841 22.69793,35.73344 z" transform="matrix(0.17128398,-0.24231156,0.24231156,0.17128398,435.3846,3003.2468)"/></g></g></g>
    <path style="fill:#6f4b9c;stroke-width:12" id="path3774" inkscape:path-effect="#epsilon" inkscape:original-d="m 500.48158,374.28551 c -4.99533,79.3593 -31.12224,134.0023 -78.9403,201.7277 -48.60334,68.8377 -59.05698,244.3081 0.41184,381.9647 12.71538,29.4332 -199.5333,28.7363 -200.48395,-3.3274 -4.44979,-150.0835 19.75052,-286.75 84.02059,-410.2022 4.91149,-9.4342 19.84747,-4.88241 28.68637,-2.40751"/>
    <path style="fill:none;stroke:#6f4b9c;stroke-width:12" d="M 412.64976,-25.797454 C 587.75312,172.94438 604.06393,447.49764 442.45365,544.48165" id="path3822"/>
    <g id="g4042">
      <path id="hydra" d="m 495.50977,86.95995 c 8.56827,69.20524 -1.95488,119.13769 38.90917,189.66111 16.01488,-74.61222 10.82289,-125.45151 -14.24739,-191.61597 z" style="fill:#f959b2;fill-rule:evenodd"/>
      <g clip-path="url(#sodium)" id="g3936">
        <use xlink:href="#polka" transform="translate(387.62265,392.85906)"/>
        <use xlink:href="#polka" transform="translate(407.62265,412.85906)"/>
        <use xlink:href="#polka" transform="translate(398.62265,454.32511)"/>
        <use xlink:href="#polka" transform="translate(389.62265,429.85906)"/>
        <use xlink:href="#polka" transform="translate(404.1566,493.79116)"/>
        <use xlink:href="#polka" transform="translate(421.62265,474.79116)"/>
        <use xlink:href="#polka" transform="translate(421.1566,442.79116)"/>
        <use xlink:href="#polka" transform="translate(401.55475,515.45166)"/>
        <use xlink:href="#polka" transform="translate(388.0887,475.45166)"/>
        <use xlink:href="#polka" transform="translate(425.0887,515.45166)"/>
        <use xlink:href="#polka" transform="translate(415.0887,535.45166)"/>
        <use xlink:href="#polka" transform="translate(404.1566,371.79116)"/></g>
      <path style="fill:none;stroke:#d94195;stroke-width:12;stroke-miterlimit:20" d="m 495.50977,86.95995 c 8.56827,69.20524 -1.95488,119.13769 38.90917,189.66111 16.01488,-74.61222 10.82289,-125.45151 -14.24739,-191.61597 z" id="path3890"/></g>
    <g id="g3915">
      <path transform="translate(-28.018286,-430.93329)" id="path3911" d="m 506.29721,534.12998 c 11.24333,18.24631 20.23734,31.31486 33.22307,42.32116 128.25037,-109.94386 212.22602,18.86706 181.28297,280.39348 -8.28818,70.05054 -149.22711,-70.7425 -140.47984,-102.51528 9.96592,-36.19931 12.63892,-71.23813 11.42948,-106.01948 -53.15826,15.7753 -118.44594,82.5279 -133.61322,-91.4852 z" style="fill:#a288c3;stroke-width:3"/>
      <path inkscape:original-d="m 524.84625,589.89382 c 136.43651,-132.90016 228.06534,-4.4245 195.957,266.9508 -8.28817,70.05054 -149.22711,-70.7425 -140.47984,-102.51528 11.91058,-43.26291 13.4044,-84.86826 9.75026,-126.61758" inkscape:path-effect="#gamma" style="fill:#6f4b9c;stroke-width:12" id="path3823" transform="translate(-28.018286,-430.93329)"/>
      <path inkscape:original-d="m 458.13967,556.82466 c 15.16728,174.0131 80.45496,107.2605 133.93721,91.63755" inkscape:path-effect="#delta" transform="translate(-28.018286,-430.93329)" id="path3047" fill="#6f4b9c"/>
      <path transform="translate(-28.018286,-430.93329)" id="path3909" d="m 506.29721,534.12998 c 9.72369,20.53114 15.49198,30.74585 29.73083,45.87682 l 7.35961,-5.72842 c -15.04274,-13.39499 -23.46727,-22.64517 -37.09044,-40.1484 z" style="fill:#6f4b9c;fill-rule:evenodd"/></g>
    <g transform="matrix(0.43842877,0.02994056,-0.02994056,0.43842877,308.43252,340.65127)">
      <g><path transform="matrix(0.59545116,-1.48442,1.48442,0.59545116,-367.1317,274.04186)" style="fill:#5c8dff;stroke:#2766f9;stroke-width:5.5" d="m 295.94188,316.21744 a 34.075275,34.075275 0 1 1 -68.15055,0 34.075275,34.075275 0 1 1 68.15055,0 z"/>
        <path transform="matrix(0.59545116,-1.48442,1.48442,0.59545116,-367.1317,274.04186)" style="fill:none;stroke:#2766f9;stroke-width:2.5" d="m 283.57207,316.21744 a 21.705465,21.705465 0 1 1 -43.41093,0 21.705465,21.705465 0 1 1 43.41093,0 z"/>
        <path fill="#2766f9" d="m 244.53474,77.1114 c 3.54448,0 6.41785,2.87337 6.41785,6.41785 0,3.54448 -2.87337,6.41785 -6.41785,6.41785 -3.54448,0 -6.41785,-2.87337 -6.41785,-6.41785 0,-3.54448 2.87337,-6.41785 6.41785,-6.41785 z m 17.15936,10.1643 c 0,-3.54448 2.87337,-6.41785 6.41785,-6.41785 3.54448,0 6.41785,2.87337 6.41785,6.41785 0,3.54448 -2.87337,6.41785 -6.41785,6.41785 -3.54448,0 -6.41785,-2.87337 -6.41785,-6.41785 z m 10.16429,-17.15937 c -3.54448,0 -6.41785,-2.87337 -6.41785,-6.41785 0,-3.54448 2.87337,-6.41785 6.41785,-6.41785 3.54448,0 6.41785,2.87337 6.41785,6.41785 0,3.54448 -2.87337,6.41785 -6.41785,6.41785 z M 254.69901,59.95204 c 0,3.54448 -2.87337,6.41785 -6.41785,6.41785 -3.54448,0 -6.41785,-2.87337 -6.41785,-6.41785 0,-3.54448 2.87337,-6.41785 6.41785,-6.41785 3.54448,0 6.41785,2.87337 6.41785,6.41785 z"/></g>
      <g><path style="fill:#f9f4b2;stroke:#d1b467;stroke-width:5.5" d="m 295.94188,316.21744 a 34.075275,34.075275 0 1 1 -68.15055,0 34.075275,34.075275 0 1 1 68.15055,0 z"/>
        <path style="fill:none;stroke:#d1b467;stroke-width:2.5" d="m 283.57207,316.21744 a 21.705465,21.705465 0 1 1 -43.41093,0 21.705465,21.705465 0 1 1 43.41093,0 z"/>
        <path fill="#d1b467" d="m 256.24684,321.2665 c 2.14556,0 3.88489,1.73932 3.88489,3.88489 0,2.14556 -1.73933,3.88489 -3.88489,3.88489 -2.14557,0 -3.88489,-1.73933 -3.88489,-3.88489 0,-2.14557 1.73932,-3.88489 3.88489,-3.88489 z m 10.66883,0.5707 c 0,-2.14556 1.73932,-3.88489 3.88489,-3.88489 2.14556,0 3.88489,1.73933 3.88489,3.88489 0,2.14557 -1.73933,3.88489 -3.88489,3.88489 -2.14557,0 -3.88489,-1.73932 -3.88489,-3.88489 z m 0.57071,-10.66882 c -2.14556,0 -3.88489,-1.73932 -3.88489,-3.88489 0,-2.14556 1.73933,-3.88489 3.88489,-3.88489 2.14557,0 3.88489,1.73933 3.88489,3.88489 0,2.14557 -1.73932,3.88489 -3.88489,3.88489 z m -10.66883,-0.57072 c 0,2.14556 -1.73932,3.88489 -3.88489,3.88489 -2.14556,0 -3.88489,-1.73933 -3.88489,-3.88489 0,-2.14557 1.73933,-3.88489 3.88489,-3.88489 2.14557,0 3.88489,1.73932 3.88489,3.88489 z"/></g>
      <g><path transform="matrix(1.1487982,-0.74192054,0.74192054,1.1487982,-454.04024,36.231628)" style="fill:#26cffa;stroke:#26a8fa;stroke-width:5.5" d="m 295.94188,316.21744 a 34.075275,34.075275 0 1 1 -68.15055,0 34.075275,34.075275 0 1 1 68.15055,0 z"/>
        <path transform="matrix(1.1487982,-0.74192054,0.74192054,1.1487982,-454.04024,36.231628)" style="fill:none;stroke:#26a8fa;stroke-width:2.5" d="m 283.57207,316.21744 a 21.705465,21.705465 0 1 1 -43.41093,0 21.705465,21.705465 0 1 1 43.41093,0 z"/>
        <path fill="#26a8fa" d="m 81.39987,214.39128 c 2.99956,0 5.43118,2.43162 5.43118,5.43117 0,2.99956 -2.43162,5.43118 -5.43118,5.43118 -2.99955,0 -5.43117,-2.43162 -5.43117,-5.43118 0,-2.99955 2.43162,-5.43117 5.43117,-5.43117 z m 9.17382,-9.17382 c 0,-2.99956 2.43162,-5.43118 5.43117,-5.43118 2.99956,0 5.43118,2.43162 5.43118,5.43118 0,2.99955 -2.43162,5.43117 -5.43118,5.43117 -2.99955,0 -5.43117,-2.43162 -5.43117,-5.43117 z m -9.17382,-9.17382 c -2.99956,0 -5.43118,-2.43162 -5.43118,-5.43117 0,-2.99956 2.43162,-5.43118 5.43118,-5.43118 2.99955,0 5.43117,2.43162 5.43117,5.43118 0,2.99955 -2.43162,5.43117 -5.43117,5.43117 z m -9.17382,9.17381 c 0,2.99956 -2.43162,5.43118 -5.43117,5.43118 -2.99956,0 -5.43118,-2.43162 -5.43118,-5.43118 0,-2.99955 2.43162,-5.43117 5.43118,-5.43117 2.99955,0 5.43117,2.43162 5.43117,5.43117 z"/></g>
      <path fill="#ccc" d="M 226.09593,349.65343 C 136.63662,163.97311 91.969016,104.12982 81.933064,80.711192 70.568654,54.192642 67.610525,26.352108 76.905621,22.857658 c 9.618003,-3.615846 25.453989,13.89746 38.714639,42.986064 12.1407,26.631889 29.9205,94.647458 110.47567,283.809708 z"/>
      <path transform="matrix(0.92524566,-0.45762939,0.45762939,0.92524566,-30.064895,37.58084)" fill="#a288c3" d="m 108.91994,81.774628 a 11.385126,33.456134 0 1 1 -22.770252,0 11.385126,33.456134 0 1 1 22.770252,0 z"/>
      <path fill="#f959b2" inkscape:path-effect="#taper" inkscape:original-d="m 33.356369,77.969056 c -13.055366,27.956364 20.656208,61.384634 77.513651,29.611864 88.95819,-49.711137 192.93248,4.06499 190.56999,43.69779 -3.69042,61.90994 -112.42832,22.9117 -110.52781,-0.76382 4.3238,-53.863552 185.39717,37.55338 171.8908,98.99086 -16.42141,74.69738 -189.4982,-6.79405 -125.79527,-36.17001"/></g>
    <g id="g4022">
      <path id="path4015" d="M 87.270095,-178.38852 C 79.192496,-95.440825 83.92506,-21.128522 105.16527,54.973046 152.67038,71.594628 203.36541,72.258 249.95988,63.217148 211.68661,20.025838 189.84785,-37.320806 181.97718,-90.613783 z" style="fill:#f9f4b2;fill-rule:evenodd;stroke:#d1b467;stroke-width:12"/>
      <path d="M 191.00683,68.176348 C 155.90907,2.6036174 141.52419,-63.914742 138.53903,-133.2896 M 124.66078,60.69972 c -9.70152,-74.254117 -9.79945,-139.216376 1.40687,-202.52298" style="fill:none;stroke:#d1b467;stroke-width:6" id="path4019"/></g>
    <g id="g16516">
      <path transform="translate(-28.018286,-430.93329)" id="nyx" d="M 398.40584,47.911922 C 293.86134,-13.107698 160.90644,37.591423 127.03657,181.36584 l 47.22541,18.11269 C 221.17029,98.64968 286.77551,55.705307 398.40584,47.911922 z" style="fill:#f959b2;stroke-width:12"/>
      <g clip-path="url(#neon)" id="g16458">
        <path sodipodi:type="arc" fill="#fff" id="polka" sodipodi:cx="168.30672" sodipodi:cy="127.21426" sodipodi:rx="13.550117" sodipodi:ry="13.550117" d="m 181.85683,127.21426 c 0,7.48352 -6.06659,13.55011 -13.55011,13.55011 -7.48353,0 -13.55012,-6.06659 -13.55012,-13.55011 0,-7.48353 6.06659,-13.55012 13.55012,-13.55012 7.48352,0 13.55011,6.06659 13.55011,13.55012 z" transform="matrix(0.68421052,0,0,0.68421052,1.131206,-370.76035)"/>
        <use xlink:href="#polka" transform="translate(44.247578,-51.440196)"/>
        <use xlink:href="#polka" transform="translate(26.302539,-3.728867)"/>
        <use xlink:href="#polka" transform="translate(70.247578,-88.440196)"/>
        <use xlink:href="#polka" transform="translate(90.247578,-104.4402)"/>
        <use xlink:href="#polka" transform="translate(70.247578,-64.4402)"/>
        <use xlink:href="#polka" transform="translate(130.24758,-104.4402)"/>
        <use xlink:href="#polka" transform="translate(19.24758,-30.4402)"/>
        <use xlink:href="#polka" transform="translate(47.302539,-23.728867)"/>
        <use xlink:href="#polka" transform="translate(38.302539,-72.728867)"/>
        <use xlink:href="#polka" transform="translate(100.24758,-68.440196)"/>
        <use xlink:href="#polka" transform="translate(110.24758,-88.440196)"/>
        <use xlink:href="#polka" transform="translate(70.24758,-28.440196)"/>
        <use xlink:href="#polka" transform="translate(40.24758,11.559804)"/>
        <use xlink:href="#polka" transform="translate(10.24758,31.559804)"/>
        <use xlink:href="#polka" transform="translate(136.24758,-78.440196)"/>
        <use xlink:href="#polka" transform="translate(176.24758,-108.4402)"/>
        <use xlink:href="#polka" transform="translate(156.24758,-98.4402)"/>
        <use xlink:href="#polka" transform="translate(206.24758,-98.4402)"/>
        <use xlink:href="#polka" transform="translate(231.24758,-104.4402)"/>
        <use xlink:href="#polka" transform="translate(92.743297,-42.4402)"/>
        <use xlink:href="#polka" transform="translate(153.7433,-118.93592)"/>
        <use xlink:href="#polka" transform="translate(198.24758,-118.4402)"/>
        <use xlink:href="#polka" transform="translate(177.7433,-85.935917)"/></g>
      <path style="fill:none;stroke:#d94195;stroke-width:12" d="M 398.40584,47.911922 C 293.86134,-13.107698 160.90644,37.591423 127.03657,181.36584 l 47.22541,18.11269 C 221.17029,98.64968 286.77551,55.705307 398.40584,47.911922 z" id="path16508" transform="translate(-28.018286,-430.93329)"/></g>
    <g id="g4005">
      <path fill="#f9f4b2" d="m 443.95646,-318.03549 c -58.56854,-127.36249 -231.84539,-116.67389 -316.93818,78.46804 -5.14929,11.80878 17.15696,14.10983 34.22541,14.11269 34.59545,0.006 61.06554,20.77196 67.51771,61.64635 12.03665,-6.36665 19.51266,-15.56829 23.15697,-26.34655 56.46445,-64.89777 126.26739,-106.11139 192.03809,-127.88053 z" id="path3940"/>
      <path clip-path="url(#carbon)" inkscape:original-d="m 235.01712,-259.03692 c 30.06106,38.90386 30.48909,94.5378 -32.97087,103.19234" inkscape:path-effect="#beta" id="path3869" fill="#d1b467"/>
      <path clip-path="url(#nitrogen)" id="path3873" d="m 251.89427,-190.29216 c 56.48855,-64.76057 126.29149,-105.97419 192.06219,-127.74333 -58.56854,-127.36249 -231.84539,-116.67389 -316.93818,78.46804 -5.14929,11.80878 17.15696,14.10967 34.22541,14.11269 41.72529,0.007 71.63098,30.21321 68.80256,89.61018" style="fill:none;stroke:#d1b467;stroke-width:12"/>
      <path d="m 141.98171,-230.78449 c 46.4353,-8.64976 84.50626,6.15612 106.12434,48.93717 m -93.41723,-111.81585 c 61.81371,-11.76346 110.05635,5.85786 137.58578,63.87868 -6.76598,-66.32233 -51.74516,-98.77817 -116.29289,-93.29289 m 54.33661,-50.47641 c 64.34672,8.48528 101.99495,48.91169 109.06602,107.60156 m -11.91598,-136.30292 c 41.70276,24.26721 63.08108,56.43912 71.5357,102.66351 m -32.21047,-71.0286 c 27.68812,18.83575 43.93464,37.93166 53.81138,61.38371" style="fill:none;stroke:#d1b467;stroke-width:6" id="path3978"/></g>
    <g id="g3815" transform="translate(-344.45259,-5993.1464)">
      <path sodipodi:open="true" sodipodi:end="3.8675737" sodipodi:start="1.7730923" transform="translate(389.4343,5562.2131)" d="m 165.72556,485.49704 c -43.82282,-8.98812 -72.061921,-51.79986 -63.0738,-95.62268 2.85724,-13.93084 9.33173,-26.86395 18.77251,-37.49898" sodipodi:ry="81" sodipodi:rx="81" sodipodi:cy="406.1488" sodipodi:cx="182" id="path4050" style="fill:none;stroke:#2766f9;stroke-width:8.2" sodipodi:type="arc"/>
      <path fill="#a288c3" d="m 563.76597,5937.8475 c -168,-41 -175,-209 -167,-220 10.0162,-13.7723 104,13 152,78 -73.89206,8.3067 34.34474,84.2181 15,142 z"/>
      <path fill="#6f4b9c" d="m 435.97702,5765.5568 c 22.4924,47.3776 46.13885,79.633 89.20939,116.0037 -47.37757,-27.2779 -76.76679,-66.2334 -89.20939,-116.0037 z"/>
      <path fill="#6f4b9c" inkscape:original-d="m 563.76597,5937.8475 c -168,-41 -175,-209 -167,-220 10.0162,-13.7723 104,13 152,78" inkscape:path-effect="#path-effect3790"/>
      <path sodipodi:type="arc" style="fill:none;stroke:#2766f9;stroke-width:8.2" id="path4028" sodipodi:cx="182" sodipodi:cy="406.1488" sodipodi:rx="81" sodipodi:ry="81" d="m 134.99236,340.18455 c 36.43105,-25.9616 87.01029,-17.47443 112.97189,18.95662 25.9616,36.43105 17.47443,87.01028 -18.95661,112.97188 -28.95841,20.63643 -67.98971,19.97296 -96.23002,-1.63574" transform="translate(389.4343,5562.2131)" sodipodi:start="4.0932414" sodipodi:end="8.5071224" sodipodi:open="true"/>
      <path style="fill:#6f4b9c" d="m 514.22735,5897.6613 c 7.61705,2.3334 12.08616,6.4808 15.31467,13.7632 0.0181,-9.4178 -4.91091,-14.2716 -15.31467,-13.7632 z"/></g>
    <g id="g4222">
      <path id="kerberos" d="m 291.09954,116.88914 c 9.16112,29.23449 14.41449,53.22273 13.04946,84.39572 60.68049,-68.74958 126.51168,-96.10542 207.84232,-92.25588 L 505.3102,84.26758 C 426.06642,56.11392 356.34711,67.0358 291.09954,116.88914 z" fill="#f959b2"/>
      <g clip-path="url(#magnesium)" id="g4130">
        <use xlink:href="#polka" transform="translate(230.68036,394.65976)"/>
        <use xlink:href="#polka" transform="translate(277.75729,410.8436)"/>
        <use xlink:href="#polka" transform="translate(291.69177,379.80201)"/>
        <use xlink:href="#polka" transform="translate(230.66709,428.34954)"/>
        <use xlink:href="#polka" transform="translate(353.04486,368.26018)"/>
        <use xlink:href="#polka" transform="translate(311.21927,365.41395)"/>
        <use xlink:href="#polka" transform="translate(255.77757,398.56143)"/>
        <use xlink:href="#polka" transform="translate(202.50997,392.4949)"/>
        <use xlink:href="#polka" transform="translate(190.85866,459.14038)"/>
        <use xlink:href="#polka" transform="translate(212.93215,416.50104)"/>
        <use xlink:href="#polka" transform="translate(359.5696,392.49491)"/>
        <use xlink:href="#polka" transform="translate(225.81259,371.0565)"/>
        <use xlink:href="#polka" transform="translate(331.97269,380.65926)"/>
        <use xlink:href="#polka" transform="translate(253.77572,429.31303)"/>
        <use xlink:href="#polka" transform="translate(188.06235,419.52593)"/>
        <use xlink:href="#polka" transform="translate(320.4212,399.95174)"/>
        <use xlink:href="#polka" transform="translate(379.1438,375.71702)"/>
        <use xlink:href="#polka" transform="translate(212.69523,451.53854)"/>
        <use xlink:href="#polka" transform="translate(252.08375,376.39558)"/>
        <use xlink:href="#polka" transform="translate(273.95362,365.98627)"/>
        <use xlink:href="#polka" transform="translate(390.7951,392.96096)"/>
        <use xlink:href="#polka" transform="translate(298.51674,400.88384)"/></g>
      <path style="fill:none;stroke:#d94195;stroke-width:12" d="m 291.09954,116.88914 c 9.16112,29.23449 14.41449,53.22273 13.04946,84.39572 60.68049,-68.74958 126.51168,-96.10542 207.84232,-92.25588 L 505.3102,84.26758 C 426.06642,56.11392 356.34711,67.0358 291.09954,116.88914 z"/>
      <path d="m 491.29055,68.56381 c 30.86199,-17.13802 52.34857,29.7122 21.5063,46.61445 -12.44996,6.82285 -33.74947,-39.81567 -21.5063,-46.61445 z" style="fill:#f959b2;stroke:#d94195;stroke-width:12"/>
      <path d="m 487.70714,71.37856 c 19.07502,5.18312 30.80771,13.05089 40.13846,25.55434" style="fill:none;stroke:#d94195;stroke-width:6"/></g></g></svg>
