<?xml version="1.0" encoding="UTF-8" standalone="no"?>
<!-- Created with Inkscape (http://www.inkscape.org/) -->

<svg xmlns:dc="http://purl.org/dc/elements/1.1/" xmlns:cc="http://creativecommons.org/ns#" xmlns:rdf="http://www.w3.org/1999/02/22-rdf-syntax-ns#" xmlns:svg="http://www.w3.org/2000/svg" xmlns="http://www.w3.org/2000/svg" xmlns:xlink="http://www.w3.org/1999/xlink" xmlns:sodipodi="http://sodipodi.sourceforge.net/DTD/sodipodi-0.dtd" xmlns:inkscape="http://www.inkscape.org/namespaces/inkscape" width="1082.1019" height="708.23267" id="svg2" version="1.1" inkscape:version="0.48.5 r" sodipodi:docname="Sketch-Haven.svg">
  <sodipodi:namedview id="base" pagecolor="#ffffff" bordercolor="#666666" borderopacity="1.0" inkscape:pageopacity="0.0" inkscape:pageshadow="2" inkscape:zoom="0.76104934" inkscape:cx="541.05096" inkscape:cy="354.11633" inkscape:document-units="px" inkscape:current-layer="layer2" showgrid="true" inkscape:window-width="1364" inkscape:window-height="698" inkscape:window-x="0" inkscape:window-y="0" inkscape:window-maximized="1" showguides="true" inkscape:guide-bbox="true" inkscape:object-nodes="false" inkscape:object-paths="false" inkscape:snap-smooth-nodes="false" inkscape:snap-nodes="true" fit-margin-top="0" fit-margin-left="0" fit-margin-right="0" fit-margin-bottom="0" />
  <defs id="defs4">
    <inkscape:path-effect effect="skeletal" id="path-effect4534" is_visible="true" pattern="M 126.14108,0 C 112.10175,0 97,1.25 80,4 c 16.75,2.75 32.35175,4 46.14108,4 l 813,0 0,-8 z" copytype="single_stretched" prop_scale="1" scale_y_rel="false" spacing="0" normal_offset="0" tang_offset="0" prop_units="false" vertical_pattern="false" fuse_tolerance="0" pattern-nodetypes="scsccs" />
    <inkscape:path-effect effect="skeletal" id="path-effect4502" is_visible="true" pattern="M -553.85892,0 C -567.89825,0 -583,1.25 -600,4 c 16.75,2.75 32.35175,4 46.14108,4 l 893,0 0,-8 z" copytype="single_stretched" prop_scale="1" scale_y_rel="false" spacing="0" normal_offset="0" tang_offset="0" prop_units="false" vertical_pattern="false" fuse_tolerance="0" pattern-nodetypes="scsccs" />
    <inkscape:path-effect effect="skeletal" id="path-effect4482" is_visible="true" pattern="M 276.14108,81 C 264.35175,81 253.25,82.25 241,85 c 12.25,3 23.35175,4 35.14108,4 l 34,0 C 321.50587,89 332.75,88 344,85 332.75,82.5 321.50587,81 310.14108,81 z" copytype="single_stretched" prop_scale="1" scale_y_rel="false" spacing="0" normal_offset="0" tang_offset="0" prop_units="false" vertical_pattern="false" fuse_tolerance="0" pattern-nodetypes="scsscss" />
    <inkscape:path-effect effect="skeletal" id="path-effect4448" is_visible="true" pattern="m 510.09649,175.36248 c -14.03933,0 -29.14108,1.25 -46.14108,4 16.75,2.75 32.35175,4 46.14108,4 l 113,0 0,-8 z" copytype="single_stretched" prop_scale="1" scale_y_rel="false" spacing="0" normal_offset="0" tang_offset="0" prop_units="false" vertical_pattern="false" fuse_tolerance="0" pattern-nodetypes="scsccs" />
    <inkscape:path-effect effect="skeletal" id="path-effect4426" is_visible="true" pattern="m 664.14107,158 c -14.03933,0 -29.14108,1.25 -46.14108,4 16.75,2.75 32.35175,4 46.14108,4 l 291,0 c 11.36479,0 22.60892,-1 33.85892,-4 -11.25,-2.5 -22.49413,-4 -33.85892,-4 z" copytype="single_stretched" prop_scale="1" scale_y_rel="false" spacing="0" normal_offset="0" tang_offset="0" prop_units="false" vertical_pattern="false" fuse_tolerance="0" pattern-nodetypes="scsscss" />
    <inkscape:path-effect effect="skeletal" id="path-effect4262" is_visible="true" pattern="m 467.39503,200.81832 c -11.78933,0 -22.89108,1.25 -35.14108,4 12.25,3 23.35175,4 35.14108,4 l 185,0 c 17.86479,0 44.35892,-1 60.85892,-4 -16.54665,-3.01017 -43.03721,-4 -60.85892,-4 z" copytype="single_stretched" prop_scale="1" scale_y_rel="false" spacing="0" normal_offset="0" tang_offset="0" prop_units="false" vertical_pattern="false" fuse_tolerance="0" pattern-nodetypes="scsscss" />
    <linearGradient id="linearGradient4253" inkscape:collect="always">
      <stop id="stop4255" offset="0" style="stop-color:#004b3c;stop-opacity:1" />
      <stop id="stop4257" offset="1" style="stop-color:#00ba95;stop-opacity:1" />
    </linearGradient>
    <inkscape:path-effect pattern-nodetypes="scsscss" fuse_tolerance="0" vertical_pattern="false" prop_units="false" tang_offset="0" normal_offset="0" spacing="0" scale_y_rel="false" prop_scale="1" copytype="single_stretched" pattern="m 312.32694,-96.166522 c -11.78933,0 -22.89108,1.25 -35.14108,4 12.25,3 23.35175,4 35.14108,4 l 282,0 c 11.36479,0 22.60892,-1 33.85892,-4 -11.25,-2.5 -22.49413,-4 -33.85892,-4 z" is_visible="true" id="path-effect4161" effect="skeletal" />
    <inkscape:path-effect pattern-nodetypes="scsscss" fuse_tolerance="0" vertical_pattern="false" prop_units="false" tang_offset="0" normal_offset="0" spacing="0" scale_y_rel="false" prop_scale="1" copytype="single_stretched" pattern="m 600.30274,113.60155 c -11.78933,0 -22.89108,1.25 -35.14108,4 12.25,3 23.35175,4 35.14108,4 l 172,0 c 11.36479,0 22.60892,-1 33.85892,-4 -11.25,-2.5 -22.49413,-4 -33.85892,-4 z" is_visible="true" id="path-effect4122" effect="skeletal" />
    <clipPath id="clipPath4188" clipPathUnits="userSpaceOnUse">
      <path sodipodi:nodetypes="cccc" inkscape:connector-curvature="0" id="path4190" d="m 452.875,-186.21875 c 21.24469,18.57948 47.96002,49.27928 77.40625,94.375 47.36346,45.214136 35.41987,115.344449 -3.46875,79.375 C 485.195,-33.769258 454.69346,-53.682269 434.0625,-70.5 L 424,52.094482 l 188.5,12 -2.5,-312.500002 -150.5,0 z" style="font-size:medium;font-style:normal;font-variant:normal;font-weight:normal;font-stretch:normal;text-indent:0;text-align:start;text-decoration:none;line-height:normal;letter-spacing:normal;word-spacing:normal;text-transform:none;direction:ltr;block-progression:tb;writing-mode:lr-tb;text-anchor:start;baseline-shift:baseline;color:black;fill:none;stroke:yellow;stroke-width:1;stroke-miterlimit:4;stroke-dasharray:none;marker:none;visibility:visible;display:inline;overflow:visible;enable-background:accumulate;font-family:Sans;-inkscape-font-specification:Sans" />
    </clipPath>
    <clipPath id="clipPath4192" clipPathUnits="userSpaceOnUse">
      <path sodipodi:nodetypes="cccccc" inkscape:connector-curvature="0" id="path4194" d="m 470.22055,-30.618993 c 8.54901,-0.343928 17.28135,1.423091 25.97518,3.734536 13.71951,3.688887 27.03081,9.107617 40.13548,15.114205 l -9.23202,-79.882485 c -7.41313,-11.605893 -13.96977,-23.780503 -19.8526,-36.289653 -5.65927,-12.04368 -10.69227,-24.35551 -14.70611,-36.96462 L 436,-242.40552 l -79.5,40 18.5,139.000002 z" style="fill:none;stroke:yellow;stroke-width:1;stroke-miterlimit:4;stroke-dasharray:none" />
    </clipPath>
    <clipPath id="clipPath4200" clipPathUnits="userSpaceOnUse">
      <use height="1" width="1" id="use4202" xlink:href="#path4186" y="0" x="0" />
    </clipPath>
    <clipPath id="clipPath4271" clipPathUnits="userSpaceOnUse">
      <use height="1" width="1" id="use4273" xlink:href="#path4239" y="0" x="0" />
    </clipPath>
    <clipPath id="clipPath3843" clipPathUnits="userSpaceOnUse">
      <use height="1" width="1" id="use3845" xlink:href="#path4235" y="0" x="0" />
    </clipPath>
    <linearGradient inkscape:collect="always" xlink:href="#linearGradient4253" id="linearGradient4166" gradientUnits="userSpaceOnUse" x1="749.52435" y1="140.36308" x2="750.90186" y2="203.06442" />
    <linearGradient inkscape:collect="always" xlink:href="#linearGradient4253" id="linearGradient4203" x1="763.42682" y1="138.51587" x2="765.5943" y2="200.24205" gradientUnits="userSpaceOnUse" />
    <clipPath clipPathUnits="userSpaceOnUse" id="clipPath4215">
      <use x="0" y="0" xlink:href="#path4241" id="use4217" width="1" height="1" />
    </clipPath>
    <clipPath clipPathUnits="userSpaceOnUse" id="clipPath4230">
      <use x="0" y="0" xlink:href="#path4237" id="use4232" width="1" height="1" />
    </clipPath>
    <linearGradient inkscape:collect="always" xlink:href="#linearGradient4253" id="linearGradient3973" gradientUnits="userSpaceOnUse" x1="749.52435" y1="140.36308" x2="750.90186" y2="203.06442" />
    <linearGradient inkscape:collect="always" xlink:href="#linearGradient4253" id="linearGradient3975" gradientUnits="userSpaceOnUse" x1="763.42682" y1="138.51587" x2="765.5943" y2="200.24205" />
  </defs>
  <metadata id="metadata7">
    <rdf:RDF>
      <cc:Work rdf:about="">
        <dc:format>image/svg+xml</dc:format>
        <dc:type rdf:resource="http://purl.org/dc/dcmitype/StillImage" />
        <dc:title />
      </cc:Work>
    </rdf:RDF>
  </metadata>
  <g inkscape:groupmode="layer" id="layer2" inkscape:label="Drawing" style="display:inline" transform="translate(133.50453,320.96875)">
    <g id="g3903">
      <path id="path4223" style="fill:#2261ac;fill-opacity:1;stroke:#042e63;stroke-width:8;stroke-miterlimit:20;stroke-opacity:1;stroke-dasharray:none" d="m 581.07554,47.608382 c 64.33112,-192.592352 -8.53424,-271.610492 -37.79629,-258.875492 -10.28323,4.47536 -9.56967,32.4239 -2.37421,64.52992 -74.5616,-129.32486 -127.71935,-85.94125 -28.97802,44.90632 -84.99185,-67.88415 -109.79263,-25.63064 -4.60812,63.99998 -19.71879,-5.079548 -29.42591,0.283984 -33.03622,8.08592 -11.68409,25.249476 50.5897,33.636274 79.26844,80.33031 z" inkscape:connector-curvature="0" sodipodi:nodetypes="cscccscc" />
      <path sodipodi:nodetypes="csscc" inkscape:connector-curvature="0" id="path3007" d="m 530.92893,110.68026 c -34.91606,83.69347 12.58354,143.73599 -11.95052,228.94335 -9.88441,34.32876 105.00206,61.47109 107.56541,29.20127 C 636.45146,244.0985 563.17158,208.45845 575.58579,121.5087 z" style="fill:#2261ac;fill-opacity:1;stroke:#042e63;stroke-width:8;stroke-linecap:butt;stroke-linejoin:miter;stroke-miterlimit:4;stroke-opacity:1;stroke-dasharray:none;stroke-dashoffset:7.8" />
      <g id="g4544">
        <path sodipodi:nodetypes="ssssscs" inkscape:connector-curvature="0" id="path4542" d="M 442.69797,32.796478 C 461.52427,-48.01782 333.46337,88.050175 326.41658,57.714797 324.1147,47.805534 307.60971,46.939433 304.99934,48.619034 254.03982,81.408092 204.96592,93.253843 148.54846,104.23614 c -38.89687,7.57173 6.69677,120.70193 38.60746,106.81896 66.91756,-29.11296 112.25705,-56.5714 160.87449,-105.82827 45.78436,4.94573 82.51804,-20.276987 94.66756,-72.430352 z" style="fill:#2261ac;fill-opacity:1;stroke:none" />
        <path style="fill:#042e63;fill-opacity:1;stroke:none" d="m 366.60107,101.46899 c -1.11446,0.0929 -2.23727,0.17376 -3.36883,0.24213 -6.09841,0.37108 -12.46271,0.39129 -19.23222,0.0344 -6.76952,-0.35687 -13.94889,-1.09112 -21.58018,-2.282107 6.7287,3.541057 13.72751,6.217737 20.69133,7.922357 6.96382,1.70463 13.88918,2.4387 20.46445,2.2626 1.24292,-0.0339 2.4726,-0.10156 3.68636,-0.20154 11.56687,-0.95273 23.00851,-4.09557 33.33109,-9.623421 11.44,-6.163488 21.19404,-15.138114 28.604,-25.687493 1e-5,-1.1e-5 2e-5,-2.3e-5 3e-5,-3.4e-5 8.54499,-12.190247 14.09332,-26.158923 17.39656,-40.431884 1.01441,-4.293373 1.8325,-8.802138 1.97681,-13.502662 0,-7e-6 0,-1.4e-5 0,-2.1e-5 0.14793,-3.016554 -0.13162,-6.419802 -1.48781,-9.843777 -0.52776,-1.2892836 -1.30246,-2.5589629 -2.34799,-3.7232561 -10e-6,-7.6e-6 -10e-6,-1.52e-5 -2e-5,-2.28e-5 -0.97907,-1.0638156 -2.14208,-1.9259277 -3.43373,-2.5501694 -2.87468,-1.2761626 -5.74423,-1.5236519 -8.22455,-1.2030932 -10e-6,1.1e-6 -10e-6,2.1e-6 -2e-5,3.1e-6 -3.2499,0.3391208 -6.24278,1.2110248 -8.97336,2.2430093 -3.47019,1.2878358 -6.75802,2.8454426 -9.91345,4.4935264 -7.73134,4.0324917 -15.01492,8.6746697 -22.13056,13.3683037 -7.77394,5.122418 -15.38801,10.397923 -23.02656,15.55117 0,3e-6 -10e-6,7e-6 -10e-6,1.1e-5 -6.89226,4.646052 -13.73463,9.222427 -20.80474,13.240904 -2.80791,1.593534 -5.60023,3.08314 -8.43713,4.305042 -2.19494,0.923098 -4.25396,1.721337 -6.21156,2.005869 -0.72308,0.101542 -1.34726,0.163301 -1.84624,0.102621 0,-10e-7 0,-10e-7 -10e-6,-2e-6 -0.39474,-0.05989 -0.68478,-0.103507 -0.79065,-0.190943 -0.0813,-0.03397 -0.18402,-0.129461 -0.25158,-0.225665 -0.13528,-0.135196 -0.23913,-0.489926 -0.37766,-0.965144 -0.85985,-3.395442 -2.84857,-6.208416 -5.4312,-8.121092 -2.53049,-1.873191 -5.31242,-3.051659 -8.04171,-3.73627 -10e-6,-4e-6 -3e-5,-8e-6 -4e-5,-1.2e-5 -2.49698,-0.659449 -5.09291,-1.012437 -7.7169,-1.014163 -0.98586,-0.007 -2.06008,0.05379 -3.20648,0.237546 -0.62231,0.01143 -1.68739,0.312226 -3.08157,1.079482 -23.37306,15.043869 -48.8057,26.862902 -75.26181,35.549427 -25.91594,8.515762 -52.78079,14.241302 -79.78897,19.50521 -2.73746,0.52078 -5.42472,1.58779 -7.83766,3.23616 -10e-6,10e-6 -3e-5,2e-5 -4e-5,3e-5 -2.28297,1.59494 -4.16315,3.61662 -5.58977,5.87511 -3.1887,5.17708 -4.40987,10.97464 -4.66549,16.40912 0,1e-5 0,3e-5 0,4e-5 -0.39773,6.81074 0.35338,13.5212 1.64131,19.96656 1.445,7.30658 3.58949,14.43178 6.23122,21.32435 2.66753,6.97252 5.86495,13.76495 9.64141,20.24726 3.40061,5.85486 7.32653,11.53716 12.05641,16.64115 1e-5,10e-6 2e-5,2e-5 3e-5,3e-5 3.74972,4.11646 8.29744,7.9967 13.92542,10.43838 2.35193,1.00919 4.95959,1.6659 7.71876,1.77634 2.69493,0.0847 5.37636,-0.42958 7.84591,-1.50136 30.21486,-13.13705 60.02731,-27.68133 87.88192,-45.6568 26.99604,-17.43815 51.75089,-38.15377 74.30359,-60.93743 l -5.68496,-5.6286 c -22.20568,22.42292 -46.5121,42.77452 -72.95832,59.84538 -27.30749,17.64408 -56.73721,31.98329 -86.73373,45.04163 -1.37132,0.59921 -2.9019,0.89347 -4.39335,0.84144 -1.57256,-0.031 -3.23206,-0.47999 -4.87428,-1.15323 -4.10269,-1.65714 -7.73244,-4.89541 -11.1715,-8.51247 -1e-5,-1e-5 -2e-5,-2e-5 -3e-5,-3e-5 -4.2144,-4.51808 -7.78956,-9.7276 -11.00412,-15.22281 -3.54224,-6.07486 -6.55316,-12.47789 -9.08191,-19.07903 -2.49694,-6.53061 -4.51564,-13.21881 -5.85389,-20.01333 -1.17323,-6.02386 -1.87878,-12.05599 -1.50466,-17.9316 1e-5,-1e-5 1e-5,-2e-5 1e-5,-3e-5 0.36044,-4.69107 1.16933,-9.21844 3.42864,-12.59854 0,0 0,-1e-5 1e-5,-1e-5 0.92512,-1.4354 2.07249,-2.69585 3.39131,-3.5914 1.36507,-0.96397 3.04523,-1.60684 4.81636,-1.96371 27.10504,-5.26984 54.29202,-11.079254 80.75537,-19.756825 27.05864,-8.879525 53.10254,-20.989666 77.09561,-36.42275 -0.46241,0.167728 -0.4015,0.254698 0.0691,0.08382 0.5357,-0.09683 1.17138,-0.121322 1.89086,-0.128512 10e-6,0 2e-5,0 3e-5,0 1.89334,-0.0021 3.81151,0.263379 5.68362,0.751649 10e-6,3e-6 3e-5,6e-6 4e-5,9e-6 2.01486,0.561639 3.86398,1.286478 5.24323,2.375386 1.24223,0.985114 2.24379,2.275946 2.46973,3.554663 0.25209,1.206322 0.77549,2.496375 1.63633,3.771113 0.79396,1.123217 1.84028,2.043792 3.08243,2.700917 1.29955,0.646448 2.58112,0.98186 3.76528,1.066325 2e-5,2e-6 4e-5,3e-6 6e-5,5e-6 1.39337,0.112323 2.67995,0.02841 3.83344,-0.169067 3.00845,-0.506786 5.70593,-1.490698 8.12691,-2.562886 3.22977,-1.400485 6.28281,-3.020126 9.21928,-4.69515 7.39908,-4.214504 14.41401,-8.897964 21.32242,-13.56216 1e-5,-8e-6 2e-5,-1.5e-5 3e-5,-2.3e-5 7.69372,-5.190251 15.28358,-10.449606 22.95389,-15.50272 7.05566,-4.643212 14.10383,-9.147029 21.42433,-12.953221 2.98643,-1.550472 5.9672,-2.97201 8.99222,-4.085319 2.42488,-0.873882 4.7504,-1.592788 6.97132,-1.784014 1e-5,0 2e-5,-10e-7 3e-5,-10e-7 1.65485,-0.0803 3.10761,-0.08564 3.9742,0.444616 0.38183,0.183773 0.73882,0.446688 1.01567,0.752579 0,5e-6 10e-6,9e-6 10e-6,1.3e-5 0.32796,0.333647 0.61022,0.835341 0.87065,1.419301 0.79689,1.693111 0.86872,3.989136 0.86465,6.522107 0,1.2e-5 0,2.4e-5 0,3.6e-5 -0.0905,3.871563 -0.84002,7.848313 -1.77119,11.906615 -3.16303,13.484326 -8.29531,26.523728 -16.14838,37.644064 -1e-5,1e-5 -2e-5,2.1e-5 -3e-5,3.1e-5 -6.75872,9.592032 -15.59376,17.751843 -25.84698,23.243047 -9.234,4.978918 -19.63388,7.81158 -30.20582,8.6929 z" id="path4220" inkscape:connector-curvature="0" sodipodi:nodetypes="csssssc" inkscape:path-effect="#path-effect4534" inkscape:original-d="M 322.41984,99.463423 C 379.79849,118.37803 428.36218,94.334682 442.69797,32.796478 461.52427,-48.01782 333.46337,88.050175 326.41658,57.714797 324.1147,47.805534 307.60971,46.939433 304.99934,48.619034 254.03982,81.408092 204.96592,93.253843 148.54846,104.23614 c -38.89687,7.57173 6.69677,120.70193 38.60746,106.81896 66.91756,-29.11296 112.25705,-56.5714 160.93878,-105.74062" />
      </g>
      <g id="g3898">
        <path style="fill:#1a1363;fill-opacity:1;stroke:none" d="M -99.163062,-130.10978 C 40.383891,-243.19562 149.12023,37.596784 404.42775,-36.176291 532.51033,-227.79851 381.06257,-300.69213 172.84343,-231.96816 c -83.499297,27.55944 -144.637807,1.4867 -192.060835,-76.4794 -1.934316,22.18528 2.482742,40.78828 16.1269094,59.65552 -23.0396834,3.60511 -43.4683264,10.62308 -63.2756304,31.19548 -20.671908,21.4704 -47.491224,15.9261 -55.959134,-25.86312 -26.29493,48.7594 23.397259,84.51087 69.186848,64.6369 -20.917512,8.15944 -37.302861,24.39782 -46.02465,48.713 z" id="path3888" inkscape:connector-curvature="0" sodipodi:nodetypes="ccsccsccc" />
        <path id="path3884" style="fill:#7e3eca;fill-opacity:1;stroke:none" d="m 115.10605,-133.02075 c -91.079472,-70.28682 -187.845201,-70.75535 -214.269112,2.91097 139.546953,-113.08584 248.283292,167.706564 503.590812,93.933489 -85.65803,7.35733 -174.20782,-8.010076 -289.3217,-96.844459 z m 289.3217,96.844459 C 310.80428,-104.069 196.23814,-169.4804 83.387013,-224.40374 c -40.448322,-8.905 -74.018188,-37.04647 -102.604418,-84.04382 -1.934316,22.18528 2.482742,40.78828 16.1269094,59.65552 -23.0396834,3.60511 -43.4683264,10.62308 -63.2756304,31.19548 C 99.396778,-238.41025 198.86279,-64.332759 404.42775,-36.176291 z M 194.89615,-238.78221 c 102.86969,23.59549 192.59831,85.22071 209.5316,202.605919 C 350.37146,-128.96801 245.60101,-195.9342 143.10343,-224.24305 c 21.98082,-3.81256 34.31684,-10.1716 51.79272,-14.53916 z m 100.48532,-18.01163 c 116.99914,19.99071 164.24562,108.71301 109.04628,220.617549 C 429.3355,-154.57015 346.91033,-233.67466 246.9683,-250.993 c 15.53737,-2.83415 31.57583,-4.91665 48.41317,-5.80084 z" inkscape:connector-curvature="0" />
        <path id="path3866" style="fill:none;stroke:#010019;stroke-width:8;stroke-linecap:butt;stroke-linejoin:miter;stroke-miterlimit:4;stroke-opacity:1;stroke-dasharray:none;stroke-dashoffset:7.8" d="m 295.38147,-256.79384 c 116.99914,19.99071 164.24562,108.71301 109.04628,220.617549 C 429.3355,-154.57015 346.91033,-233.67466 246.9683,-250.993 m -52.07215,12.21079 c 102.86969,23.59549 192.59831,85.22071 209.5316,202.605919 C 350.37146,-128.96801 245.60101,-195.9342 143.10343,-224.24305 m -59.715174,-0.16042 C 196.23814,-169.4804 310.80428,-104.069 404.42775,-36.176291 198.86279,-64.332759 99.396778,-238.41025 -66.366126,-217.59656 M 404.42775,-36.176291 c -85.65803,7.35733 -174.20782,-8.010076 -289.3217,-96.844459 -91.079472,-70.28682 -187.845201,-70.75535 -214.269112,2.91097 C 40.383891,-243.19562 149.12023,37.596784 404.42775,-36.176291 532.51033,-227.79851 381.06257,-300.69213 172.84343,-231.96816 c -83.499297,27.55944 -144.637807,1.4867 -192.060835,-76.4794 -1.934316,22.18528 2.482742,40.78828 16.1269094,59.65552 -23.0396834,3.60511 -43.4683264,10.62308 -63.2756304,31.19548 -20.671908,21.4704 -47.491224,15.9261 -55.959134,-25.86312 -26.29493,48.7594 23.397259,84.51087 68.789457,64.79425" inkscape:connector-curvature="0" />
      </g>
      <g id="g4747">
        <path style="fill:#7e3eca;fill-opacity:1;stroke:none" d="M 661.36901,306.9351 C 632.03096,279.86196 645.03561,241.54474 721.24898,259.35658 972.89713,318.1693 1023.7016,34.014942 813.00449,9.8973983 576.00285,-17.231108 636.51624,131.59799 504.98589,146.20361 c -94.38146,10.48047 -60.15274,104.10795 -173.2697,71.29282 23.01132,27.83018 46.16148,38.46324 79.65329,38.88433 -11.93085,7.86464 -27.55636,11.87021 -51.24124,8.2536 22.51224,29.59921 56.00924,33.21068 83.68837,7.56201 -6.85262,25.15949 1.07457,51.28247 24.3849,64.88017 -9.35146,-28.42843 -3.01689,-53.16753 18.31077,-64.78087 -6.51415,18.00679 3.29897,38.02439 27.75386,44.97472 -15.86994,-26.97892 6.99474,-64.8016 41.4933,-49.93249 26.67905,11.49885 46.67088,10.13729 62.55952,0.18175 -1.11875,20.97863 13.69385,42.38568 43.05005,39.41545 z" id="path4727" inkscape:connector-curvature="0" sodipodi:nodetypes="cssscccccccscc" />
        <path sodipodi:nodetypes="cccccccccccccccccsccccccccscsccsccsccs" inkscape:connector-curvature="0" id="path4742" style="fill:#1a1363;fill-opacity:1;stroke:none" d="M 923.33301,203.32018 C 904.94023,125.37719 850.91205,79.93592 778.32038,45.079802 818.2595,122.12766 873.6096,141.12548 884.864,240.81479 900.66357,230.4427 913.97988,218.29686 923.33301,203.32018 z M 910.94388,53.128406 C 870.90913,39.323313 826.63819,35.416237 778.32038,45.079802 848.16661,56.726727 902.68449,86.139583 944.59076,136.1875 944.31478,106.0701 936.04134,77.729918 910.94388,53.128406 z M 811.4347,9.7197952 C 795.06292,19.101195 786.99824,29.749596 778.32038,45.079802 747.13262,40.190294 728.8203,30.787211 705.87324,11.547008 741.06039,4.7007161 776.24755,5.5420401 811.4347,9.7197952 z M 645.73566,37.504888 c 38.14117,23.960474 78.46168,28.496915 132.58472,7.574914 -50.70436,32.033335 -107.56547,42.193058 -169.66711,30.457315 11.12735,-13.910852 23.34864,-26.72777 37.08239,-38.032229 z m 132.58472,7.574914 C 843.23551,110.97111 744.90975,219.97195 659.3613,227.15428 c -56.96905,4.78291 -53.1843,85.3651 2.00771,79.78082 -27.96251,-25.80379 -17.45979,-61.82201 49.61661,-49.71309 95.47377,-51.16604 130.95599,-143.68021 67.33476,-212.142208 z m 47.29575,218.778778 c 44.25826,-82.2927 29.38075,-165.733112 -47.29575,-218.778778 66.73163,80.087938 52.03199,155.689378 -3.21964,222.007058 17.75208,1.20796 34.60737,0.17392 50.51539,-3.22828 z M 468.20151,337.07654 C 414.33711,305.65563 442.61214,207.35498 545.10414,210.34746 636.57258,213.01807 773.4886,129.29087 778.32038,45.079802 791.01054,129.03021 655.6084,245.8857 563.68203,239.57169 c -45.17114,-3.1026 -70.22417,13.65052 -77.15734,32.68979 -21.34007,11.64753 -27.67464,36.38663 -18.32318,64.81506 z m 36.78438,-190.87293 c -94.38146,10.48047 -60.15274,104.10795 -173.2697,71.29282 23.01132,27.83018 46.16148,38.46324 79.39765,39.05096 33.00989,-21.27564 39.64089,-72.2103 110.36495,-79.66571 92.29513,-9.72934 238.89495,-47.59082 256.84159,-131.801878 -53.84303,53.022286 -125.86388,73.224738 -210.82285,76.622528 -15.37688,12.27733 -34.6293,21.40512 -62.51164,24.50128 z" />
        <path inkscape:connector-curvature="0" id="path4640" style="fill:none;stroke:#010019;stroke-width:8;stroke-linecap:butt;stroke-linejoin:miter;stroke-miterlimit:4;stroke-opacity:1;stroke-dasharray:none;stroke-dashoffset:7.8" d="m 486.50595,272.3132 c -21.32133,11.59581 -27.6559,36.33491 -18.30444,64.76334 C 414.33711,305.65563 442.61214,207.35498 545.10414,210.34746 636.57258,213.01807 773.4886,129.29087 778.32038,45.079802 791.01054,129.03021 655.6084,245.8857 563.68203,239.57169 c -88.09292,-6.05071 -99.67074,63.41575 -49.41589,77.6987 -15.86994,-26.97892 6.99474,-64.8016 41.4933,-49.93249 26.67905,11.49885 46.67088,10.13729 62.54084,0.61532 m 207.31585,-4.09464 c 44.25826,-82.2927 29.38075,-165.733112 -47.29575,-218.778778 66.73163,80.087938 52.03199,155.689378 -3.21964,222.007058 m -331.24535,4.96828 c -27.71791,25.7899 -61.21491,22.17843 -83.72715,-7.42078 87.636,13.38177 64.93426,-77.58891 161.35055,-87.75268 92.29513,-9.72932 238.89495,-47.59082 256.84159,-131.801878 -53.84303,53.022286 -125.86388,73.224738 -210.732,76.549848 M 711.02752,257.22958 C 806.45939,206.05597 841.94161,113.5418 778.32038,45.079802 843.23551,110.97111 744.90975,219.97195 659.3613,227.15428 c -56.96905,4.78291 -53.1843,85.3651 2.00771,79.78082 -29.33805,-27.07314 -16.3334,-65.39036 59.87997,-47.57852 C 972.89713,318.1693 1023.7016,34.014942 813.00449,9.8973983 576.00285,-17.231108 636.51624,131.59799 504.98589,146.20361 c -94.38146,10.48047 -60.15274,104.10795 -173.2697,71.29282 23.01132,27.83018 46.16148,38.46324 79.48837,38.99225 M 645.73566,37.504888 c 38.14117,23.960474 78.46168,28.496915 132.58472,7.574914 C 727.61602,77.113137 670.75491,87.27286 608.65327,75.537117 M 811.4347,9.7197952 C 795.06292,19.101195 786.99824,29.749596 778.32038,45.079802 747.13262,40.190294 728.8203,30.787211 705.87324,11.547008 M 910.94388,53.128406 C 870.90913,39.323313 826.63819,35.416237 778.32038,45.079802 848.16661,56.726727 902.68449,86.139583 944.59076,136.1875" />
      </g>
      <path style="fill:#428bc9;fill-opacity:1;stroke:none" d="M 767.87485,294.17662 C 715.4258,302.38894 663.40717,256.95273 648.51401,199.02902 545.67419,113.32372 431.13042,141.32718 356.14691,73.220411 338.09633,75.430052 320.19165,71.401732 302.32561,61.623395 233.59268,80.729357 159.94378,84.39848 86.58579,72.437627 52.239496,66.837542 72.094671,-47.154126 109.92893,-35.369985 c 54.4896,16.971738 122.49405,27.0879746 183.02081,24.171574 8.59973,-0.414366 12.94859,9.4095779 11.78597,18.0532891 C 334.86402,1.0801233 336.98936,-28.134012 367,-41.905518 c 87.82483,-40.301711 184.89937,130.343714 368.62983,93.832982 161.11633,-32.016875 191.0629,198.083526 33.8765,222.328976 2.09174,11.07204 5.77148,18.76105 -1.63148,19.92018 z" id="path4560" inkscape:connector-curvature="0" sodipodi:nodetypes="scccssscsscs" />
      <path inkscape:original-d="M 416.2929,46.387375 C 367.16906,84.357798 322.95913,81.851315 279.70711,46.008696" inkscape:path-effect="#path-effect4482" style="fill:#0b538d;fill-opacity:1;stroke:none" d="m 372.42108,74.250205 c 3.19191,-0.904884 6.28951,-1.996201 9.28668,-3.254436 6.58004,-2.764638 12.6868,-6.262275 18.41923,-10.386705 5.73243,-4.12443 11.08919,-8.881546 16.16591,-14.221689 -6.50939,3.486645 -12.74373,6.688316 -18.89635,9.597803 -6.15261,2.909488 -12.22595,5.531791 -18.49274,7.774209 -2.84157,1.017412 -5.72599,1.952994 -8.66793,2.788272 -7.96376,2.261077 -16.185,3.472962 -24.37398,3.330776 -7.51498,-0.110977 -15.02106,-1.3649 -22.28038,-3.544927 -3.273,-0.982907 -6.50159,-2.106926 -9.68509,-3.348167 -5.81947,-2.266348 -11.50176,-4.914115 -17.16603,-7.79063 -5.66426,-2.876515 -11.31223,-5.982212 -17.02329,-9.186015 4.33394,4.865598 9.07702,9.43208 14.27136,13.502951 5.19433,4.070872 10.84085,7.646571 16.92154,10.509979 3.34209,1.571737 6.81493,2.909619 10.38148,3.978595 7.91039,2.370922 16.14059,3.735602 24.45276,3.877196 9.05421,0.132984 18.04641,-1.177713 26.68683,-3.627212 z" id="path4208" inkscape:connector-curvature="0" sodipodi:nodetypes="cc" />
      <g transform="matrix(0.78885541,-0.42925213,0.50514075,0.82419558,36.20972,155.73647)" id="g4216" />
      <path inkscape:original-d="M 290.53553,7.2660553 C 334.80575,9.3873756 332.8718,-26.244516 367,-41.905518 454.82483,-82.20723 551.89937,88.438196 735.62983,51.927464 896.74616,19.910589 926.69273,250.01099 769.52977,274.41518" inkscape:path-effect="#path-effect4502" style="fill:#0b538d;fill-opacity:1;stroke:none" d="m 326.0154,-9.5055663 c -3.38747,3.396077 -6.94664,6.6187459 -11.17576,9.14274554 -3.23195,1.99456826 -6.90665,3.58964096 -10.98745,4.84648946 -4.08081,1.2568485 -8.57128,2.1758769 -13.31666,2.7823866 4.59011,1.0526936 9.30838,1.5695075 13.93932,1.3535739 4.63093,-0.2159336 9.17275,-1.1636012 13.40501,-2.8985932 5.50505,-2.3387661 10.07908,-5.82525736 13.81165,-9.5550815 1.35702,-1.3560192 2.6493,-2.7559275 3.88406,-4.1767314 4.97679,-5.6620031 9.32783,-11.5084031 14.18474,-16.5307131 5.49866,-5.689015 11.85544,-10.512914 18.90797,-13.728532 4.97948,-2.283743 10.23968,-3.946648 15.6132,-4.88155 1e-5,-10e-7 2e-5,-2e-6 2e-5,-3e-6 5.23651,-0.91673 10.6179,-1.147253 15.97966,-0.80387 11.55549,0.71625 22.98285,4.137406 34.06157,8.555622 12.85862,5.151424 25.22362,11.722646 37.51123,18.59051 13.87997,7.7656385 27.59482,15.95657267 41.54102,23.8769 10e-6,3.4e-6 10e-6,6.7e-6 2e-5,1.01e-5 31.1316,17.7020239 63.59371,33.9444629 98.41038,43.7840019 19.09871,5.385087 38.78585,8.801671 58.6424,9.867827 22.10039,1.181041 44.31131,-0.560329 65.98168,-4.868676 17.41722,-3.439204 35.41981,-4.191889 52.57563,-0.638513 14.30946,2.947804 28.02025,8.933672 39.59641,17.727013 10e-6,8e-6 2e-5,1.6e-5 3e-5,2.3e-5 10.8522,8.220986 19.87635,18.871325 26.52023,30.822437 6.6454,11.95239 10.95068,25.21952 12.87199,38.81046 1.93996,13.75471 1.43781,27.86588 -1.53011,41.42515 0,1e-5 0,2e-5 -10e-6,3e-5 -3.01635,13.77354 -8.60499,26.99918 -16.55118,38.59653 -8.39852,12.27622 -19.49422,22.71774 -32.1856,30.53548 -14.70284,9.07776 -31.54412,14.63902 -48.79084,17.33319 l 1.22752,7.90526 c 18.13918,-2.80053 35.96963,-8.72625 51.75837,-18.42658 13.62955,-8.39185 25.52728,-19.59752 34.59168,-32.82794 8.54821,-12.49468 14.54153,-26.65687 17.76522,-41.40619 0,-1e-5 0,-2e-5 1e-5,-4e-5 3.17201,-14.50607 3.70963,-29.55965 1.63651,-44.25238 -2.04452,-14.52159 -6.65916,-28.71113 -13.80006,-41.577683 -7.15173,-12.884583 -16.89561,-24.36472 -28.67939,-33.311824 -12.61009,-9.550543 -27.39532,-16.023753 -42.81973,-19.18904 -18.4502,-3.76699 -37.50957,-3.017795 -55.74594,0.628045 -21.05151,4.181302 -42.60004,5.875347 -63.99454,4.726699 -19.22371,-1.027075 -38.33007,-4.347477 -56.90004,-9.579282 -33.85366,-9.515138 -65.7223,-25.509726 -96.62996,-43.0404509 -10e-6,-6.69e-6 -2e-5,-1.339e-5 -3e-5,-2.008e-5 C 503.48079,-7.7513709 489.75116,-15.950633 475.74029,-23.790759 c -12.3847,-6.937031 -25.05869,-13.655934 -38.43815,-19.033558 -1e-5,-5e-6 -3e-5,-10e-6 -4e-5,-1.5e-5 -11.52594,-4.652781 -23.77448,-8.260218 -36.52511,-9.114465 -5.93883,-0.386784 -11.95018,-0.122182 -17.86953,0.906105 -2e-5,3e-6 -3e-5,5e-6 -5e-5,8e-6 -6.07686,1.06147 -11.99122,2.927748 -17.57569,5.49167 -8.09826,3.736891 -15.26299,9.134005 -21.33184,15.448177 -5.30701,5.524419 -9.74094,11.460878 -14.43341,16.800893 -1.15761,1.301321 -2.33889,2.571112 -3.55107,3.7863777 z" id="path3013" inkscape:connector-curvature="0" sodipodi:nodetypes="cssc" />
      <g id="g4180">
        <path transform="matrix(0.84749438,0.53080444,-0.53080444,0.84749438,197.31159,-396.98863)" d="m 813.21552,181.0899 c 0,33.44769 -19.91601,60.56239 -44.48365,60.56239 -24.56763,0 -44.48364,-27.1147 -44.48364,-60.56239 0,-33.44768 19.91601,-60.56238 44.48364,-60.56238 24.56764,0 44.48365,27.1147 44.48365,60.56238 z" sodipodi:ry="60.562389" sodipodi:rx="44.483643" sodipodi:cy="181.0899" sodipodi:cx="768.73187" id="path4235" style="fill:white;stroke:none" sodipodi:type="arc" />
        <g clip-path="url(#clipPath3843)" id="g3834">
          <g id="g4263" clip-path="url(#clipPath4271)">
            <path transform="matrix(0.88549048,0.84666788,-0.84666788,0.88549048,235.84381,-616.91629)" d="m 787.76714,171.57228 c 0,22.09076 -13.11135,39.99886 -29.28502,39.99886 -16.17367,0 -29.28503,-17.9081 -29.28503,-39.99886 0,-22.09076 13.11136,-39.99886 29.28503,-39.99886 16.17367,0 29.28502,17.9081 29.28502,39.99886 z" sodipodi:ry="39.998863" sodipodi:rx="29.285023" sodipodi:cy="171.57228" sodipodi:cx="758.48212" id="path4239" style="fill:url(#linearGradient3973);fill-opacity:1;stroke:none" sodipodi:type="arc" />
            <path style="fill:#99e3d4;fill-opacity:1;stroke:none" d="m 713.60159,166.94353 42.88827,15.84473 -47.60356,6.81647 z" id="path4251" inkscape:connector-curvature="0" sodipodi:nodetypes="cccc" />
            <path sodipodi:nodetypes="cccc" inkscape:connector-curvature="0" id="path4249" d="m 716.99151,159.08714 39.49835,23.70112 -45.6189,-8.86394 z" style="fill:#4cceb4;fill-opacity:1;stroke:none" />
            <path sodipodi:type="arc" style="fill:black;stroke:none" id="path4243" sodipodi:cx="758.48212" sodipodi:cy="171.57228" sodipodi:rx="30.539989" sodipodi:ry="42.528465" d="m 789.02211,171.57228 c 0,23.48782 -13.67322,42.52847 -30.53999,42.52847 -16.86677,0 -30.53999,-19.04065 -30.53999,-42.52847 0,-23.48782 13.67322,-42.52846 30.53999,-42.52846 16.86677,0 30.53999,19.04064 30.53999,42.52846 z" transform="matrix(0.68621442,0.7052583,-0.7052583,0.68621442,366.24984,-473.01684)" />
            <path transform="matrix(0.78612258,-0.48352463,0.48352463,0.78612258,88.361263,403.44209)" d="m 788.74328,155.70955 c 0,8.48032 -9.9974,15.35497 -22.32983,15.35497 -12.33242,0 -22.32983,-6.87465 -22.32983,-15.35497 0,-8.48032 9.99741,-15.35498 22.32983,-15.35498 12.33243,0 22.32983,6.87466 22.32983,15.35498 z" sodipodi:ry="15.354976" sodipodi:rx="22.32983" sodipodi:cy="155.70955" sodipodi:cx="766.41345" id="path4245" style="fill:white;stroke:none" sodipodi:type="arc" />
            <path sodipodi:type="arc" style="fill:white;stroke:none" id="path4247" sodipodi:cx="766.41345" sodipodi:cy="155.70955" sodipodi:rx="22.32983" sodipodi:ry="15.354976" d="m 788.74328,155.70955 c 0,8.48032 -9.9974,15.35497 -22.32983,15.35497 -12.33242,0 -22.32983,-6.87465 -22.32983,-15.35497 0,-8.48032 9.99741,-15.35498 22.32983,-15.35498 12.33243,0 22.32983,6.87466 22.32983,15.35498 z" transform="matrix(0.29693031,-0.123766,0.123766,0.29693031,511.83856,230.69385)" />
          </g>
        </g>
        <path sodipodi:nodetypes="cccccccccscsccc" inkscape:connector-curvature="0" d="m 749.99534,111.62916 5.97319,-1.75515 c -2.90098,-7.78729 -3.45768,-14.491961 -2.23707,-22.403029 -4.33621,8.197886 -5.22512,15.105939 -3.73612,24.158179 z m -9.3658,2.36278 5.7928,-2.28094 c -3.584,-7.49748 -4.95202,-14.550213 -4.4419,-22.538621 -3.58772,8.551984 -3.76096,15.591971 -1.3509,24.819561 z m -6.05149,5.51669 c 21.19108,-11.19949 41.14285,-10.58755 50.90272,-1.81596 21.30367,19.14648 20.85574,74.46725 -31.75247,100.87883 52.51068,-13.77109 64.34881,-81.29283 35.51844,-105.67571 -11.62868,-9.83479 -35.23368,-10.35085 -53.13219,-0.0983 -4.34258,-5.06908 -6.23364,-12.78704 -6.04934,-20.390267 -4.00153,10.535987 -1.93033,20.277207 4.51284,27.101417 z" style="fill:black;fill-opacity:1;fill-rule:nonzero;stroke:none" id="path3804" />
      </g>
      <g id="g4234">
        <path inkscape:connector-curvature="0" d="m 847.36339,223.3471 -4.06726,4.12459 c 6.32639,8.4763 14.27134,12.2533 24.88992,10.38275 -9.19818,-2.26919 -16.0971,-6.82667 -20.82266,-14.50734 z m 5.36838,-7.85228 -3.26592,4.78422 c 7.8828,7.31193 16.37303,9.61192 26.21822,6.2743 -9.08045,-0.59128 -17.10357,-4.36273 -22.9523,-11.05852 z" style="fill:black;fill-opacity:1;fill-rule:nonzero;stroke:none" id="path4029" />
        <path sodipodi:nodetypes="cccc" inkscape:connector-curvature="0" id="path4237" d="m 770.52977,249.34442 c 27.88475,-32.22911 67.99808,-46.1182 91.4261,-36.84461 -22.45185,41.48711 -54.00476,56.469 -92.80741,63.05813 -1.95234,-8.29742 -1.0591,-20.11248 1.38131,-26.21352 z" style="fill:white;stroke:none" />
        <g id="g4221" clip-path="url(#clipPath4230)">
          <g clip-path="url(#clipPath4215)" id="g4207">
            <path sodipodi:type="arc" style="fill:url(#linearGradient3975);fill-opacity:1;stroke:none" id="path4241" sodipodi:cx="758.48212" sodipodi:cy="171.57228" sodipodi:rx="15.927829" sodipodi:ry="39.998863" d="m 774.40995,171.57228 c 0,22.09076 -7.13114,39.99886 -15.92783,39.99886 -8.7967,0 -15.92783,-17.9081 -15.92783,-39.99886 0,-22.09076 7.13113,-39.99886 15.92783,-39.99886 8.79669,0 15.92783,17.9081 15.92783,39.99886 z" transform="matrix(0.55420598,0.92736049,-0.92736049,0.55420598,545.47203,-564.30619)" />
            <path sodipodi:nodetypes="cccc" inkscape:connector-curvature="0" id="path4195" d="m 795.74998,233.5945 8.75,36.24999 -27,9.75 z" style="fill:#99e3d4;fill-opacity:1;fill-rule:nonzero;stroke:none" />
            <path style="fill:#4cceb4;fill-opacity:1;fill-rule:nonzero;stroke:none" d="m 795.74998,233.5945 18.5,34.49999 -17.75,7 z" id="path4192" inkscape:connector-curvature="0" sodipodi:nodetypes="cccc" />
            <path transform="matrix(0.45343954,0.79215625,-0.79215625,0.45343954,597.20422,-446.07101)" d="m 774.40995,171.57228 c 0,22.22205 -7.13114,40.23657 -15.92783,40.23657 -8.7967,0 -15.92783,-18.01452 -15.92783,-40.23657 0,-22.22204 7.13113,-40.23657 15.92783,-40.23657 8.79669,0 15.92783,18.01453 15.92783,40.23657 z" sodipodi:ry="40.236572" sodipodi:rx="15.927829" sodipodi:cy="171.57228" sodipodi:cx="758.48212" id="path4032" style="fill:black;stroke:none" sodipodi:type="arc" />
            <path style="fill:white;stroke:none" d="m 833.95131,231.27191 c 0,3.76121 -7.09648,6.81027 -15.85042,6.81027 -8.75394,0 -15.85041,-3.04906 -15.85041,-6.81027 0,-3.76121 7.09647,-6.81027 15.85041,-6.81027 8.75394,0 15.85042,3.04906 15.85042,6.81027 z" id="path4034" inkscape:connector-curvature="0" sodipodi:cx="818.10089" sodipodi:cy="231.27191" sodipodi:rx="15.850415" sodipodi:ry="6.8102713" sodipodi:type="arc" transform="matrix(0.94234708,-0.49996404,0.49996404,0.94234708,-63.711731,418.60452)" />
            <path transform="matrix(0.31281491,-0.14314587,0.14314587,0.31281491,519.20612,288.28439)" sodipodi:type="arc" sodipodi:ry="6.8102713" sodipodi:rx="14.404468" sodipodi:cy="231.27191" sodipodi:cx="818.10089" inkscape:connector-curvature="0" id="path4162" d="m 832.50536,231.27191 c 0,3.76121 -6.4491,6.81027 -14.40447,6.81027 -7.95537,0 -14.40447,-3.04906 -14.40447,-6.81027 0,-3.76121 6.4491,-6.81027 14.40447,-6.81027 7.95537,0 14.40447,3.04906 14.40447,6.81027 z" style="fill:white;stroke:none" />
          </g>
        </g>
        <path sodipodi:nodetypes="cscsc" inkscape:connector-curvature="0" id="path3861" d="m 770.52977,249.34442 c 20.14452,-31.2755 66.07924,-51.02624 92.46249,-38.56732 6.24371,2.94846 11.74581,3.99306 17.97318,2.79603 -5.842,5.12329 -13.83449,5.11752 -20.73919,1.78623 -24.00811,-11.58311 -62.42335,9.02658 -89.69648,33.98506 z" style="fill:black;stroke:none" />
      </g>
      <path inkscape:original-d="m 770.52977,249.34442 c -7.99488,23.67323 9.42161,42.94129 -2.65492,44.8322 -72.38049,11.33313 -143.94128,-79.50427 -118.98558,-164.80644" inkscape:path-effect="#path-effect4262" sodipodi:nodetypes="csc" inkscape:connector-curvature="0" id="path3798" d="m 775.65554,283.65745 c -0.31967,-1.62198 -0.7052,-3.15232 -1.08637,-4.612 -1.16326,-4.51432 -2.40404,-8.77801 -3.22194,-13.15476 -0.48457,-2.57338 -0.83883,-5.22273 -1.00242,-7.97151 -0.1636,-2.74878 -0.13743,-5.59727 0.18496,-8.57476 -1.60458,2.54447 -2.8147,5.30933 -3.65476,8.16418 -0.84005,2.85485 -1.31047,5.801 -1.44023,8.74819 -0.21493,5.00192 0.4751,9.87522 1.45125,14.558 0.31127,1.51712 0.64323,2.97517 0.92183,4.38913 0.0593,0.30117 0.1154,0.60004 0.16748,0.89675 0.2079,1.33637 0.3981,2.44334 0.29695,3.29135 -0.14112,0.51013 -0.10676,0.81163 -0.085,0.5751 0.22572,0.0149 -0.22655,0.0166 -0.93123,0.25765 0,0 0,0 0,0 -8.4489,1.32656 -17.14537,1.18065 -25.60054,-0.31573 -10e-6,0 -10e-6,0 -10e-6,0 -8.5205,-1.50432 -16.82252,-4.38388 -24.62712,-8.2838 -16.54419,-8.25222 -30.76607,-21.04572 -41.94029,-36.00407 0,0 0,0 -10e-6,0 -11.8486,-15.89758 -20.27758,-34.37391 -24.40176,-53.75255 -0.1546,-0.72677 -0.30296,-1.45493 -0.44504,-2.18436 -0.84011,-4.31303 -1.61621,-9.18219 -2.173,-14.33224 -0.5568,-5.15004 -0.89197,-10.57914 -0.96609,-15.99107 -0.0741,-5.41193 0.11324,-10.80452 0.46526,-15.89284 0.35203,-5.08831 0.86693,-9.87209 1.32179,-14.09793 -1.90028,3.8153 -3.66,8.41114 -5.0543,13.48304 -1.3943,5.07189 -2.41942,10.61695 -2.98079,16.26628 -0.56136,5.64933 -0.6588,11.39894 -0.3571,16.86914 0.30171,5.47019 0.99957,10.6581 1.8912,15.22679 0.15116,0.77453 0.30901,1.54773 0.47352,2.31947 4.37517,20.53256 13.27425,40.0471 25.81205,56.86719 0,1e-5 10e-6,1e-5 10e-6,1e-5 11.78915,15.85015 26.9558,29.43478 44.77461,38.37745 8.42829,4.22285 17.45826,7.3434 26.81099,9.00673 9.29696,1.64982 18.8713,1.80455 28.23416,0.34219 0,0 1e-5,0 1e-5,0 1.69987,-0.13548 3.70029,-0.96436 5.57566,-2.73896 0,-10e-6 10e-6,-2e-5 10e-6,-2e-5 1.48817,-1.82721 2.15175,-3.72891 2.17879,-5.37569 0.12296,-2.0269 -0.10011,-3.80662 -0.39558,-5.30961 -0.063,-0.35238 -0.12888,-0.70125 -0.19697,-1.04674 z" style="fill:#0b538d;fill-opacity:1;stroke:none" />
      <path sodipodi:nodetypes="cc" inkscape:connector-curvature="0" id="path4468" d="M 355.76415,73.082254 C 431.13042,141.32718 545.67419,113.32372 648.79698,199.20861" style="fill:none;stroke:#0b538d;stroke-width:8;stroke-linecap:butt;stroke-linejoin:miter;stroke-miterlimit:4;stroke-opacity:1;stroke-dasharray:none;stroke-dashoffset:7.8" />
      <path style="fill:none;stroke:#0b538d;stroke-width:8;stroke-linecap:butt;stroke-linejoin:miter;stroke-miterlimit:4;stroke-opacity:1;stroke-dasharray:none;stroke-dashoffset:7.8" d="M 302.09544,61.504137 C 233.59268,80.729357 159.94378,84.39848 86.58579,72.437627 52.239496,66.837542 72.094671,-47.154126 109.92893,-35.369985 c 54.4896,16.971738 122.49405,27.0879746 183.02081,24.171574 8.59973,-0.414366 12.94859,9.4095779 11.83579,18.4215731" id="path4204" inkscape:connector-curvature="0" sodipodi:nodetypes="csssc" />
      <g id="g4204" transform="translate(2.7586434,1.3802757)">
        <path id="path4186" style="fill:#428bc9;fill-opacity:1;stroke:none" d="m 565.20711,38.30159 c 33.05994,-200.34307 -51.38616,-266.84181 -78.26563,-249.63886 -9.44596,6.04545 -4.32088,33.52934 7.86206,64.09316 -94.07776,-115.90396 -139.70462,-64.65871 -21.51065,48.924379 -94.65893,-53.586909 -112.46449,-7.942629 5.57247,63.923238 -20.274,-1.896781 -29.01061,4.934567 -31.34148,13.209323 -7.54342,26.779668 55.273,25.2113503 90.97612,66.781653 z" inkscape:connector-curvature="0" sodipodi:nodetypes="cscccscc" />
        <path clip-path="url(#clipPath4192)" sodipodi:nodetypes="ccc" inkscape:connector-curvature="0" id="path4102" d="M 533.64214,-94.041562 C 415.25247,-275.35062 339.82639,-226.57955 473.29289,-98.319731 367.79056,-158.04515 357.75755,-94.502899 525,-8.905517" style="fill:none;stroke:#0b538d;stroke-width:8;stroke-linecap:butt;stroke-linejoin:miter;stroke-miterlimit:20;stroke-opacity:1;stroke-dasharray:none;stroke-dashoffset:7.8" />
        <path clip-path="url(#clipPath4188)" inkscape:original-d="m 565.20711,38.30159 c 33.05994,-200.34307 -51.38615,-266.8418 -78.26563,-249.63886 -15.388,9.84837 7.89298,76.59056 36.78644,121.837338 C 538.40849,-66.510351 569.64315,-0.8795783 538,-15.405517 473.57642,-44.979468 451.4523,-35.133341 447.52388,-21.18717 439.98047,5.5925 502.79688,4.0241803 538.5,45.594483" inkscape:path-effect="#path-effect4161" sodipodi:nodetypes="cssssc" inkscape:connector-curvature="0" d="m 568.64804,-35.109357 c -0.34999,12.237611 -0.87709,24.136003 -1.46522,36.2053639 -0.58814,12.0693611 -1.24156,24.3114451 -1.97571,37.2055831 3.57079,-12.426045 6.2298,-24.497793 8.10653,-36.5716761 1.87672,-12.0738829 2.97681,-24.1510849 3.32836,-36.6122169 0.50033,-17.735292 -0.0563,-35.499881 -1.95994,-53.190667 -3.00689,-28.12712 -9.49684,-56.37097 -22.57391,-81.85514 -8.1005,-15.93266 -19.12255,-31.34807 -34.83806,-41.23156 -5.12024,-3.23295 -10.99699,-5.77719 -17.42776,-6.58018 -4.96518,-0.65398 -10.36645,0.15473 -15.05707,3.0335 -1.5415,1.01311 -2.76483,2.29172 -3.65074,3.70343 -0.99902,1.59425 -1.66047,3.23635 -2.07428,4.81911 0,1e-5 0,1e-5 0,2e-5 -1.07669,4.10703 -1.16779,8.15656 -0.91951,11.90043 0.65384,11.07412 3.52158,21.67273 6.7771,31.80436 4.14722,13.01225 9.30783,25.64929 15.08892,37.94025 6.0039,12.77493 12.72631,25.250203 20.3499,37.191623 4.66895,7.305201 8.77246,15.034399 12.65413,22.929252 4.38029,8.932182 8.39905,17.973113 11.42121,27.272179 1.23551,3.821146 2.30874,7.59471 2.87502,11.347941 0,9e-6 0,1.8e-5 0,2.7e-5 0.33866,2.777237 0.67072,5.239549 0.0343,7.065024 -0.2092,0.559457 -0.3559,0.979692 -0.52413,1.071428 0,1e-6 0,2e-6 0,3e-6 -0.0436,0.09845 -0.29311,0.195909 -0.56309,0.270401 0,1e-6 -10e-6,2e-6 -10e-6,3e-6 -0.4777,0.155711 -1.25567,0.0366 -2.22782,-0.117396 -1.37671,-0.267883 -2.82366,-0.844894 -4.35744,-1.532517 -13.31361,-6.120849 -27.04335,-11.690826 -41.39083,-15.567944 -9.02893,-2.46607 -18.55152,-4.323262 -28.34597,-4.005061 -10e-6,0 -2e-5,1e-6 -3e-5,1e-6 -5.92472,0.123021 -12.30313,1.36827 -17.89227,4.959436 -3.9943,2.661988 -7.00639,6.68123 -8.36598,11.382648 -1.05849,3.579577 -1.05475,7.61722 0.4276,11.453848 1.61765,3.7175898 4.20047,6.5612377 6.95008,8.6521047 3.44193,2.70166228 7.14428,4.7366359 10.75731,6.5024332 4.46531,2.2031148 8.98071,4.1208911 13.42424,6.0030881 0.82723,0.351352 1.65383,0.702296 2.47948,1.053382 9.83328,4.181366 19.54017,8.167846 28.82021,12.869521 5.68781,2.884473 11.25572,6.035274 16.61083,9.549912 5.35512,3.514639 10.49738,7.39232 15.35654,11.781896 C 531.07988,34.841496 520.94955,25.803197 509.70904,18.658891 500.5456,12.830046 490.71631,8.2177536 480.84115,4.0274936 480.01199,3.67566 479.18352,3.3248684 478.35604,2.9745668 c -4.44146,-1.8853464 -8.81675,-3.7388755 -13.00392,-5.8103459 -3.40862,-1.7031078 -6.63585,-3.437219 -9.33196,-5.5998461 -2.04383,-1.7078498 -3.81522,-3.4722928 -4.51579,-5.4144878 -0.79933,-1.733954 -0.70398,-4.037813 -0.13033,-6.252503 0,-8e-6 1e-5,-1.5e-5 1e-5,-2.2e-5 0.73751,-2.743439 2.66205,-5.266911 5.10328,-6.89534 3.61623,-2.545834 8.61162,-3.344942 13.74322,-3.621015 8.54901,-0.343928 17.28135,1.423091 25.97518,3.734536 13.71951,3.688887 27.03081,9.107617 40.13548,15.114205 1.81892,0.851451 3.83799,1.616289 6.07383,2.0959974 1.56529,0.3711068 3.43024,0.4889291 5.48875,0.1135347 1.69778,-0.3375796 3.3168,-1.1904081 4.67151,-2.5364981 2e-5,-1.4e-5 3e-5,-2.7e-5 4e-5,-4e-5 1.29405,-1.418942 2.08643,-2.9532 2.46118,-4.413496 1.00163,-3.84033 0.74366,-7.447659 0.18798,-10.500074 0,-10e-6 0,-2.1e-5 0,-3.2e-5 -0.68416,-4.397587 -1.85764,-8.592589 -3.17578,-12.612253 -3.2038,-9.817308 -7.36458,-19.20801 -11.84726,-28.321492 -3.95017,-8.051329 -8.19972,-16.040154 -13.09227,-23.708132 -7.41313,-11.605893 -13.96977,-23.780503 -19.8526,-36.289653 -5.65927,-12.04368 -10.69227,-24.35551 -14.70611,-36.96462 -3.13612,-9.93467 -5.88229,-19.87386 -6.4124,-29.8261 -0.15257,-3.37503 -0.15141,-6.57234 0.64973,-9.34377 0.29752,-1.02279 0.63097,-1.92734 1.09029,-2.60643 0.38005,-0.56171 0.79633,-1.03413 1.2296,-1.28488 2.56755,-1.76648 6.22163,-2.17263 9.81553,-1.8258 4.83853,0.51472 9.6178,2.6755 14.13532,5.4298 13.98677,8.56842 24.04496,22.93902 31.94646,38.09712 12.52263,24.25427 18.73239,51.56418 21.73332,79.053284 1.87456,17.284753 2.41782,34.687262 1.91971,52.104429 z" style="fill:#0b538d;fill-opacity:1;stroke:none" id="path3282" />
        <path clip-path="url(#clipPath4200)" sodipodi:nodetypes="cccc" inkscape:connector-curvature="0" id="path4196" d="M 517.24861,39.816128 C 486.48947,3.0465757 500.03541,-8.9135792 522.30927,0.98591539 469.27626,-69.724763 503.10647,-117.63646 534.92628,-57.178821 c -4.24264,-66.468039 22.62742,-74.831999 48.08326,-12.606602" style="fill:none;stroke:#0b538d;stroke-width:8;stroke-linecap:butt;stroke-linejoin:miter;stroke-miterlimit:20;stroke-opacity:1;stroke-dasharray:none;stroke-dashoffset:7.8" />
      </g>
      <path sodipodi:nodetypes="ccccccc" d="m 754.88216,273.96821 c -3.19512,3.7816 -2.35646,6.55693 2.07384,8.27076 -7.8599,1.48863 -9.48058,-5.5342 -2.07384,-8.27076 z m -17.76366,19.29606 -7.53915,-1.77582 c -5.04388,-10.90406 -4.71718,-21.93503 3.41122,-32.58349 -3.55515,11.70085 -2.71891,22.0327 4.12793,34.35931 z" style="fill:#0b538d;fill-opacity:1;stroke:none;display:inline" id="path3941" inkscape:connector-curvature="0" />
      <g id="g4808">
        <path id="path4740" d="M 879.86284,211.63979 C 862.0364,136.44001 814.02144,113.95188 778.32038,45.079802 838.75177,74.096956 886.31812,110.44993 911.17003,166.78318 z" style="fill:#1a1363;fill-opacity:1;stroke:none" inkscape:connector-curvature="0" sodipodi:nodetypes="cccc" />
        <path sodipodi:nodetypes="ccc" inkscape:connector-curvature="0" id="path4799" d="M 904.62576,153.3624 C 878.45582,104.55582 833.81199,71.725036 778.32038,45.079802 833.75106,54.32292 879.52768,74.755327 917.00816,107.8111" style="fill:#7e3eca;fill-opacity:1;stroke:none" />
        <path d="M 923.33301,203.32018 C 904.94023,125.37719 850.91205,79.93592 778.32038,45.079802 848.16661,56.726727 902.68449,86.139583 944.59076,136.1875 M 778.32038,45.079802 C 818.2595,122.12766 873.6096,141.12548 884.864,240.81479" style="fill:none;stroke:#010019;stroke-width:8;stroke-miterlimit:4;stroke-opacity:1;stroke-dasharray:none" id="path4787" inkscape:connector-curvature="0" />
        <path style="fill:#7e3eca;fill-opacity:1;stroke:#010019;stroke-width:8;stroke-linecap:butt;stroke-linejoin:miter;stroke-miterlimit:20;stroke-opacity:1;stroke-dasharray:none;stroke-dashoffset:7.8" d="m 771.87478,105.96692 c 49.10445,36.69002 68.0919,-47.498164 18.7496,-39.706531 14.10861,15.627968 11.65875,37.266111 -18.7496,39.706531 z" id="path4572" inkscape:connector-curvature="0" sodipodi:nodetypes="ccc" />
      </g>
      <g id="g4132">
        <path sodipodi:nodetypes="cscc" inkscape:connector-curvature="0" id="path4130" d="M 703.86839,73.616141 C 747.24336,-6.7225042 837.27747,-4.3268605 841.08965,3.8858959 844.66413,11.586563 832.8937,57.891447 790.95639,82.691887 z" style="fill:#428bc9;fill-opacity:1;stroke:none" />
        <path inkscape:original-d="M 703.86839,73.616141 C 747.24336,-6.7225042 837.27747,-4.3268605 841.08965,3.8858959 844.66413,11.586563 832.8937,57.891447 790.95639,82.691887" inkscape:path-effect="#path-effect4122" style="fill:#0b538d;fill-opacity:1;stroke:none" d="m 723.43014,39.829359 c -4.56869,4.79773 -8.45027,9.980313 -11.70537,15.590133 -3.2551,5.609819 -5.88557,11.652093 -7.85638,18.196649 4.50065,-5.178695 8.70845,-9.941954 12.84301,-14.583133 4.13457,-4.641179 8.19821,-9.159723 12.50996,-13.690715 5.01062,-5.265391 10.44026,-10.118546 16.24985,-14.468741 12.86666,-9.649534 27.53205,-16.914811 42.9802,-21.4941152 11.64585,-3.4358804 23.67506,-5.5277887 35.6373,-5.3608997 3.80898,0.066752 7.48089,0.2754281 10.86102,1.1012887 1.07503,0.2781069 1.98187,0.5191923 2.62805,0.8755429 0.21333,0.1255875 0.32558,0.1749791 0.30302,0.1772147 -0.0426,0.026011 -0.16085,-0.1791474 -0.41934,-0.602564 0.28339,0.2596897 0.14571,1.2804649 0.22218,2.7756187 -0.0548,2.1695719 -0.43625,4.4315339 -0.93161,6.7698109 -1.47126,6.857769 -4.06839,13.537248 -7.24724,19.98713 -3.72084,7.5199 -8.3195,14.610175 -13.66899,21.073226 -0.61188,0.739255 -1.22812,1.473764 -1.84848,2.204063 -3.55862,4.188586 -7.25589,8.233969 -11.08275,12.247852 -3.82686,4.013882 -7.78211,7.997429 -11.94818,12.064167 5.45374,-1.889295 10.72227,-4.458856 15.62068,-7.661073 4.8984,-3.202217 9.42633,-7.037902 13.39829,-11.419164 0.69128,-0.762354 1.36598,-1.540843 2.0232,-2.334864 5.7459,-6.94186 10.6804,-14.549864 14.67653,-22.626412 3.41363,-6.873892 6.22714,-14.172609 7.89638,-21.844845 0.57132,-2.596971 1.01171,-5.342172 1.10856,-8.2195291 0.1697,-1.6060586 0.0607,-3.8297034 -0.96219,-6.3842275 -0.5313,-1.0111308 -1.0966,-1.7080528 -1.63122,-2.10367652 -0.67909,-0.56041637 -1.31388,-0.95992325 -1.87061,-1.22756058 -1.56694,-0.7737615 -3.06771,-1.2337741 -4.40981,-1.5323246 -4.28625,-1.0031142 -8.54267,-1.2843647 -12.61457,-1.3190115 -12.94994,-0.1536417 -25.77103,2.0479166 -38.01291,5.6898497 -10e-6,9e-7 -10e-6,1.8e-6 -10e-6,2.8e-6 -16.33864,4.8389625 -31.84598,12.5273373 -45.50604,22.7634073 -6.1728,4.632328 -11.93333,9.781536 -17.24253,15.3569 z" id="path3796" inkscape:connector-curvature="0" sodipodi:nodetypes="csc" />
        <path style="fill:#0b538d;fill-opacity:1;stroke:none" d="M 808.5766,25.805721 C 779.93878,33.937448 762.15019,45.66537 742.35121,64.4037 757.20045,41.776284 780.99944,28.280594 808.5766,25.805721 z" id="path3019" inkscape:connector-curvature="0" sodipodi:nodetypes="ccc" />
      </g>
      <g id="g2993" transform="matrix(0.51378663,0.66226369,-0.67337162,0.53123803,387.88901,-47.589657)">
        <path style="fill:none;stroke:white;stroke-width:0.69999999" d="M 6,12 C 18,0 39,21 48,57 54,81 72,93 78,87 84,81 69,57 48,57 27,57 12,81 18,87 24,93 42,81 48,57 57,21 78,0 90,12 102,24 75,57 48,57 21,57 -6,24 6,12 z m 66,45 c 0,3 -6,6 -24,0 -18,-6 -24,-3 -24,0 0,3 6,6 24,0 18,-6 24,-3 24,0 z" id="path4" inkscape:connector-curvature="0" />
        <path d="m 44,27 -1,56 c 2,2 8,2 10,0 L 52,27" id="path6" inkscape:connector-curvature="0" style="fill:#ee4043" />
        <path d="m 48,11 -4,16 c 0,2 1,4 2,2 1,4 3,4 4,0 1,2 2,0 2,-2" id="path8" inkscape:connector-curvature="0" style="fill:#fdf6ae" />
        <path d="m 46,19 c 1,1 3,1 4,0 l -2,-8" id="path10" inkscape:connector-curvature="0" style="fill:#333" />
      </g>
      <g id="g4462">
        <path style="fill:#428bc9;fill-opacity:1;stroke:none" d="m 533.36397,125.42292 c -0.99316,68.85622 28.80569,101.72594 98.70798,80.31538 10.24257,9.94614 19.21937,28.0187 28.92807,61.50695 10.37641,35.79139 121.92866,5.27919 103.58579,-29 -58.8676,-110.01186 -104.4152,-117.40791 -173.19972,-88.92587 -7.34678,-9.40714 -13.59186,-21.286 -17.09038,-33.73039 z" id="path4460" inkscape:connector-curvature="0" sodipodi:nodetypes="ccssccc" />
        <path style="fill:#0b538d;fill-opacity:1;stroke:none" d="m 632.69219,132.56603 c -0.58411,0.0943 -1.1684,0.19444 -1.75275,0.30041 -8.50705,1.54941 -17.03859,4.22048 -25.57598,7.8768 -8.53739,3.65633 -17.07283,8.30616 -25.74213,13.67968 9.62271,-2.8874 18.87632,-5.70531 27.66696,-8.07132 8.79063,-2.36602 17.12466,-4.27979 25.03399,-5.61409 0.54923,-0.0931 1.09627,-0.18335 1.64106,-0.27069 6.89595,-1.10562 13.85345,-1.58436 20.71559,-1.14108 7.18576,0.45747 14.30692,1.93165 21.0431,4.41566 7.29774,2.67967 14.19366,6.55705 20.58107,11.1819 7.57658,5.48598 14.4405,12.03567 20.80055,19.09812 17.62115,19.56034 31.32965,42.56273 43.95534,66.11104 0.82454,1.57049 1.39024,3.22712 1.51629,4.83784 0.14481,1.49752 -0.0677,3.08221 -0.55243,4.59422 -10e-6,0 -10e-6,0 -10e-6,1e-5 -1.05687,3.56279 -3.86628,6.76336 -7.07687,9.71231 0,0 0,1e-5 -10e-6,1e-5 -4.07711,3.63636 -8.94453,6.52697 -14.08823,9.04844 -10e-6,0 -10e-6,0 -2e-5,0 -5.84745,2.84793 -12.02495,5.08491 -18.36151,6.84121 -6.46647,1.787 -13.06384,3.05456 -19.70537,3.68824 -6.10785,0.57352 -12.19976,0.65875 -18.09099,-0.18169 0,0 -10e-6,0 -10e-6,0 -4.90787,-0.73935 -9.62634,-1.94272 -13.38558,-4.37648 -10e-6,0 -10e-6,0 -2e-5,0 -1.59923,-1.02035 -3.02896,-2.21625 -4.11167,-3.59562 -1.07094,-1.33918 -1.8816,-2.91377 -2.36073,-4.56949 -4.11248,-14.31662 -8.58248,-28.96884 -15.54061,-42.58337 -1.76081,-3.44526 -3.74088,-6.78272 -5.97716,-9.9603 -3.36607,-4.78979 -7.53806,-9.19305 -12.52218,-12.39377 -4.11618,-2.63098 -8.72218,-4.29326 -13.35212,-4.89243 4.02177,2.30694 7.55263,5.14516 10.50031,8.34575 3.61644,3.90142 6.47208,8.34976 9.11888,12.98305 1.79181,3.13499 3.48313,6.31388 5.13235,9.54439 6.51716,12.76588 10.7926,26.95173 14.95691,41.18426 0.77207,2.66004 2.05878,5.15441 3.7889,7.32882 1.75595,2.18137 3.84965,3.97137 6.10359,5.37792 0,0 10e-6,10e-6 2e-5,10e-6 5.19498,3.20598 10.96296,4.79358 16.53408,5.52917 6.70024,0.93184 13.41771,0.86053 19.96769,0.22343 7.1427,-0.68468 14.19714,-2.03665 21.0766,-3.94146 6.74086,-1.86122 13.37386,-4.27033 19.72801,-7.35759 0,0 0,0 1e-5,0 5.57686,-2.6933 11.04592,-5.9857 15.89315,-10.2538 3.91657,-3.36371 7.4939,-7.73605 9.38062,-13.22762 10e-6,0 10e-6,0 10e-6,-1e-5 0.80853,-2.46594 1.14107,-5.11317 0.91244,-7.78184 -0.27347,-2.8463 -1.14398,-5.52299 -2.4307,-7.89803 -12.70622,-23.792 -26.78294,-47.31918 -45.05999,-67.6854 -6.6259,-7.38071 -13.90696,-14.306 -22.05197,-20.2249 -10e-6,0 -10e-6,-1e-5 -2e-5,-1e-5 -6.88495,-5.00329 -14.42486,-9.2244 -22.51303,-12.21309 -7.48651,-2.7558 -15.36042,-4.38902 -23.30133,-4.8928 -7.56387,-0.47346 -15.1142,0.033 -22.4941,1.22419 z" id="path4077" inkscape:connector-curvature="0" sodipodi:nodetypes="cssc" inkscape:path-effect="#path-effect4426" inkscape:original-d="m 579.62133,154.42292 c 75.49644,-34.09189 122.80471,-32.34195 184.96448,83.82233 18.34287,34.27919 -93.20938,64.79139 -103.58579,29 -14.20496,-48.99722 -26.84315,-64.99392 -43.55026,-70.94366" />
        <path sodipodi:nodetypes="cc" inkscape:connector-curvature="0" id="path4434" d="m 542.67769,169.87695 c -0.10592,-0.33142 -0.21091,-0.66382 -0.31499,-0.99717 -1.94568,-6.30323 -3.58498,-12.97714 -5.04398,-20.18743 -1.459,-7.2103 -2.73503,-14.96519 -3.95475,-23.26943 -1.45632,8.14017 -2.17344,16.19447 -1.96902,23.91444 0.20442,7.71996 1.32843,15.09971 3.31242,21.84761 0.10684,0.36731 0.21668,0.73283 0.32949,1.09645 3.47569,11.20358 9.34989,22.0465 18.42389,30.15336 0,0 0,0 0,0 9.27771,8.09693 21.17643,12.41863 33.10993,13.46961 0,0 0,0 10e-6,0 15.93017,1.40435 31.68858,-1.72036 46.47547,-6.30258 l -2.34506,-7.64858 c -14.30046,4.336 -29.03399,7.35467 -43.40085,5.98449 -10.53154,-1.00632 -20.90903,-4.67195 -28.54624,-11.50139 0,0 0,0 0,0 -7.72605,-6.71814 -12.81773,-16.36306 -16.07632,-26.55938 z" style="fill:#0b538d;fill-opacity:1;stroke:none" inkscape:path-effect="#path-effect4448" inkscape:original-d="m 533.36397,125.42292 c -0.99316,68.85622 28.80569,101.72594 98.50966,80.3546" />
        <path style="fill:#0b538d;fill-opacity:1;fill-rule:nonzero;stroke:none" d="m 574.29571,115.58899 c 1.77665,13.09036 6.74569,24.6179 14.49569,34.9929 l 6.76928,-2.40165 c -10,-10.125 -16.13997,-20.82564 -21.26497,-32.59125 z" id="path4456" inkscape:connector-curvature="0" sodipodi:nodetypes="cccc" />
      </g>
    </g>
  </g>
</svg>
