<?xml version="1.0" encoding="UTF-8" standalone="no"?>
<!-- Created with Inkscape (http://www.inkscape.org/) -->

<svg
   xmlns:dc="http://purl.org/dc/elements/1.1/"
   xmlns:cc="http://creativecommons.org/ns#"
   xmlns:rdf="http://www.w3.org/1999/02/22-rdf-syntax-ns#"
   xmlns:svg="http://www.w3.org/2000/svg"
   xmlns="http://www.w3.org/2000/svg"
   xmlns:xlink="http://www.w3.org/1999/xlink"
   xmlns:sodipodi="http://sodipodi.sourceforge.net/DTD/sodipodi-0.dtd"
   xmlns:inkscape="http://www.inkscape.org/namespaces/inkscape"
   width="1077.4388"
   height="709.04364"
   id="svg2"
   version="1.1"
   inkscape:version="0.48.3.1 r9886"
   sodipodi:docname="Thunder Breaker.svg">
  <defs
     id="defs4">
    <inkscape:path-effect
       effect="skeletal"
       id="path-effect27186"
       is_visible="true"
       pattern="m 240.47439,620.07874 c -14.72714,0 -29.09722,1.04408 -44,4 14.53329,2.95593 29.27286,4 44,4 l 199,0 c 14.72715,0 30.2057,-1.16724 44,-4 -13.67114,-2.70959 -29.27285,-4 -44,-4 z"
       copytype="single_stretched"
       prop_scale="1"
       scale_y_rel="false"
       spacing="0"
       normal_offset="0"
       tang_offset="0"
       prop_units="false"
       vertical_pattern="false"
       fuse_tolerance="0"
       pattern-nodetypes="scsscss" />
    <inkscape:path-effect
       effect="envelope"
       id="path-effect5247"
       is_visible="true"
       yy="true"
       xx="true"
       bendpath1="m -172.84429,420.50674 24.73938,8"
       bendpath2="m -148.27281,428.47641 c -15.56329,20.19851 -25.31413,42.33097 -30.06066,67.84947"
       bendpath3="m -211.34429,488.03927 32.9831,8.28661"
       bendpath4="m -172.59429,420.5648 c -21.94475,15.77586 -33.25706,38.69033 -38.82322,67.46819"
       bendpath1-nodetypes="cc"
       bendpath3-nodetypes="cc"
       bendpath2-nodetypes="cc"
       bendpath4-nodetypes="cc" />
    <inkscape:path-effect
       effect="skeletal"
       id="path-effect5015"
       is_visible="true"
       pattern="m 412,656 c -14.72714,0 -29.09722,1.04408 -44,4 14.53329,2.95593 29.27286,4 44,4 l 858,0 c 14.7271,0 30.2057,-1.16724 44,-4 -13.6711,-2.70959 -29.2729,-4 -44,-4 z"
       copytype="single_stretched"
       prop_scale="1"
       scale_y_rel="false"
       spacing="0"
       normal_offset="0"
       tang_offset="0"
       prop_units="false"
       vertical_pattern="false"
       fuse_tolerance="0"
       pattern-nodetypes="scsscss" />
    <inkscape:path-effect
       effect="skeletal"
       id="path-effect4508"
       is_visible="true"
       pattern="m 185.03362,766.50375 c -14.72714,0 -34.09722,1.04408 -49,4 14.53329,2.95593 34.27286,4 49,4 l 213,0 c 14.72715,0 25.73603,-1.16724 39,-4 -13.31759,-2.70959 -24.27285,-4 -39,-4 z"
       copytype="single_stretched"
       prop_scale="1"
       scale_y_rel="false"
       spacing="0"
       normal_offset="0"
       tang_offset="0"
       prop_units="false"
       vertical_pattern="false"
       fuse_tolerance="0"
       pattern-nodetypes="scsscss" />
    <inkscape:path-effect
       effect="skeletal"
       id="path-effect6461"
       is_visible="true"
       pattern="m 236.76909,230.68151 c -14.72714,0 -29.09722,1.04408 -44,4 14.53329,2.95593 29.27286,4 44,4 l 118,0 c 14.72715,0 30.2057,-1.16724 44,-4 -13.67114,-2.70959 -29.27285,-4 -44,-4 z"
       copytype="single_stretched"
       prop_scale="1"
       scale_y_rel="false"
       spacing="0"
       normal_offset="0"
       tang_offset="0"
       prop_units="false"
       vertical_pattern="false"
       fuse_tolerance="0"
       pattern-nodetypes="scsscss" />
    <linearGradient
       inkscape:collect="always"
       id="linearGradient5702">
      <stop
         style="stop-color:#4a71bd;stop-opacity:1"
         offset="0"
         id="stop5704" />
      <stop
         style="stop-color:#809cd1;stop-opacity:1"
         offset="1"
         id="stop5706" />
    </linearGradient>
    <linearGradient
       inkscape:collect="always"
       xlink:href="#linearGradient5702"
       id="linearGradient6399"
       gradientUnits="userSpaceOnUse"
       x1="635.38068"
       y1="277.6665"
       x2="628.62811"
       y2="370.6076" />
    <clipPath
       clipPathUnits="userSpaceOnUse"
       id="clipPath6431">
      <path
         style="fill:none;stroke:#008080;stroke-width:1;stroke-linecap:butt;stroke-linejoin:miter;stroke-miterlimit:4;stroke-opacity:1;stroke-dasharray:none"
         d="m 566.78125,593.5177 c -0.0618,9.03803 1.41315,18.584 4.59375,28.09375 11.80217,35.28763 42.66323,56.75635 68.9375,47.96875 22.38755,-7.48766 34.19746,-34.519 29.90625,-64.1875 l -103.4375,-11.875 z"
         id="path6433"
         inkscape:connector-curvature="0" />
    </clipPath>
    <clipPath
       clipPathUnits="userSpaceOnUse"
       id="clipPath5029">
      <path
         style="fill:none;stroke:#000000;stroke-width:1;stroke-linecap:butt;stroke-linejoin:miter;stroke-miterlimit:4;stroke-opacity:1;stroke-dasharray:none"
         d="m 216.02112,632.69431 c 4.46946,-5.45062 7.65839,-10.27623 10.6066,-16.35185 L 210,591.86218 l -236,3.5 7.5,153 351,-13 -13,-103.5 z"
         id="path5031"
         inkscape:connector-curvature="0"
         sodipodi:nodetypes="cccccccc" />
    </clipPath>
    <clipPath
       clipPathUnits="userSpaceOnUse"
       id="clipPath5115">
      <path
         style="fill:none;stroke:#00ff00;stroke-width:1;stroke-miterlimit:4;stroke-dasharray:none"
         clip-path="none"
         d="m 683.04953,741.61576 c 28.32976,-1.81667 56.97139,0.37243 84.11555,8.1232 l 37.00305,-80.88085 c -18.46898,-7.5935 -34.01615,-21.62608 -46.66361,-37.64383 z"
         id="path5117"
         inkscape:connector-curvature="0"
         sodipodi:nodetypes="ccccc" />
    </clipPath>
    <clipPath
       clipPathUnits="userSpaceOnUse"
       id="clipPath5119">
      <path
         style="font-size:medium;font-style:normal;font-variant:normal;font-weight:normal;font-stretch:normal;text-indent:0;text-align:start;text-decoration:none;line-height:normal;letter-spacing:normal;word-spacing:normal;text-transform:none;direction:ltr;block-progression:tb;writing-mode:lr-tb;text-anchor:start;baseline-shift:baseline;color:#000000;fill:none;stroke:#00ff00;stroke-width:1;stroke-miterlimit:4;stroke-dasharray:none;marker:none;visibility:visible;display:inline;overflow:visible;enable-background:accumulate;font-family:Sans;-inkscape-font-specification:Sans"
         d="M 735.21875,774.75 801.1875,630 799,438.36218 l -669,-34 -13,385 z"
         clip-path="none"
         id="path5121"
         inkscape:connector-curvature="0"
         sodipodi:nodetypes="cc" />
    </clipPath>
    <clipPath
       clipPathUnits="userSpaceOnUse"
       id="clipPath27203">
      <path
         style="fill:none;stroke:#b3b3b3;stroke-width:1;stroke-miterlimit:4;stroke-dasharray:none"
         d="m 276.7612,703.06273 c 5.96419,-5.1444 11.71097,-10.67775 16.86125,-16.83224 4.72843,-5.62936 8.96885,-11.89987 11.93155,-18.92564 l 44.76168,-41.66296 c -5.32677,-0.24316 -10.47628,0.17782 -15.42404,0.57223 -13.92664,1.07762 -27.82756,1.82473 -41.65457,1.5139 -4.71774,-0.10671 -9.39172,-0.333 -13.99372,-0.83798 L 74.390723,662.67303 109.36914,772.04217 277.36409,718.83556 z"
         id="path27205"
         inkscape:connector-curvature="0"
         sodipodi:nodetypes="ccccccccccc" />
    </clipPath>
    <clipPath
       clipPathUnits="userSpaceOnUse"
       id="clipPath27207">
      <path
         style="font-size:medium;font-style:normal;font-variant:normal;font-weight:normal;font-stretch:normal;text-indent:0;text-align:start;text-decoration:none;line-height:normal;letter-spacing:normal;word-spacing:normal;text-transform:none;direction:ltr;block-progression:tb;writing-mode:lr-tb;text-anchor:start;baseline-shift:baseline;color:#000000;fill:none;stroke:#b3b3b3;stroke-width:1;stroke-miterlimit:4;stroke-dasharray:none;marker:none;visibility:visible;display:inline;overflow:visible;enable-background:accumulate;font-family:Sans;-inkscape-font-specification:Sans"
         d="M 191.15625,663.5625 C 224.14215,653.06325 272.91028,639.99999 339.4375,625 l 23.72659,-6.86711 1.7418,18.81137 -39.99964,30.14949 c -45.70503,27.7164 -97.005,49.6685 -137.84375,62.5625 l 13.94025,46.81981 120.20753,0.49265 151.73736,-161.09779 -24.14003,-51.72865 -246.3269,42.86088 z"
         id="path27209"
         inkscape:connector-curvature="0"
         sodipodi:nodetypes="cccccccccccc" />
    </clipPath>
    <linearGradient
       inkscape:collect="always"
       xlink:href="#linearGradient5702"
       id="linearGradient4250"
       gradientUnits="userSpaceOnUse"
       x1="635.38068"
       y1="277.6665"
       x2="628.62811"
       y2="370.6076" />
  </defs>
  <sodipodi:namedview
     id="base"
     pagecolor="#ffffff"
     bordercolor="#666666"
     borderopacity="1.0"
     inkscape:pageopacity="0.0"
     inkscape:pageshadow="2"
     inkscape:zoom="0.75312713"
     inkscape:cx="538.71942"
     inkscape:cy="354.52187"
     inkscape:document-units="px"
     inkscape:current-layer="layer1"
     showgrid="true"
     inkscape:window-width="1364"
     inkscape:window-height="698"
     inkscape:window-x="0"
     inkscape:window-y="0"
     inkscape:window-maximized="1"
     showguides="false"
     inkscape:guide-bbox="true"
     fit-margin-top="0"
     fit-margin-left="0"
     fit-margin-right="0"
     fit-margin-bottom="0">
    <inkscape:grid
       empspacing="5"
       visible="true"
       enabled="false"
       snapvisiblegridlinesonly="true"
       spacingx="8px"
       spacingy="8px"
       type="xygrid"
       id="grid6446"
       originx="275.89763px"
       originy="-169.4786px" />
  </sodipodi:namedview>
  <metadata
     id="metadata7">
    <rdf:RDF>
      <cc:Work
         rdf:about="">
        <dc:format>image/svg+xml</dc:format>
        <dc:type
           rdf:resource="http://purl.org/dc/dcmitype/StillImage" />
        <dc:title />
      </cc:Work>
    </rdf:RDF>
  </metadata>
  <g
     inkscape:label="Layer 1"
     inkscape:groupmode="layer"
     id="layer1"
     transform="translate(275.89763,-173.8398)">
    <g
       id="g4074">
      <path
         style="fill:#000000;fill-opacity:1;stroke:none"
         d="M 329.27607,543.7806 C 199.45726,308.83094 -35.173981,397.98639 -228.69737,177.8398 c -14.122,87.55916 7.40176,162.88309 57.98164,218.99452 -41.03095,-4.51409 -73.60274,-23.58468 -101.1819,-62.58044 57.66078,282.65279 410.75789,114.62838 559.40002,215.13627 z"
         id="path4072"
         inkscape:connector-curvature="0"
         sodipodi:nodetypes="cccccc" />
      <path
         transform="translate(0,308.2677)"
         sodipodi:nodetypes="cccccccccccccc"
         inkscape:connector-curvature="0"
         id="path4070"
         d="M 318.08854,237.12341 C 255.4724,152.97211 150.91421,100.59448 41.414214,81.094482 L -3.4393394,106.15514 -22.439339,53.533822 -70.393398,78.2158 -78.82233,37.251336 c -29.34493,-8.485282 -53.12563,-18.236543 -83.88478,-40.86396 20.5061,28.637824 44.46446,44.772078 67.79899,55.378679 l 11.090097,53.828425 50.378684,-25.06066 20.853553,53.06066 49.5,-29 C 145.27908,118.69859 242.39781,164.47559 304.18119,239.27679 z"
         style="fill:#efeb42;fill-opacity:1;stroke:none" />
      <path
         sodipodi:nodetypes="cccccc"
         inkscape:connector-curvature="0"
         id="path4066"
         d="M 329.27607,543.7806 C 199.45726,308.83094 -35.173981,397.98639 -228.69737,177.8398 c -14.122,87.55916 7.40176,162.88309 57.98164,218.99452 -41.03095,-4.51409 -73.60274,-23.58468 -101.1819,-62.58044 57.66078,282.65279 410.75789,114.62838 559.40002,215.13627 z"
         style="fill:none;stroke:#3d3b39;stroke-width:8;stroke-linecap:butt;stroke-linejoin:miter;stroke-miterlimit:20;stroke-opacity:1;stroke-dasharray:none" />
    </g>
    <path
       id="path27245"
       style="fill:#53285a;fill-opacity:1;stroke:#291829;stroke-width:8;stroke-miterlimit:20;stroke-opacity:1;stroke-dasharray:none"
       d="m 452.15667,607.86876 c -84.24942,24.82781 -105.70759,151.8951 -199.95645,156.64402 -46.08523,2.3221 4.52303,-22.47701 38.35755,-57.13059 -76.0884,43.71429 -153.10942,68.48269 -161.68751,55.41242 -12.04216,-18.34842 86.00708,-46.51006 143.26793,-83.4562 -157.12149,50.24956 -183.875451,28.41806 30.36312,-39.02634 -77.11053,3.55987 -12.51024,-36.44028 142.584,-50.92247 z"
       inkscape:connector-curvature="0"
       sodipodi:nodetypes="cscscccc"
       clip-path="none" />
    <path
       style="fill:#53285a;fill-opacity:1;stroke:#291829;stroke-width:8;stroke-linecap:butt;stroke-linejoin:miter;stroke-miterlimit:4;stroke-opacity:1;stroke-dasharray:none"
       d="M 318.45697,700.68697 C 267.23719,696.47293 169.30824,692.97048 88.745711,738.49468 62.962415,753.06431 42.086545,638.30807 72.655443,628.1726 119.02747,612.79741 193.69093,609.17238 249.92785,623.67008 c 5.13857,1.32467 8.73934,6.32828 10.80154,15.51043 z"
       id="path4989"
       inkscape:connector-curvature="0"
       sodipodi:nodetypes="cssscc" />
    <path
       style="fill:#53285a;fill-opacity:1;stroke:#291829;stroke-width:8;stroke-miterlimit:4;stroke-opacity:1;stroke-dasharray:none"
       d="m 455.92761,683.56682 c 87.82273,38.99769 164.85612,58.0461 263.34715,68.67253 23.90765,2.57945 6.89867,124.26785 -28.72873,114.72152 C 582.9194,838.1224 515.37067,803.85758 433.60865,741.92006 z"
       id="path5072"
       inkscape:connector-curvature="0"
       sodipodi:nodetypes="csscc" />
    <path
       sodipodi:nodetypes="ssscsccsssscs"
       inkscape:connector-curvature="0"
       id="path5107"
       d="M 207.95176,612.89357 C 146.91339,596.42033 61.744946,599.80271 10.5,613.53375 -23.281167,622.58539 -4.1210601,738.2875 24.414214,724.3622 113.31632,680.97764 234.29458,682.54527 305.52947,695.99056 c 14.16022,23.48544 41.3498,42.09554 87.54182,53.05964 156.10974,37.0542 244.72126,-28.0741 353.38245,-8.3668 l 36.17433,-79.63526 c -27.37661,-19.43211 -47.49251,-52.23475 -58.80949,-82.43452 -34.87226,-93.05786 -130.29619,-108.36776 -200.99174,-62.9303 -20.6094,13.24608 9.18615,47.01286 -15.57096,61.4276 -77.17673,44.93589 -153.06937,-83.39129 -240.09327,-24.91507 -32.90566,22.11115 -32.64305,54.11276 -46.85116,75.10678 -1.65319,-7.67841 -5.43743,-12.54086 -12.35969,-14.40906 z"
       style="fill:#6d3575;fill-opacity:1;stroke:none"
       clip-path="none" />
    <g
       id="g5238"
       transform="matrix(1.4120618,0.12845918,0.02520698,1.2555403,518.64437,45.908678)"
       inkscape:path-effect="#path-effect5247">
      <path
         id="path4"
         style="fill:#efeb42"
         d="m -167.09276,427.46133 c 1.87163,-0.37715 3.70435,-0.75449 5.41249,-1.02289 1.70813,-0.2684 3.28942,-0.42687 4.76743,-0.49128 -5.76163,6.32974 -10.82826,11.96801 -15.29737,17.16187 1.38603,0.11703 2.73028,0.23472 4.08311,0.30819 -3.13051,3.39037 -6.04349,6.62527 -8.78693,9.77869 2.39476,-0.79216 4.73743,-1.62396 7.17508,-2.64528 -2.26361,2.8688 -4.36753,5.65729 -6.35515,8.41826 -0.82944,1.13398 -1.64034,2.27706 -2.43573,3.43335 1.4063,0.07 2.80339,0.10919 4.22962,0.0709 -1.84571,2.33264 -3.60784,4.66445 -5.3322,7.04466 -1.72435,2.38021 -3.41105,4.80878 -5.09658,7.28876 -3.37106,4.95995 -6.74377,10.14872 -10.30638,15.16012 1.69469,-3.66614 3.33016,-7.42709 4.96904,-11.12561 1.63888,-3.69851 3.28215,-7.33273 5.00247,-10.8273 -1.60181,1.01088 -3.21932,2.03263 -4.85463,3.06679 2.59292,-5.04725 5.29111,-9.8167 8.2888,-14.33515 -2.44969,1.06003 -4.9443,2.11139 -7.49124,3.14848 1.23652,-1.92883 2.51877,-3.80397 3.85803,-5.64039 1.19048,-1.65953 2.42915,-3.31536 3.72458,-4.98846 -2.70331,1.20766 -5.44522,2.3238 -8.22651,3.33001 -0.26739,0.098 -0.53509,0.19525 -0.80311,0.29178 0.11657,-0.1616 0.23363,-0.32278 0.35118,-0.48356 3.02977,-4.20701 6.4042,-8.26727 10.20984,-12.59492 3.80564,-4.32765 8.03683,-8.92757 12.91416,-14.34699 z"
         inkscape:connector-curvature="0"
         inkscape:original-d="m -207.11522,380.3759 51.20459,-8.36916 -18.14213,42.12831 23.68287,-2.11612 -17.02603,27.98618 31.52172,-10.60661 -16.31891,33.64824 23.2132,-2.12132 -55.33111,77.48885 13.61181,-53.68466 -19.20801,9.83883 12.49049,-38.06244 -29.87005,12.6066 10.71751,-30.22361 -32.64303,15.84924 z" />
      <path
         id="path6"
         style="fill:#4a71bd"
         d="m -195.03537,491.96665 c 2.07207,-2.90346 4.14455,-5.46838 6.15351,-7.53846 2.00896,-2.07008 3.95176,-3.65031 5.75872,-4.68233 1.80696,-1.03202 3.47835,-1.52282 4.96073,-1.42298 1.48237,0.0998 2.77685,0.786 3.82639,2.19774 -3.58674,-0.33689 -6.7167,0.19267 -9.99358,2.01512 -1.63843,0.91122 -3.30806,2.14158 -5.07028,3.71275 -1.76221,1.57116 -3.61549,3.48578 -5.63549,5.71816 0.73811,-2.88876 1.24898,-5.79233 1.52787,-8.5514 0.2789,-2.75908 0.32669,-5.37328 0.1128,-7.74246 -0.21389,-2.36918 -0.68983,-4.49367 -1.48859,-6.33094 -0.79875,-1.83727 -1.92209,-3.38826 -3.44371,-4.66219 1.10073,1.96827 1.9279,3.82921 2.53327,5.76641 0.60536,1.9372 0.99066,3.94394 1.20633,6.11566 0.21567,2.17171 0.2618,4.50784 0.17631,7.06444 -0.0855,2.55661 -0.30309,5.33597 -0.62428,8.34048 z"
         inkscape:connector-curvature="0"
         inkscape:original-d="m -184.31102,538.41427 c 21.5286,-29.94746 58.20703,-46.57792 89.331107,-35.95852 -39.527037,1.48617 -64.391577,11.99543 -89.331107,35.95852 -4.5842,-26.88911 -24.7908,-50.61089 -59.5408,-56.11089 32,12.625 46,29.125 59.5408,56.11089 z" />
      <path
         id="path8"
         style="fill:#1f2c54;fill-opacity:1"
         d="m -172.5534,459.94362 c 0.0562,-0.0828 0.11232,-0.1644 0.16846,-0.2447 1.59612,-2.315 3.19281,-3.63271 4.39492,-4.02601 1.20212,-0.39329 2.02421,0.11179 2.01529,1.86135 -0.69475,-0.48315 -1.44629,-0.6774 -2.44405,-0.3799 -0.99776,0.2975 -2.24459,1.0869 -3.8777,2.55622 -0.0846,0.0758 -0.17023,0.15349 -0.25692,0.23304 z m -16.57845,6.77487 c 0.43467,-4.19809 -0.32414,-7.63423 -2.07476,-10.21549 -0.8753,-1.29063 -1.9994,-2.38016 -3.33582,-3.25356 -1.33642,-0.8734 -2.88357,-1.54499 -4.61374,-1.81502 2.56817,2.4206 4.76768,4.462 6.45669,6.82586 1.689,2.36386 2.87029,5.05196 3.56763,8.45821 z"
         inkscape:connector-curvature="0"
         inkscape:original-d="m -125.56521,454.03193 c 5.92938,-13.39016 21.01104,-15.63801 29.926777,-6.00888 -10.157927,-3.42049 -18.788767,-3.16421 -29.926777,6.00888 z m -72.10761,25.92471 c -11.90623,-19.36854 -45.65586,-29.6792 -72.92147,-21.93288 27.90039,0.86244 52.92882,7.6259 72.92147,21.93288 z" />
    </g>
    <g
       id="g6435">
      <g
         clip-path="url(#clipPath6431)"
         id="g6405">
        <path
           transform="matrix(0.94836331,-0.3171862,0.3171862,0.94836331,-105.02417,505.29798)"
           d="m 704.90095,324.8461 a 50.164074,67.372818 0 1 1 -100.32815,0 50.164074,67.372818 0 1 1 100.32815,0 z"
           sodipodi:ry="67.372818"
           sodipodi:rx="50.164074"
           sodipodi:cy="324.8461"
           sodipodi:cx="654.73688"
           id="path6380"
           style="fill:#ffffff;stroke:none"
           sodipodi:type="arc" />
        <path
           transform="matrix(0.83080092,-0.18620784,0.18620784,0.83080092,29.216574,465.05571)"
           d="m 704.90095,324.8461 a 50.164074,67.372818 0 1 1 -100.32815,0 50.164074,67.372818 0 1 1 100.32815,0 z"
           sodipodi:ry="67.372818"
           sodipodi:rx="50.164074"
           sodipodi:cy="324.8461"
           sodipodi:cx="654.73688"
           id="path5694"
           style="fill:url(#linearGradient4250);fill-opacity:1;stroke:none"
           sodipodi:type="arc" />
        <path
           sodipodi:type="arc"
           style="fill:#000000;stroke:none"
           id="path5696"
           sodipodi:cx="654.73688"
           sodipodi:cy="324.8461"
           sodipodi:rx="50.164074"
           sodipodi:ry="67.372818"
           d="m 704.90095,324.8461 a 50.164074,67.372818 0 1 1 -100.32815,0 50.164074,67.372818 0 1 1 100.32815,0 z"
           transform="matrix(0.68141909,-0.13200127,0.13200127,0.68141909,150.8468,480.86854)" />
        <path
           sodipodi:type="arc"
           style="fill:#ffffff;stroke:none"
           id="path5698"
           sodipodi:cx="614.15662"
           sodipodi:cy="288.09277"
           sodipodi:rx="16.372866"
           sodipodi:ry="24.884619"
           d="m 630.52948,288.09277 a 16.372866,24.884619 0 1 1 -32.74573,0 16.372866,24.884619 0 1 1 32.74573,0 z"
           transform="matrix(0.95296321,-0.1394164,0.1394164,0.95296321,-11.030591,407.19584)" />
        <path
           transform="matrix(0.34458064,-0.05752614,0.05752614,0.34458064,405.85569,560.77955)"
           d="m 630.52948,288.09277 a 16.372866,24.884619 0 1 1 -32.74573,0 16.372866,24.884619 0 1 1 32.74573,0 z"
           sodipodi:ry="24.884619"
           sodipodi:rx="16.372866"
           sodipodi:cy="288.09277"
           sodipodi:cx="614.15662"
           id="path5700"
           style="fill:#ffffff;stroke:none"
           sodipodi:type="arc" />
      </g>
      <path
         sodipodi:nodetypes="cccssccccc"
         inkscape:connector-curvature="0"
         d="m 679.87743,295.09157 c -0.43545,-7.40263 -1.52279,-15.1498 -3.65264,-23.49716 6.54367,10.08659 9.56167,19.23189 10.78093,30.46646 L 566.58794,288.3449 c -34.75154,-3.95831 -34.48136,-9.75046 0.30403,-5.86702 z m -98.34648,39.14615 c -12.83656,-15.08289 -17.45229,-32.0334 -17.90811,-49.31858 l 6.26686,0.8261 c 0.34836,16.54704 3.22229,30.9088 11.64125,48.49248 z"
         style="fill:#000000;stroke:none"
         transform="translate(0,308.2677)"
         id="path6377" />
    </g>
    <path
       id="path6480"
       style="fill:#291829;fill-opacity:1;fill-rule:evenodd;stroke:none"
       d="m 743.77592,658.29388 c 2.25073,7.19882 6.29189,8.62798 11.29904,3.15717 -3.05905,12.60331 -14.08452,8.93403 -11.29904,-3.15717 z m 13.9273,59.64408 c -31.36734,-3.51671 -48.90123,-16.74068 -57.49474,-43.67048 13.78616,24.87138 28.82537,34.22361 60.34162,36.87381 z"
       inkscape:connector-curvature="0" />
    <path
       sodipodi:nodetypes="cc"
       inkscape:connector-curvature="0"
       id="path4987"
       d="M 797.54119,628.35112 731.5743,773.07619"
       style="fill:none;stroke:#291829;stroke-width:8;stroke-linecap:butt;stroke-linejoin:miter;stroke-miterlimit:4;stroke-opacity:1;stroke-dasharray:none"
       clip-path="url(#clipPath5115)" />
    <path
       clip-path="url(#clipPath5119)"
       inkscape:original-d="m 291.26574,631.75956 c -2.99721,52.88234 18.50654,97.51888 101.80555,117.29069 166.38506,39.49307 256.09385,-37.09047 375.18983,-3.1582 47.03828,13.40193 73.39737,-57.15048 34.37427,-73.33925 -37.58792,-15.59338 -64.87719,-56.74081 -78.81681,-93.93918 -34.87227,-93.05786 -130.29619,-108.36776 -200.99174,-62.9303 -20.6094,13.24608 9.18615,47.01286 -15.57096,61.4276 -77.17673,44.93589 -153.06937,-83.39129 -240.09327,-24.91507 -39.7576,26.71535 -31.09552,67.86899 -58.51616,87.41633"
       inkscape:path-effect="#path-effect5015"
       sodipodi:nodetypes="csssssssc"
       inkscape:connector-curvature="0"
       d="m 309.28912,695.11148 c -5.20855,-8.12072 -9.11924,-16.98385 -11.87865,-26.2766 -3.48265,-11.70105 -5.23014,-24.12356 -6.14473,-37.07532 -2.36573,12.50812 -2.80021,25.68198 -0.29599,38.6388 1.98291,10.21579 5.9079,20.16468 11.59007,29.02813 1.27589,1.99022 2.63122,3.93188 4.06528,5.81824 8.90052,11.645 20.4496,20.92983 32.99654,28.05018 16.4332,9.33286 34.4067,15.36586 52.52588,19.64721 36.98234,8.77846 75.11614,12.737 113.12312,11.50196 10e-6,0 2e-5,0 4e-5,0 31.61029,-1.03847 62.87058,-5.63222 93.80515,-10.9452 28.06204,-4.80596 55.93283,-10.08635 83.9737,-11.88312 28.32976,-1.81667 56.97139,0.37243 84.11555,8.1232 5.83491,1.67476 12.04828,2.27418 18.20135,1.47932 5.52347,-0.73285 10.85049,-2.59821 15.62462,-5.40666 9.29046,-5.50968 16.32576,-14.17237 20.41541,-23.93725 3.98901,-9.31571 5.40447,-20.00876 2.80422,-30.16471 -1.26585,-4.85352 -3.56894,-9.47467 -6.86592,-13.39212 -3.5959,-4.21621 -8.18477,-7.40336 -13.17663,-9.45943 -18.46898,-7.5935 -34.01615,-21.62608 -46.66361,-37.64383 -12.73757,-16.20562 -22.66796,-34.61915 -29.9403,-54.00429 -7.98166,-21.363 -20.31434,-41.37507 -37.20687,-57.01614 -10e-6,-2e-5 -3e-5,-3e-5 -5e-5,-5e-5 -14.84581,-13.70658 -33.04517,-23.68906 -52.57994,-28.8486 -2e-5,0 -4e-5,-10e-6 -7e-5,-10e-6 -19.34394,-5.09334 -39.7413,-5.55877 -59.33382,-2.02085 -2e-5,10e-6 -4e-5,10e-6 -6e-5,2e-5 -20.56895,3.71252 -40.25349,11.7234 -57.77927,22.99404 -2.79522,1.77479 -5.22666,4.24732 -6.92262,7.30624 -1e-5,2e-5 -2e-5,5e-5 -4e-5,7e-5 -1.519,2.8652 -2.29513,5.90626 -2.54332,8.84505 -0.28101,3.15862 -0.12231,6.20566 0.19499,9.09044 0.33008,3.0982 0.81237,6.08679 1.24751,8.98975 10e-6,2e-5 10e-6,4e-5 10e-6,7e-5 0.43304,2.92171 0.83369,5.75866 0.99459,8.52214 0.14289,2.62656 0.12136,5.15523 -0.332,7.48666 -0.43045,2.22297 -1.21233,4.33558 -2.41584,6.05711 -1.3342,2.00492 -3.35796,3.67859 -5.64422,5.03824 -2e-5,10e-6 -4e-5,2e-5 -5e-5,3e-5 -8.35794,4.86026 -17.71593,8.02008 -27.26707,8.90679 -2e-5,1e-5 -4e-5,1e-5 -6e-5,1e-5 -9.11868,0.87895 -18.47509,-0.24603 -27.5922,-2.49112 -3e-5,-10e-6 -5e-5,-10e-6 -7e-5,-2e-5 -9.68252,-2.39301 -19.1205,-6.06869 -28.45078,-10.1735 -9.81624,-4.32642 -19.48582,-9.16824 -29.2856,-13.91969 -9.84209,-4.77639 -19.82419,-9.4819 -30.18579,-13.4792 -2e-5,-10e-6 -4e-5,-2e-5 -6e-5,-3e-5 -10.03647,-3.87877 -20.4886,-7.06517 -31.32669,-8.71429 -10.75897,-1.63483 -21.85887,-1.58983 -32.64319,0.61961 -12.08821,2.50936 -23.45136,7.66433 -33.55997,14.47302 -9.14516,6.14413 -17.0937,14.07061 -23.17127,23.30314 -1.40946,2.15418 -2.71355,4.35598 -3.93138,6.59139 -3.22235,5.91488 -5.7938,12.19416 -8.00687,18.48161 -2.81153,7.92182 -5.07395,15.79077 -8.20705,23.08908 -1.56022,3.62808 -3.38762,7.13676 -5.53228,10.38766 -2.14467,3.2509 -4.6071,6.24319 -7.43637,8.88352 3.38956,-1.81794 6.59201,-4.25354 9.49522,-7.15456 2.90321,-2.90102 5.50672,-6.26624 7.73406,-9.89353 4.40625,-7.15146 7.63006,-15.07032 10.83958,-22.63929 2.56154,-5.99648 5.16739,-11.88254 8.13141,-17.33544 1.12207,-2.06426 2.31516,-4.07413 3.59838,-6.01558 5.45762,-8.31282 12.66521,-15.49087 20.94845,-21.05786 9.38484,-6.29005 19.79896,-11.04663 30.71289,-13.27783 9.72435,-2.01724 19.88771,-2.03727 29.83356,-0.54467 10.06429,1.50815 19.95579,4.54608 29.64478,8.2689 2e-5,10e-6 4e-5,2e-5 6e-5,2e-5 10.00113,3.84988 19.77852,8.46649 29.57166,13.21251 9.7387,4.72404 19.49596,9.60643 29.54867,14.04143 9.54306,4.21758 19.41451,8.0414 29.7512,10.61794 1e-5,0 2e-5,0 3e-5,0 9.76701,2.44268 20.01557,3.63451 30.26868,2.69163 2e-5,0 4e-5,0 7e-5,0 10.79273,-1.02656 21.24284,-4.53684 30.54341,-9.95818 3.12996,-1.79392 6.01207,-4.26529 8.21929,-7.43132 1.89737,-2.80617 3.10031,-5.93522 3.67899,-9.10643 0.58767,-3.23326 0.64989,-6.41183 0.45409,-9.43636 -0.19551,-3.18365 -0.62066,-6.25516 -1.0681,-9.22583 -0.44219,-2.96834 -0.90998,-5.84322 -1.20402,-8.64859 -0.26534,-2.62648 -0.42087,-5.14467 -0.18546,-7.5039 0.22703,-2.13874 0.69112,-4.15498 1.60721,-5.77057 10e-6,-10e-6 10e-6,-3e-5 2e-5,-4e-5 0.90382,-1.72485 2.43404,-3.22743 4.21896,-4.39639 16.6929,-10.7224 35.40839,-18.35214 54.8721,-21.8506 1e-5,0 2e-5,0 3e-5,0 18.52522,-3.32812 37.76927,-2.90876 55.87392,1.88262 18.25615,4.81555 35.32683,14.17867 49.1939,26.99052 10e-6,10e-6 3e-5,2e-5 4e-5,4e-5 15.84326,14.59284 27.48811,33.58167 35.14341,53.94643 7.51587,20.07771 17.84625,39.20269 31.14028,56.13864 13.15404,16.83085 29.77649,31.67935 49.88943,40.0916 3.92184,1.64179 7.49708,4.08861 10.13574,7.23843 2.47183,2.89833 4.23128,6.47447 5.23501,10.2571 2.1796,8.03219 0.88645,17.01047 -2.43729,25.02043 -10e-6,2e-5 -2e-5,3e-5 -3e-5,5e-5 -3.54157,8.3153 -9.47144,15.71605 -17.09914,20.15144 -3.8719,2.27398 -8.19595,3.79443 -12.61572,4.37191 -4.9217,0.66459 -10.05597,0.14437 -14.96406,-1.24171 -28.19077,-8.015 -57.73478,-10.30064 -86.82271,-8.41279 -28.69132,1.86353 -56.84123,7.17676 -84.81106,11.98167 -30.81193,5.27809 -61.70814,9.83486 -92.71291,10.83429 -3e-5,0 -5e-5,0 -7e-5,0 -37.27794,1.21521 -74.70914,-2.67265 -111.01535,-11.28993 -2e-5,0 -4e-5,-10e-6 -6e-5,-10e-6 -17.64015,-4.20647 -34.90995,-9.96221 -50.4148,-18.81542 -11.78218,-6.73307 -22.52922,-15.31617 -30.59044,-25.94498 -1.30457,-1.70995 -2.53835,-3.47436 -3.70064,-5.28649 z"
       style="fill:#291829;fill-opacity:1;stroke:none"
       id="path5090" />
    <path
       clip-path="url(#clipPath5029)"
       style="fill:none;stroke:#291829;stroke-width:8;stroke-linecap:butt;stroke-linejoin:miter;stroke-miterlimit:4;stroke-opacity:1;stroke-dasharray:none"
       d="M 305.91591,695.92751 C 234.29458,682.54527 113.31632,680.97764 24.414214,724.36218 -4.1210601,738.28749 -23.281167,622.58539 10.5,613.53375 c 51.244946,-13.73104 136.41339,-17.11341 197.45176,-0.64018 8.04262,2.17057 11.84924,8.38304 13.42324,17.63282"
       id="path5092"
       inkscape:connector-curvature="0"
       sodipodi:nodetypes="csssc" />
    <g
       id="g4554">
      <path
         sodipodi:nodetypes="csscc"
         inkscape:connector-curvature="0"
         id="path4552"
         d="m 452.64885,686.56614 c 85.365,44.1188 169.97482,70.71307 272.74577,85.93861 17.83274,2.64192 -33.62849,116.30448 -63.08326,105.67871 C 562.34584,842.12102 504.88034,810.15908 426.92092,743.49865 z"
         style="fill:#6d3575;fill-opacity:1;stroke:none" />
      <path
         inkscape:original-d="m 452.64885,686.56614 c 85.365,44.1188 169.97482,70.71307 272.74577,85.93861 17.83274,2.64192 -33.62849,116.30448 -63.08326,105.67871 C 562.34584,842.12102 504.88034,810.15908 426.92092,743.49865"
         inkscape:path-effect="#path-effect4508"
         style="fill:#291829;fill-opacity:1;stroke:none"
         d="m 557.80118,727.89447 c -7.98184,-2.82641 -16.56804,-5.9467 -25.44275,-9.27954 -8.87472,-3.33285 -18.03772,-6.87855 -27.18877,-10.51425 -18.3021,-7.2714 -36.539,-14.93841 -52.52081,-21.53454 7.12262,4.51299 15.04565,9.16504 23.44791,13.74689 8.40227,4.58186 17.28374,9.09255 26.29884,13.36067 9.01509,4.26813 18.16346,8.29327 27.07789,11.95261 8.91442,3.65934 17.59436,6.95319 25.65759,9.80849 8.6677,3.06935 17.38945,5.98812 26.16197,8.75092 46.85694,14.752 94.99804,25.09088 143.51537,32.27584 -0.0279,0.007 -0.078,-0.0263 -0.20949,-0.0957 -0.096,-0.0956 -0.11681,-0.0872 -0.0641,-0.0373 0,0 0,0 0,10e-6 0.27507,0.25353 0.32116,1.07672 0.48771,2.20044 0,0 0,10e-6 0,2e-5 0.12779,1.55212 -0.0304,3.25586 -0.26633,5.07586 0,10e-6 0,10e-6 0,10e-6 -0.31508,2.31791 -0.82548,4.66013 -1.4284,7.03014 -1.52873,5.99768 -3.63842,11.90618 -5.99979,17.77389 -2.75232,6.82656 -5.87136,13.51554 -9.28783,20.05897 -3.49135,6.68292 -7.27814,13.19094 -11.44735,19.41991 -3.79116,5.65415 -7.83307,11.06502 -12.39938,15.89176 -3.68216,3.83656 -7.47091,7.3497 -11.77257,9.44464 0,0 -1e-5,0 -1e-5,10e-6 -1.65284,0.8029 -3.28681,1.41247 -4.8485,1.58358 -1.36238,0.15949 -2.73736,0.0538 -3.90363,-0.38697 -22.87352,-8.25274 -45.5444,-16.99837 -67.73349,-26.78169 -19.6673,-8.67132 -38.94797,-18.18925 -57.59309,-28.80036 -12.91529,-7.34548 -25.50337,-15.24954 -37.80783,-23.60042 -13.98875,-9.49398 -26.03977,-18.07823 -37.80504,-26.41295 -11.76526,-8.33472 -23.23507,-16.43932 -35.80836,-25.32674 10.81946,11.03389 21.07518,20.7335 32.11127,30.15521 11.03609,9.42172 22.84442,18.58773 37.01253,28.20059 12.46223,8.45544 25.22798,16.47183 38.34084,23.9374 18.91871,10.76421 38.44255,20.40452 58.32258,29.16751 22.41948,9.88221 45.26115,18.69619 68.24585,26.98675 2.4984,0.88127 5.10988,1.12451 7.6131,0.79958 2.72551,-0.36613 5.22074,-1.23666 7.43227,-2.36647 10e-6,-1e-5 2e-5,-1e-5 3e-5,-2e-5 5.57656,-2.84556 10.11157,-6.91312 14.01132,-11.10789 4.97433,-5.2794 9.29346,-11.03793 13.23104,-16.93473 4.35291,-6.50776 8.28715,-13.26431 11.8897,-20.16549 3.5287,-6.7559 6.75714,-13.68198 9.61601,-20.77026 2.45173,-6.06801 4.67182,-12.31327 6.331,-18.78414 0.6576,-2.56011 1.22633,-5.20017 1.60339,-7.92368 0,-10e-6 0,-2e-5 0,-3e-5 0.30147,-2.09431 0.47746,-4.35344 0.31976,-6.74204 0,-10e-6 0,-2e-5 0,-3e-5 -0.0345,-1.651 -0.46446,-3.67141 -1.6394,-5.79209 -0.50608,-0.86501 -1.24953,-1.6804 -2.22871,-2.38368 -1.00511,-0.67039 -2.0758,-1.07841 -3.15268,-1.2272 -48.17586,-7.14016 -95.90679,-17.3847 -142.28486,-31.99282 -8.68188,-2.73367 -17.31457,-5.62235 -25.89478,-8.66065 z"
         id="path4480"
         inkscape:connector-curvature="0"
         sodipodi:nodetypes="cssc" />
      <path
         sodipodi:nodetypes="ccc"
         transform="translate(0,308.2677)"
         inkscape:connector-curvature="0"
         id="path4482"
         d="m 669.61236,552.21549 c 4.77296,-31.8198 18.07932,-59.54037 39.82285,-74.03605 -16.99354,18.14303 -29.75698,43.77907 -39.82285,74.03605 z"
         style="fill:#291829;fill-opacity:1;stroke:none" />
    </g>
    <g
       id="g27220"
       transform="translate(1.696718,0.30328232)">
      <path
         id="path27213"
         style="fill:#6d3575;fill-opacity:1;stroke:none"
         d="m 444.65788,609.49085 c -85.73882,19.05888 -115.76233,144.37903 -210.1163,142.72729 -46.13663,-0.80766 6.03648,-22.11865 42.14255,-54.39864 -78.87702,38.45519 -157.40004,57.94486 -165.07227,44.32309 -10.7705,-19.12262 88.96241,-40.57208 148.59633,-73.55113 -160.16673,39.48167 -185.379037,15.88658 32.93911,-36.87804 -77.17446,-1.67614 -10.01094,-37.20459 145.70831,-41.13862 z"
         inkscape:connector-curvature="0"
         sodipodi:nodetypes="cscscccc"
         clip-path="none" />
      <path
         clip-path="url(#clipPath27203)"
         sodipodi:nodetypes="cscc"
         inkscape:connector-curvature="0"
         id="path27145"
         d="m 326.96586,670.51491 c -92.07561,55.8364 -206.03047,88.18126 -215.354,71.62768 -10.77049,-19.12262 88.96241,-40.57208 148.59633,-73.55113 -170.537015,42.03798 -188.078122,12.56674 78.34133,-47.50324"
         style="fill:none;stroke:#291829;stroke-width:8;stroke-miterlimit:20;stroke-opacity:1;stroke-dasharray:none" />
      <path
         clip-path="url(#clipPath27207)"
         inkscape:original-d="m 444.65788,609.49085 c -85.73882,19.05888 -115.76233,144.37903 -210.1163,142.72729 -60.08974,-1.05192 46.58572,-36.88413 67.32225,-86.4569 8.67919,-20.74847 89.06169,-39.88417 33.33733,-35.55911 -136.56821,10.59978 -74.24984,-35.13283 103.65445,-39.62733"
         inkscape:path-effect="#path-effect27186"
         sodipodi:nodetypes="csssc"
         inkscape:connector-curvature="0"
         d="m 357.06342,678.6317 c 11.15433,-12.55795 22.06008,-24.88303 34.05775,-36.07418 7.70399,-7.18834 15.8475,-13.90122 24.7738,-19.61788 8.80594,-5.64154 18.40723,-10.30313 28.76291,-13.44879 -10.58928,1.49911 -21.03761,4.9462 -30.79744,9.87767 -9.71859,4.91173 -18.75596,11.20671 -27.13809,18.1968 0,0 -1e-5,0 -1e-5,0 -12.99552,10.83984 -24.52316,23.22565 -35.64606,35.74849 -3.75314,4.22552 -7.47995,8.45388 -11.22513,12.63809 -7.39616,8.25272 -14.86064,16.37214 -22.74774,23.97914 0,10e-6 -10e-6,10e-6 -10e-6,2e-5 -7.61114,7.33581 -15.59927,14.20991 -24.2275,20.05228 -8.41414,5.6958 -17.4544,10.42425 -26.98605,13.55939 -10.0381,3.31656 -20.6747,4.85996 -31.27826,4.67602 -3.06457,-0.0582 -6.04943,-0.18127 -8.92014,-0.5658 0,0 -1e-5,-1e-5 -1e-5,-1e-5 -1.88101,-0.28055 -3.53882,-0.53011 -4.80646,-1.10451 0,0 0,0 -1e-5,0 -0.39102,-0.18644 -0.66079,-0.30403 -0.74923,-0.40418 -0.0322,-0.0674 -0.0148,0.005 0.13139,0.21589 0.10115,0.25143 0.14677,0.43132 0.13011,0.59862 -0.0382,0.122 0.006,0.0768 0.0612,-0.11781 0.22011,-0.65259 0.93819,-1.41549 1.81074,-2.41908 1.2351,-1.32601 2.68723,-2.57831 4.23761,-3.8591 4.29552,-3.53305 8.95743,-6.77748 13.68611,-10.10518 12.34089,-8.66614 24.91138,-17.33831 36.5683,-27.39486 5.96419,-5.1444 11.71097,-10.67775 16.86125,-16.83224 4.72843,-5.62936 8.96885,-11.89987 11.93155,-18.92564 0.78648,-2.14938 2.83508,-4.09714 5.12161,-6.16787 0,0 1e-5,-10e-6 1e-5,-10e-6 2.95518,-2.54595 6.35714,-4.73366 9.9248,-6.84662 10e-6,0 10e-6,-10e-6 2e-5,-10e-6 7.53612,-4.44807 15.64862,-8.17241 23.81714,-12.10649 2.93679,-1.40656 6.01402,-2.86123 9.05812,-4.66489 0.9145,-0.52052 1.99344,-1.21253 3.12066,-2.20176 1e-5,0 2e-5,-10e-6 3e-5,-2e-5 0.37067,-0.29573 0.83834,-0.81587 1.3529,-1.58605 2e-5,-2e-5 4e-5,-4e-5 6e-5,-6e-5 0.46936,-0.51484 0.74697,-1.57355 0.74848,-3.14912 -10e-6,-7e-5 -3e-5,-1.4e-4 -4e-5,-2e-4 -0.35326,-1.61514 -0.97752,-2.6912 -1.79342,-3.20314 -0.93802,-0.66347 -1.67734,-1.01044 -2.16261,-1.1007 -1.74545,-0.49326 -3.24784,-0.61582 -4.42608,-0.63602 -5.32677,-0.24316 -10.47628,0.17782 -15.42404,0.57223 -13.92664,1.07762 -27.82756,1.82473 -41.65457,1.5139 -4.71774,-0.10671 -9.39172,-0.333 -13.99372,-0.83798 -10e-6,0 -10e-6,0 -2e-5,0 -3.28497,-0.36734 -6.46003,-0.82187 -9.43269,-1.63668 -1.92516,-0.58825 -3.5685,-1.04396 -4.53897,-1.8565 -0.25929,-0.24201 -0.40973,-0.32549 -0.33064,-0.28442 1e-5,0 1e-5,0 1e-5,10e-6 0.0883,0.12757 0.11397,0.29735 0.12852,0.59119 -0.0676,0.24252 -0.0238,0.26399 0.0189,0.10421 0,0 0,-10e-6 0,-10e-6 0.10867,-0.23185 0.41409,-0.53377 0.82032,-0.9415 1.26168,-1.22275 3.0422,-2.20719 5.02182,-3.26039 2.8676,-1.48073 5.94619,-2.70861 9.12804,-3.85957 4.19439,-1.51185 8.49838,-2.81149 12.86362,-4.00445 10.75183,-2.93771 21.72898,-5.17847 32.80324,-7.08079 1.10707,-0.19017 2.21662,-0.37825 3.32836,-0.56456 18.24517,-3.05582 37.00515,-5.56762 55.55616,-7.72769 18.55101,-2.16006 36.89042,-3.98069 54.24556,-5.79409 -17.26792,-0.87892 -35.77448,-1.02634 -54.60655,-0.15741 -18.83207,0.86894 -37.98563,2.76884 -56.50025,5.7929 -1.12771,0.18409 -2.25346,0.37234 -3.37692,0.56505 -11.24084,1.92817 -22.46904,4.22499 -33.55637,7.24897 -4.50524,1.22852 -9.01046,2.59174 -13.46729,4.19521 -3.36313,1.20591 -6.75786,2.57133 -10.07647,4.27217 -2.23047,1.11205 -4.6078,2.51554 -6.81223,4.51758 -0.7659,0.68279 -1.55004,1.57935 -2.2565,2.72544 -1e-5,1e-5 -1e-5,3e-5 -2e-5,4e-5 -0.58362,0.89911 -0.99568,2.10424 -1.12378,3.57556 -0.041,1.42276 0.29291,2.72708 0.95042,3.83113 10e-6,2e-5 2e-5,4e-5 3e-5,5e-5 0.77136,1.22857 1.6404,2.11339 2.48642,2.68846 2.46861,1.72975 4.99983,2.61498 7.2026,3.14505 3.59434,0.96431 7.17699,1.49583 10.65548,1.86769 4.92104,0.53582 9.8255,0.77724 14.68515,0.88336 14.23085,0.31265 28.39737,-0.4418 42.45136,-1.53591 4.98322,-0.37638 9.79838,-0.79244 14.42097,-0.55747 1.13655,0.091 1.97973,0.0978 2.44846,0.28871 0.11492,0.0952 -0.0236,-0.0227 -0.47098,-0.29395 -0.49398,-0.25462 -0.85556,-0.97216 -1.16411,-2.17767 0.0489,-1.14126 0.15135,-1.76978 0.39168,-1.91257 1e-5,-10e-6 2e-5,-10e-6 3e-5,-2e-5 0.1784,-0.22413 0.19036,-0.28152 0.086,-0.14653 0,0 -1e-5,0 -1e-5,1e-5 -0.36773,0.36625 -1.01945,0.74235 -1.83897,1.254 -2.59125,1.55079 -5.46033,2.89374 -8.43366,4.32972 -8.08998,3.88562 -16.39991,7.71533 -24.4094,12.4226 -10e-6,10e-6 -2e-5,10e-6 -2e-5,2e-5 -3.77149,2.20932 -7.55478,4.6694 -11.0688,7.66371 -2.75105,2.24349 -5.52519,5.1876 -7.2982,9.15693 -2.50607,6.04788 -6.33281,11.63771 -10.69049,16.88358 -4.767,5.71553 -10.21056,10.94064 -15.9516,15.9075 -11.20373,9.69101 -23.56437,18.19946 -35.93877,26.90371 -4.7157,3.31002 -9.53644,6.67521 -14.1626,10.46744 -1.67188,1.36489 -3.37625,2.85325 -4.99434,4.56728 -1.13367,1.13403 -2.35011,2.6523 -3.3058,4.68519 -0.36632,0.76838 -0.63079,1.74742 -0.72246,2.91927 -0.0635,1.0872 0.15187,2.20086 0.65295,3.28204 0.58602,1.12365 1.29682,1.96939 2.05324,2.53797 0.93526,0.72538 1.84335,1.22452 2.66419,1.54884 1e-5,0 2e-5,1e-5 3e-5,1e-5 2.42718,0.9828 4.77123,1.4187 6.8652,1.66351 3.34078,0.43643 6.62837,0.58209 9.82835,0.63356 11.47479,0.20256 22.99369,-1.47473 33.92517,-5.07772 10.35206,-3.4261 20.05329,-8.4798 28.96896,-14.53517 10e-6,0 2e-5,-10e-6 2e-5,-10e-6 9.12503,-6.19593 17.46822,-13.35816 25.29269,-20.91668 10e-6,-10e-6 10e-6,-10e-6 2e-5,-2e-5 8.11254,-7.83157 15.71152,-16.09057 23.15125,-24.39787 3.77695,-4.21211 7.5133,-8.44723 11.25374,-12.65836 z"
         style="fill:#291829;fill-opacity:1;stroke:none"
         id="path27141" />
    </g>
    <path
       sodipodi:nodetypes="cccccc"
       inkscape:connector-curvature="0"
       id="path4047"
       d="M 512.00053,526.80313 C 452.51493,397.56508 339.28283,445.5468 239.48565,363.01087 c 0.0818,19.55736 2.48057,34.10071 10.56081,49.05482 -29.28159,-6.03771 -59.37886,-18.55439 -83.15246,-42.70644 28.3814,191.56044 194.36071,73.68467 290.81491,160.11128 z"
       style="fill:#000000;fill-opacity:1;stroke:#3d3b39;stroke-width:8.32295132;stroke-linecap:butt;stroke-linejoin:miter;stroke-miterlimit:20;stroke-opacity:1;stroke-dasharray:none" />
    <g
       id="g4059">
      <path
         sodipodi:nodetypes="ccccccccc"
         style="fill:#000000;fill-opacity:1;stroke:none"
         d="m 432.62841,516.24667 c 23.1203,-5.02292 36.87998,-11.5117 53.39271,-26.37665 -46.40044,5.88362 -87.31669,-6.32294 -124.68189,-37.43924 26.81825,4.13822 47.81457,2.33609 67.65732,-6.10171 C 331.07569,422.30256 291.7039,344.47954 297.60231,252.60324 c 86.0664,60.40739 155.18652,16.07166 241.24031,70.74336 -8.22728,-15.73473 -17.03307,-27.45688 -31.26859,-41.58973 110.50105,38.51959 175.81133,119.26875 156.32936,235.43154 -92.64428,-51.3838 -132.49188,29.19466 -231.27498,-0.94174 z"
         id="path4057"
         inkscape:connector-curvature="0" />
      <path
         sodipodi:nodetypes="cccccccccccc"
         style="fill:#efeb42;fill-opacity:1;stroke:none"
         d="m 297.60231,252.60324 c -5.89841,91.8763 33.47338,169.69932 131.39424,193.72583 -19.84275,8.4378 -40.83907,10.23993 -67.65732,6.10171 37.3652,31.1163 78.28145,43.32286 124.68189,37.43924 -16.51273,14.86495 -30.27241,21.35373 -53.39271,26.37665 55.77694,17.01623 92.76413,-1.26553 131.08725,-11.14917 -21.9911,-4.67161 -43.31521,1.34234 -70.94702,1.39826 17.4937,-14.9243 28.37832,-29.52588 35.60576,-45.74817 -30.20394,13.34992 -70.37186,16.85451 -102.97755,6.43151 25.19677,-5.57073 39.66277,-13.51216 52.86239,-30.26239 -103.55767,-18.6706 -156.53162,-75.22208 -155.81965,-169.36208 -8.16185,-4.13581 -16.41849,-9.0425 -24.83728,-14.95139 z"
         id="path4055"
         inkscape:connector-curvature="0" />
      <path
         inkscape:connector-curvature="0"
         id="path4051"
         d="m 432.62841,516.24667 c 23.1203,-5.02292 36.87998,-11.5117 53.39271,-26.37665 -46.40044,5.88362 -87.31669,-6.32294 -124.68189,-37.43924 26.81825,4.13822 47.81457,2.33609 67.65732,-6.10171 C 331.07569,422.30256 291.7039,344.47954 297.60231,252.60324 c 86.0664,60.40739 155.18652,16.07166 241.24031,70.74336 -8.22728,-15.73473 -17.03307,-27.45688 -31.26859,-41.58973 110.50105,38.51959 175.81133,119.26875 156.32936,235.43154 -92.64428,-51.3838 -132.49188,29.19466 -231.27498,-0.94174 z"
         style="fill:none;stroke:#3d3b39;stroke-width:8;stroke-linecap:butt;stroke-linejoin:miter;stroke-miterlimit:20;stroke-opacity:1;stroke-dasharray:none"
         sodipodi:nodetypes="ccccccccc" />
    </g>
    <g
       id="g3265"
       transform="matrix(0.13585845,0.99072825,0.99072825,-0.13585845,-108.48356,115.48211)">
      <path
         sodipodi:nodetypes="cscc"
         transform="translate(0,308.2677)"
         inkscape:connector-curvature="0"
         id="path3267"
         d="m 492.97284,300.07219 c -55.04069,-116.35184 25.6248,-198.55998 35.23764,-198.20393 6.59345,0.24422 37.91771,60.13085 29.55711,117.2617 -14.02886,41.29906 -27.95768,59.95903 -64.79475,80.94223 z"
         style="fill:#6d3575;fill-opacity:1;stroke:none" />
      <path
         style="fill:#291829;fill-opacity:1;stroke:none"
         d="m 470.22999,230.05419 c 0.77318,12.49672 3.1533,24.70458 6.98529,36.44233 3.83199,11.73774 9.12319,23.00736 15.75756,33.57567 -3.83097,-11.55463 -7.14262,-23.22371 -9.69553,-34.98406 -2.55291,-11.76035 -4.34416,-23.61379 -5.07371,-35.52485 -0.19576,-3.19605 -0.29616,-6.39759 -0.29698,-9.60103 -0.0256,-20.93336 4.13795,-41.88 12.13663,-61.22952 0,-1e-5 0,-1e-5 10e-6,-1e-5 5.96615,-14.40976 13.87926,-28.02537 23.91351,-39.8166 3.22009,-3.77189 6.55181,-7.32854 10.23753,-10.29565 1.17623,-0.93708 2.27536,-1.77311 3.3665,-2.36236 0,0 10e-6,0 10e-6,0 0.37133,-0.19497 0.64976,-0.34274 0.84581,-0.39969 0.19002,-0.0104 0.0791,-0.0378 -0.34419,0.007 0,0 0,0 -10e-6,0 -1.00925,-0.30458 -1.28878,-0.23441 -0.82191,-0.12962 0,0 0,0 0,0 0.40244,0.29335 0.84409,0.81209 1.39807,1.45254 1.71722,2.04725 3.18834,4.47675 4.67347,7.05363 4.70035,8.21955 8.35846,17.10446 11.50192,26.22462 0.85665,2.49363 1.66545,5.00348 2.42459,7.52767 2.85071,9.47885 5.23972,19.30234 7.02587,29.20163 1.27002,7.05709 2.23744,14.15313 2.8342,21.17473 0.59675,7.02161 0.82132,13.96825 0.66896,20.75924 1.75787,-6.50464 2.91708,-13.49432 3.43701,-20.72046 0.51992,-7.22614 0.40151,-14.68639 -0.29569,-22.12069 -0.96948,-10.3886 -3.04997,-20.76267 -6.00837,-30.59884 -0.78939,-2.62458 -1.63029,-5.233 -2.5209,-7.82341 -3.23238,-9.43179 -7.09635,-18.77177 -12.11949,-27.58982 -1.54429,-2.73129 -3.27952,-5.54216 -5.4658,-8.19776 -0.66197,-0.82451 -1.50198,-1.73219 -2.59318,-2.619378 -1e-5,-2e-6 -1e-5,-4e-6 -1e-5,-5e-6 -0.42369,-0.59909 -1.699,-1.241997 -3.84262,-1.588596 -10e-6,0 -10e-6,0 -2e-5,0 -1.17498,0.01706 -2.02888,0.18723 -2.55029,0.421156 -0.83355,0.296634 -1.53578,0.632571 -2.11723,0.964194 -10e-6,2e-6 -10e-6,4e-6 -10e-6,6e-6 -1.72013,0.964523 -3.20626,2.061073 -4.5275,3.143903 -4.23649,3.44026 -7.92306,7.34319 -11.30209,11.33449 -10.63904,12.52882 -18.98481,26.85292 -25.21148,41.94207 0,0 -1e-5,0 -1e-5,1e-5 -8.40096,20.32721 -12.76674,42.29554 -12.74328,64.29457 0.007,3.36747 0.1159,6.7296 0.32336,10.08279 z"
         id="path3271"
         inkscape:connector-curvature="0"
         transform="translate(0,308.2677)"
         sodipodi:nodetypes="csc"
         inkscape:path-effect="#path-effect6461"
         inkscape:original-d="m 492.97284,300.07219 c -55.04069,-116.35184 25.6248,-198.55998 35.23764,-198.20393 6.59345,0.24422 37.91771,60.13085 29.55711,117.2617" />
    </g>
  </g>
</svg>
