<svg>
  <defs>
    <path d="M 1.2293353e-4,-53.901502 12.102708,-16.658346 51.262958,-16.65687 19.582517,6.3621405 31.682296,43.606208 1.2095233e-4,20.589583 -31.682055,43.606207 -19.582274,6.3621395 -51.262715,-16.656873 l 39.160251,-0.0015 z" id="S" stroke-width="5" />
  </defs>
  <g>
    <path d="m 16.352867,73.50079 c 4.52957,14.810054 6.16172,33.3089 4.08367,48.91178 m 13.48218,-40.574096 c -7.07686,9.34141 -16.10003,18.317706 -26.3420599,25.706546 M 46.763087,98.885114 c -4.03279,1.812746 -7.31831,4.765476 -10.12416,9.233106 -0.90684,-16.486316 -3.25286,-32.095116 -6.68993,-47.02046 -8.53055,9.46917 -17.6749,16.067244 -29.18945991,21.900114" style="stroke-linecap:round;stroke:#000;fill:none;stroke-linejoin:round;stroke-width:1.5" />
    <path d="M 48.531697,87.720974 C 37.899907,69.4378 24.161867,25.51525 24.632257,0 c 31.8668,17.34216 40.88187,62.61306 23.89944,87.720974 z" fill="#8a95ef" />
    <path d="m 30.413397,9.95535 c 14.33617,27.80364 19.19752,56.77392 16.34969,88.929764 l 2.7577,-9.63255 C 51.124197,64.28847 46.346747,35.29945 30.413397,9.95535 Z" />
  </g>
  <g transform="translate(229,62.264322)">
    <use fill="#faed3f" stroke="#fb8b3f" xlink:href="#S" />
    <use fill="none" stroke="#bc1e17" transform="rotate(48)" xlink:href="#S" />
    <use fill="none" stroke="#faed3f" transform="rotate(24)" xlink:href="#S" />
  </g>
</svg>
