<svg xmlns:xlink="http://www.w3.org/1999/xlink" width="768" height="1024">
  <g id="Flevoland" transform="translate(280.86089,272)">
    <path fill="#0f47af" d="M 206.27822,160.68725 C 190.3184,67.68628 66.16597,166.63687 183.77381,223.77544 132.33193,172.45436 167.2341,125.01269 206.27822,160.68725 z M 101.88105,0 C 78.44588,29.27194 54.43261,77.94236 54.43261,87.4764 c 0,21.84876 59.01654,60.73326 22.71223,136.5236 9.51588,-9.00483 18.25057,-16.85686 24.73621,-27.86354 z"/>
    <path fill="#078930" d="m 104.39717,0 c 23.43517,29.27194 47.44844,77.94236 47.44844,87.4764 0,21.84876 -59.01655,60.73326 -22.71223,136.5236 -9.51589,-9.00483 -18.25057,-16.85686 -24.73621,-27.86354 z M 0,160.68725 C 15.95981,67.68628 140.11225,166.63687 22.5044,223.77544 73.94629,172.45436 39.04412,125.01269 0,160.68725 z"/></g>
  <g id="Utrecht" transform="translate(272,528)">
    <path fill="#da121a" d="m 112,0 112,112 -112,112 L 0,112 z"/>
    <path fill="#fff" d="m 70,42 14,-14 0,112 112,0 -84,84 -42,-42 0,-28 -28,0 -14,-14 42,0 z"/></g>
  <g id="Groningen" transform="translate(287.00515,16)">
    <path d="M 96.99485,224 86.35485,130.42902 1e-5,168 75.71485,112 0,56 86.35485,93.57098 96.99485,0 107.63485,93.57098 193.98969,56 l -75.71484,56 75.71485,56 -86.35485,-37.57098 z" fill="#fff"/>
    <path d="m 169.97651,132.958 c 15.43199,1e-5 14.47956,-20.958 2e-5,-20.95801 14.47954,1e-5 15.43197,-20.95797 -2e-5,-20.95799 -15.17644,1e-5 -18.51632,20.958 -40.98166,20.958 22.46534,0 25.80522,20.95803 40.98166,20.958 z M 42.35386,164.72497 c -7.71601,13.36451 10.91038,23.01867 18.15016,10.47901 -7.23978,12.53966 10.43415,23.84349 18.15016,10.47899 7.58822,-13.1432 -8.892,-26.5146 2.34067,-45.97015 -11.23267,19.45555 -31.05277,11.86896 -38.64099,25.01215 z M 24.01319,91.042 c -15.432,0 -14.47956,20.958 0,20.958 -14.47956,0 -15.432,20.958 0,20.958 C 39.18965,132.958 42.52951,112 64.99485,112 42.52951,112 39.18965,91.042 24.01319,91.042 z" fill="#009645"/></g>
  <g id="Friesland" transform="translate(34.144247,16)">
    <path style="fill:none;stroke:#084799;stroke-width:2.35152674;stroke-linecap:round" d="m 51.279805,122.98616 c -15.589147,7.70107 -27.348103,43.5804 11.69017,44.49269 21.0785,0.49259 28.52076,9.9558 39.227405,39.84096 M 77.940645,118.58267 C 48.090892,112.40455 33.931304,146.53422 11.551301,128.79701 -10.339434,111.44755 5.8486273,87.439512 27.146491,81.655492 M 146.26922,175.69195 C 120.58087,152.64868 116.39111,121.49208 135.4445,103.6451 M 107.06158,46.867392 C 56.438845,5.9401218 26.710135,107.9793 77.940645,118.58267 c 18.30733,3.78914 32.442395,23.0021 26.202905,43.33412 M 94.056485,72.040362 C 76.725325,101.58997 107.05957,130.23278 135.4445,103.6451 153.00993,87.191852 130.52131,65.834022 107.06158,46.867392 c -34.459685,-27.85983 -1.80623,-64.21493 22.05788,-34.74933 18.05569,22.29378 -8.00176,47.43116 30.68266,57.78181 m -33.63747,76.512898 c -4.88037,-14.61872 10.7039,-32.55705 30.47275,-44.99311 21.28259,-13.388318 38.72703,9.31019 17.50125,29.72093"/>
    <use xlink:href="#p" transform="matrix(-0.500024,-0.86601156,0.86601156,-0.500024,133.30636,286.27941)"/>
    <use xlink:href="#p" transform="matrix(-0.9611816,0.27591651,-0.27591651,-0.9611816,297.61921,150.04255)" />
    <use xlink:href="#p" transform="matrix(-0.87476047,-0.48455559,0.48455559,-0.87476047,115.9312,280.75195)"/>
    <use xlink:href="#p" transform="matrix(-0.01774278,-0.99984258,0.99984258,-0.01774278,18.238983,352.12999)"/>
    <use xlink:href="#p" transform="matrix(0.48455559,-0.87476047,0.87476047,0.48455559,-96.899086,296.10453)"/>
    <use xlink:href="#p" transform="matrix(0.85701769,-0.51528699,0.51528699,0.85701769,-112.6714,139.25837)"/>
    <path fill="#ea2117" d="m 185.35658,141.11898 c 5.18974,-5.52963 1.32749,-14.15932 -5.55521,-12.62193 -3.56067,0.79536 -4.65338,3.59083 -5.66272,2.64354 -1.00936,-0.9473 1.71132,-2.2149 2.27948,-5.81881 1.09827,-6.96629 -7.75877,-10.27404 -12.94852,-4.74439 -9.87643,10.52324 -2.32909,22.04894 -1.14963,23.15591 1.17948,1.10699 13.16017,7.90894 23.03659,-2.61433 z" id="p"/></g>
  <path id="Noord-Brabant" style="fill:none;stroke:#000;stroke-width:2.47199988;stroke-linecap:round" d="m 431.4702,872.4172 0,47.1656 m -11.7913,-11.7914 23.5826,-23.5828 m -23.5826,0 23.5826,23.5828 M 384,951.5342 l 0,47.1656 m -11.7913,-11.7914 23.5826,-23.5828 m -23.5826,0 23.5826,23.5828 m -59.2615,-193.6082 0,47.1656 m -11.7913,-11.7914 23.5826,-23.5828 m -23.5826,0 23.5826,23.5828 m 98.9725,-43.4382 0,221.5276 m -31.6468,-221.5276 0,221.5276 M 384,785.2362 l 0,158.234 m -31.6468,-158.234 0,221.5276 m -31.6468,-221.5276 0,221.5276"/>
  <path id="Limburg" style="fill:none;stroke:#e2401e;stroke-width:4.57146549;stroke-linecap:round;stroke-linejoin:round" d="m 610.69186,868.60705 -5.83569,-67.69394 m 33.04344,85.09164 -54.98009,33.12662 m 93.21401,13.35736 19.03471,22.3187 7.66106,-106.0452 m -43.00322,-3.86027 -49.13422,23.70509 60.78446,38.86797 m 3.92065,21.05767 -40.138,8.60366 -19.39508,48.70319 -17.6711,0 m 49.67222,-171.54514 27.90814,-8.61361 -15.94707,39.22117 26.72212,143.52358 -21.22074,7.5151 m 45.35685,-154.4867 c 0,4.04661 -3.28043,7.32701 -7.32704,7.32701 -4.04659,0 -7.32702,-3.2804 -7.32702,-7.32701 0,-4.0466 3.28043,-7.32704 7.32702,-7.32704 4.04661,0 7.32704,3.28044 7.32704,7.32704 z m -62.49527,-24.99811 c 0,4.0466 -3.28043,7.32701 -7.32704,7.32701 -4.0466,0 -7.32702,-3.28041 -7.32702,-7.32701 0,-4.04661 3.28042,-7.32702 7.32702,-7.32702 4.04661,0 7.32704,3.28041 7.32704,7.32702 z m -36.63517,-22.84311 c 0,4.04661 -3.28041,7.32701 -7.32704,7.32701 -4.04659,0 -7.32702,-3.2804 -7.32702,-7.32701 0,-4.0466 3.28043,-7.32701 7.32702,-7.32701 4.04663,0 7.32704,3.28042 7.32704,7.32701 z m -27.58412,129.30056 c 0,4.04661 -3.28043,7.32702 -7.32703,7.32702 -4.04661,0 -7.32703,-3.28041 -7.32703,-7.32702 0,-4.0466 3.28042,-7.32701 7.32703,-7.32701 4.0466,0 7.32703,3.28042 7.32703,7.32701 z m 81.77614,75.47375 c 0,4.04687 -3.28043,7.32727 -7.32703,7.32727 -4.0466,0 -7.32703,-3.2804 -7.32703,-7.32727 0,-4.04639 3.28043,-7.3269 7.32703,-7.3269 4.0466,0 7.32703,3.2805 7.32703,7.3269 z m -67.5531,-12.5475 c 0,4.0466 -3.28043,7.327 -7.32705,7.327 -4.04659,0 -7.32701,-3.2804 -7.32701,-7.327 0,-4.0466 3.28042,-7.32696 7.32701,-7.32696 4.04662,0 7.32705,3.28036 7.32705,7.32696 z"/>
  <g id="Overijssel" transform="translate(566.33514,272)">
    <path fill="#b0f6bc" d="m 15.876329,195.44871 54.227793,-65.92269 0,-35.640077 L 41.879535,21.33177 0,37.60011 0,182.41445 15.876329,195.44871 z m 82.909723,9.8328 -26.26455,-67.52332 -51.157059,62.19862 29.237268,24.0432 48.184341,-18.7185 z"/>
    <path fill="#4a7016" d="m 131.45339,28.55126 -54.260458,65.955363 0,35.607407 28.257248,72.58688 41.87954,-16.26838 0,-144.847 -15.87633,-13.03427 z M 48.511001,18.75105 74.775552,86.24179 125.93261,24.0105 96.695342,0 48.511001,18.75105 z"/></g>
  <g id="Zeeland" transform="translate(16,833)">
    <path style="fill:none;stroke:#f5eb7e;stroke-width:16" d="m28,105 a84,84 0 0 1 168,0"/>
    <path style="fill:none;stroke:#0193cf;stroke-width:14" d="m42,105 a70,70 0 0 1 140,0"/>
    <path style="fill:none;stroke:#f13e32;stroke-width:14" d="m14,105 a98,98 0 0 1 196,0"/>
    <path fill="#193783" d="m112,112 c-21,0 -35,14 -56,14 v-21 c21,0 35,-14 56,-14 21,0 35,14 56,14 v21 c-21,0 -35,-14 -56,-14 z"/>
    <path fill="#fff" d="M56,105 C35,105 21,91 0,91 v21 c21,0 35,14 56,14 z m168,7 c-21,0 -35,14 -56,14 v-21 c21,0 35,-14 56,-14 z"/></g>
  <g id="Noord-Holland" transform="translate(33.116988,272)">
    <path fill="#615348" d="M 21.202502,223.99999 C 48.701907,193.62753 62.868786,141.09135 66.562739,101.27878 l 56.640541,0 c 3.69396,39.81257 17.86084,92.34875 45.36024,122.72121 z"/>
    <path fill="#2f251c" d="m 146.82853,126.28573 c -8.26962,-42.3375 -42.94419,-56.38559 -51.945528,-56.38559 -9.00133,0 -43.675902,14.04809 -51.945512,56.38559 z"/>
    <path fill="#bfeae6" d="M 21.172391,28.92082 84.013722,80.37127 76.823092,93.27938 0,66.92803 z M 160.84521,21.17239 109.39477,84.01372 96.486652,76.82309 122.838,0 z m 7.74842,139.67284 -62.84133,-51.45045 7.19063,-12.90812 76.82309,26.35136 z m -139.672809,7.74841 51.450451,-62.84134 12.90811,7.19063 -26.35135,76.82309 z"/>
    <path fill="#a4d7d2" d="M 78.939452,89.48026 76.823092,93.27938 0,66.92803 5.219156,57.55896 z M 100.28578,78.93945 96.486652,76.82309 122.838,0 l 9.36907,5.21915 z m 10.54079,21.34634 2.11636,-3.79913 76.82309,26.35136 -5.21915,9.36906 z m -21.346308,10.5408 3.79912,2.11634 -26.35135,76.82309 -9.369067,-5.21915 z"/>
    <circle cx="94.883015" cy="94.883036" r="9.514495" fill="#615348"/></g>
  <g id="Drenthe" transform="translate(547.7516,16)">
    <path style="fill:none;stroke:#f1f6a1;stroke-width:1.23159945" d="m 72.217576,133.68305 c 7.97135,10.67049 13.75031,19.67245 19.40447,33.34762 8.430334,-12.31448 14.033804,-19.17131 22.808004,-27.58292 M 66.428246,96.41618 c 10.78527,9.84333 18.14928,18.6064 24.98688,31.62412 6.31348,-14.06871 11.109954,-21.27149 19.325984,-32.10191 M 69.946626,59.12057 c 9.46743,11.17684 13.95511,21.01348 19.03247,36.28459 2.56416,-14.85136 5.24846,-25.76521 8.79875,-36.0216 M 72.082406,11.52041 c 26.29843,91.51856 18.93487,148.84915 18.4089,197.76423"/>
    <path fill="#f1f6a1" id="ear" d="m 646.02431,81.048279 a 14.613906,3.8435533 0 1 1 -29.22782,0 14.613906,3.8435533 0 1 1 29.22782,0 z" transform="matrix(0.35088415,1.1805582,-1.1805582,0.35088415,-52.651994,-756.54922)"/>
    <use xlink:href="#ear" transform="matrix(0.96592583,-0.25881905,0.25881905,0.96592583,-7.090364,56.66748)"/>
    <use xlink:href="#ear" transform="matrix(0.86602541,0.50000001,-0.50000001,0.86602541,43.357306,3.9375098)"/>
    <use xlink:href="#ear" transform="matrix(0.66787556,0.74427299,-0.74427299,0.66787556,73.488306,30.17252)"/>
    <use xlink:href="#ear" transform="matrix(0.90010586,-0.43567123,0.43567123,0.90010586,-6.743074,112.28338)"/>
    <use xlink:href="#ear" transform="matrix(0.95053524,-0.31061666,0.31061666,0.95053524,-2.113204,140.96001)"/>
    <use xlink:href="#ear" transform="matrix(0.54604928,0.83775303,-0.83775303,0.54604928,87.492896,69.51111)"/>
    <path fill="#919b9b" d="m 18.422906,196.56586 c 43.08463,-19.72473 85.848994,0.46269 112.067404,-7.71863 26.21842,-8.18132 80.90966,17.05285 38.2746,31.16706 -42.63506,14.11416 -59.77954,-14.72749 -91.791164,-3.37625 -32.01163,11.35128 -113.1772,4.93643 -58.55084,-20.07221 z"/>
    <path fill="#747f7f" d="m 79.972796,208.21923 c -15.4023,0.11503 -28.45166,5.90165 -78.4254,6.56718 8.82567,9.0745 53.55729,9.58953 75.41149,1.84007 32.011604,-11.35123 49.178494,17.50878 91.813554,3.39464 3.91288,-1.29535 6.98844,-2.67608 9.35902,-4.12432 -28.06771,3.74025 -55.6829,-4.50059 -92.733604,-7.4872 -1.8799,-0.15156 -3.66873,-0.20349 -5.42506,-0.19037 z"/>
    <path fill="#aeb5b5" d="m 141.42508,187.2487 c -3.92137,0.0654 -7.668,0.5636 -10.9453,1.58626 -23.48278,7.32767 -60.231734,-8.08076 -98.602814,2.79184 63.50161,2.58877 88.265904,6.56991 136.070624,0.7297 -8.01181,-3.23072 -17.75692,-5.25403 -26.52251,-5.1078 z"/></g>
  <g id="Zuid-Holland" transform="translate(70.952507,528)">
    <path fill="#bc9883" d="m 40.762967,163.79897 c 8.82217,19.93496 10.47387,35.85874 9.06089,60.20101 l 14.98913,3e-5 c -2.07041,-24.12354 -0.78157,-39.52761 6.99889,-59.76467 z"/>
    <path fill="#f0586b" d="M 57.613417,174.94953 C 14.292567,175.37684 13.230437,57.87211 60.933077,0 c 32.0593,29.04591 27.67931,54.86466 38.78432,79.99099 23.625583,53.45561 17.219913,94.37336 -42.10398,94.95854 z"/>
    <path fill="#f698a4" d="m 78.312897,6.50861 c 11.25805,28.28308 8.14733,48.96022 8.14358,64.55529 -0.0105,43.89868 23.700033,45.79427 25.490543,67.24463 C 119.78227,88.25756 105.6433,13.8108 78.312897,6.50861 z M 57.613417,174.94953 C 1.324427,174.45546 8.150177,72.1435 43.172857,1.12094 c 24.59081,29.91949 18.59744,56.78238 29.40009,86.73363 14.89106,41.2867 0.9738,87.23481 -14.95953,87.09496 z"/>
    <path fill="#f0586b" d="M 57.613417,174.94953 C -25.979247,175.77408 -2.366493,62.78537 27.688907,3.78208 c 23.52825,39.08232 6.85079,46.04638 8.42957,96.06219 1.60939,50.98589 8.15165,63.79778 21.49494,75.10526 z"/></g>
  <g id="Gelderland" transform="translate(528,561.12661)">
    <path d="M 156.46757,115.05562 C 217.99712,115.05562 224,3.6e-4 224,3.6e-4 l -121.06886,0 -32.88132,62.53003 -70.03364,0 c 13.50649,55.02644 30.01442,52.52523 56.52715,52.52523 45.02162,0 54.90262,0 99.92424,0 z" fill="#000"/>
    <path d="M 102.93275,0 70.06163,62.52103 0,62.52103 c 1.12771,4.59437 2.30384,8.76483 3.47746,12.59206 l 74.56402,-0.40265 32.57829,-61.97196 112.15716,0 C 223.71401,5.01608 223.98489,0 223.98489,0 L 102.93275,0 z" fill="#0f47af"/>
    <circle cx="78.302155" cy="119.80214" r="37.944626" fill="#fcdd09"/></g></svg>
