<svg xmlns="http://www.w3.org/2000/svg" viewBox="-32 -26 64 52">
  <clipPath id="W"><path d="m-35-27 10.4 46.1c15.1-5.6 34.1-5.6 49.2 0L35-27Zm11.1 53.3v-4c14.5-5.6 33.3-5.6 47.8 0v4z"/></clipPath>
  <path fill="#dc2314" d="m-32-19 17 29c-2.1-9.1 3.9-9.8-.5-16.6s-2.4-14 1.3-18.2c-1.5 4.7-.1 9.2 4.1 15.4S-10.7 1.4-5 9L0-26 5 9c1-11 7-9 5-17s2-14 7-17c-3 4-3 9-1 16s-4 10-1 19L32-19 22 26C9 21-9 21-22 26Z" clip-path="url(#W)"/>
</svg>
