<svg xmlns="http://www.w3.org/2000/svg" viewBox="-55 -55 110 110">
  <path d="m-46.7-32.4 45.2 67.8 10.8 3.2 1.2-11.2-45.2-67.8h-9z" fill="#faf891"/>
  <path d="m6.2 38.6-52.8-79.2h6.2l52.8 79.2" fill="none" stroke="#d6d30f"/>
  <path d="m-1.5 35.4c1.7-2 3.5-1.9 5.5-.2-2.6-3.9 1.6-6.7 4.2-2.8-.8-2.5-.2-4.2 2.3-5l3.9 14.3 0 2.8h-4.2z" fill="#ffe1ba"/>
  <path d="m-38.3-45.8-3.2-4.8-12 8 3.2 4.8h10z" fill="#ff8285"/>
  <path d="m-38.3-45.8-12 8 3.6 5.4 12-8z" fill="silver"/>
  <path d="m14.9 47.4c16.7 16.8 38.1-11.2 14.8-34.5-46.5-46.5-.9-79.9-1.5-36.8 14.6-40.6 49.3-8-2.2 22.2" style="stroke:#000;fill:none;stroke-linejoin:round;stroke-linecap:round"/>
  <path d="m10.2 44.5 6.3 4.9-2.1-7.7z"/>
</svg>
