<svg xmlns="http://www.w3.org/2000/svg" viewBox="-22 -35 44 70">
  <path d="M7.9 3c-3.8-9.7-21.1-13.2-20-17.5 1.1-4.3 17.8.3 19.1-4.1C8.3-23-2.9-27.8-.9-32.2S27-30.7 18.9-13c-8.1 17.7-8.1 32.6-1.1 44.9" fill="none" stroke="#a272e5" stroke-linecap="round"/>
  <path d="M-21.4 21.5c4.7 2.5 5.6 8.3 2.9 12.8C1.3 31.4 9.3 18.1 8.7 2.7 4.8-4.6-5-7.3-13.5-7.9-2.1 4.5-6.7 18-21.4 21.5z" fill="#8444dc"/>
</svg>
