<?xml version="1.0" encoding="UTF-8" standalone="no"?>
<!-- Created with Inkscape (http://www.inkscape.org/) -->

<svg
   xmlns:dc="http://purl.org/dc/elements/1.1/"
   xmlns:cc="http://creativecommons.org/ns#"
   xmlns:rdf="http://www.w3.org/1999/02/22-rdf-syntax-ns#"
   xmlns:svg="http://www.w3.org/2000/svg"
   xmlns="http://www.w3.org/2000/svg"
   xmlns:xlink="http://www.w3.org/1999/xlink"
   xmlns:sodipodi="http://sodipodi.sourceforge.net/DTD/sodipodi-0.dtd"
   xmlns:inkscape="http://www.inkscape.org/namespaces/inkscape"
   width="380.78555"
   height="624.96155"
   id="svg2"
   version="1.1"
   inkscape:version="0.48.2 r9819"
   sodipodi:docname="S2 Poster Lily.svg">
  <defs
     id="defs4">
    <linearGradient
       inkscape:collect="always"
       id="linearGradient4257">
      <stop
         style="stop-color:#f6b541;stop-opacity:1"
         offset="0"
         id="stop4259" />
      <stop
         style="stop-color:#fbf4ac;stop-opacity:1"
         offset="1"
         id="stop4261" />
    </linearGradient>
    <linearGradient
       inkscape:collect="always"
       id="linearGradient4249">
      <stop
         style="stop-color:#f6b541;stop-opacity:1"
         offset="0"
         id="stop4251" />
      <stop
         style="stop-color:#fbf4ac;stop-opacity:1"
         offset="1"
         id="stop4253" />
    </linearGradient>
    <clipPath
       clipPathUnits="userSpaceOnUse"
       id="clipPath4267">
      <path
         sodipodi:type="arc"
         style="fill:url(#linearGradient4271);fill-opacity:1;stroke:none"
         id="path4269"
         sodipodi:cx="409.57446"
         sodipodi:cy="130.21501"
         sodipodi:rx="6.2965531"
         sodipodi:ry="17.213926"
         d="m 415.87102,130.21501 a 6.2965531,17.213926 0 1 1 -12.59311,0 6.2965531,17.213926 0 1 1 12.59311,0 z"
         transform="matrix(0.9819854,-0.18895679,0.18895679,0.9819854,-19.97803,77.211665)" />
    </clipPath>
    <linearGradient
       inkscape:collect="always"
       xlink:href="#linearGradient4257"
       id="linearGradient4271"
       gradientUnits="userSpaceOnUse"
       x1="411.29752"
       y1="118.57222"
       x2="407.90741"
       y2="143.81581" />
    <clipPath
       clipPathUnits="userSpaceOnUse"
       id="clipPath4275">
      <path
         sodipodi:type="arc"
         style="fill:url(#linearGradient4279);fill-opacity:1;stroke:none"
         id="path4277"
         sodipodi:cx="364.6918"
         sodipodi:cy="146.90016"
         sodipodi:rx="12.194366"
         sodipodi:ry="21.645657"
         d="m 376.88617,146.90016 a 12.194366,21.645657 0 1 1 -24.38873,0 12.194366,21.645657 0 1 1 24.38873,0 z"
         transform="matrix(0.96557433,-0.26012732,0.26012732,0.96557433,-28.951152,96.630268)" />
    </clipPath>
    <linearGradient
       inkscape:collect="always"
       xlink:href="#linearGradient4249"
       id="linearGradient4279"
       gradientUnits="userSpaceOnUse"
       x1="365.25146"
       y1="133.63011"
       x2="360.4151"
       y2="163.34955" />
    <clipPath
       clipPathUnits="userSpaceOnUse"
       id="clipPath4301">
      <path
         transform="matrix(0.83094495,-0.55635466,0.55635466,0.83094495,-21.993451,212.02961)"
         d="m 364.5201,145.41292 a 29.891741,40.299446 0 1 1 -59.78348,0 29.891741,40.299446 0 1 1 59.78348,0 z"
         sodipodi:ry="40.299446"
         sodipodi:rx="29.891741"
         sodipodi:cy="145.41292"
         sodipodi:cx="334.62836"
         id="path4303"
         style="fill:none;stroke:#ff00ff;stroke-width:0.1;stroke-linecap:butt;stroke-linejoin:round;stroke-miterlimit:4;stroke-opacity:1;stroke-dasharray:none;stroke-dashoffset:0"
         sodipodi:type="arc" />
    </clipPath>
    <clipPath
       clipPathUnits="userSpaceOnUse"
       id="clipPath4328">
      <path
         style="fill:#ffffff;stroke:none"
         d="m 398.11916,145.27594 c -9.2058,-12.58145 -15.29031,-31.26062 -11.69456,-56.512756 l 8.63416,-0.04625 c 7.91516,9.360393 17.33286,33.512356 16.26207,60.207666 -3.55474,0.51354 -9.51516,-0.9404 -13.20167,-3.64866 z"
         id="path4330"
         inkscape:connector-curvature="0"
         sodipodi:nodetypes="ccccc" />
    </clipPath>
    <linearGradient
       inkscape:collect="always"
       xlink:href="#linearGradient4257"
       id="linearGradient5445"
       gradientUnits="userSpaceOnUse"
       x1="411.29752"
       y1="118.57222"
       x2="407.90741"
       y2="143.81581" />
    <linearGradient
       inkscape:collect="always"
       xlink:href="#linearGradient4249"
       id="linearGradient5447"
       gradientUnits="userSpaceOnUse"
       x1="365.25146"
       y1="133.63011"
       x2="360.4151"
       y2="163.34955" />
    <clipPath
       clipPathUnits="userSpaceOnUse"
       id="clipPath3865">
      <path
         sodipodi:nodetypes="cccc"
         inkscape:connector-curvature="0"
         id="path3867"
         d="m 344.0135,216.09793 c 17.92124,3.2563 37.67963,4.0199 49.31968,0.38956 -28.92194,49.81377 -23.21884,69.94706 -5.56701,87.32731 -92.33261,-5.43133 -43.75267,-87.71687 -43.75267,-87.71687 z"
         style="fill:none;stroke:#000000;stroke-width:0.1;stroke-miterlimit:4;stroke-dasharray:none" />
    </clipPath>
  </defs>
  <sodipodi:namedview
     id="base"
     pagecolor="#ffffff"
     bordercolor="#666666"
     borderopacity="1.0"
     inkscape:pageopacity="0.0"
     inkscape:pageshadow="2"
     inkscape:zoom="1.2010354"
     inkscape:cx="79.49867"
     inkscape:cy="492.19593"
     inkscape:document-units="px"
     inkscape:current-layer="layer2"
     showgrid="false"
     fit-margin-top="20"
     fit-margin-left="20"
     fit-margin-right="20"
     fit-margin-bottom="20"
     inkscape:window-width="1366"
     inkscape:window-height="706"
     inkscape:window-x="-8"
     inkscape:window-y="-8"
     inkscape:window-maximized="1" />
  <metadata
     id="metadata7">
    <rdf:RDF>
      <cc:Work
         rdf:about="">
        <dc:format>image/svg+xml</dc:format>
        <dc:type
           rdf:resource="http://purl.org/dc/dcmitype/StillImage" />
        <dc:title />
      </cc:Work>
    </rdf:RDF>
  </metadata>
  <g
     inkscape:groupmode="layer"
     id="layer2"
     inkscape:label="Drawing"
     style="display:inline"
     transform="translate(-208.39573,16.992288)">
    <g
       id="g5356">
      <g
         id="g5351">
        <path
           sodipodi:nodetypes="cscscc"
           inkscape:connector-curvature="0"
           id="path5349"
           d="m 399.62149,367.17102 c 70.58757,-39.01472 125.92118,24.05938 125.92118,81.54446 0,49.89741 3.29908,104.97196 41.13863,83.71255 -44.03503,114.51855 -158.9785,20.01664 -115.21164,-78.69433 13.77872,-31.07628 10.22035,-68.05405 -29.31411,-59.75478 z"
           style="fill:#f7e18d;fill-opacity:1;stroke:none" />
        <path
           id="path5346"
           style="fill:#faecb5;fill-opacity:1;stroke:none"
           d="m 539.84546,572.58755 c -35.81234,4.97098 -75.68983,-7.31516 -53.05825,-68.33571 19.38536,-52.26792 15.64413,-151.27935 -81.73733,-130.37048 l -5.42839,-6.71034 c 70.58757,-39.01472 125.92118,24.05938 125.92118,81.54446 0,49.89741 3.29908,104.97196 41.13863,83.71255 0,0 -10.13589,28.88015 -26.83584,40.15952 z"
           inkscape:connector-curvature="0"
           sodipodi:nodetypes="csccscc" />
        <path
           style="fill:none;stroke:#dcc561;stroke-width:5;stroke-linecap:butt;stroke-linejoin:miter;stroke-miterlimit:20;stroke-opacity:1;stroke-dasharray:none"
           d="m 399.62149,367.17102 c 70.58757,-39.01472 125.92118,24.05938 125.92118,81.54446 0,49.89741 3.29908,104.97196 41.13863,83.71255 -44.03503,114.51855 -158.9785,20.01664 -115.21164,-78.69433 13.77872,-31.07628 10.22035,-68.05405 -29.31411,-59.75478 z"
           id="path5342"
           inkscape:connector-curvature="0"
           sodipodi:nodetypes="cscscc" />
      </g>
      <g
         id="g5057">
        <path
           style="fill:#ffffff;fill-opacity:1;stroke:#b9e0f7;stroke-width:3;stroke-linecap:butt;stroke-linejoin:round;stroke-miterlimit:4;stroke-opacity:1;stroke-dasharray:none"
           d="m 420.25074,165.59686 -22.09609,45.2545 -19.33408,3.82433 c -7.22373,-56.72748 24.8581,-35.6937 41.43017,-49.07883 z"
           id="path5042"
           inkscape:connector-curvature="0"
           sodipodi:nodetypes="cccc" />
        <path
           style="fill:#b9e0f7;fill-opacity:1;stroke:none"
           d="m 377.75826,192.36713 -0.42493,4.46171 22.09609,-2.76201 z"
           id="path5044"
           inkscape:connector-curvature="0"
           sodipodi:nodetypes="cccc" />
      </g>
      <g
         id="g3922">
        <path
           sodipodi:nodetypes="ccc"
           inkscape:connector-curvature="0"
           id="path3920"
           d="m 243.97944,114.77851 c -22.23457,72.11214 1.20187,116.78784 47.47383,122.79719 11.41776,-66.1028 -3.00467,-101.16355 -47.47383,-122.79719 z"
           style="fill:#faecb5;fill-opacity:1;stroke:none" />
        <path
           style="fill:#f7e18d;fill-opacity:1;stroke:none"
           d="m 253.76221,120.12766 c -7.08474,15.85887 -12.92202,33.65328 -18.06397,53.57647 -2.87279,-28.81082 7.68026,-58.32469 7.68026,-58.32469 z"
           id="path3918"
           inkscape:connector-curvature="0"
           sodipodi:nodetypes="cc" />
        <path
           style="fill:none;stroke:#dcc561;stroke-width:5;stroke-linecap:butt;stroke-linejoin:miter;stroke-miterlimit:4;stroke-opacity:1;stroke-dasharray:none"
           d="m 243.97944,114.77851 c -22.23457,72.11214 1.20187,116.78784 47.47383,122.79719 11.41776,-66.1028 -3.00467,-101.16355 -47.47383,-122.79719 z"
           id="path3914"
           inkscape:connector-curvature="0"
           sodipodi:nodetypes="ccc" />
      </g>
      <g
         transform="translate(37.647982,0)"
         id="g3876">
        <path
           sodipodi:nodetypes="cssccc"
           inkscape:connector-curvature="0"
           id="path3874"
           d="m 324.9511,427.62838 c 28.31675,50.79467 4.74493,142.34852 -2.15685,145.36805 -13.61354,5.95593 -49.34579,6.82366 -61.16474,0 -8.09737,-4.67502 33.16285,-30.93689 29.99891,-108.27696 C 261.875,452 263.375,425 276.75,404.125 z"
           style="fill:#e781ae;fill-opacity:1;stroke:none" />
        <path
           style="fill:none;stroke:#cb5187;stroke-width:5;stroke-linecap:butt;stroke-linejoin:miter;stroke-miterlimit:4;stroke-opacity:1;stroke-dasharray:none"
           d="m 324.9511,427.62838 c 28.31675,50.79467 4.74493,142.34852 -2.15685,145.36805 -13.61354,5.95593 -49.34579,6.82366 -61.16474,0 -8.09737,-4.67502 33.16285,-30.7491 29.99891,-108.08917"
           id="path5652"
           inkscape:connector-curvature="0"
           sodipodi:nodetypes="cssc" />
        <path
           sodipodi:nodetypes="cccc"
           inkscape:connector-curvature="0"
           d="m 275.60539,401.81342 c -21.2179,28.25351 -7.27407,64.4931 23.66023,64.72989 -27.52098,-7.84 -39.19272,-35.30308 -19.31648,-62.22989 z"
           style="font-size:medium;font-style:normal;font-variant:normal;font-weight:normal;font-stretch:normal;text-indent:0;text-align:start;text-decoration:none;line-height:normal;letter-spacing:normal;word-spacing:normal;text-transform:none;direction:ltr;block-progression:tb;writing-mode:lr-tb;text-anchor:start;baseline-shift:baseline;color:#000000;fill:#cb5187;fill-opacity:1;stroke:none;stroke-width:0.1;marker:none;visibility:visible;display:inline;overflow:visible;enable-background:accumulate;font-family:Sans;-inkscape-font-specification:Sans"
           id="path3872" />
      </g>
      <path
         sodipodi:nodetypes="ccsscscccccsssc"
         inkscape:connector-curvature="0"
         id="path5338"
         d="m 399.0045,431.59985 0.21246,10.41066 c -31.80894,-8.45223 2.96635,125.56361 20.18394,138.1006 9.95879,7.2515 56.65556,7.21508 61.18918,-0.63739 3.71605,-6.43638 -43.12988,-41.8551 -47.37912,-110.05555 31.65689,-12.53528 27.83257,-51.62838 -12.32283,-91.78379 -46.95419,-46.9542 -90.72147,-115.57957 -68.20045,-161.68392 29.70829,4.10969 48.01652,-1.48724 48.6539,-7.86111 -8.74298,-0.63739 -19.88346,3.54963 -19.88346,3.54963 0,0 -6.71522,-37.46005 23.01702,-36.29463 20.21789,0.029 28.76645,-30.73812 7.88872,-26.35602 4.69994,-57.100856 -43.49755,-115.386166 -94.74758,-91.255751 -88.98256,41.896286 -34.37763,80.709181 -34.37763,154.779741 0,55.28739 -15.11103,69.44116 -15.11103,118.16787 0,72.66215 80.73575,124.92791 130.87688,100.91966 z"
         style="fill:#ef94ba;fill-opacity:1;stroke:none" />
      <path
         sodipodi:nodetypes="ccscsc"
         inkscape:connector-curvature="0"
         id="path3864"
         d="m 268.27787,128.68737 -4.72448,1.68651 c 38.9142,108.1433 1.66457,133.78408 1.66457,198.26737 0,107.97891 145.04104,145.01568 150.61752,77.67125 -17.79804,61.71185 -145.61752,19.10564 -145.61752,-77.67125 0,-62.3597 36.67879,-92.22057 -1.94009,-199.95388 z"
         style="font-size:medium;font-style:normal;font-variant:normal;font-weight:normal;font-stretch:normal;text-indent:0;text-align:start;text-decoration:none;line-height:normal;letter-spacing:normal;word-spacing:normal;text-transform:none;direction:ltr;block-progression:tb;writing-mode:lr-tb;text-anchor:start;baseline-shift:baseline;color:#000000;fill:#d35a8a;fill-opacity:1;stroke:none;stroke-width:0.1;marker:none;visibility:visible;display:inline;overflow:visible;enable-background:accumulate;font-family:Sans;-inkscape-font-specification:Sans" />
      <path
         sodipodi:nodetypes="ccc"
         inkscape:connector-curvature="0"
         id="path4168"
         d="m 402.17547,159.8486 c 2.7042,1.05163 5.55864,0.9014 8.41308,-1.05164 -2.10327,4.65724 -6.61028,4.35678 -8.41308,1.05164 z"
         style="fill:#d35a8a;fill-opacity:1;stroke:none" />
      <path
         id="path4324"
         sodipodi:nodetypes="cc"
         inkscape:connector-curvature="0"
         d="m 411.33972,149.03178 c 1.97882,-23.29689 -5.83775,-46.77864 -14.43753,-61.855391"
         style="fill:none;stroke:#d35a8a;stroke-width:5;stroke-linecap:butt;stroke-linejoin:miter;stroke-miterlimit:4;stroke-opacity:1;stroke-dasharray:none" />
      <g
         id="g4673">
        <path
           sodipodi:nodetypes="ccccc"
           inkscape:connector-curvature="0"
           id="path4235"
           d="m 398.11916,145.27594 c -9.2058,-12.58145 -15.29031,-31.26062 -11.69456,-56.512756 l 8.63416,-0.04625 c 7.91516,9.360393 17.33286,33.512356 16.26207,60.207666 -3.55474,0.51354 -9.51516,-0.9404 -13.20167,-3.64866 z"
           style="fill:#ffffff;stroke:none" />
        <g
           id="g4290"
           clip-path="url(#clipPath4328)">
          <path
             sodipodi:type="arc"
             style="fill:url(#linearGradient5445);fill-opacity:1;stroke:none"
             id="path4180"
             sodipodi:cx="409.57446"
             sodipodi:cy="130.21501"
             sodipodi:rx="6.2965531"
             sodipodi:ry="17.213926"
             d="m 415.87102,130.21501 c 0,9.50699 -2.81907,17.21393 -6.29656,17.21393 -3.47749,0 -6.29655,-7.70694 -6.29655,-17.21393 0,-9.50699 2.81906,-17.21392 6.29655,-17.21392 3.47749,0 6.29656,7.70693 6.29656,17.21392 z"
             transform="matrix(0.9819854,-0.18895679,0.18895679,0.9819854,-19.97803,77.211665)" />
          <g
             clip-path="url(#clipPath4267)"
             id="g4245">
            <path
               style="fill:#fffffe;fill-opacity:1;stroke:none"
               d="m 404.87968,144.52477 3.1549,-7.1361 -2.62909,-3.75584 -4.46945,3.07979 z"
               id="path4187"
               inkscape:connector-curvature="0"
               sodipodi:nodetypes="ccccc" />
            <path
               style="fill:#ebe367;fill-opacity:1;stroke:none"
               d="m 398.72009,134.90981 6.2347,-4.13142 1.3521,3.98119 -5.18305,5.55864 z"
               id="path4185"
               inkscape:connector-curvature="0"
               sodipodi:nodetypes="ccccc" />
          </g>
          <path
             transform="matrix(0.99164519,-0.12899541,0.12899541,0.99164519,-14.426858,53.094862)"
             d="m 414.45739,130.21501 c 0,6.31347 -2.18616,11.43154 -4.88293,11.43154 -2.69676,0 -4.88292,-5.11807 -4.88292,-11.43154 0,-6.31347 2.18616,-11.43154 4.88292,-11.43154 2.69677,0 4.88293,5.11807 4.88293,11.43154 z"
             sodipodi:ry="11.431543"
             sodipodi:rx="4.8829241"
             sodipodi:cy="130.21501"
             sodipodi:cx="409.57446"
             id="path4176"
             style="fill:#000000;stroke:none"
             sodipodi:type="arc" />
          <path
             transform="translate(0.30046729,0.30046729)"
             d="m 406.30688,123.19159 c 0,4.06561 -1.4125,7.36145 -3.1549,7.36145 -1.74241,0 -3.15491,-3.29584 -3.15491,-7.36145 0,-4.06562 1.4125,-7.36145 3.15491,-7.36145 1.7424,0 3.1549,3.29583 3.1549,7.36145 z"
             sodipodi:ry="7.3614483"
             sodipodi:rx="3.1549065"
             sodipodi:cy="123.19159"
             sodipodi:cx="403.15198"
             id="path4170"
             style="fill:#ffffff;stroke:none"
             sodipodi:type="arc" />
          <path
             sodipodi:type="arc"
             style="fill:#ffffff;stroke:none"
             id="path4172"
             sodipodi:cx="403.15198"
             sodipodi:cy="123.19159"
             sodipodi:rx="1.2018691"
             sodipodi:ry="1.6525698"
             d="m 404.35385,123.19159 c 0,0.91269 -0.5381,1.65257 -1.20187,1.65257 -0.66378,0 -1.20187,-0.73988 -1.20187,-1.65257 0,-0.91269 0.53809,-1.65257 1.20187,-1.65257 0.66377,0 1.20187,0.73988 1.20187,1.65257 z"
             transform="translate(4.4318926,9.9154205)" />
        </g>
        <path
           style="fill:#000000;stroke:none"
           d="m 398.11916,145.27594 c -10.40767,-11.52981 -17.24335,-29.15735 -13.6476,-54.409485 l 3.22575,0.704922 c -2.02991,23.377363 3.29477,40.665363 10.42185,53.704563 z"
           id="path4233"
           inkscape:connector-curvature="0"
           sodipodi:nodetypes="cccc" />
      </g>
      <path
         style="fill:#d35a8a;fill-opacity:1;stroke:none"
         d="m 426.15712,154.51927 c 0,-12.67299 -18.09236,-4.49618 -28.03796,-9.24333 6.06466,10.49015 24.21128,1.48369 24.21128,9.28958 0,11.78818 -6.27431,19.9069 -21.72055,19.9069 -16.35571,0 -23.91668,16.60514 -20.36853,39.15983 5.82279,-2.40374 12.63004,-3.90608 19.38014,-4.65725 -9.81777,11.81734 -62.8876,5.82268 -87.61825,-3.00468 22.8772,13.13609 90.93848,20.5674 91.51364,0.77695 -6.45395,-0.5781 -14.32205,0.90482 -20.72157,3.12913 -2.55397,-19.38013 3.82811,-32.86327 17.92205,-32.86327 19.6715,0 25.43975,-10.14025 25.43975,-22.49386 z"
         id="path4237"
         inkscape:connector-curvature="0"
         sodipodi:nodetypes="scsscccccss" />
      <g
         id="g4305">
        <path
           style="fill:#000000;stroke:none"
           d="m 316.60658,167.70502 c -0.22754,-0.93089 -0.41772,-1.90578 -0.56854,-2.92482 -5.17427,1.14306 -9.33342,3.5373 -11.02801,10.22102 3.42352,-4.74987 6.46257,-6.48458 11.59655,-7.2962 z"
           id="path4204"
           inkscape:connector-curvature="0"
           sodipodi:nodetypes="cccc" />
        <path
           sodipodi:nodetypes="cccc"
           inkscape:connector-curvature="0"
           id="path4206"
           d="m 322.18112,173.5135 c -0.33229,-0.89882 -0.6325,-1.84564 -0.89865,-2.84081 -5.00999,1.72616 -8.86869,4.57947 -9.78935,11.41293 2.85901,-5.10958 5.68022,-7.17983 10.688,-8.57212 z"
           style="fill:#000000;stroke:none" />
        <path
           style="fill:#000000;stroke:none"
           d="m 327.81848,177.64935 c -0.61319,-0.73642 -1.21214,-1.52879 -1.79512,-2.37809 -4.14679,3.29906 -6.83214,7.27648 -5.41968,14.02545 0.99005,-5.77074 2.95868,-8.66377 7.2148,-11.64736 z"
           id="path4208"
           inkscape:connector-curvature="0"
           sodipodi:nodetypes="cccc" />
        <path
           sodipodi:type="arc"
           style="fill:#ffffff;stroke:none"
           id="path4166"
           sodipodi:cx="334.62836"
           sodipodi:cy="145.41292"
           sodipodi:rx="29.891741"
           sodipodi:ry="40.299446"
           d="m 364.5201,145.41292 c 0,22.25677 -13.38299,40.29944 -29.89174,40.29944 -16.50876,0 -29.89174,-18.04267 -29.89174,-40.29944 0,-22.25677 13.38298,-40.29945 29.89174,-40.29945 16.50875,0 29.89174,18.04268 29.89174,40.29945 z"
           transform="matrix(0.83094495,-0.55635466,0.55635466,0.83094495,-21.993451,212.02961)" />
        <g
           id="g4281"
           clip-path="url(#clipPath4301)">
          <path
             sodipodi:type="arc"
             style="fill:url(#linearGradient5447);fill-opacity:1;stroke:none"
             id="path4160"
             sodipodi:cx="364.6918"
             sodipodi:cy="146.90016"
             sodipodi:rx="12.194366"
             sodipodi:ry="21.645657"
             d="m 376.88617,146.90016 c 0,11.95457 -5.4596,21.64566 -12.19437,21.64566 -6.73476,0 -12.19436,-9.69109 -12.19436,-21.64566 0,-11.95456 5.4596,-21.64565 12.19436,-21.64565 6.73477,0 12.19437,9.69109 12.19437,21.64565 z"
             transform="matrix(0.96557433,-0.26012732,0.26012732,0.96557433,-28.951152,96.630268)" />
          <g
             clip-path="url(#clipPath4275)"
             id="g4241">
            <path
               style="fill:#fffffe;fill-opacity:1;stroke:none"
               d="m 350.3506,155.82358 6.26764,9.13589 8.39226,-12.85398 -2.86824,-2.33709 z"
               id="path4164"
               inkscape:connector-curvature="0"
               sodipodi:nodetypes="ccccc" />
            <path
               style="fill:#ebe367;fill-opacity:1;stroke:none"
               d="m 347.05742,153.59273 15.08484,-5.73649 1.27478,3.08071 -13.49137,9.45458 z"
               id="path4162"
               inkscape:connector-curvature="0"
               sodipodi:nodetypes="ccccc" />
          </g>
          <path
             transform="matrix(0.97826721,-0.2073482,0.2073482,0.97826721,-23.596024,77.429735)"
             d="m 372.23422,146.90016 c 0,7.76366 -3.37686,14.05734 -7.54242,14.05734 -4.16556,0 -7.54241,-6.29368 -7.54241,-14.05734 0,-7.76365 3.37685,-14.05734 7.54241,-14.05734 4.16556,0 7.54242,6.29369 7.54242,14.05734 z"
             sodipodi:ry="14.057341"
             sodipodi:rx="7.542417"
             sodipodi:cy="146.90016"
             sodipodi:cx="364.6918"
             id="path4158"
             style="fill:#000000;stroke:none"
             sodipodi:type="arc" />
          <path
             transform="matrix(0.9927669,-0.12005781,0.12005781,0.9927669,-14.189218,43.615861)"
             d="m 360.57648,139.64217 c 0,4.60866 -1.99127,8.34471 -4.44763,8.34471 -2.45637,0 -4.44764,-3.73605 -4.44764,-8.34471 0,-4.60866 1.99127,-8.34472 4.44764,-8.34472 2.45636,0 4.44763,3.73606 4.44763,8.34472 z"
             sodipodi:ry="8.3447161"
             sodipodi:rx="4.4476361"
             sodipodi:cy="139.64217"
             sodipodi:cx="356.12885"
             id="path4154"
             style="fill:#ffffff;stroke:none"
             sodipodi:type="arc" />
          <path
             sodipodi:type="arc"
             style="fill:#ffffff;stroke:none"
             id="path4156"
             sodipodi:cx="356.12885"
             sodipodi:cy="139.64217"
             sodipodi:rx="2.1923945"
             sodipodi:ry="2.8342869"
             d="m 358.32124,139.64217 c 0,1.56533 -0.98157,2.83428 -2.19239,2.83428 -1.21083,0 -2.1924,-1.26895 -2.1924,-2.83428 0,-1.56534 0.98157,-2.83429 2.1924,-2.83429 1.21082,0 2.19239,1.26895 2.19239,2.83429 z"
             transform="matrix(0.99839514,-0.05663154,0.05663154,0.99839514,0.02483216,30.908586)" />
        </g>
        <path
           transform="matrix(0.83094495,-0.55635466,0.55635466,0.83094495,-21.993451,212.02961)"
           style="fill:#000000;stroke:none"
           d="m 356.35599,173.08941 c 24.30224,-53.2885 -24.77073,-87.713699 -44.97534,-50.40281 -8.18483,-5.30475 -11.06039,-9.7491 -8.96448,-17.39549 0.41468,6.15585 4.98421,10.64818 8.77367,12.56421 30.92526,-41.5718 74.22321,16.74001 45.16615,55.23409 z"
           id="path4197"
           inkscape:connector-curvature="0"
           sodipodi:nodetypes="ccccc" />
        <path
           sodipodi:nodetypes="cccc"
           inkscape:connector-curvature="0"
           id="path4200"
           d="m 306.10453,126.28669 c -0.38169,1.18791 -0.71879,2.43631 -1.00882,3.74559 -6.62302,-1.95075 -11.81075,-5.43412 -13.39841,-14.2635 4.01408,6.47494 7.80607,9.00109 14.40723,10.51791 z"
           style="fill:#000000;stroke:none" />
        <path
           style="fill:#000000;stroke:none"
           d="m 311.49713,117.53354 c -0.84634,0.91679 -1.67772,1.90723 -2.49202,2.9727 -5.55798,-4.18306 -8.59404,-9.36076 -6.14783,-18.57872 0.26119,7.13363 3.96543,12.40239 8.63985,15.60602 z"
           id="path4202"
           inkscape:connector-curvature="0"
           sodipodi:nodetypes="cccc" />
      </g>
      <path
         sodipodi:nodetypes="ccsssc"
         inkscape:connector-curvature="0"
         id="path5650"
         d="m 399.16942,431.64645 c 1.02132,3.14016 0.58043,8.51344 -0.25,10.54289 -4.4429,-1.33857 -9.04472,0.77566 -10.25889,5.307 -8.91131,33.25746 16.67855,124.90125 31.21967,133.29657 11.02454,6.36502 49.56037,6.15837 60.51777,-0.16789 6.76655,-3.90667 -42.5,-41.85913 -47.25,-110.85913"
         style="fill:none;stroke:#d35a8a;stroke-width:5;stroke-linecap:butt;stroke-linejoin:miter;stroke-miterlimit:4;stroke-opacity:1;stroke-dasharray:none" />
      <path
         sodipodi:nodetypes="cscscc"
         inkscape:connector-curvature="0"
         id="path3078"
         d="m 350.23358,215.83844 c -23.09217,43.07505 20.34071,114.56811 61.68416,155.91156 58.35585,58.35585 43.93579,89.91909 13.24732,100.38328 36.34098,-4.57139 51.07244,-43.12602 -9.71607,-103.91453 C 375.60515,328.37491 332.70134,257.43489 355.34375,216.875 z"
         style="font-size:medium;font-style:normal;font-variant:normal;font-weight:normal;font-stretch:normal;text-indent:0;text-align:start;text-decoration:none;line-height:normal;letter-spacing:normal;word-spacing:normal;text-transform:none;direction:ltr;block-progression:tb;writing-mode:lr-tb;text-anchor:start;baseline-shift:baseline;color:#000000;fill:#d35a8a;fill-opacity:1;stroke:none;stroke-width:0.1;marker:none;visibility:visible;display:inline;overflow:visible;enable-background:accumulate;font-family:Sans;-inkscape-font-specification:Sans" />
      <g
         id="g3909"
         clip-path="url(#clipPath3865)">
        <path
           sodipodi:nodetypes="cccc"
           inkscape:connector-curvature="0"
           id="path3907"
           d="m 392.81714,209.43992 c -20.12778,36.27795 -39.50301,61.50569 -14.16402,89.23321 -42.76143,-3.59224 -56.67164,-47.76994 -20.99875,-95.58511 z"
           style="fill:#faecb5;fill-opacity:1;stroke:none" />
        <path
           sodipodi:nodetypes="cccc"
           inkscape:connector-curvature="0"
           id="path3905"
           d="m 372.38482,247.15524 c -7.79032,18.60237 -8.63841,35.8636 6.2683,51.51789 -20.76603,-1.74206 -31.77772,-11.22212 -38.60595,-26.9537 11.3903,-2.94605 23.38889,-11.4667 32.33765,-24.56419 z"
           style="fill:#f7e18d;fill-opacity:1;stroke:none" />
        <path
           style="fill:none;stroke:#dcc561;stroke-width:5;stroke-linecap:butt;stroke-linejoin:miter;stroke-miterlimit:4;stroke-opacity:1;stroke-dasharray:none"
           d="m 392.81714,209.43992 c -20.12778,36.27795 -39.50301,61.50569 -14.16402,89.23321 -42.76143,-3.59224 -56.67164,-47.76994 -20.99875,-95.58511 z"
           id="path3115"
           inkscape:connector-curvature="0"
           sodipodi:nodetypes="cccc" />
      </g>
      <g
         transform="translate(37.647982,0)"
         id="g5641">
        <path
           sodipodi:nodetypes="zcsscz"
           inkscape:connector-curvature="0"
           id="path5639"
           d="m 354.41653,320.8007 c 0,15.43271 -18.78785,26.51014 -44.13341,7.01431 0.52408,10.04624 2.97406,19.92798 2.97406,24.68499 0,32.84884 -59.73311,45.07754 -59.73311,22.0625 0,-35.95052 26.36698,-93.39536 60.45675,-96.4144 27.9836,-23.44995 40.43571,27.21989 40.43571,42.6526 z"
           style="font-size:medium;font-style:normal;font-variant:normal;font-weight:normal;font-stretch:normal;text-indent:0;text-align:start;text-decoration:none;line-height:normal;letter-spacing:normal;word-spacing:normal;text-transform:none;direction:ltr;block-progression:tb;writing-mode:lr-tb;text-anchor:start;baseline-shift:baseline;color:#000000;fill:#ef94ba;fill-opacity:1;stroke:none;stroke-width:0.1;marker:none;visibility:visible;display:inline;overflow:visible;enable-background:accumulate;font-family:Sans;-inkscape-font-specification:Sans" />
        <path
           style="fill:none;stroke:#d35a8a;stroke-width:5;stroke-linecap:butt;stroke-linejoin:miter;stroke-miterlimit:4;stroke-opacity:1;stroke-dasharray:none"
           d="m 313.0422,278.40748 c 31.84193,-26.60807 41.18678,36.29167 41.18678,42.28833 0,5.99665 -9.88566,32.87386 -44.15194,5.91244"
           id="path5086"
           inkscape:connector-curvature="0"
           sodipodi:nodetypes="czc" />
        <path
           style="font-size:medium;font-style:normal;font-variant:normal;font-weight:normal;font-stretch:normal;text-indent:0;text-align:start;text-decoration:none;line-height:normal;letter-spacing:normal;word-spacing:normal;text-transform:none;direction:ltr;block-progression:tb;writing-mode:lr-tb;text-anchor:start;baseline-shift:baseline;color:#000000;fill:#d35a8a;fill-opacity:1;stroke:none;stroke-width:0.1;marker:none;visibility:visible;display:inline;overflow:visible;enable-background:accumulate;font-family:Sans;-inkscape-font-specification:Sans"
           d="m 316.78125,275.625 c -39.89487,0 -65.65625,60.85806 -65.65625,98.9375 0,27.73633 64.53125,13.74138 64.53125,-22.0625 0,-7.79627 -6.10468,-29.07458 -3.32813,-41.78125 -7.86813,12.70821 -1.67187,34.18749 -1.67187,41.78125 0,29.24323 -54.53125,41.7724 -54.53125,22.0625 0,-36.92905 25.22093,-93.9375 60.65625,-93.9375 8.0411,0 17.64688,17.60151 22.01203,29.74272 C 337.31424,297.54114 330.3904,275.625 316.78125,275.625 z"
           id="path5596"
           inkscape:connector-curvature="0"
           sodipodi:nodetypes="ssscssscs" />
      </g>
      <g
         id="g5334">
        <path
           id="path4786"
           style="fill:#ef94ba;fill-opacity:1;stroke:none"
           d="m 237.22685,321.82453 c 0,15.81455 32.11452,41.81399 45.5348,38.21804 25.65607,-6.87452 7.45101,-127.09319 -24.44062,-127.09319 -31.8336,0 -35.92375,59.27655 -9.82302,65.77722 -4.97363,12.85059 -11.27116,18.58294 -11.27116,23.09793 z"
           inkscape:connector-curvature="0"
           sodipodi:nodetypes="ssscs" />
        <path
           style="font-size:medium;font-style:normal;font-variant:normal;font-weight:normal;font-stretch:normal;text-indent:0;text-align:start;text-decoration:none;line-height:normal;letter-spacing:normal;word-spacing:normal;text-transform:none;direction:ltr;block-progression:tb;writing-mode:lr-tb;text-anchor:start;baseline-shift:baseline;color:#000000;fill:#d35a8a;fill-opacity:1;stroke:none;stroke-width:0.1;marker:none;visibility:visible;display:inline;overflow:visible;enable-background:accumulate;font-family:Sans;-inkscape-font-specification:Sans"
           d="m 258.3125,230.4375 c -35.27254,0 -39.66688,63.16046 -10.11372,71.07921 l 1.3125,-4.84375 c -24.2686,-6.50275 -20.1148,-61.23546 8.80122,-61.23546 29.15347,0 46.52354,116.1021 23.8125,122.1875 -11.90152,3.189 -42.40625,-21.88497 -42.40625,-35.8125 0,-4.9636 18.32511,-22.94501 14.89062,-48.07813 -6.43352,32.11801 -19.89062,41.37603 -19.89062,48.07813 0,17.37011 33.51071,44.72286 48.6875,40.65625 29.19093,-7.82169 9.43384,-132.03125 -25.09375,-132.03125 z"
           id="path5328"
           inkscape:connector-curvature="0"
           sodipodi:nodetypes="sccssscsss" />
      </g>
      <g
         id="g5067">
        <path
           sodipodi:nodetypes="cccccc"
           inkscape:connector-curvature="0"
           id="path5065"
           d="m 272.8972,96.780665 c 23.98076,-31.774564 36.9181,3.959855 24.8161,23.103395 34.62431,-10.51141 77.52864,-36.709237 95.59838,-57.687332 -5.40841,16.225234 -21.34292,33.721747 -33.35187,42.666362 C 507.84086,90.579549 382.32003,-91.173783 258.15296,75.292831 z"
           style="fill:#faecb5;fill-opacity:1;stroke:none" />
        <path
           sodipodi:nodetypes="ccccccc"
           inkscape:connector-curvature="0"
           id="path5063"
           d="m 272.8972,96.780665 c 23.98076,-31.774564 36.9181,3.959855 24.8161,23.103395 34.62431,-10.51141 77.52864,-36.709237 95.59838,-57.687332 -5.40841,16.225234 -21.34292,33.721747 -33.35187,42.666362 77.64873,-7.499938 79.91936,-61.172028 46.58708,-86.362122 -40.7813,-3.9607 -102.8784,25.35131 -138.7295,70.876524 z"
           style="fill:#f7e18d;fill-opacity:1;stroke:none" />
        <path
           style="fill:none;stroke:#dcc561;stroke-width:5;stroke-linecap:butt;stroke-linejoin:miter;stroke-miterlimit:20;stroke-opacity:1;stroke-dasharray:none"
           d="m 272.8972,96.780665 c 23.98076,-31.774564 36.9181,3.959855 24.8161,23.103395 34.62431,-10.51141 77.52864,-36.709237 95.59838,-57.687332 -5.40841,16.225234 -21.34292,33.721747 -33.35187,42.666362 C 507.84086,90.579549 382.32003,-91.173783 258.15296,75.292831 z"
           id="path5061"
           inkscape:connector-curvature="0"
           sodipodi:nodetypes="cccccc" />
      </g>
      <g
         id="g5037">
        <path
           sodipodi:nodetypes="cccc"
           inkscape:connector-curvature="0"
           id="path5035"
           d="m 279.31638,144.57006 7.50543,-52.663522 C 275.62093,69.037148 258.48086,51.367209 240.93832,48.778804 219.59873,80.730025 228.46489,131.90367 279.31638,144.57006 z"
           style="fill:#ef94ba;fill-opacity:1;stroke:none" />
        <path
           style="fill:#d35a8a;fill-opacity:1;stroke:none"
           d="m 246.39422,80.809236 c -0.15023,16.98632 7.05214,35.522104 18.86646,41.735064 -9.00076,-7.96604 -16.90274,-26.287534 -18.86646,-41.735064 z"
           id="path4191"
           inkscape:connector-curvature="0"
           sodipodi:nodetypes="ccc" />
        <path
           sodipodi:nodetypes="cscsc"
           inkscape:connector-curvature="0"
           id="path3097"
           d="M 279.31638,144.57006 C 207.34122,129.8258 229.47393,52.369452 240.16137,46.199056 245.89951,42.886141 276.371,60.963014 286.82181,91.906538 265.1889,59.699756 244.52758,49.332811 241.83362,50.888168 c -5.6322,3.251748 -29.34211,71.676422 37.48276,93.681892 z"
           style="fill:#d35a8a;fill-opacity:1;stroke:none" />
      </g>
      <g
         id="g4947"
         transform="matrix(0.24093985,-0.03401534,0.03401534,0.24093985,95.017896,42.273335)">
        <path
           style="fill:#fbfcfa;fill-opacity:1;stroke:none"
           d="m 676.55103,346.7732 c -37.6144,-6.86208 -85.90317,-60.23388 -125.04249,-33.54798 19.82381,-76.75372 84.88657,-77.77033 115.13059,-55.65916 29.48156,-53.62594 -33.03969,-74.97466 -33.03969,-74.97466 50.32198,-23.12778 106.23529,4.57472 109.53926,68.62088 45.4931,-34.05629 92.0028,-21.85702 125.29665,12.96171 -33.80215,-0.5083 -51.8469,21.85703 -73.70391,64.55446 54.13424,29.98987 52.10104,80.82015 27.95665,110.55586 -8.64115,-18.55305 -26.1776,-32.53138 -75.99127,-53.88009 -5.84548,40.91837 -36.85195,70.65409 -53.8801,75.48297 -0.76246,-47.78047 -46.50971,-61.7588 -16.26569,-114.11399 z"
           id="path4945"
           inkscape:connector-curvature="0"
           sodipodi:nodetypes="ccccccccccc" />
        <path
           style="fill:#c0dce8;fill-opacity:1;stroke:none"
           d="m 700.8775,317.3015 c -93.45033,70.44718 3.23482,101.35768 -17.25237,153.11479 46.72517,-11.14216 100.2794,-86.26186 42.41207,-141.97263 21.20605,47.44401 12.57986,94.88804 -27.31625,125.79853 1.07828,-34.14532 -58.22674,-59.30502 2.15655,-136.94069 z"
           id="path4342"
           inkscape:connector-curvature="0"
           sodipodi:nodetypes="ccccc" />
        <path
           style="fill:#c0dce8;fill-opacity:1;stroke:none"
           d="M 704.29203,298.25202 C 648.1355,195.18616 549.60438,249.70764 542.73078,324.66971 c 50.39868,-44.42928 88.15399,20.55594 131.54932,25.54996 l 5.75079,-9.55558 c -42.18913,-4.32057 -82.04655,-50.77353 -122.44038,-35.64468 12.39424,-34.34408 48.66594,-57.50249 70.16352,-57.50249 27.09323,0 52.49906,25.27828 76.538,50.7351 z"
           id="path4852"
           inkscape:connector-curvature="0"
           sodipodi:nodetypes="cccccsc" />
        <path
           style="fill:#c0dce8;fill-opacity:1;stroke:none"
           d="m 761.72549,308.42117 c 27.76109,32.23641 90.1476,31.36728 62.22402,119.83719 -18.11543,-21.55798 -48.37194,-31.0039 -76.70627,-50.57356 l -0.71884,10.06388 c 51.59273,25.92344 76.39354,38.86891 72.34957,69.05308 61.23811,-83.30709 8.61076,-115.23218 -57.14848,-148.38059 z"
           id="path4854"
           inkscape:connector-curvature="0"
           sodipodi:nodetypes="cccccc" />
        <path
           style="fill:#c0dce8;fill-opacity:1;stroke:none"
           d="m 789.1401,325.93279 c 23.89024,-48.28877 37.61441,-63.28369 71.92485,-64.30031 -35.83534,-36.5978 -100.64395,-38.63101 -137.24176,15.75739 28.97326,-69.38333 114.87644,-61.50464 154.2699,-7.11624 -34.17612,-6.16902 -53.03771,11.01561 -79.49889,62.06646 z"
           id="path4856"
           inkscape:connector-curvature="0"
           sodipodi:nodetypes="cccccc" />
        <path
           style="fill:#c0dce8;fill-opacity:1;stroke:none"
           d="m 661.04779,254.26209 10.42021,7.8787 c 16.26569,-20.84042 17.7906,-58.45482 -32.78552,-79.80355 17.82653,-9.34131 94.27997,-16.03532 99.37319,73.95807 l 10.67436,-8.64115 c -7.99493,-77.12799 -87.67337,-90.60582 -124.53419,-64.55446 45.23896,13.97833 52.35518,42.95158 36.85195,71.16239 z"
           id="path4858"
           inkscape:connector-curvature="0"
           sodipodi:nodetypes="ccccccc" />
        <path
           style="fill:#c0dce8;fill-opacity:1;stroke:none"
           d="m 710.11726,336.09685 c 10.93161,29.48648 6.78546,62.64511 -10.10748,93.74808 30.27886,-27.02907 30.0247,-68.98083 10.10748,-93.74808 z"
           id="path4860"
           inkscape:connector-curvature="0"
           sodipodi:nodetypes="ccc" />
        <path
           sodipodi:nodetypes="ccc"
           inkscape:connector-curvature="0"
           id="path4862"
           d="m 607.02408,274.41309 c 31.40801,2.2619 62.55605,15.50175 86.39261,37.26974 -13.30435,-29.05085 -60.77352,-44.15687 -86.39261,-37.26974 z"
           style="fill:#c0dce8;fill-opacity:1;stroke:none" />
        <path
           style="fill:#f6d444;fill-opacity:1;stroke:none"
           d="m 710.94138,312.69065 c 12.54373,-32.63718 7.99455,-69.66974 -15.43718,-104.69775 29.13891,29.67276 31.10298,48.63814 31.71655,83.21951 26.76434,-27.2502 52.34386,-45.93408 96.93931,-35.73189 -44.69196,-0.30524 -69.03064,21.30382 -88.05897,40.61495 41.52938,-15.85827 87.95679,-11.04437 126.98207,27.73734 -51.28803,-37.85979 -100.55161,-27.799 -128.80473,-16.29742 34.58446,7.24577 56.49438,35.94115 72.01568,75.13775 -23.39123,-36.64633 -47.10265,-65.41523 -95.35273,-69.98249 z"
           id="path4864"
           inkscape:connector-curvature="0"
           sodipodi:nodetypes="ccccccccc" />
        <path
           sodipodi:type="arc"
           style="fill:#f39b3f;fill-opacity:1;stroke:none"
           id="path4866"
           sodipodi:cx="759.65857"
           sodipodi:cy="352.87283"
           sodipodi:rx="4.5747252"
           sodipodi:ry="4.5747252"
           d="m 764.23329,352.87283 c 0,2.52655 -2.04817,4.57473 -4.57472,4.57473 -2.52655,0 -4.57473,-2.04818 -4.57473,-4.57473 0,-2.52655 2.04818,-4.57472 4.57473,-4.57472 2.52655,0 4.57472,2.04817 4.57472,4.57472 z" />
        <use
           x="0"
           y="0"
           xlink:href="#path4866"
           id="use4868"
           transform="translate(21.348717,17.028144)"
           width="1920"
           height="1080" />
        <use
           x="0"
           y="0"
           xlink:href="#use4868"
           id="use4870"
           transform="translate(50.254151,-50.508302)"
           width="1920"
           height="1080" />
        <use
           x="0"
           y="0"
           xlink:href="#use4870"
           id="use4872"
           transform="translate(13.745849,11.491698)"
           width="1920"
           height="1080" />
        <use
           x="0"
           y="0"
           xlink:href="#use4872"
           id="use4874"
           transform="translate(23.270755,-31.491698)"
           width="1920"
           height="1080" />
        <use
           x="0"
           y="0"
           xlink:href="#use4874"
           id="use4876"
           transform="translate(-41.237548,-38)"
           width="1920"
           height="1080" />
        <use
           x="0"
           y="0"
           xlink:href="#use4876"
           id="use4878"
           transform="translate(-30.762453,14.475094)"
           width="1920"
           height="1080" />
        <path
           sodipodi:type="arc"
           style="fill:#f39b3f;fill-opacity:1;stroke:none"
           id="path4882"
           sodipodi:cx="877.07648"
           sodipodi:cy="348.17105"
           sodipodi:rx="4.9384413"
           sodipodi:ry="11.266601"
           d="m 882.01492,348.17105 c 0,6.22237 -2.21102,11.2666 -4.93844,11.2666 -2.72743,0 -4.93844,-5.04423 -4.93844,-11.2666 0,-6.22237 2.21101,-11.2666 4.93844,-11.2666 2.72742,0 4.93844,5.04423 4.93844,11.2666 z"
           transform="matrix(0.83027088,-0.55736008,0.55736008,0.83027088,-44.937077,547.43388)" />
      </g>
    </g>
  </g>
</svg>
