<svg xmlns="http://www.w3.org/2000/svg" xmlns:inkscape="http://www.inkscape.org/namespaces/inkscape" xmlns:xlink="http://www.w3.org/1999/xlink" height="940" viewBox="0 0 799.99997 940.00004" width="800">
  <defs>
    <inkscape:path-effect effect="powerstroke" end_linecap_type="zerowidth" id="path-effect6751" interpolator_type="CubicBezierSmooth" offset_points="0.46,4.5 | 1.64,4.5" start_linecap_type="zerowidth" />
    <inkscape:path-effect effect="powerstroke" end_linecap_type="zerowidth" id="path-effect2922" interpolator_type="CubicBezierSmooth" offset_points="0.55,4.5 | 6.7,4.5" start_linecap_type="zerowidth" />
    <inkscape:path-effect effect="powerstroke" end_linecap_type="zerowidth" id="path-effect2912" interpolator_type="CubicBezierSmooth" offset_points="0.22,4.5 | 2.79,4.5" start_linecap_type="zerowidth" />
    <inkscape:path-effect effect="powerstroke" end_linecap_type="zerowidth" id="path-effect2695" interpolator_type="CubicBezierSmooth" offset_points="0.5,4.5 | 1.77,4.5" start_linecap_type="zerowidth" />
    <inkscape:path-effect effect="powerstroke" end_linecap_type="zerowidth" id="path-effect2400" interpolator_type="CubicBezierSmooth" offset_points="0.06,4.5 | 0.95,4.5" start_linecap_type="zerowidth" />
    <linearGradient id="linearGradient835">
      <stop offset="0" stop-color="#241a7c" />
      <stop offset="1" stop-color="#98a2ef" />
    </linearGradient>
    <clipPath id="clipPath849">
      <use xlink:href="#ellipse17" />
    </clipPath>
    <clipPath id="clipPath883">
      <use xlink:href="#ellipse859" />
    </clipPath>
    <inkscape:path-effect effect="powerstroke" end_linecap_type="zerowidth" id="path-effect912-6" interpolator_type="CubicBezierSmooth" offset_points="0.2,4.5 | 1.64,4.5" start_linecap_type="zerowidth" />
    <linearGradient gradientUnits="userSpaceOnUse" id="linearGradient2880" x1="559.63391" x2="561.05499" y1="460.78128" y2="513.07092" xlink:href="#linearGradient835" />
    <linearGradient gradientUnits="userSpaceOnUse" id="linearGradient2894" x1="760.388" x2="759.87451" y1="316.95099" y2="365.45657" xlink:href="#linearGradient835" />
    <inkscape:path-effect bendpath1="m -9.5,-20.8 h 19" bendpath2="m 11.72085,-20.734855 c -6.3139445,14.7328814 -7.3193416,27.6690454 -1.7373469,40.906865" bendpath3="m -9.5,20.8 h 19" bendpath4="m -4.1390975,-21.118991 c -10.0062775,13.8402066 -11.3967865,27.9834992 -4.9014169,41.341387" effect="envelope" id="path-effect5540" yy="false" />
  </defs>
  <g inkscape:groupmode="layer" inkscape:label="Drawing">
    <g>
      <path d="m 60.544921,812.89617 c -19.080794,20.28238 -22.934584,38.90418 -17.294287,53.30017 -28.396747,44.13129 0.09205,74.96632 42.19851,74.96632 100.852086,0 182.211216,-137.45877 92.978396,-263.61564 -110.499628,-156.22376 74.85041,-300.43223 139.55024,-117.78026 l 30.29005,-13.69258 c -28.71516,-263.90975 -343.0065226,-207.11669 -335.935455,49.37836 3.728334,135.24113 83.061125,205.16477 79.985921,262.97175 -20.129589,-2.86412 -35.598189,-17.81923 -31.773375,-45.52812 z" fill="#69328f" />
      <path d="m 85.449144,941.16266 c 75.551246,0 139.972736,-76.64509 130.122186,-168.38725 -25.94259,142.5821 -153.265274,141.50733 -172.367284,93.30374 -28.350159,44.24848 0.138639,75.08351 42.245098,75.08351 z m -48.321888,-465.93963 c -16.578645,32.86125 -26.091762,73.18659 -24.794881,120.22951 3.728334,135.24113 82.730266,205.66957 79.933238,263.24148 37.552327,5.68353 90.535057,-30.90573 58.516547,-103.72011 -60.420409,-137.40412 -125.129717,-129.98312 -113.450762,-279.80025" fill="#9be9d8" />
      <path d="m 320.07934,451.98682 c 14.05342,24.9081 24.06515,56.19139 28.18849,94.08736 l -30.29005,13.69258 c -64.69983,-182.65197 -250.049865,-38.4435 -139.55024,117.78026 5.45604,7.71371 10.2743,15.46968 14.88944,23.75009 -177.99876,-181.34831 -25.12294,-353.81675 126.76236,-249.31029 z m -234.630196,489.17584 c 50.433696,0 95.907816,-34.15408 117.639686,-84.1538 -42.26041,54.86083 -139.830663,89.16563 -164.575778,17.26677 -20.016638,39.81374 7.481544,66.88703 46.936092,66.88703 z m -65.526834,-419.32599 c -5.567929,22.27372 -8.327593,46.85814 -7.589935,73.61587 3.728333,135.24113 82.730266,205.66957 79.933238,263.24148 7.477191,1.13167 15.566137,0.58738 23.474027,-1.58513 30.17831,-121.31242 -99.872352,-151.04303 -95.81733,-335.27222 z" fill="#8640b4" />
      <path d="m 43.108383,866.20135 c -28.254496,44.12628 0.234302,74.96131 42.340761,74.96131 100.852086,0 182.211216,-137.45877 92.978396,-263.61564 -110.499628,-156.22376 74.85041,-300.43223 139.55024,-117.78026 l 30.29005,-13.69258 c -28.71516,-263.90975 -343.0065226,-207.11669 -335.935455,49.37836 3.728334,135.24113 83.061125,205.16477 80.264097,262.73668" fill="none" stroke="#562875" stroke-width="9" />
      <path fill="#562875" inkscape:original-d="m 66.455433,888.79786 c -27.138547,-12.60092 -37.833214,-41.9687 -5.910512,-75.90169 -7.405996,53.65279 57.520299,59.49295 86.539919,24.02933" inkscape:path-effect="#path-effect6751" />
    </g>
    <path d="m 523.1624,683.8347 c -44.19382,86.85341 -60.3524,211.48556 -42.7448,317.3941 5.73667,34.5057 148.99615,29.8013 136.55493,-1.5593 -37.14206,-93.62404 -47.00919,-203.22381 -36.72762,-309.73031 z m -78.12113,31.23995 c -62.95343,75.9033 -84.72043,177.47018 -43.93495,270.22608 12.92288,29.38967 -134.17026,35.10657 -134.08806,0.12835 0.23517,-100.10968 22.33796,-181.65932 69.4754,-251.40971 z" fill="#ddb1eb" stroke="#c394d7" stroke-width="9" />
    <g>
      <g>
        <path d="m 358.39284,141.06605 c 81.56598,-172.749603 288.25212,-142.876453 350.54835,-90.506428 l -273.969,395.011858 c -44.38197,-86.00316 -128.21703,-195.14135 -76.57935,-304.50543 z" fill="#69328f" />
        <path d="m 727.07366,150.39627 c 13.00901,-71.499782 -63.75098,-79.402798 -95.10235,29.99256 48.45274,39.0188 84.83359,29.55272 95.10235,-29.99256 z" fill="#5f2d7f" />
        <path d="m 678.56817,31.297721 c -3.50118,41.609076 -14.18058,72.832809 -44.69947,105.873589 -10.99622,-86.10919 -63.92136,-119.457131 -131.73042,-118.727547 56.03296,-13.040259 118.51841,-12.1620685 176.42989,12.853958 z" fill="#8640b4" />
        <path d="m 693.46334,40.429398 c -12.54402,35.237157 -31.26397,71.598492 -59.59464,96.741912 23.39466,-32.37727 33.74779,-68.98555 28.81395,-111.941176 z" fill="#9be9d8" />
        <path d="m 358.39284,141.06605 c 81.56598,-172.749603 288.25212,-142.876453 350.54835,-90.506428 l -273.969,395.011858 c -44.38197,-86.00316 -128.21703,-195.14135 -76.57935,-304.50543 z" fill="none" stroke="#562875" stroke-width="9" />
      </g>
      <path d="m 667.73771,195.52229 c 7.87898,-38.0236 25.75509,-71.43295 54.03935,-77.26658 m -251.60225,224.8038 c -137.89133,-167.17791 -3.61877,-329.166669 79.90366,-240.32224" fill="none" stroke="#562875" stroke-width="4" />
    </g>
    <path d="m 316.13888,550.50958 c 31.98138,-41.53991 120.60865,-47.21137 169.45765,12.70762 22.47014,-111.7273 -27.84339,-172.97429 -29.0121,-258.84518 -2.72298,-200.07097 391.27166,-183.32232 302.85753,120.98339 l -130.36495,82.23345 c 63.94445,172.06806 -43.56187,285.67336 -211.24672,239.33586 -12.49656,-3.45326 -22.97272,-10.1832 -31.44795,-19.13468 -54.49575,85.32456 -79.80781,184.9571 -33.44764,290.39166 12.9228,29.3897 -131.30237,34.7758 -134.08777,0.128 -7.85292,-97.68312 16.37269,-185.80776 52.41894,-255.52103 4.01541,-7.76578 18.72056,-10.55429 30.38074,-9.19858 -2.56807,-44.76785 -39.92909,-132.39382 14.49227,-203.08051 z" fill="#f2c7f8" />
    <g transform="matrix(1.8545221.62688845-.51338597 2.9910398 332.94563 612.51891)" inkscape:path-effect="#path-effect5540">
      <path fill="ivory" inkscape:original-d="m -9.3,17.4 5.5,-3.9 5.5,3.9 -3.5,-6.6 3.5,-6.6 -5.5,3.9 -5.5,-3.9 3.5,6.6 z" />
      <path fill="#b765b8" inkscape:original-d="m -3.8,0.8 c 0.6,6.5 2.5,9 5.7,10 -3.2,1 -5.1,3.5 -5.7,10 -0.6,-6.5 -2.5,-9 -5.7,-10 3.2,-1 5.1,-3.5 5.7,-10 z" />
      <path fill="#9be9d8" inkscape:original-d="m 1.7,-6.3 c -3.3,5.2 6.4,4.5 6.4,10.9 0,2.1 -1.8,4.6 -6.8,4.7 11,-6.2 -9.8,-9.2 0.4,-15.6 z m -5.8,4.6 c -3.1,-1.6 -4.6,-3.8 -4.6,-6 0,-9.8 18.9,-1.7 13.9,-13.1 13.6,12.8 -16.2,9.6 -9.3,19.1 z" />
      <path fill="#08bab7" inkscape:original-d="m 1.7,-6.3 c -12.5,6.3 7.9,8.8 -0.4,15.6 6.5,-1.7 4.8,-6.1 1.9,-8.3 -2.9,-2.2 -5.2,-4.3 -1.5,-7.3 z m -5.8,4.6 c -4.1,-8.2 13.6,-2.8 13.6,-12.4 0,-2.3 -1.4,-4.7 -4.3,-6.7 4.1,4.3 4.3,8.8 -4.4,10.1 -8.7,1.3 -8.2,5.5 -4.9,9 z" />
    </g>
    <path fill="#c394d7" inkscape:original-d="m 360.53921,647.58312 c -2.22388,43.16263 17.06727,88.22628 57.29108,99.3416 167.68485,46.33751 275.19117,-67.2678 211.24672,-239.33586 l 130.36495,-82.23345 c 88.41413,-304.30571 -305.58051,-321.05436 -302.85753,-120.98339 1.16871,85.87089 51.48224,147.11788 29.0121,258.84518 -48.849,-59.91899 -137.47627,-54.24753 -169.45765,-12.70762 -61.08985,79.34825 -6.52622,180.04141 -15.47597,217.39675" inkscape:path-effect="#path-effect2922" />
    <path d="m 386.3454,727.77019 c -54.45881,85.34441 -79.77087,184.97695 -33.4107,290.41151 12.9228,29.3897 -131.30237,34.7758 -134.08777,0.128 -7.85292,-97.68312 16.37269,-185.80776 52.41894,-255.52103 4.01541,-7.76578 18.72056,-10.55429 30.47096,-9.12784" fill="none" stroke="#c394d7" stroke-width="9" />
    <g>
      <path d="m 466.8309,722.59715 c -47.19382,86.85341 -79.3524,211.98556 -58.7448,317.39405 6.71147,34.3294 149.89064,29.4315 136.55493,-1.5593 -39.64206,-92.12399 -34.50919,-201.72376 -20.72762,-309.73026 z" fill="#f2c7f8" />
      <path fill="#c394d7" inkscape:original-d="m 466.8309,722.59715 c -47.19382,86.85341 -79.3524,211.98556 -58.7448,317.39405 6.71147,34.3294 149.89064,29.4315 136.55493,-1.5593 -39.64206,-92.12399 -34.50919,-201.72376 -20.72762,-309.73026" inkscape:path-effect="#path-effect2912" />
    </g>
    <g>
      <path d="m 448.1969,364.47661 c 61.0852,69.73624 88.51563,227.85815 -21.87173,223.73089 -2.06214,-91.91707 -180.93058,-207.82106 -67.93233,-447.14145 -3.06652,96.1699 12.20572,134.82255 89.80406,223.41056 z" fill="#69328f" />
      <path d="m 328.0464,229.11413 c 3.49781,220.20686 133.21089,220.35399 126.05618,356.6725 14.03531,-4.37219 24.87782,-11.58845 31.49395,-22.56943 -21.46591,-165.28979 -145.05041,-150.02481 -148.46115,-366.7799 z" fill="#9be9d8" />
      <path d="m 494.39666,551.54956 c -27.03436,-169.31703 -146.53481,-147.92377 -155.48089,-361.17764 l -3.42638,10.12174 c -11.58299,216.0789 120.65393,206.08636 142.22516,372.18714 z" fill="#8640b4" />
      <path d="m 448.1969,364.47661 c 61.0852,69.73624 88.51563,227.85815 -21.87173,223.73089 -2.06214,-91.91707 -180.93058,-207.82106 -67.93233,-447.14145 -3.06652,96.1699 12.20572,134.82255 89.80406,223.41056 z" fill="none" stroke="#562875" stroke-width="9" />
      <path d="m 480.87292,661.05154 c -59.76524,25.13442 -112.37118,-12.76484 -94.87655,-78.69955 -7.34227,-22.46866 -4.65294,-38.48867 3.42384,-55.7571 19.44506,95.50976 176.38794,43.04639 58.77669,-162.11828 115.35355,131.69023 110.84197,263.70205 32.67602,296.57493 z" fill="#69328f" />
      <path d="m 448.1969,364.47661 c 117.61125,205.16467 -39.33163,257.62804 -58.77669,162.11828 -8.07678,17.26843 -10.76611,33.28844 -3.42384,55.7571 -0.93807,3.53546 -1.67459,6.99032 -2.06441,10.11204 39.64618,72.85065 131.64716,64.84228 152.67252,-52.71841 -6.16438,-50.76177 -33.9082,-113.05128 -88.40758,-175.26901 z" fill="#9be9d8" />
      <path d="m 522.26937,483.80663 c -14.11528,-37.72359 -38.34456,-78.54223 -74.07247,-119.33002 117.61125,205.16467 -39.33163,257.62804 -58.77669,162.11828 -7.34933,15.71313 -10.23797,30.39259 -5.42134,49.80823 34.50349,65.78692 159.65905,52.45945 138.2705,-92.59649 z" fill="#8640b4" />
      <path d="m 480.87292,661.05154 c -59.76524,25.13442 -112.37118,-12.76484 -94.87655,-78.69955 -7.34227,-22.46866 -4.65294,-38.48867 3.42384,-55.7571 19.44506,95.50976 176.38794,43.04639 58.77669,-162.11828 115.35355,131.69023 110.84197,263.70205 32.67602,296.57493 z" fill="none" stroke="#562875" stroke-width="9" />
    </g>
    <g>
      <path d="m 543.84933,383.08787 c -46.34638,13.52841 -48.2427,7.56231 -1.73519,-7.38424 m -3.01711,-4.2482 c -47.82665,6.60434 -48.93338,0.771 -0.73993,-7.21266 m 231.01692,-41.36826 c 32.16387,-3.80922 31.46324,-9.30078 -0.7129,-6.34451 m 0.71891,18.5649 c 31.89488,-0.71338 31.85721,-6.19515 -0.0212,-6.3844" />
      <path d="m 534.20286,354.97052 c 44.42242,0.25369 91.321,-17.41195 117.8967,-33.81388 37.91432,57.1371 21.48341,113.84229 -12.41937,126.68472 -35.71596,13.52925 -94.66739,-19.23437 -105.47733,-92.87084 z m 200.82788,50.92295 c -11.314,-32.7215 -11.49515,-63.46777 -3.94424,-97.80273 13.12504,1.94568 25.80925,1.98312 38.46327,-0.78132 4.86961,40.49424 2.21243,78.58638 -10.46136,117.33888 -10.96098,-4.13024 -19.09623,-9.95828 -24.05767,-18.75483 z" fill="#fff" />
      <g clip-path="url(#clipPath883)">
        <ellipse cx="755.21686" cy="339.27237" fill="url(#linearGradient2894)" id="ellipse859" rx="17.920435" ry="34.132668" transform="rotate(1.9558685)" />
        <path d="m 759.45776,395.35976 6.0828,-15.74054 -24.75894,-5.96666 z" fill="#b9bafc" />
        <path d="m 766.79853,373.39919 -3.50215,11.22448 -22.51476,-10.97111 z" fill="#8587ec" />
        <ellipse cx="776.45605" cy="295.47876" rx="9.3160496" ry="20.730392" transform="rotate(5.4971903)" />
        <ellipse cx="805.79272" cy="166.13455" fill="ivory" rx="5.5001149" ry="11.262449" transform="rotate(14.084385)" />
        <ellipse cx="811.8595" cy="182.93028" fill="ivory" rx="1.6608853" ry="2.9735255" transform="rotate(14.084385)" />
      </g>
      <g clip-path="url(#clipPath849)">
        <ellipse cx="569.66638" cy="485.12051" fill="url(#linearGradient2880)" id="ellipse17" rx="30.652899" ry="38.99971" transform="rotate(350.16183)" />
        <path d="m 646.21779,390.98998 -24.38119,27.8216 -10.78019,-15.87916 z" fill="#b9bafc" />
        <path d="m 646.21779,390.98998 -37.32545,4.02205 5.18057,12.51697 z" fill="#8587ec" />
        <ellipse cx="550.4353" cy="514.69769" rx="15.157135" ry="20.897135" transform="rotate(347.525)" />
        <ellipse cx="701.22028" cy="239.1373" fill="#fff" rx="8.5754957" ry="12.736582" transform="rotate(11.635506)" />
        <ellipse cx="745.46912" cy="-135.54912" fill="#fff" rx="2.9822221" ry="3.9269693" transform="rotate(41.298781)" />
      </g>
      <path d="m 654.05442,320.34679 c 21.55226,27.84819 28.44457,65.15679 14.78011,95.9807 6.51125,-32.18422 0.86698,-66.69848 -20.03897,-92.61093 m 21.13891,-22.48777 c 0.99167,-9.53471 -0.35989,-18.21818 -3.40531,-28.9574 8.42599,10.38428 11.08281,20.30861 10.66797,32.74393 -25.55782,26.99057 -85.42792,53.83081 -142.99083,53.83081 -44.91521,0 -44.17685,-6.89868 0.0515,-6.89868 50.69686,0 116.02995,-24.93645 135.67667,-50.71866 z m 58.70086,5.70214 c -8.96533,34.7629 -7.90903,70.38606 6.39541,98.96254 -7.71747,-30.63292 -9.14456,-62.65942 -0.0722,-97.71254 z m -23.22948,-34.42072 c -2.0672,12.66726 0.014,24.34082 6.4247,33.16054 17.61146,6.54423 40.94763,8.5077 58.07698,4.42312 30.07096,-7.17057 29.24659,-12.96935 -1.30674,-6.25196 -16.84838,3.70425 -37.53231,2.10337 -52.59443,-4.13027 -5.41441,-8.50527 -8.3937,-17.1716 -10.60051,-27.20143 z" />
      <path d="m 735.03074,405.89347 c 15.24625,27.94415 49.3184,15.2034 42.49862,40.65517 -13.60478,50.77373 -104.43546,91.66047 -230.13071,38.74349 68.62136,-18.21738 131.96425,-40.89911 187.63209,-79.39866 z" fill="#f2c7f8" />
      <path fill="#c394d7" inkscape:original-d="m 735.03074,405.89347 c 15.24625,27.94415 49.3184,15.2034 42.49862,40.65517 -13.60478,50.77373 -104.43546,91.66047 -230.13071,38.74349" inkscape:path-effect="#path-effect2695" />
      <path d="m 687.67741,479.78458 c 20.23123,-8.98494 44.76119,-9.05219 66.41823,1.24905 l -8.14415,6.29126 c -17.04865,-8.9102 -38.04173,-10.18286 -58.27408,-7.54031 z m 60.21621,-40.70623 c 1.08936,5.8427 6.28719,7.87312 11.24103,4.45904 -5.45339,9.09872 -13.91482,5.376 -11.24103,-4.45904 z" fill="#c394d7" />
    </g>
    <g>
      <path d="m 472.92201,345.89649 c -99.02537,-100.01039 -21.25492,-223.22063 -0.6385,-224.27981 12.40354,-0.63724 52.86574,50.69507 62.66728,100.64418 z" fill="#f2c7f8" />
      <path fill="#c394d7" inkscape:original-d="m 472.92201,345.89649 c -99.02537,-100.01039 -21.25492,-223.22063 -0.6385,-224.27981 12.40354,-0.63724 52.86574,50.69507 62.66728,100.64418" inkscape:path-effect="#path-effect912-6" />
      <path d="m 464.19667,183.57456 c -9.9124,32.52566 -6.50257,68.90522 10.85275,99.02555 -11.71792,-35.77156 -14.31368,-64.63745 -10.85275,-99.02555 z" fill="#c394d7" />
      <path d="m 669.39061,36.757035 c -67.78071,18.11005 -86.92241,-6.72525 -123.13906,23.10452 -87.81659,72.329965 6.82324,209.428015 -58.76286,211.451365 33.39368,79.02228 123.32934,17.39599 143.24593,-54.37653 42.38418,-152.737931 101.03174,-120.813934 92.07689,-57.24869 54.88966,-94.341418 -1.48669,-136.806753 -53.4209,-122.930665 z" fill="#69328f" />
      <path d="m 585.85993,44.78853 c -112.32036,78.96921 29.88747,189.03643 -66.82375,261.65781 10.81025,1.32881 21.65841,2.49277 33.67802,-1.43607 82.43491,-90.14359 -6.95938,-186.66707 82.18883,-262.450535 -13.86742,1.816246 -28.42109,3.335523 -49.0431,2.228795 z" fill="#9be9d8" />
      <path d="m 534.09999,307.69168 c 110.67837,-99.13073 -33.11237,-152.33163 78.60312,-263.242816 16.10572,0.969142 33.26626,-1.732904 49.78295,-5.52085 -92.97191,73.163856 -24.28654,187.719976 -91.73555,257.378686 -10.55474,6.34634 -23.03575,9.73583 -36.65052,11.38498 z" fill="#8640b4" />
      <path d="m 669.39061,36.757035 c -67.78071,18.11005 -86.92241,-6.72525 -123.13906,23.10452 -87.81659,72.329965 6.82324,209.428015 -58.76286,211.451365 33.39368,79.02228 123.32934,17.39599 143.24593,-54.37653 42.38418,-152.737931 101.03174,-120.813934 92.07689,-57.24869 54.88966,-94.341418 -1.48669,-136.806753 -53.4209,-122.930665 z" style="stroke-width:9;stroke-miterlimit:12;stroke:#562875;fill:none" />
      <path d="m 477.40857,225.48565 c -14.67939,14.95294 -22.83459,32.93728 -12.69502,54.38651 -28.58499,25.28437 -3.8775,85.21688 54.51331,78.43557 76.6231,-8.89873 91.59116,-69.59882 111.50776,-141.37134 -49.59576,93.90175 -156.11585,78.12916 -153.32605,8.54926 z" fill="#69328f" />
      <path d="m 630.23462,216.93639 c -49.59576,93.90175 -155.61585,78.12916 -152.82605,8.54926 -14.67939,14.95294 -22.83459,32.93728 -12.69502,54.38651 -2.23965,1.98105 -4.15215,4.1748 -5.60996,6.26856 31.37695,57.25667 89.8917,56.95118 144.52261,11.30119 10.93646,-22.53852 18.29814,-50.55816 26.60842,-80.50552 z" fill="#9be9d8" />
      <path d="m 630.23462,216.93639 c -49.59576,93.90175 -155.61585,78.12916 -152.82605,8.54926 -6.34279,6.46099 -11.46751,13.48793 -14.46333,21.06653 18.91094,68.52295 92.92132,73.72129 149.82784,28.47058 6.43527,-17.64052 11.72217,-37.4037 17.46154,-58.08637 z" fill="#8640b4" />
      <path d="m 477.40857,225.48565 c -14.67939,14.95294 -22.83459,32.93728 -12.69502,54.38651 -28.58499,25.28437 -3.8775,85.21688 54.51331,78.43557 76.6231,-8.89873 91.59116,-69.59882 111.50776,-141.37134 -49.59576,93.90175 -156.11585,78.12916 -153.32605,8.54926 z" fill="none" stroke="#562875" stroke-width="9" />
      <path d="m 657.84616,220.24368 c 143.95645,-147.386651 177.89313,-122.127423 39.65915,51.77233 z" fill="#f2c7f8" />
      <path fill="#c394d7" inkscape:original-d="m 657.84616,220.24368 c 143.95645,-147.386651 177.89313,-122.127423 39.65915,51.77233" inkscape:path-effect="#path-effect2400" />
      <path d="m 742.3394,142.67497 c -2.6202,21.97457 9.83324,31.26147 27.13307,29.25896 m -55.55853,-6.02025 c -5.36688,29.20634 15.47534,40.98915 37.26041,35.17485 m -69.26041,-5.17485 c -4.86688,32.45634 22.22534,45.98915 44.01041,40.17485" fill="none" stroke="#c394d7" stroke-width="4.00040007" />
    </g>
  </g>
</svg>