<svg xmlns="http://www.w3.org/2000/svg" xmlns:inkscape="http://www.inkscape.org/namespaces/inkscape" xmlns:xlink="http://www.w3.org/1999/xlink" height="1772" viewBox="0 0 3101.0001 1771.9999" width="3101">
  <defs>
    <linearGradient id="linearGradient3746">
      <stop offset="0" stop-color="#580d36" />
      <stop offset="1" stop-color="#bc1d75" />
    </linearGradient>
    <linearGradient id="linearGradient3727">
      <stop offset="0" stop-color="#02534d" />
      <stop offset="1" stop-color="#02aca4" />
    </linearGradient>
    <linearGradient id="linearGradient3708">
      <stop offset="0" stop-color="#196e91" />
      <stop offset="1" stop-color="#7dd0f1" />
    </linearGradient>
    <linearGradient id="linearGradient3689">
      <stop offset="0" stop-color="#287916" />
      <stop offset="1" stop-color="#61ba4e" />
    </linearGradient>
    <linearGradient id="linearGradient3672">
      <stop offset="0" stop-color="#794897" />
      <stop offset="1" stop-color="#4a1767" />
    </linearGradient>
    <linearGradient id="linearGradient7998">
      <stop offset="0" stop-color="#b1d9e4" />
      <stop offset="1" stop-color="#e1e1e1" />
    </linearGradient>
    <inkscape:path-effect effect="powerstroke" end_linecap_type="zerowidth" id="path-effect14339" interpolator_type="CubicBezierSmooth" offset_points="0.3,4 | 1.79,4" start_linecap_type="zerowidth" />
    <inkscape:path-effect effect="powerstroke" end_linecap_type="zerowidth" id="path-effect14328" interpolator_type="CubicBezierSmooth" offset_points="0.3,4 | 1.79,4" start_linecap_type="zerowidth" />
    <inkscape:path-effect effect="powerstroke" end_linecap_type="zerowidth" id="path-effect5469" interpolator_type="CubicBezierSmooth" offset_points="0.46,4 | 1.82,4" start_linecap_type="zerowidth" />
    <inkscape:path-effect effect="powerstroke" end_linecap_type="zerowidth" id="path-effect4253" interpolator_type="CubicBezierSmooth" offset_points="0.19,4 | 1.67,4" start_linecap_type="zerowidth" />
    <inkscape:path-effect effect="powerstroke" end_linecap_type="zerowidth" id="path-effect7546" interpolator_type="CubicBezierSmooth" offset_points="0.35,4 | 4.65,4" start_linecap_type="zerowidth" />
    <inkscape:path-effect effect="powerstroke" end_linecap_type="zerowidth" id="path-effect262" interpolator_type="CubicBezierSmooth" offset_points="0.19,4 | 1.67,4" start_linecap_type="zerowidth" />
    <inkscape:path-effect effect="powerstroke" end_linecap_type="zerowidth" id="path-effect7624" interpolator_type="CubicBezierSmooth" offset_points="1,4 | 2,4" start_linecap_type="zerowidth" />
    <inkscape:path-effect effect="powerstroke" id="path-effect4568" interpolator_type="CubicBezierSmooth" offset_points="0.23,4" start_linecap_type="zerowidth" />
    <linearGradient id="linearGradient4496">
      <stop offset="0" stop-color="#20476b" />
      <stop offset="1" stop-color="#3977b8" />
    </linearGradient>
    <inkscape:path-effect effect="powerstroke" end_linecap_type="zerowidth" id="path-effect4801" interpolator_type="CubicBezierSmooth" offset_points="0.2,4 | 1.65,4" start_linecap_type="zerowidth" />
    <inkscape:path-effect effect="powerstroke" id="path-effect5255" interpolator_type="CubicBezierSmooth" offset_points="0.32,4" start_linecap_type="zerowidth" />
    <linearGradient id="linearGradient4765">
      <stop offset="0" stop-color="#1e093c" />
      <stop offset="1" stop-color="#662f89" />
    </linearGradient>
    <inkscape:path-effect effect="powerstroke" end_linecap_type="zerowidth" id="path-effect6315" interpolator_type="CubicBezierSmooth" offset_points="0.3,4 | 1.8,4" start_linecap_type="zerowidth" />
    <clipPath id="clipPath5205">
      <use xlink:href="#path4165" />
    </clipPath>
    <clipPath id="clipPath5221">
      <use xlink:href="#path6575" />
    </clipPath>
    <clipPath id="dm">
      <use xlink:href="#rh" />
    </clipPath>
    <clipPath id="clipPath4518">
      <use xlink:href="#ellipse4490" />
    </clipPath>
    <clipPath id="clipPath4534">
      <use xlink:href="#path6956" />
    </clipPath>
    <linearGradient gradientUnits="userSpaceOnUse" id="linearGradient4574" x1="265.44525" x2="315.66205" y1="774.47083" y2="785.14581" xlink:href="#linearGradient3672" />
    <linearGradient gradientUnits="userSpaceOnUse" id="linearGradient4595" x1="264.24976" x2="361.79874" y1="749.32654" y2="784.07776" xlink:href="#linearGradient3672" />
    <linearGradient gradientUnits="userSpaceOnUse" id="linearGradient4677" x1="727.37018" x2="663.95776" y1="531.04895" y2="578.54895" xlink:href="#linearGradient3672" />
    <linearGradient gradientUnits="userSpaceOnUse" id="linearGradient4708" x1="603.9093" x2="635.258" y1="540.15887" y2="338.63342" xlink:href="#linearGradient3672" />
    <clipPath id="clipPath1198">
      <use xlink:href="#ellipse273" />
    </clipPath>
    <clipPath id="clipPath2454">
      <use xlink:href="#ellipse354" />
    </clipPath>
    <clipPath id="clipPath2513">
      <use xlink:href="#path5053" />
    </clipPath>
    <clipPath id="clipPath7529">
      <use xlink:href="#path4095" />
    </clipPath>
    <clipPath id="clipPath4788">
      <use xlink:href="#ellipse4764" />
    </clipPath>
    <clipPath id="clipPath4804">
      <use xlink:href="#ellipse4158" />
    </clipPath>
    <clipPath id="clipPath5427">
      <use xlink:href="#ellipse4186" />
    </clipPath>
    <clipPath id="clipPath5452">
      <use xlink:href="#path4184" />
    </clipPath>
    <clipPath id="clipPath15362">
      <use xlink:href="#ellipse14312" />
    </clipPath>
    <clipPath id="clipPath15389">
      <use xlink:href="#path14267" />
    </clipPath>
    <clipPath id="clipPath15461">
      <use xlink:href="#ellipse14322" />
    </clipPath>
    <clipPath id="clipPath15477">
      <use xlink:href="#ellipse15367" />
    </clipPath>
    <linearGradient gradientUnits="userSpaceOnUse" id="linearGradient4775" x1="1029.2365" x2="1030.6608" y1="23.696833" y2="120.27409" xlink:href="#linearGradient3727" />
    <clipPath id="clipPath6248">
      <use xlink:href="#path4749" />
    </clipPath>
    <clipPath id="clipPath6405">
      <use xlink:href="#ellipse4740" />
    </clipPath>
    <clipPath id="clipPath6428">
      <use xlink:href="#path6274" />
    </clipPath>
    <linearGradient gradientTransform="translate(-43.193464,159.80254)" gradientUnits="userSpaceOnUse" id="linearGradient7940" x1="-1470.608" x2="-1481.5728" y1="-525.34625" y2="-434.78461" xlink:href="#linearGradient3746" />
    <linearGradient gradientUnits="userSpaceOnUse" id="linearGradient7944" x1="614.1947" x2="605.20349" y1="339.48413" y2="425.97858" xlink:href="#linearGradient3689" />
    <linearGradient gradientUnits="userSpaceOnUse" id="linearGradient7948" x1="351.62357" x2="342.80933" y1="614.46039" y2="711.50165" xlink:href="#linearGradient4496" />
    <linearGradient gradientTransform="translate(-20.192042,106.17938)" gradientUnits="userSpaceOnUse" id="linearGradient7950" x1="1808.37" x2="1808.855" y1="229.67456" y2="318.07007" xlink:href="#linearGradient4765" />
    <linearGradient gradientUnits="userSpaceOnUse" id="linearGradient8000" x1="-323.01923" x2="-323.01923" y1="716.97284" y2="-298.35419" xlink:href="#linearGradient7998" />
    <linearGradient id="linearGradient4416">
      <stop offset="0" stop-color="#fff2fb" />
      <stop offset="1" stop-color="#fac9e6" />
    </linearGradient>
    <linearGradient gradientTransform="translate(230.52255)" gradientUnits="userSpaceOnUse" id="linearGradient7642-8" x1="989.73206" x2="939.33502" y1="946.93329" y2="1022.7275" xlink:href="#linearGradient4398" />
    <linearGradient id="linearGradient4398">
      <stop offset="0" stop-color="#ffb8da" />
      <stop offset="1" stop-color="#e38ec8" />
    </linearGradient>
    <linearGradient gradientUnits="userSpaceOnUse" id="linearGradient4636-5" x1="911.08209" x2="794.3963" y1="1094.7114" y2="1190.7114" xlink:href="#linearGradient4434" />
    <linearGradient id="linearGradient4434">
      <stop offset="0" stop-color="#f592c9" />
      <stop offset="1" stop-color="#8a76c5" />
    </linearGradient>
    <inkscape:path-effect effect="powerstroke" id="path-effect4544-7" interpolator_type="CubicBezierSmooth" offset_points="0.3,4" start_linecap_type="zerowidth" />
    <clipPath id="clipPath4420-9">
      <path d="m 1264.1211,722.65511 c -32.2199,-10.35411 -74.8745,-2.91666 -99.7454,23.81679 l -63.9813,-7.94255 C 1054.5951,646.27826 1073.067,571.83951 1150,550.16675 c 85.2839,-24.0253 165.2422,77.47672 114.1211,172.48836 z" />
    </clipPath>
    <clipPath id="clipPath4397-0">
      <use xlink:href="#path4645-4" />
    </clipPath>
    <clipPath id="clipPath4718-0">
      <use xlink:href="#ellipse4662-1" />
    </clipPath>
    <linearGradient id="linearGradient4676-2">
      <stop offset="0" stop-color="#2ba8b7" />
      <stop offset="1" stop-color="#8ae9e9" />
    </linearGradient>
    <inkscape:path-effect effect="powerstroke" end_linecap_type="zerowidth" id="path-effect4407-5" interpolator_type="CubicBezierSmooth" offset_points="0.48,4 | 4.7,4" start_linecap_type="zerowidth" />
    <linearGradient gradientUnits="userSpaceOnUse" id="linearGradient7849-1" x1="1074.359" x2="1287.3116" y1="488.70096" y2="587.64575" xlink:href="#linearGradient4434" />
    <inkscape:path-effect effect="powerstroke" id="path-effect7876-0" interpolator_type="CubicBezierSmooth" offset_points="0.32,4" start_linecap_type="zerowidth" />
    <inkscape:path-effect effect="powerstroke" end_linecap_type="zerowidth" id="path-effect4647-2" interpolator_type="CubicBezierSmooth" offset_points="0.21,4 | 1.64,4" start_linecap_type="zerowidth" />
    <linearGradient gradientUnits="userSpaceOnUse" id="linearGradient4640-2" x1="1068.6548" x2="982.21857" y1="576.40289" y2="787.12073" xlink:href="#linearGradient4434" />
    <inkscape:path-effect effect="powerstroke" id="path-effect4456-8" interpolator_type="CubicBezierSmooth" offset_points="0.93,4" start_linecap_type="zerowidth" />
    <inkscape:path-effect effect="powerstroke" end_linecap_type="zerowidth" id="path-effect4393-7" interpolator_type="CubicBezierSmooth" offset_points="0.32,4 | 2.66,4" start_linecap_type="zerowidth" />
    <inkscape:path-effect effect="powerstroke" end_linecap_type="zerowidth" id="path-effect4403-5" interpolator_type="CubicBezierSmooth" offset_points="0.33,4 | 0.76,4" start_linecap_type="zerowidth" />
    <linearGradient gradientUnits="userSpaceOnUse" id="linearGradient2392" x1="1074.359" x2="1287.3116" y1="488.70096" y2="587.64575" xlink:href="#linearGradient4434" />
    <linearGradient gradientUnits="userSpaceOnUse" id="linearGradient3691" x1="848.52368" x2="848.21729" y1="40.005966" y2="123.75336" xlink:href="#linearGradient3689" />
    <linearGradient gradientUnits="userSpaceOnUse" id="linearGradient3748" x1="-1394.3804" x2="-1394.226" y1="199.65605" y2="283.88626" xlink:href="#linearGradient3746" />
    <linearGradient gradientTransform="translate(230.52255)" gradientUnits="userSpaceOnUse" id="linearGradient4539" x1="989.73206" x2="939.33502" y1="946.93329" y2="1022.7275" xlink:href="#linearGradient4416" />
    <linearGradient gradientTransform="translate(230.52255)" gradientUnits="userSpaceOnUse" id="linearGradient4541" x1="989.73206" x2="939.33502" y1="946.93329" y2="1022.7275" xlink:href="#linearGradient4398" />
    <linearGradient gradientUnits="userSpaceOnUse" id="linearGradient4543" x1="998.65332" x2="995.79193" y1="875.52118" y2="982.32007" xlink:href="#linearGradient4676-2" />
    <linearGradient gradientUnits="userSpaceOnUse" id="linearGradient4885" x1="1032.778" x2="1029.8895" y1="25.350935" y2="119.77008" xlink:href="#linearGradient3708" />
    <linearGradient gradientUnits="userSpaceOnUse" id="linearGradient4887" x1="-1175.9415" x2="-1175.6158" y1="-299.66751" y2="-202.17232" xlink:href="#linearGradient3708" />
    <linearGradient gradientTransform="translate(-64.892278,486.5921)" gradientUnits="userSpaceOnUse" id="linearGradient527" x1="-1176.6469" x2="-1178.3435" y1="-303.28464" y2="-206.05219" xlink:href="#linearGradient3727" />
  </defs>
  <g transform="translate(441.4032 510.79645)" inkscape:groupmode="layer" inkscape:label="Drawing">
    <rect fill="#f7f7f7" height="1772" width="3101" x="-441.4032" y="-510.79645" />
    <path d="M 66.836737,1067.5883 -87.492061,1277.9374 H 2305.6857 l -154.3288,-210.349 z" fill="#b1d9e4" />
    <path d="m 2181.3498,1191.8499 124.3359,86.0875 70,-377.31147 C 2241.0848,171.51598 1825.8085,-325.35179 1109.0968,-325.35179 c -716.71168,0 -1131.987989,496.86777 -1266.58886,1225.97775 l 69.999999,377.31144 124.335891,-86.0875 z" fill="#72b4ca" />
    <path d="m 2739.037,-325.35179 6.4225,1225.97775 c -115.0553,62.79712 -294.1095,65.26416 -439.7738,0 -158.4108,-687.44275 -625.7125,-1225.97775 -1196.5889,-1225.97775 -570.87637,0 -1038.178142,538.535 -1196.588863,1225.97775 -102.468167,73.21927 -329.802167,73.11976 -439.773877,0 l 6.4225,-1225.97775 z" fill="url(#linearGradient8000)" />
    <path d="m 1109.0968,634.64821 c -431.97851,0 -766.62458,54.44449 -1072.25297,179.89024 711.82664,68.17612 1470.39677,67.14247 2144.50597,0 C 1875.7214,689.0927 1541.0753,634.64821 1109.0968,634.64821 Z" fill="#b1d9e4" />
    <path d="m 2305.6857,1277.9373 h 439.7739 V 900.62596 h -439.7739 z m -2832.95164,0 H -87.492063 V 900.62596 H -527.26594 Z M 36.84383,814.53845 V 1191.8499 H 2181.3498 V 814.53845 Z" fill="#9acede" />
    <g>
      <g transform="translate(0-140)">
        <path d="m 1200.1831,-9.83075 c -111.0061,20.792893 -92.935,195.92893 13.2071,176.12132 -63.3848,95.3259 83.7843,139.23045 81.7929,10.29289 -17.1135,18.05734 -35.6699,21.94643 -60.5022,21.26611 42.5524,-30.60926 48.2656,-78.9628 -1.0836,-105.68032 122.2218,-0.07107 174.5858,-182.171573 64,-218 151,-95 -41.5858,-380.29289 -182.2071,-168.31118 -20.2279,151.81371 12.5086,260.947219 84.7929,284.31118 z" style="stroke:#bb1c76;stroke-width:8;fill:#eb458b;stroke-miterlimit:20" />
        <path d="m 1344.2308,-274.84335 c -5.7443,66.18327 -82.129,74.73973 -117.9811,23.35181 2.3593,89.65357 -80.7491,132.42502 -114.1282,96.54104 m 46.0805,311.2808 c 44.2871,-1.1966 67.0286,-46.66866 42.1024,-89.746836 60.0173,9.653282 100.3137,-39.2807 63.1716,-102.171573 39.9508,15.599076 79.8426,-6.051712 87.9088,-41.677557" style="stroke:#bb1c76;stroke-miterlimit:20;fill:none;stroke-width:4" />
        <path d="m 1014.4192,-235.73418 c -77.78173,-115.2584 -20.19237,-172.24116 30.7193,-143.95689 -15.5563,-171.11983 275.8427,-77.78174 150.6848,125.86501 z" style="stroke:#bb1c76;stroke-width:8;fill:#eb458b;stroke-miterlimit:20" />
        <path d="m 1049.6506,-425.9368 c 16.4171,1.44457 30.8783,12.1906 31.4467,28.10605 59.9661,-1.80349 90.2524,67.94988 42.0976,151.69987 m 19.5035,-218.57212 c 18.2644,17.22704 25.1764,41.08885 15.7488,68.45558 31.6154,-2.91448 59.2477,14.55074 68.6796,44.75129" style="stroke:#bb1c76;stroke-miterlimit:20;fill:none;stroke-width:4" />
      </g>
      <path d="m 962.01868,-58.44472 h 294.15622 v 728.86604 c 0,57.3147 -294.15622,57.3147 -294.15622,0 z" fill="#f7f7f7" />
      <path d="m 962.01868,-58.44472 c 0,-43.91682 294.15622,-43.91682 294.15622,0 0,43.91682 -294.15622,43.91682 -294.15622,0 z" fill="#e1e1e1" />
      <path d="m 1035.923,-131.35304 c 7.6028,27.80078 4.7475,52.382021 6.6906,70.204608 2.5855,23.714752 136.6311,26.150392 140.8591,-1.332111 3.148,-20.462428 -0.2871,-45.550317 6.3006,-69.777817 z" fill="#f5b7d0" stroke="#e880b0" stroke-width="8" />
      <path d="m 1113.6789,-85.152112 c -88.773,-0.713644 -152.20223,-93.356168 -152.20223,-185.350928 0,-225.22515 299.98553,-225.81784 302.72963,-2.82833 1.1934,96.97515 -68.4934,188.838728 -150.5274,188.179258 z" style="stroke:#e880b0;stroke-width:8.00000954;fill:#f5b7d0;stroke-miterlimit:7" />
      <path d="m 1074.4153,-156.45207 c 22.25,23 60.4749,20.95711 81.4749,-2.79289 -4.25,82.499996 -77.2249,79.292889 -81.4749,2.79289 z" style="stroke:#ea80b0;stroke-miterlimit:20;fill:#fff;stroke-width:4" />
      <path d="m 1091.7819,-189.243 c 12.3049,-12.56049 33.7368,-12.4455 45.9909,-0.5733 -14.2217,-6.05739 -31.9565,-6.39479 -45.9909,0.5733 z m 37.7643,24.01967 c 5.4092,-1.66192 7.1211,-5.44436 6.4771,-10.2747 6.1445,4.44417 1.823,12.9557 -6.4771,10.2747 z m -29.9138,0.1943 c -5.2018,-1.5892 -7.4286,-4.7506 -7.0763,-9.92865 -5.5373,5.4221 -1.3422,13.1392 7.0763,9.92865 z" fill="#e880b0" />
      <g transform="translate(0-140)">
        <path d="m 1009.8309,-245.55445 c 0.6318,-55.57438 -26.72109,-95.40537 -39.13858,-94.91483 -16.63987,0.65735 -89.60607,105.1418 -3.4758,200.98337 z" fill="#f5b7d0" />
        <path fill="#e880b0" inkscape:original-d="m 1009.8309,-245.55445 c 0.6318,-55.57438 -26.72109,-95.40537 -39.13858,-94.91483 -16.63987,0.65735 -89.60607,105.1418 -3.4758,200.98337" inkscape:path-effect="#path-effect14339" />
        <path d="m 965.70579,-286.99944 c -14.21582,26.3055 -15.02536,66.55616 0.52325,91.81925 -11.4913,-30.20225 -9.33882,-63.67629 -0.52325,-91.81925 z" fill="#e880b0" />
      </g>
      <g transform="translate(0-140)">
        <path d="m 1215.1587,-245.78192 c 2.4368,-61.09798 27.3987,-94.91473 39.7524,-93.56519 17.2536,1.88481 88.4839,105.96613 1.7399,198.73903 z" fill="#f5b7d0" />
        <path d="m 1259.3973,-286.69751 c 15.4433,25.3849 14.4642,66.12218 -1.0844,91.0784 12.1051,-31.42972 11.1274,-62.62858 1.0844,-91.0784 z" fill="#e880b0" />
        <path fill="#e880b0" inkscape:original-d="m 1215.1587,-245.78192 c 2.4368,-61.09798 27.3987,-94.91473 39.7524,-93.56519 17.2536,1.88481 88.4839,105.96613 1.7399,198.73903" inkscape:path-effect="#path-effect14328" />
      </g>
      <path d="m 1150.8907,-132.08901 c -8.0957,4.35715 -16.2915,6.85896 -25.7074,8.85296 8.9303,-0.165 16.8042,-1.07423 23.9961,-2.97128 m -69.9693,-4.27658 c 7.6181,3.61804 15.2978,5.71933 23.7898,7.28736 -7.8425,0.30215 -15.187,-0.32863 -22.0368,-1.85407" fill="#b0d8e7" />
      <path d="m 1074.4153,-156.45207 c 22.25,23 60.4749,20.95711 81.4749,-2.79289 -4.25,82.499996 -77.2249,79.292889 -81.4749,2.79289 z" style="stroke:#e880b0;stroke-miterlimit:20;fill:none;stroke-width:4" />
      <g transform="translate(0-140)">
        <path d="m 1000.5197,-55.942814 c -6.89743,4.778734 -10.44406,10.899047 -10.58549,20.309992 2.51536,-7.802923 6.71172,-12.787509 13.15519,-16.228789 z m -11.6049,-28.878061 c -6.90379,1.087672 -12.90015,4.516283 -17.405,11.545085 5.88814,-4.307664 11.85248,-6.27729 18.33363,-6.450518 z m 5.08049,14.683423 c -8.16146,2.744583 -13.6263,8.316551 -15.75402,18.005264 4.04676,-7.378973 9.87746,-11.404562 17.4884,-12.911434 z" />
        <g clip-path="url(#clipPath15389)">
          <ellipse cx="1036.4865" cy="47.661602" fill="#fff" id="path14267" rx="49.80304" ry="81.412888" transform="rotate(351.41822)" />
          <g clip-path="url(#clipPath15362)">
            <ellipse cx="1046.4222" cy="70.904404" fill="url(#linearGradient4885)" id="ellipse14312" rx="44.876675" ry="61.93018" transform="rotate(351.41822)" />
            <path d="M 1061.2733,-77.638197 1020.599,-15.46934 991.26156,-47.19549 Z" fill="#dcf3fd" />
            <path d="m 1061.2733,-77.638197 -73.63145,15.65109 9.86971,29.748724 z" fill="#9cdcf4" />
            <ellipse cx="1045.908" cy="110.09675" rx="36.532051" ry="51.088486" transform="rotate(349.48304)" />
            <ellipse cx="948.5047" cy="-439.44357" fill="#fff" rx="5.6525574" ry="9.0570927" transform="rotate(20.901408)" />
            <ellipse cx="921.64099" cy="-465.50699" fill="#fff" rx="15.830214" ry="25.364782" transform="rotate(20.901398)" />
          </g>
        </g>
        <path d="m 986.596,-159.89813 c -10.17035,-7.0346 -14.4254,-17.68055 -10.80214,-30.88073 0.93835,12.03794 5.21165,20.01165 13.7403,25.22188 z m -4.09787,14.88892 c -13.89858,-3.17812 -22.41091,-12.60282 -22.63838,-27.65326 4.83796,12.82228 12.33929,19.41758 24.32735,21.2361 z m -0.94858,17.12295 c -16.3852,-0.66551 -26.01116,-5.19243 -30.36281,-21.05052 6.37751,8.97857 15.00274,13.75063 24.95844,13.55984 12.20621,-63.16241 57.66692,-70.38843 86.79402,-33.63663 21.401,27.00324 30.5442,76.570727 11.8718,114.51609 10.6187,-38.744273 5.298,-82.9012 -16.3621,-110.17844 -28.3783,-35.73762 -68.73758,-24.47094 -76.89935,36.78966 z" />
      </g>
      <g transform="translate(0-140)">
        <path d="m 1225.5491,-55.05511 c 6.7192,5.026471 10.041,11.271749 9.8398,20.681609 -2.2293,-7.889254 -6.242,-13.023196 -12.5562,-16.696587 z m 12.648,-28.436799 c 6.8597,1.338082 12.727,4.98255 16.9737,12.170571 -5.7279,-4.519005 -11.6165,-6.704287 -18.087,-7.113156 z m -5.6111,14.488893 c 8.0557,3.039653 13.3145,8.806719 15.0881,18.566424 -3.7753,-7.5213 -9.4557,-11.756333 -17.0067,-13.53906 z" />
        <g clip-path="url(#clipPath15477)">
          <ellipse cx="1167.8396" cy="-281.63422" fill="#fff" id="ellipse15367" rx="49.80304" ry="81.412888" transform="rotate(8.3910567)" />
          <g clip-path="url(#clipPath15461)">
            <ellipse cx="-1161.3495" cy="-254.65158" fill="url(#linearGradient4887)" id="ellipse14322" rx="43.833832" ry="61.93018" transform="rotate(188.19365)scale(1-1)" />
            <path d="m 1166.9931,-72.938447 41.6586,51.972341 20.6275,-25.98097 z" fill="#dcf3fd" />
            <path d="m 1166.9931,-72.938447 63.3467,8.010399 -8.2531,21.819806 z" fill="#9cdcf4" />
            <ellipse cx="1141.0281" cy="-322.56754" rx="36.162731" ry="51.088486" transform="rotate(11.736824)" />
            <ellipse cx="1102.4354" cy="-498.02921" fill="#fff" rx="5.6525574" ry="9.0570927" transform="rotate(20.901408)" />
            <ellipse cx="1076.3774" cy="-525.53583" fill="#fff" rx="15.830214" ry="25.364782" transform="rotate(20.901398)" />
          </g>
        </g>
        <path d="m 1241.659,-160.70963 c 10.1469,-7.06842 14.3664,-17.72847 10.6993,-30.91652 -0.8983,12.041 -5.1451,20.02889 -13.6563,25.26748 z m 4.1474,14.87519 c 13.8879,-3.22436 22.3688,-12.67735 22.5462,-27.72846 -4.7953,12.83831 -12.2746,19.45855 -24.2566,21.31696 z m 1.0056,17.1197 c 16.3829,-0.72005 25.9937,-5.27898 30.2925,-21.15147 -6.3475,8.99975 -14.9569,13.80049 -24.9132,13.64284 -12.4164,-63.12143 -57.9009,-70.19608 -86.9055,-33.34752 -21.311,27.07433 -30.2891,76.671968 -11.4905,114.554965 -10.7476,-38.708712 -5.5739,-82.883095 15.9952,-110.232285 28.2592,-35.83189 68.6558,-24.69962 77.0215,36.53347 z" />
      </g>
      <path d="m 1118.9705,-353.00625 c -61.6812,-148.63814 -218.8377,-63.01849 -181.79749,44.39697 28.01622,81.24616 -55.332,102.16042 -86.4386,-2.12132 21.76219,19.69848 42.34797,28.11269 63.91168,32.23401 -181.92589,-206.88692 49.64288,-356.7035 132.49241,-204.32442 77.3615,-147.67306 241.56,49.53048 71.832,129.81476 z" style="stroke:#bb1c76;stroke-width:8;fill:#eb458b;stroke-miterlimit:20" />
      <g transform="translate(926.37862 28.915292)scale(.23815797)">
        <path d="m 755.20232,164.11892 c -12.75167,33.92479 -26.08067,60.52419 0,89.61005 46.33359,51.6725 12.38403,75.36103 0.69466,72.59113 -21.70731,-5.14373 -11.97565,-41.06196 7.29384,-24.31282" fill="none" stroke="#7ed0f2" stroke-width="4.86256218" />
        <path d="m 699.63016,315.90032 c 27.23019,15.21652 26.52407,39.43168 21.5342,61.47668 -7.82808,34.58411 6.00565,76.80206 38.90054,59.0454 25.46667,-13.74692 11.66838,-54.71555 -11.8091,-55.22481 m 89.61006,-84.7475 c -27.49674,30.27205 -37.2544,62.96006 -16.67162,101.41914 21.23844,39.68419 21.32103,82.67322 -6.94651,79.53762 -22.39425,-2.48409 -27.22949,-29.80502 -20.49226,-44.11038" fill="none" stroke="#faf5ab" stroke-width="4.86256218" />
        <path d="m 788.89294,89.79116 c 2.21708,22.92033 -3.93322,49.48478 -23.27085,61.47667 l 11.11443,31.25936 -38.20588,-8.33583 8.68317,-19.45027 c -25.7855,-3.67567 -38.63696,-34.66032 -40.63713,-57.30876 -2.9792,-33.73393 12.62022,-63.12594 35.42727,-65.29725 24.3981,-2.32279 43.79327,25.65341 46.88899,57.65608 z" fill="#faf5ab" />
        <path d="m 637.80616,243.65653 c -7.98467,-29.79922 1.85275,-65.46663 24.66012,-70.15984 29.59453,-6.08977 49.78299,26.34276 55.57216,49.66764 5.46176,22.00567 3.35449,49.65143 -13.5457,64.25527 l 13.5457,23.27083 -37.51121,17.01897 6.59923,-33.69062 c -3.18208,1.15723 -36.78804,-3.59117 -49.3203,-50.36225 z m 180.26215,-25.00745 c 12.58874,-38.54516 41.2749,-51.40882 59.04536,-45.15239 27.10668,9.54343 27.27195,49.06355 19.10293,71.8965 -7.88476,22.03849 -24.30325,43.6273 -46.54165,46.19432 l 0.69466,31.25933 -40.98446,-13.19838 22.22886,-21.88153 c -8.12757,-3.3707 -27.25176,-27.1517 -13.5457,-69.11785 z" fill="#7ed0f2" />
      </g>
    </g>
    <g transform="translate(-8 19.087516)">
      <path d="m 970.01868,580.06716 h 294.15622 v 164.13451 c 0,57.31465 -294.15622,57.31465 -294.15622,0 z" fill="#f7f7f7" />
      <g transform="translate(880.90319 558.69994)scale(.18681873)">
        <path d="m 1499.1017,861.3441 c -8.0862,26.3532 -39.9397,46.9724 -64.9391,52.6864 21.7715,11.6046 30.0202,71.1482 -3.0632,77.1918 -30.1047,5.4995 -35.1223,-18.701 -44.1096,-55.7496 -21.2578,11.593 -69.2114,33.7432 -78.417,-0.6126 -9.5544,-35.6576 32.3882,-59.2879 62.4886,-55.137 -25.109,-16.3301 -23.2274,-80.86762 6.7389,-80.86762 33.3286,0 34.8351,66.51442 34.9201,93.12022 42.7951,-36.9881 94.6666,-57.6335 86.3813,-30.6316 z m -37.3706,-236.47649 c -11.1834,32.55753 -53.9526,56.85619 -81.4802,60.6507 25.9242,12.82421 34.0672,87.49935 -6.739,93.7329 -37.6395,5.7498 -41.8708,-24.86575 -51.4612,-69.8402 -38.8111,20.31325 -86.9237,33.47421 -94.3455,-3.6758 -10.004,-50.07492 52.4194,-69.48102 77.8044,-64.3265 -28.0893,-17.77702 -26.1251,-97.4087 11.64,-97.4087 38.1185,0 39.5837,77.75299 37.9833,114.56244 45.4989,-38.71084 117.9285,-66.68007 106.5982,-33.69484 z m -272.6218,122.52667 c 22.7738,21.93001 28.0196,66.30202 18.9916,93.73292 10.0385,-13.9945 88.006,-1.7554 77.1918,42.8843 -8.392,34.6412 -42.5506,25.4084 -79.6423,15.3158 1.2462,31.0833 -2.9747,86.4282 -41.6591,80.255 -41.6079,-6.6397 -41.7256,-68.9813 -23.2801,-92.5076 -24.5719,16.2243 -94.0892,-14.9133 -78.417,-49.0107 14.8422,-32.29154 81.9182,-3.2729 112.7245,12.8653 -15.2001,-57.33661 -9.826,-126.56553 14.0906,-103.53502 z" fill="#f3b5cf" />
        <path d="m 1418.1893,820.2991 c -4.5695,-4.5695 -5.6092,-15.81199 5.6819,-15.81199 17.6754,0 2.2414,53.95879 -12.2865,82.28089 l 3.9503,1.8632 c 16.0494,-39.1418 50.9318,-80.056 61.7548,-61.3099 3.0645,5.3078 -2.0261,10.4177 -11.5666,10.4177 M 1365.6273,571.79984 c -6.7181,-6.71811 -4.9802,-21.60784 8.3112,-18.04645 24.4448,6.54999 -14.0546,87.05011 -14.0546,87.05011 l 4.4638,1.83319 c 20.2057,-37.16714 59.0013,-82.14892 71.7992,-59.98219 2.5388,4.39735 -1.6385,13.12449 -14.3413,13.12449 M 1104.3628,807.6437 c -6.1993,3.5791 -21.3187,-6.33481 -13.067,-14.58654 17.6596,-17.65963 72.7805,49.68524 72.7805,49.68524 l 2.735,-2.735 c -25.8964,-33.45203 -49.3286,-87.67087 -23.7031,-87.67087 6.129,0 9.4354,12.50913 4.7102,16.56175" fill="none" stroke="#69c8c3" stroke-width="5.27844858" />
        <path d="m 1428.0363,868.083 c 1.0444,16.7873 -26.5975,58.6222 -46.5602,79.0297 15.5201,-42.4759 27.5936,-68.9796 36.758,-79.0297 4.405,-4.8306 9.518,-4.5676 9.8022,0 z m -52.6865,-237.70169 c -1.5255,22.4225 -38.6096,75.30855 -60.6507,93.12027 21.0231,-51.89096 37.9408,-82.33822 49.0107,-93.7329 8.4451,-8.69291 11.8729,-2.81088 11.64,0.61263 z M 1158.4776,822.7482 c 19.8439,11.7987 44.8138,56.9381 55.7496,89.4444 -35.1243,-37.5748 -55.7474,-63.9892 -60.6507,-79.6423 -3.2619,-10.4134 2.0919,-11.4724 4.9011,-9.8021 z" fill="#69c8c3" />
      </g>
      <path d="m 970.01868,580.06716 c 0,-43.91682 294.15622,-43.91682 294.15622,0 0,43.91682 -294.15622,43.91682 -294.15622,0 z" fill="#e1e1e1" />
      <path d="m 1038.8297,509.6035 c 7.6028,27.80078 4.4844,50.01444 6.4275,67.83703 2.345,21.50881 137.5694,24.39196 141.1222,1.29853 3.1481,-20.46242 -0.2874,-45.81338 6.3006,-70.04088 z" fill="#faf5ab" stroke="#e9d461" stroke-width="8" />
      <path d="m 1273.346,218.07243 c 72.4362,117.36746 72.4362,285.16652 14.6703,437.3774 -22.5721,59.47441 9.2791,92.55181 28.8863,87.2972 16.6652,-4.465 22.1635,-32.16206 4.1239,-61.6232 68.792,33.16607 57.3995,137.59079 -22.2297,158.92725 -52.7529,14.13539 -122.9834,-9.44051 -135.4823,-106.66193 -18.8319,-146.46271 114.6164,-220.98107 87.1064,-406.20169 z" fill="#f3b5cf" stroke="#e581b1" stroke-width="8" />
      <path d="m 1329.0641,460.91029 c -33.5239,124.1425 -133.4619,253.77316 -69.4145,382.73298 m 57.647,-516.77247 c -1.4469,224.73768 -135.5441,269.72597 -146.1054,441.05423" fill="none" stroke="#e581b1" stroke-width="4" />
      <path d="m 1117.3764,545.51874 c -88.7755,0.27409 -153.2315,-82.60362 -154.25504,-174.59268 -2.50586,-225.21121 297.45454,-229.14152 302.67944,-6.19634 2.2723,96.95587 -66.3882,180.53574 -148.4244,180.78902 z" style="stroke:#e9d461;stroke-width:8.00000954;fill:#faf5ab;stroke-miterlimit:7" />
      <g transform="rotate(359.36251 46028.98-27.607685)">
        <path d="m 1009.8309,-245.55445 c 0.6318,-55.57438 -26.72109,-95.40537 -39.13858,-94.91483 -16.63987,0.65735 -89.60607,105.1418 -3.4758,200.98337 z" fill="#faf5ab" />
        <path fill="#e9d461" inkscape:original-d="m 1009.8309,-245.55445 c 0.6318,-55.57438 -26.72109,-95.40537 -39.13858,-94.91483 -16.63987,0.65735 -89.60607,105.1418 -3.4758,200.98337" inkscape:path-effect="#path-effect14339" />
        <path d="m 965.70579,-286.99944 c -14.21582,26.3055 -15.02536,66.55616 0.52325,91.81925 -11.4913,-30.20225 -9.33882,-63.67629 -0.52325,-91.81925 z" fill="#e9d461" />
      </g>
      <path d="m 1071.0027,497.28976 c 22.7376,31.75623 77.3174,27.55815 94.1416,-3.99534 -24.0404,25.23198 -63.9375,29.36485 -94.1416,3.99534 z m 23.3199,-46.55847 c 12.1644,-12.69662 33.5963,-12.82009 45.9817,-1.08497 -14.2882,-5.89878 -32.0257,-6.03884 -45.9817,1.08497 z m 38.0292,23.59801 c 5.3904,-1.72199 7.0601,-5.52325 6.3624,-10.34612 6.1936,4.37553 1.9671,12.93461 -6.3624,10.34612 z m -29.9098,0.52711 c -5.2191,-1.53123 -7.4809,-4.66765 -7.1863,-9.8493 -5.4766,5.48337 -1.1959,13.15332 7.1863,9.8493 z" fill="#e9d461" />
      <g>
        <path d="m 998.12788,432.83792 c -7.88053,3.46971 -12.82039,9.51198 -14.06533,19.35318 3.36453,-7.714 8.80828,-12.24922 16.25215,-14.43661 z m -5.34047,-12.22259 c -6.81997,1.52741 -12.58455,5.33287 -16.63018,12.63563 5.60032,-4.67576 11.42632,-7.02317 17.88309,-7.61096 z m 11.08169,24.6041 c -6.43799,5.38169 -9.41781,11.79715 -8.7093,21.18244 1.80088,-7.99809 5.5303,-13.34105 11.6367,-17.3498 z" />
        <g clip-path="url(#clipPath6248)">
          <path d="m 983.13566,389.75306 c 39.94844,-4.64322 71.77024,-33.43099 81.60614,-52.74899 68.9049,139.44882 -60.6929,197.06559 -81.60614,52.74899 z" fill="#fff" id="path4749" />
          <g clip-path="url(#clipPath15362)" transform="rotate(1.9816126-12720.127 201.68156)">
            <path d="m 1091.2989,70.904404 a 44.876675,61.93018 0 0 1 -44.8767,61.930176 44.876675,61.93018 0 0 1 -44.8766,-61.930176 44.876675,61.93018 0 0 1 44.8766,-61.9301799 44.876675,61.93018 0 0 1 44.8767,61.9301799 z" fill="url(#linearGradient4775)" transform="rotate(351.41822)" />
            <path d="M 1061.0453,-84.226635 1020.599,-15.46934 991.26156,-47.19549 Z" fill="#84d2d4" />
            <path d="m 1061.0453,-84.226635 -73.40345,22.239528 9.86971,29.748724 z" fill="#3cbeb7" />
            <path d="m 1083.4143,-92.592593 a 51.088486,36.532051 79.483038 0 1 -26.5933,56.898302 51.088486,36.532051 79.483038 0 1 -45.2434,-43.56216 51.088486,36.532051 79.483038 0 1 26.5934,-56.898339 51.088486,36.532051 79.483038 0 1 45.2433,43.562197 z" />
            <path d="m 1045.2398,-79.005471 a 5.6525574,9.057093 19.682188 0 1 2.9418,9.861389 5.6525574,9.057093 19.682188 0 1 -8.1613,7.446692 5.6525574,9.057093 19.682188 0 1 -2.9422,-9.861381 5.6525574,9.057093 19.682188 0 1 8.1617,-7.4467 z" fill="#fff" />
            <path d="m 1033.4224,-128.17606 a 15.830214,25.364782 19.682177 0 1 8.2395,27.61723 15.830214,25.364782 19.682177 0 1 -22.8565,20.854795 15.830214,25.364782 19.682177 0 1 -8.2393,-27.617215 15.830214,25.364782 19.682177 0 1 22.8563,-20.85481 z" fill="#fff" />
          </g>
        </g>
        <path d="m 963.16469,369.47159 c 10.21257,10.21656 19.48939,15.02156 32.29274,17.8167 l -10.6956,3.021 c -9.0059,-3.68833 -15.52048,-9.91947 -21.59714,-20.8377 z m 19.09622,-1.04381 c 8.72982,8.41936 16.7952,12.33135 27.32379,14.15219 l -11.48969,3.46819 c -6.69145,-3.64038 -11.59006,-9.12973 -15.8341,-17.62038 z m 0.96602,24.21562 c -9.78668,1.18348 -21.51178,-1.11824 -29.66691,-7.84156 9.99952,2.7279 19.11391,3.36652 29.22475,1.9816 35.43133,-4.85314 68.14003,-26.32291 81.91493,-55.02945 17.9293,29.73838 28.5576,75.42012 16.7069,105.58499 3.5929,-29.67932 -1.6487,-65.6807 -16.7677,-93.95347 -15.1723,26.32778 -50.0991,45.47128 -81.41197,49.25789 z" />
      </g>
      <g>
        <path d="m 1235.5199,430.19346 c 7.934,3.34559 12.9681,9.30958 14.3673,19.13003 -3.4852,-7.66024 -8.9994,-12.10946 -16.4767,-14.17974 z m 5.1479,-12.30491 c 6.8431,1.42018 12.6667,5.13469 16.8265,12.37305 -5.673,-4.58728 -11.5352,-6.84296 -18.0004,-7.32933 z m -10.5484,24.48367 c 6.5217,5.27997 9.6018,11.64787 9.0407,21.04313 -1.9262,-7.96884 -5.739,-13.25261 -11.9076,-17.16502 z" />
        <g clip-path="url(#clipPath6428)">
          <path d="m 1249.834,386.87859 c -40.0164,-4.01562 -72.2861,-32.30037 -82.424,-51.46161 -66.7077,140.51317 63.7785,196.08868 82.424,51.46161 z" fill="#fff" id="path6274" />
          <g clip-path="url(#clipPath6405)">
            <ellipse cx="-1226.2416" cy="231.94054" fill="url(#linearGradient527)" id="ellipse4740" rx="44.882038" ry="61.93018" transform="rotate(187.40183)scale(1-1)" />
            <path d="m 1168.2103,396.37119 44.5256,54.50563 21.7073,-32.5319 z" fill="#84d2d4" />
            <path d="m 1168.2103,396.37119 65.8492,9.43107 -9.7185,22.78431 z" fill="#3cbeb7" />
            <ellipse cx="1228.3724" cy="207.57848" rx="37.269524" ry="51.088486" transform="rotate(8.5724457)" />
            <ellipse cx="1276.1375" cy="-41.654709" fill="#fff" rx="5.6525574" ry="9.0570927" transform="rotate(20.263921)" />
            <ellipse cx="1250.0796" cy="-69.161301" fill="#fff" rx="15.830214" ry="25.36478" transform="rotate(20.26391)" />
          </g>
        </g>
        <path d="m 1249.7881,389.77001 c 9.804,1.02972 21.4916,-1.45575 29.5402,-8.30625 -9.9555,2.88452 -19.0587,3.66612 -29.1901,2.44007 -35.5031,-4.29642 -68.5448,-25.25015 -82.7686,-53.73694 -17.4603,30.01613 -27.4173,75.70322 -15.0946,105.67837 -4.0583,-29.61927 0.6646,-65.54265 15.338,-94.04924 15.5837,26.08639 50.8066,44.67933 82.1751,47.97399 z m 0.4869,-24.13518 c -8.3703,8.77614 -16.2651,13.02115 -26.7095,15.27955 l 11.625,2.98594 c 6.5339,-3.9163 11.1992,-9.60523 15.0845,-18.26549 z m 18.9687,1.02979 c -9.8178,10.59647 -18.9058,15.7498 -31.5938,19.02847 l 10.8023,2.61323 c 8.8596,-4.02721 15.1332,-10.50089 20.7915,-21.6417 z" />
      </g>
      <path d="m 839.07541,705.358 c 27.68338,110.5069 209.39759,55.83356 127.7863,-172.48893 -98.76637,-276.31705 62.58789,-350.10717 149.15309,-253.12218 37.8748,-32.63062 87.4823,-43.01703 134.0974,-36.02475 l 9.9135,-53.55179 c -168.98,-247.060389 -536.1211,-89.8514 -349.55971,359.13478 61.72166,148.54183 -24.24879,188.07788 -40.07678,146.57633 -7.1186,-18.66522 2.76833,-35.90177 23.78154,-34.66571 -26.78154,-33.78594 -67.9959,-7.35439 -55.09534,44.14225 z" fill="#f3b5cf" stroke="#e581b1" stroke-width="8" />
      <g transform="rotate(359.36251 46028.98-27.607685)">
        <path d="m 1215.1587,-245.78192 c 2.4368,-61.09798 27.3987,-94.91473 39.7524,-93.56519 17.2536,1.88481 88.4839,105.96613 1.7399,198.73903 z" fill="#faf5ab" />
        <path d="m 1259.3973,-286.69751 c 15.4433,25.3849 14.4642,66.12218 -1.0844,91.0784 12.1051,-31.42972 11.1274,-62.62858 1.0844,-91.0784 z" fill="#e9d461" />
        <path fill="#e9d461" inkscape:original-d="m 1215.1587,-245.78192 c 2.4368,-61.09798 27.3987,-94.91473 39.7524,-93.56519 17.2536,1.88481 88.4839,105.96613 1.7399,198.73903" inkscape:path-effect="#path-effect14328" />
      </g>
      <path d="m 910.46599,549.30513 c 38.77303,93.31273 35.75121,164.57788 16.42322,206.57633 M 1195.5979,121.25649 c 10.978,41.46059 8.1407,85.58953 -9.1265,124.32947 M 1128.9256,85.134051 c 37.9263,48.469719 46.2036,108.947859 29.2339,168.711209 M 987.00172,88.96442 c 80.49608,31.21052 129.94328,94.25636 129.01308,190.78247" fill="none" stroke="#e581b1" stroke-width="4" />
    </g>
    <g transform="translate(-43.7105)">
      <path d="m 1779.6924,345.3568 h -294.1562 v 404.22439 c 0,57.3147 294.1562,57.3147 294.1562,0 z" fill="#f7f7f7" />
      <path d="m 1779.6924,345.3568 c 0,-43.91682 -294.1562,-43.91682 -294.1562,0 0,43.91682 294.1562,43.91682 294.1562,0 z" fill="#e1e1e1" />
      <path d="m 1409.9064,205.36102 c -1.0797,-9.30046 4.8691,-12.49798 13.5972,-15.25508 -80.8292,-271.16219 295.1739,-328.30147 308.7045,-70.98092 3.3946,64.55785 -15.7366,124.73584 -11.7892,216.38894 1.5657,36.35591 -175.154,33.68035 -173.537,1.36461 0.7462,-14.91474 4.7635,-29.10333 12.0309,-45.41001 -95.737,10.13465 -144.2912,-45.49228 -149.0064,-86.10754 z" fill="#9bdbf5" />
      <g>
        <g clip-path="url(#clipPath4804)" transform="translate(31.122126-7.7259166)">
          <ellipse cx="1474.7755" cy="-497.40079" fill="#fff" id="ellipse4158" rx="66.83326" ry="81.420578" transform="rotate(23.617651)" />
          <g clip-path="url(#clipPath4788)">
            <ellipse cx="-1500.1349" cy="-318.47952" fill="url(#linearGradient7940)" id="ellipse4764" rx="49.553986" ry="60.369801" transform="rotate(197.45707)scale(1-1)" />
            <path d="m 1508.9978,154.8412 53.4366,67.90595 27.1946,-36.09976 z" fill="#fcb6df" />
            <path d="m 1508.9978,154.8412 83.6649,10.6396 -10.5165,29.38152 z" fill="#d9539d" />
            <ellipse cx="1497.411" cy="-314.53555" rx="40.293846" ry="49.088539" transform="rotate(17.457067)" />
            <ellipse cx="1402.8164" cy="-639.44891" fill="#fff" rx="16.748507" ry="22.981182" transform="rotate(29.097507)" />
            <ellipse cx="1432.6776" cy="-618.35614" fill="#fff" rx="5.8929915" ry="8.0859671" transform="rotate(29.097507)" />
          </g>
        </g>
        <path d="m 1629.6609,61.309597 c 30.0991,-32.021425 35.8829,-26.926162 4.8351,5.566363 m 10.0684,11.337098 c 38.7831,-20.642301 42.0546,-14.21697 2.9728,6.796505 m 8.5585,13.380903 c 39.1126,-1.844962 39.8082,4.914534 -5.6156,7.824734 -7.5412,-48.18546 -52.4439,-64.674307 -87.7645,-47.178317 -32.4496,16.073856 -58.6807,62.662727 -43.0263,113.863057 -23.4224,-48.69289 3.1894,-102.082255 39.5693,-120.198031 37.2274,-18.537797 85.5365,-1.871248 96.8371,45.688557 z" />
      </g>
      <path d="m 1423.5193,190.14675 c -80.8449,-271.203 295.1582,-328.34228 308.6888,-71.02173 3.3946,64.55785 -15.7366,124.73584 -11.7892,216.38894 1.5657,36.35591 -175.154,33.68035 -173.537,1.36461 0.7462,-14.91474 4.7635,-29.10333 12.0811,-45.49349" fill="none" stroke="#6babda" stroke-width="8" />
      <g transform="translate(31.122126-7.7259166)">
        <path d="m 1389.9888,72.926969 c -31.9522,-6.161922 -33.0888,-0.176301 -1.924,5.882603 m -2.729,11.836227 c -30.737,0.307896 -31.035,6.693968 -0.4613,5.771006" />
        <g clip-path="url(#clipPath5452)">
          <path d="m 1426.4716,181.47432 c 9.9499,-77.12471 -6.4872,-116.879775 -32.5493,-125.770155 -17.8631,39.944572 -18.0137,93.727345 -2.5651,141.688405 15.4988,-3.05671 26.1782,-8.51074 35.1144,-15.91825 z" fill="#fff" id="path4184" />
          <g clip-path="url(#clipPath5427)">
            <ellipse cx="-1400.9756" cy="240.10712" fill="url(#linearGradient3748)" id="ellipse4186" rx="20.812916" ry="53.018005" transform="rotate(175.94285)scale(1-1)" />
            <path d="m 1416.9492,150.78701 -13.6547,51.44096 -21.6798,-25.68995 z" fill="#fcb6df" />
            <path d="m 1416.9492,150.78701 -41.6391,6.67503 11.5584,31.72048 z" fill="#d9539d" />
            <ellipse cx="241.79312" cy="-1402.5758" rx="43.559387" ry="17.099838" transform="rotate(85.942847)" />
            <ellipse cx="109.0452" cy="1406.8788" fill="#fff" rx="20.427732" ry="7.0940456" transform="rotate(279.40002)" />
            <ellipse cx="79.302124" cy="1417.0203" fill="#fff" rx="6.5050521" ry="2.9115384" transform="rotate(279.40002)" />
          </g>
        </g>
        <path d="m 1426.4716,181.47432 c 15.0018,-84.266594 -9.1782,-122.602724 -32.2641,-128.788573 -28.3987,-7.609398 -30.0239,-2.056224 -2.0289,5.848279 23.5869,6.659847 40.7447,41.004365 34.293,122.940294 z" />
      </g>
      <path fill="#6babda" inkscape:original-d="m 1457.5934,173.7484 c -20.2646,19.71693 -49.992,11.75774 -47.687,31.61262 5.9188,50.98277 80.9139,125.61913 231.4996,64.31352" inkscape:path-effect="#path-effect5469" />
      <path d="m 1469.82,218.12198 c -9.0249,17.37137 -22.604,25.1561 -43.2692,26.30276 l 5.8563,7.38164 c 19.1788,-3.20042 34.1339,-11.6052 37.4129,-33.6844 z m -33.6514,-16.12549 c -1.5953,5.82358 -6.0066,7.53603 -10.6299,3.27428 4.0999,10.69609 12.8739,6.84292 10.6299,-3.27428 z" fill="#6babda" />
      <g transform="translate(31.122126-7.7259166)">
        <path d="m 1646.9243,7.7888057 c -55.2797,-10.5033796 -119.8446,15.1543493 -166.6598,84.2976563 3.6116,-21.572085 9.0529,-41.92504 17.8671,-58.784935 -49.376,43.814555 -112.2896,69.763233 -178.3481,80.083173 51.0281,-49.678134 39.1673,-100.057072 84.4478,-145.140715 -24.7293,9.6835 -46.0412,21.7706836 -68.5162,47.246216 16.4299,-49.017795 46.5425,-86.948123 99.0594,-108.735141 -22.5051,0.652907 -47.2437,3.231745 -67.814,8.944573 93.163,-67.848933 234.1005,-41.447813 292.2511,53.349724 z" fill="#ef7135" />
        <path d="m 1659.2116,-30.950643 -12.2873,38.7394487 c -55.2797,-10.5033796 -119.8446,15.1543493 -166.6598,84.2976563 3.6116,-21.572085 9.0529,-41.92504 17.8671,-58.784935 -5.9185,5.251856 -12.0315,10.247019 -18.3211,14.989343 32.7227,-54.65679 52.2134,-108.325132 124.1323,-135.917945 22.0702,14.594748 41.12,33.611026 55.2688,56.676432 z" fill="#faf5ab" />
        <path d="m 1434.7745,-93.24494 c -22.5051,0.652907 -47.2437,3.231745 -67.814,8.944573 56.0286,-40.804633 129.3367,-47.520243 191.5244,-25.770523 -79.7926,11.700829 -159.4005,47.696054 -214.7417,104.9721311 17.5962,-39.0793391 46.1221,-69.5152571 91.0313,-88.1461811 z" fill="#ec4141" />
        <path d="m 1646.9243,7.7888057 c -55.2797,-10.5033796 -119.8446,15.1543493 -166.6598,84.2976563 3.6116,-21.572085 9.0529,-41.92504 17.8671,-58.784935 -49.376,43.814555 -112.2896,69.763233 -178.3481,80.083173 51.0281,-49.678134 39.1673,-100.057072 84.4478,-145.140715 -24.7293,9.6835 -46.0412,21.7706836 -68.5162,47.246216 16.4299,-49.017795 46.5425,-86.948123 99.0594,-108.735141 -22.5051,0.652907 -47.2437,3.231745 -67.814,8.944573 93.163,-67.848933 234.1005,-41.447813 292.2511,53.349724 z" style="stroke-miterlimit:20;fill:none;stroke:#1b98d1;stroke-width:8" />
        <path d="m 1692.5744,94.723122 c 10.2904,63.053568 -30.8361,118.262118 -102.1958,158.829118 20.1958,-0.49952 37.5028,-3.75615 53.7341,-11.58586 -44.0116,54.92286 -51.8972,115.69031 -25.5266,198.23723 5.6045,-40.90577 17.4984,-74.04687 38.3671,-104.17847 -7.3908,56.28357 6.8404,109.48359 46.6369,150.98561 -22.926,-169.98485 104.322,-263.09953 -9.8629,-459.161283 z" fill="#1b98d1" />
        <path d="m 1724.5657,92.858497 c -7.3812,-20.447627 -17.4503,-42.020687 -30.8385,-65.00903 l -1.1528,66.873655 c 10.2904,63.053568 -30.8361,118.262118 -102.1958,158.829118 20.1958,-0.49952 37.5028,-3.75615 53.7341,-11.58586 -25.3822,31.6749 -38.7488,65.29372 -40.4586,103.91304 40.9598,-120.30817 117.3178,-118.35666 120.9116,-253.020923 z" fill="#5fbb4e" />
        <path d="m 1703.5901,487.01075 c -16.6302,-123.30487 45.7591,-206.16167 37.6959,-317.20472 -16.8622,94.10711 -69.8404,130.24899 -80.6785,240.09159 7.122,28.26054 21.235,54.43352 42.9826,77.11313 z" fill="#632e86" />
        <path d="m 1692.5744,94.723122 c 10.2904,63.053568 -30.8361,118.262118 -102.1958,158.829118 20.1958,-0.49952 37.5028,-3.75615 53.7341,-11.58586 -44.0116,54.92286 -51.8972,115.69031 -25.5266,198.23723 5.6045,-40.90577 17.4984,-74.04687 38.3671,-104.17847 -7.3908,56.28357 6.8404,109.48359 46.6369,150.98561 -22.926,-169.98485 104.322,-263.09953 -9.8629,-459.161283 z" style="stroke-miterlimit:20;fill:none;stroke:#1b98d1;stroke-width:8" />
        <path d="m 1688.4472,118.42793 c 63.1786,-112.906413 5.9076,-196.56573 -10.9758,-198.3364 -13.8198,-1.449367 -59.5247,44.035237 -60.5273,104.663886 z" fill="#9bdbf5" />
        <path fill="#6babda" inkscape:original-d="m 1688.4472,118.42793 c 63.1786,-112.906413 5.9076,-196.56573 -10.9758,-198.3364 -13.8198,-1.449367 -59.5247,44.035237 -60.5273,104.663886" inkscape:path-effect="#path-effect4253" />
        <path d="m 1677.054,-23.114256 c 13.9616,27.2479234 13.3421,61.125086 -3,84.134812 11.4913,-26.519852 11.5087,-54.1506399 3,-84.134812 z" fill="#6babda" />
      </g>
      <g transform="translate(1360.9494 558.86437)scale(.21439802)">
        <path d="m 1253.1698,250.99348 -50.2385,26.75044 c 55.5914,-178.29837 127.095,-162.74235 105.0443,-91.99533 0,0 -23.4882,7.17691 -52.6785,50.26006 l 39.164,-19.58196 c -47.4819,73.94875 -42.6106,171.24814 -34.4643,263.57334 -14.3105,-63.10386 -34.7851,-161.43695 -6.827,-229.00655 z" fill="#1b98d1" />
        <path d="m 1248.2069,89.70785 51.7371,37.42504 c -37.4737,33.40728 -59.9785,88.75024 -74.8031,133.54906 l 39.5556,-20.36525 c -29.4736,76.85005 -19.1497,157.11165 -4.6997,239.68333 -26.2872,-68.8803 -43.0143,-140.47445 -30.0481,-203.91412 l -53.5168,31.37189 c 3.5419,-80.95414 38.1912,-166.71223 71.775,-217.74995 z" fill="#fde85f" />
        <path d="m 1270.1794,91.4937 c -43.1682,42.08432 -73.6612,141.14215 -80.6777,201.30268 l 51.3048,-32.89771 c -21.4394,62.93214 -2.8021,153.66295 19.1903,220.10136 -27.5407,-60.71941 -50.8651,-128.14506 -37.989,-191.9033 -20.0667,12.7374 -39.2631,28.71967 -56.3961,46.21342 -6.4995,-100.94938 25.9283,-187.57564 73.6282,-256.91544 z" fill="#ec4141" />
        <path d="m 1354.0743,48.53092 c 50.0635,33.03226 7.4733,70.99582 7.4733,70.99582 21.3506,7.72934 60.6149,66.99512 0,103.22418 -47.676,28.49553 -70.7529,-27.61681 -63.0555,-58.85179 -26.9761,36.87862 -89.381,27.44004 -34.3302,-40.86931 0,0 -60.7026,-24.82425 -23.3539,-71.69643 28.0317,-35.17955 66.454,-6.99832 68.4269,-2.10186 14.7785,-9.53438 34.0448,-7.823 44.8394,-0.70061 z" fill="#fff" />
        <path d="m 1307.6177,49.76401 c -44.6332,-43.49375 -124.1625,41.61702 -38.6991,72.75325 -54.4679,48.49821 -8.4222,93.43489 34.3211,31.89127 -10.0851,35.59681 2.3264,94.2757 60.4416,64.99743 38.5706,-19.43184 37.9358,-78.0706 -5.0115,-99.3185 29.3202,-26.2716 15.3282,-61.86762 -10.4786,-71.07199 -45.0961,-16.08423 -65.1531,32.17205 -33.7136,39.78818 -30.8446,30.84461 -18.4213,58.30502 5.0896,64.60472 12.8606,3.44597 22.9202,-9.24257 13.134,-27.24639 14.8072,13.19368 5.3949,35.79417 -13.3487,30.85425 -35.3465,-9.31556 -36.6619,-42.06684 -11.609,-67.21246 -28.8287,-6.5463 -10.3565,-64.73109 41.9674,-45.94533 33.5337,12.03956 43.9916,49.61796 13.5147,75.31781 43.1292,20.95711 41.4194,84.66058 2.278,104.17814 -66.7367,33.27782 -76.0025,-40.91858 -68.0347,-57.10052 -37.6255,55.48809 -87.3554,2.17241 -36.1434,-42.52173 -81.3987,-37.05458 -2.7596,-127.94696 49.0257,-76.16162 z" fill="#1b98d1" />
      </g>
    </g>
    <g>
      <path d="m 482.21157,345.3568 h 294.15628 v 404.22439 c 0,57.3147 -294.15628,57.3147 -294.15628,0 z" fill="#f7f7f7" />
      <path d="m 482.21157,345.3568 c 0,-43.91682 294.15628,-43.91682 294.15628,0 0,43.91682 -294.15628,43.91682 -294.15628,0 z" fill="#e1e1e1" />
      <path d="m 544.393,218.20611 c -162.2731,-88.70443 -90.64743,-406.63242 89.24453,-466.97654 -22.10052,108.4538 125.86041,97.68819 79.20182,0.69895 268.97609,113.41659 -41.59049,535.62166 -168.44635,466.27759 z" fill="#ca9a56" stroke="#b2884d" stroke-width="8" />
      <path d="m 832.75176,240.73323 c -4.9749,8.44454 -7.77943,16.28999 -9.31445,25.20075 -32.7543,-5.57304 -49.51958,-19.32694 -53.2544,-30.4492 l 34.50862,10.87041 -33.68236,-21.25175 c 5.98761,-9.14899 28.11013,-9.57363 61.74259,15.62979 z" style="stroke-miterlimit:20.10000038;fill:#fff;stroke:#b0d8e7;stroke-width:3" />
      <path d="m 825.5815,263.90531 c -16.66277,-4.86555 -27.71127,-15.40443 -35.73157,-34.64611 17.07813,11.54169 31.65533,16.88521 47.56911,18.82596 11.07227,-12.0261 15.67026,-24.27841 17.98954,-37.47158 1.59468,-9.07132 -4.45894,-12.22151 -13.33362,-15.04339 88.77262,-269.804743 -291.44335,-333.27285 -308.96807,-68.71925 -4.27302,64.50567 17.00802,124.48027 9.55492,208.01565 -3.79472,42.53144 176.64285,38.31111 173.53697,6.10436 -1.27284,-13.1988 -4.10903,-24.76165 -9.20239,-39.76932 42.77626,3.05835 82.45059,-9.22863 118.58511,-37.29632 z" fill="#faba62" />
      <path d="m 830.19964,206.72241 c 1.59529,5.82358 6.00658,7.53603 10.62991,3.27428 -4.09994,10.69609 -12.87396,6.84292 -10.62991,-3.27428 z" fill="#ef6f2f" />
      <g transform="translate(-16.828428)">
        <g clip-path="url(#clipPath2513)">
          <ellipse cx="585.49115" cy="406.53787" fill="#fff" id="path5053" rx="66.83326" ry="81.99556" transform="rotate(336.10856)" />
          <g clip-path="url(#clipPath1198)">
            <ellipse cx="632.12952" cy="384.62592" fill="url(#linearGradient7944)" id="ellipse273" rx="49.4109" ry="60.0341" transform="rotate(339.8791)" />
            <path d="m 740.27499,146.91109 -53.44723,76.10409 -26.4264,-38.63783 z" fill="#caecc4" />
            <path d="m 740.27499,146.91109 -85.16653,18.60661 11.42462,33.1231 z" fill="#78d863" />
            <ellipse cx="635.59406" cy="387.64862" rx="39.722958" ry="49.401211" transform="rotate(339.8791)" />
            <ellipse cx="679.75201" cy="-230.2634" fill="#fff" rx="18.012636" ry="25.366152" transform="rotate(28.486801)" />
            <ellipse cx="710.91864" cy="-209.34335" fill="#fff" rx="5.8753109" ry="8.273859" transform="rotate(28.486879)" />
          </g>
        </g>
        <path d="m 625.12259,107.06456 c -9.39778,-0.48563 -18.97491,-4.83635 -25.8082,-13.975327 3.52252,15.751577 14.95014,21.933867 31.42383,22.063387 7.54121,-50.028703 53.6045,-68.602372 88.68962,-49.134601 33.2396,18.443745 58.1195,62.832271 42.99168,114.032601 C 787.15853,129.25118 759.36979,80.484345 722.8848,59.419726 686.25643,38.272324 635.89659,58.188157 625.12259,107.06456 Z m 22.30884,-35.881715 c -9.7525,-5.0228 -16.41607,-12.700215 -19.9077,-24.168827 -0.54973,13.035579 5.60722,23.904229 15.31236,30.452727 z m -11.89346,16.75548 c -11.91884,-2.924134 -19.9944,-9.690987 -25.90569,-20.83359 1.41204,14.545162 10.80571,24.225307 23.07319,27.991913 z" />
      </g>
      <path d="m 842.16815,195.63833 c 88.67943,-269.872883 -291.53654,-333.34099 -309.06126,-68.78739 -4.27302,64.50567 17.00802,124.48027 9.55492,208.01565 -3.79472,42.53144 176.64285,38.31111 173.53697,6.10436 -1.27284,-13.1988 -4.10903,-24.76165 -9.32014,-39.7534" fill="none" stroke="#ef6f2f" stroke-width="8" />
      <g>
        <path d="m 849.15808,84.30425 c 9.82575,2.641912 17.02025,2.067825 24.80651,-2.739081 -5.95888,9.346727 -13.84301,11.602424 -25.46742,9.563494 m -2.54234,-23.67536 c 10.16988,0.313554 17.03999,-1.898266 23.51343,-8.365614 -3.65183,10.465823 -10.80672,14.472714 -22.58862,15.159304" />
        <g clip-path="url(#clipPath7529)">
          <path d="m 807.72157,179.00096 c -9.94982,-77.12471 9.48725,-118.39895 35.54935,-127.28933 18.65302,39.944572 16.48452,96.67219 -0.80731,143.57997 -12.70588,-3.05671 -22.45428,-5.71782 -34.74204,-16.29064 z" fill="#fff" id="path4095" />
          <g clip-path="url(#clipPath2454)" transform="translate(-12.585786)">
            <ellipse cx="840.12433" cy="80.459534" fill="url(#linearGradient3691)" id="ellipse354" rx="20.812916" ry="53.018005" transform="rotate(4.0571534)" />
            <path d="m 825.34732,150.41925 19.25,41 10.25,-25.75 z" fill="#caecc4" />
            <path d="m 825.34732,150.41925 32.5,4.5 -6,18.25 z" fill="#78d863" />
            <ellipse cx="838.13245" cy="82.296257" rx="17.419872" ry="44.374683" transform="rotate(4.0571551)" />
            <ellipse cx="59.640533" cy="842.8338" fill="#fff" rx="21.685034" ry="7.718709" transform="rotate(282.34292)" />
            <ellipse cx="841.62921" cy="151.39822" fill="#fff" rx="7.0852966" ry="2.5818999" transform="rotate(283.89751 841.62919 151.39823)" />
          </g>
        </g>
        <path d="M 807.72157,179.00096 C 791.71485,97.5484 818.54547,56.562377 841.12269,49.727125 c 10.32678,-3.126433 15.61078,-6.313211 20.40937,-13.057528 -1.22615,9.608427 -7.51561,15.510662 -18.38047,19.106809 -22.415,7.419113 -41.47965,43.298653 -35.43002,123.224554 z" />
      </g>
      <path fill="#ef6f2f" inkscape:original-d="m 807.72157,179.00096 c 20.26462,19.71693 51.05732,12.44069 47.68701,31.61262 -2.31928,13.19317 -6.91727,25.44548 -17.98954,37.47158 -15.91378,-1.94075 -30.49098,-7.28427 -47.56911,-18.82596 8.0203,19.24168 19.0688,29.78056 35.73157,34.64611 -57.37459,44.56604 -123.67349,49.34689 -196.67247,16.02179" inkscape:path-effect="#path-effect7546" />
      <ellipse cx="294.21143" cy="-567.93146" fill="#fff" rx="7.4476471" ry="4.772223" transform="rotate(79.317718)" />
      <ellipse cx="405.41193" cy="-513.3797" fill="#fff" rx="7.391468" ry="4.772222" transform="rotate(70.187776)" />
      <ellipse cx="396.34958" cy="-499.01852" fill="#fff" rx="6.1363568" ry="4.173902" transform="rotate(70.357251)" />
      <g>
        <path d="M 522.68773,6.4383654 C 517.97582,92.837459 515.20107,182.69829 488.47324,238.8661 448.24772,323.39893 538.31229,393.59552 587.15076,342.45728 665.35553,260.56989 529.00699,225.68134 538.59235,88.191213 Z" fill="#faf5ab" stroke="#e7d462" stroke-width="8" />
        <path d="m 479.81773,261.72272 c 7.95287,52.78568 49.40059,83.47293 100.94274,83.02739 C 505.27291,282.26047 543.55936,234.6059 510.54544,157.53704" fill="none" stroke="#e7d462" stroke-width="4" />
        <path d="m 605.43026,11.753849 c 40.55071,2.681588 70.84247,18.787355 94.23421,47.759547 3.02613,-10.383365 4.56178,-22.256289 3.79807,-32.267264 12.21777,20.604006 24.63591,34.426404 42.27931,46.404103 -1.73406,-7.438896 -2.38715,-16.739741 -2.52664,-25.668197 82.68227,66.883112 170.26562,55.368062 200.17366,-25.891921 -79.69088,24.352999 -90.03699,-32.0862388 -128.37601,-75.103507 22.96493,8.990284 38.26465,25.950022 48.11129,18.677831 19.04726,-14.067264 -132.27948,-193.203831 -291.15696,-11.788842 z" style="stroke:#e7d462;stroke-width:8;stroke-miterlimit:20;fill:#faf5ab" />
        <path d="M 581.45089,-57.254868 C 741.77129,-109.36047 743.93257,52.012105 847.08139,91.763838 M 918.02614,63.515241 C 780.6096,69.243958 828.35691,-115.71175 629.72578,-98.423308" fill="none" stroke="#e7d462" stroke-width="4" />
        <path d="M 545.74602,118.42793 C 482.56744,5.521517 539.83841,-78.1378 556.72179,-79.90847 c 13.81977,-1.449367 59.52474,44.035237 60.5273,104.663886 z" fill="#faba62" />
        <path fill="#ef6f2f" inkscape:original-d="M 545.74602,118.42793 C 482.56744,5.521517 539.83841,-78.1378 556.72179,-79.90847 c 13.81977,-1.449367 59.52474,44.035237 60.5273,104.663886" inkscape:path-effect="#path-effect262" />
        <path d="m 557.13925,-23.114256 c -13.96166,27.2479234 -13.34215,61.125086 3,84.134812 -11.49131,-26.519852 -11.50878,-54.1506399 -3,-84.134812 z" fill="#ef6f2f" />
        <path d="m 560.82273,362.20204 32.48494,-26.81311 c -24.44693,-29.77574 -59.12321,1.3302 -32.48494,26.81311 z" fill="#ec3f41" />
        <path d="m 533.75487,404.24982 c 9.55225,5.53513 19.52873,8.35985 29.4502,8.31548 -53.93204,-98.85889 118.34462,-120.99909 130.75974,-9.44267 -7.42516,-9.09479 -15.68508,-17.17531 -25.42789,-23.75829 11.66318,31.13711 5.60301,62.42694 -31.04804,79.8238 4.48349,-10.04309 5.80866,-21.80656 3.57432,-31.48869 -32.18317,33.99058 -87.77575,25.95193 -107.30833,-23.44963 z" fill="#faf5ab" stroke="#e7d462" stroke-width="8" />
        <path d="m 563.69754,441.29961 c 35.46103,0.77943 56.46233,-16.82627 58.93108,-45.42913 -29.62904,4.05511 -49.0083,-3.55377 -69.11735,-27.75911" fill="none" stroke="#e7d462" stroke-width="4" />
      </g>
      <g transform="translate(473.75953 462.83277)scale(.19608917)">
        <path d="m 812.05251,628.20393 c 63.85516,-50.68604 98.59506,0.84962 72.77626,58.34123 -15.49751,34.50904 -59.54338,71.66117 -102.84904,43.9064 -56.61397,22.72521 -90.57319,-45.19125 -84.20389,-92.62431 9.18941,-68.43516 71.31967,-65.30874 114.27667,-9.62332 z M 613.57195,815.8584 c 41.35978,-57.86219 83.51044,-49.42301 96.83442,10.8262 9.08284,41.0708 -2.64478,111.5818 -58.34123,107.6606 -53.14758,25.7544 -100.69419,-14.5887 -115.47967,-69.7689 -16.09146,-60.05419 17.69433,-85.08835 76.98648,-48.7179 z m 386.73645,110.0665 c -14.97897,55.9023 -77.012,85.6148 -120.29124,51.7252 -53.45984,3.2029 -82.36837,-53.0664 -77.58788,-98.6388 6.6958,-63.8328 60.4876,-67.4797 95.03012,-9.6233 68.60887,-40.688 119.2606,-4.7119 102.849,56.5369 z" fill="#ec3f41" />
        <path d="m 813.85691,599.33396 c -28.10673,1.92239 -36.12992,-33.02424 -33.08008,-55.33393 30.74208,9.75149 35.76504,28.10909 33.08008,55.33393 z M 553.42631,745.4879 c 23.45232,6.08855 44.74498,28.94333 52.92812,51.72531 -14.19963,0.0915 -41.5351,2.07432 -52.92812,-51.72531 z m 58.34123,64.9573 c -3.45187,-33.32297 2.02754,-56.30451 13.23204,-77.58783 9.62332,0.8019 15.03643,5.41311 16.23933,13.83343 -22.22094,19.93255 -29.47137,63.7544 -29.47137,63.7544 z m 235.77094,-260.43065 12.63054,16.23934 c -17.41197,11.56079 -38.80847,26.65258 -43.90631,47.5151 3.18197,-21.47552 13.43933,-52.05992 31.27577,-63.75444 z M 901.66951,854.953 c 2.20993,-35.8934 1.03588,-62.09778 -11.42763,-89.61696 5.21262,-7.61851 12.63063,-10.02432 22.25386,-7.21751 3.6088,35.28547 0,67.56367 -10.82623,96.83447 z m 6.01461,2.4059 c 4.27604,-30.9672 14.29762,-44.448 34.28298,-64.3559 10.76945,34.8994 -5.16036,52.8342 -34.28298,64.3559 z" fill="#6bb944" />
      </g>
    </g>
    <g transform="translate(-174.96288 24.022236)">
      <path d="m 258.363,775.15351 h 294.1563 v 404.22439 c 0,57.3147 -294.1563,57.3147 -294.1563,0 z" fill="#f7f7f7" />
      <path d="m 258.363,775.15351 c 0,-43.91682 294.1563,-43.91682 294.1563,0 0,43.91682 -294.1563,43.91682 -294.1563,0 z" fill="#e1e1e1" />
      <g transform="translate(338.89274 842.15941)scale(.25748142)">
        <use transform="translate(-47.634716 234.19392)" xlink:href="#ml" />
        <use transform="translate(84.914235 152.97543)" xlink:href="#ml" />
        <g id="ml">
          <path d="m 235.47059,544.00003 -47.23835,116.46943 51.42497,97.33665 46.83109,-113.25737 z" fill="#7dd1f5" id="rh" />
          <path d="m 232.57519,686.63363 c -8.17801,-0.93434 -13.38596,-14.1352 -11.63226,-29.48497 1.75369,-15.34977 9.80495,-27.03578 17.98296,-26.10145 8.17802,0.93433 13.38597,14.1352 11.63227,29.48496 -1.75369,15.34977 -9.80495,27.03579 -17.98297,26.10146 z m 6.41732,-55.34697 -3.34199,-103.14275 m 14.46492,115.73853 33.36689,-46.97014 m -32.28867,59.13216 52.43688,-19.51524 m -57.17779,38.07895 31.50803,18.10537 m -39.73775,-6.81891 3.05675,92.17277 m -16.9297,-98.05113 -23.98373,39.50261 m 20.22158,-60.19446 -45.14585,2.82162 m 50.08367,-19.98645 -29.15669,-30.33236" style="stroke:#2696cb;clip-path:url(#dm);fill:none;stroke-width:4.63291264" />
        </g>
      </g>
      <g>
        <path d="m 450.35849,386.88545 c -3.99478,-71.47013 -18.8077,-122.98603 -35.0816,-115.18653 -23.08099,11.0619 -44.57003,67.60549 -31.02931,141.55049 z" style="stroke:#4a1767;stroke-width:8;fill:#4a1767;stroke-miterlimit:20" />
        <path d="m 329.7943,777.57796 c -36.23071,-79.63317 -58.16423,-195.89272 -52.85002,-278.69251 6.55115,-102.07242 66.49009,-192.75501 138.33261,-227.18653 -8.13633,3.89945 -17.11598,55.24153 0.66739,129.18653 z" style="stroke:#4a1767;stroke-width:8;fill:#5e50a0;stroke-miterlimit:20" />
        <path d="m 391.12323,284.86799 c -13.22377,38.02656 -13.43576,79.79925 1.05694,125.81228 m -29.36808,-103.0124 c -7.14072,36.82063 -0.0421,74.53347 16.20575,112.19684 m -57.92052,17.80454 c -33,77 -30.5,186.5 16.5,300.5 m -40.67157,-56.10051 c -27,-127.49999 -11.82843,-205.39949 22.67157,-273.89949" fill="none" stroke="#4a1767" stroke-width="4" />
      </g>
      <g>
        <path d="m 653.25951,579.67452 c 28.05142,51.50313 123.82128,-28.82298 77.02752,-55.72019 -21.33486,-12.26335 -53.3656,-20.24683 -77.45749,-18.01339 -11.46126,21.81315 -14.03764,47.17068 0.42997,73.73358 z" style="stroke:#4a1767;stroke-width:8;fill:url(#linearGradient4677);stroke-miterlimit:20" />
        <path d="m 676.82954,562.94094 c 7.99395,12.54844 29.06964,0.45867 35.11464,-18.19534 -16.17708,0.62017 -33.72301,-3.06486 -45.55405,-10.19215 1.8042,9.8909 4.7453,19.4492 10.43941,28.38749 z" style="stroke:#4a1767;stroke-width:8;fill:#4a1767;stroke-miterlimit:20" />
        <path d="m 668.61306,476.35724 c 17.44481,20.03688 35.83639,32.74556 61.67397,47.59709 -29.5927,-17.00998 -62.3656,25.00317 -53.45749,38.98661 -10.64308,-16.70689 -24.43036,-24.04133 -44.38536,-28.19534 z" style="stroke:#4a1767;stroke-width:8;fill:#5e50a0;stroke-miterlimit:20" />
        <path d="m 713.28235,401.82881 c 0,88.28261 -86.13657,129.90021 -60.02284,177.84571 C 617.94225,514.8311 555.35078,498.32462 488.07773,414.77798 526.30753,267.3167 713.28235,311.84763 713.28235,401.82881 Z" style="stroke-miterlimit:20;fill:url(#linearGradient4708);stroke:#4a1767;stroke-width:8" />
        <path d="M 681.91172,343.32613 C 704.5692,433.62998 649.12127,476.47981 629.732,547.31526 M 642.8345,324.3904 c 11.18736,63.88117 2.53827,135.759 -27.3374,208.65928 M 572.01184,322.73102 c 33.61414,46.51193 45.26522,115.3842 19.27226,188.75342" fill="none" stroke="#4a1767" stroke-width="4" />
        <path d="m 422.1447,394.70032 c -10.60743,-57.18 -2.84653,-123.52112 11.2111,-129.00176 180.33146,-70.30574 280.56166,24.24103 279.92655,136.13025 0,-46.84767 -101.12201,-64.92275 -169.05029,3.34257 z" style="stroke:#4a1767;stroke-width:8;fill:#5e50a0;stroke-miterlimit:20" />
        <path d="M 544.23206,405.17138 C 575.13718,351.19073 614.3523,316.26532 679.52403,300.43959 M 514.30234,402.85432 c 10.05086,-62.76317 47.16512,-123.928 100.79802,-150.23113 M 446.87445,396.86333 c -6.29876,-48.13378 0.87432,-100.06113 21.9031,-143.45254" fill-opacity="0" stroke="#4a1767" stroke-width="4" />
      </g>
      <path d="m 646.89021,608.25503 c 3.25885,-17.08162 -36.48377,-10.78103 -33.29289,-26.7071 53.61824,-267.61497 -329.98625,-272.47863 -301,-27.60051 8.40328,70.99158 15.29289,137.89026 15.29289,211.16915 0,30.72604 169.12132,29.27424 169.12132,-1.75979 0,-21.43908 -5.01252,-43.18118 -13.48202,-59.71401 91.60182,11.36293 152.79649,-40.01426 163.3607,-95.38774 z" fill="#eaeef0" />
      <path d="m 587.20788,623.89548 c 9.81494,18.95129 23.13061,25.94606 43.26926,27.35604 l -5.85634,7.38164 c -19.17883,-3.20042 -34.13389,-12.65848 -37.41292,-34.73768 z m 32.06525,-15.75432 c 1.80428,5.67061 6.21673,7.18008 10.59856,2.79823 -3.60858,10.69684 -12.40282,7.25422 -10.59856,-2.79823 z" fill="#bdc1c2" />
      <path fill="#bdc1c2" inkscape:original-d="m 410.59732,683.16925 c 131.70711,56.63604 223.15464,-6.0486 236.29289,-74.91422 3.25885,-17.08162 -36.48377,-10.78103 -33.29289,-26.7071 53.61824,-267.61497 -329.98625,-272.47863 -301,-27.60051 8.40328,70.99158 15.29289,137.89026 15.29289,211.16915 0,30.72604 169.12132,29.27424 169.12132,-1.75979 0,-21.43908 -4.74264,-41.56189 -12.5,-57.48042" inkscape:path-effect="#path-effect4568" />
      <g>
        <path d="m 324.89049,545.69586 c -70.02534,-116.09064 -5.76234,-201.7006 4.65664,-204.03305 12.38837,-2.77335 56.54171,41.16732 61.4912,96.31943 -29.18344,31.36462 -48.33492,63.29565 -66.14784,107.71362 z" fill="#eaeef0" />
        <path fill="#bdc1c2" inkscape:original-d="m 324.89049,545.69586 c -70.02534,-116.09064 -5.76234,-201.7006 4.65664,-204.03305 12.38837,-2.77335 56.54171,41.16732 61.4912,96.31943" inkscape:path-effect="#path-effect4801" />
        <path d="m 333.40167,398.56201 c -9.53272,29.13829 -6.96659,60.48012 5.63933,88.04129 -19.37473,-23.80628 -21.62949,-60.68091 -5.63933,-88.04129 z" fill="#bdc1c2" />
      </g>
      <g>
        <path d="m 569.85838,429.58976 c 10.19331,5.32983 17.34525,4.56473 19.52066,-0.0709 101.17653,-215.59712 100.06176,-214.78737 -48.39892,-39.69393 -3.31888,3.91426 -2.04588,14.29345 5.93646,21.82864 z" fill="#eaeef0" />
        <path fill="#bdc1c2" inkscape:original-d="m 569.85838,429.58976 c 10.19331,5.32983 17.34525,4.56473 19.52066,-0.0709 101.17653,-215.59712 100.06176,-214.78737 -48.39892,-39.69393 -3.31888,3.91426 -2.04588,14.29345 5.93646,21.82864" inkscape:path-effect="#path-effect7624" />
        <path d="m 612.67683,306.24127 c 13.10995,-0.45183 25.43115,-2.95734 37.01409,-7.36623 m -69.37101,44.65128 c 17.17691,3.3802 33.45077,3.20371 48.88911,-0.20792 m -77.27832,33.5689 c 19.75044,8.21403 39.01353,11.15193 57.81782,9.37424" style="stroke:#bdc1c2;stroke-width:4;fill:#bdc1c2;stroke-miterlimit:20" />
      </g>
      <g>
        <path d="m 282.85503,849.89033 c 40.38862,-8.31904 70.65377,-33.07323 86.93927,-72.31237 19.76929,-47.63317 -102.25909,-132.09135 -92.85002,-278.69251 -5.12629,79.87193 1.03604,175.58649 16.85002,259.69251 z" style="stroke:#4a1767;stroke-width:8;fill:url(#linearGradient4595);stroke-miterlimit:20" />
        <path d="m 279.63779,657.63688 c 43.60697,54.51301 90.2789,89.07917 72.25914,150.3263" fill="none" stroke="#4a1767" stroke-width="4" />
        <path d="m 232.85503,729.89033 c 17.2117,-38.7616 107.217,-1.7172 98.9589,29.10246 -5.50928,20.5609 -24.39065,41.90486 -48.73052,53.69497 -30.55832,-3.14141 -67.11691,-44.76364 -50.22838,-82.79743 z" style="stroke:#4a1767;stroke-width:8;fill:#5e50a0;stroke-miterlimit:20" />
        <path d="m 263.08341,742.68776 c 2.39911,-10.25709 28.30632,-5.03223 40.25788,5.66127 -11.42131,18.89087 -16.31089,38.1117 -25.33833,61.73705 -12.09691,-17.79007 -18.8337,-50.66383 -14.91955,-67.39832 z" style="stroke:#4a1767;stroke-width:8;fill:#4a1767;stroke-miterlimit:20" />
        <path d="m 299.23617,846.98075 c 14.98775,-29.42099 24.44774,-57.64631 32.57776,-87.98796 -5.50928,20.5609 -74.19164,7.04334 -68.73052,-16.30503 -7.14983,30.56821 -8.68333,60.86809 -5.18279,93.80113 z" style="stroke:#4a1767;stroke-width:8;fill:url(#linearGradient4574);stroke-miterlimit:20" />
        <path d="m 337.43958,906.59046 c 1.69761,-45.73816 16.82859,-91.60303 32.35472,-129.0125 -21.21771,51.12308 -159.71095,3.59531 -136.93927,-47.68763 -19.86288,44.73219 -17.4386,101.61444 -5.47837,151.85227 30.57838,25.5055 76.16096,34.01416 110.06292,24.84786 z" fill="#5e50a0" stroke="#4a1767" stroke-width="8" />
        <path d="m 223.37927,864.40082 c 36.80045,21.33852 75.7507,28.45213 115.68103,22.87875 M 217.83831,809.17208 c 32.69373,39.11671 77.34059,58.06184 124.27936,54.9586 M 219.09628,787.0626 c 40.21787,35.74712 88.09985,47.42966 132.28936,38.64847" fill="none" stroke="#4a1767" stroke-width="4" />
      </g>
      <g>
        <path d="M 560.61689,599.87007 C 582.71311,497.48129 509.5148,445.97717 410.82519,488.40946" fill="#b8e1f0" />
        <path d="m 444.79146,588.41093 c -11.51231,2.1297 -20.4774,7.13747 -26.7377,17.32413 3.21389,-12.11825 10.56643,-19.02334 22.08511,-22.50473 z m -11.32454,-14.98834 c -14.14826,-0.21188 -23.04676,2.50967 -32.45931,11.74332 6.13841,-12.39115 14.97898,-16.9545 27.51675,-18.25467 z m -9.83444,-18.32768 c -13.85346,-2.88483 -24.4222,-1.02729 -35.71684,5.19736 9.62749,-10.15091 19.17648,-13.34818 32.3291,-12.65679 z m -5.20783,-19.18707 c -11.98462,-6.01516 -23.41042,-6.7474 -36.12161,-3.3341 11.39716,-7.55122 23.1122,-8.85142 35.39102,-4.6751 z" />
        <g clip-path="url(#clipPath4534)">
          <path d="m 410.82519,488.40946 c 96.72574,-21.26484 154.01354,9.77927 149.7917,111.46061 -90.46103,29.68243 -152.61633,-6.41175 -149.7917,-111.46061 z" fill="#fff" id="path6956" />
          <g clip-path="url(#clipPath4518)">
            <ellipse cx="365.62347" cy="665.11395" fill="url(#linearGradient7948)" id="ellipse4490" rx="50.42923" ry="63.093712" transform="rotate(345.43718)" />
            <path d="m 534.27469,557.96196 -44.21499,69.0348 -31.52691,-36.72972 z" fill="#76ade5" />
            <path d="m 534.27469,557.96196 -78.21678,15.23402 10.25305,31.2132 z" fill="#5693cf" />
            <ellipse cx="371.1647" cy="666.55316" rx="42.43615" ry="53.093285" transform="rotate(345.43718)" />
            <ellipse cx="672.95581" cy="274.18878" fill="#fff" rx="16.874058" ry="25.76973" transform="rotate(24.448404)" />
            <ellipse cx="707.34937" cy="283.27682" fill="#fff" rx="6.066566" ry="8.6828804" transform="rotate(25.371999)" />
          </g>
        </g>
        <path d="M 560.61689,599.87007 C 573.33033,494.71269 502.3218,464.54034 415.60824,482.52804 c -22.56361,4.68055 -36.30273,4.9668 -52.54108,0.12907 12.55133,11.66641 32.33204,12.02435 54.04293,7.85059 86.22593,-16.57629 141.10184,5.72102 143.5068,109.36237 z m -152.17027,-111.37348 12.27721,-2.8669 c -16.19251,-6.27076 -27.7969,-13.69513 -39.26737,-25.74275 5.86282,14.23368 14.31337,22.94594 26.99016,28.60965 z m 21.00971,-4.05556 13.49074,-2.16429 c -15.56974,-7.7208 -25.44328,-17.99378 -34.3396,-32.9212 2.94879,15.12004 9.05474,26.38295 20.84886,35.08549 z m 35.18738,-2.93271 c -13.40657,-9.82025 -21.58435,-21.39086 -27.65206,-36.17214 1.37302,15.83633 5.67595,26.67971 14.39084,36.37196 z m 19.06389,2.23504 c -9.95459,-11.31715 -14.12917,-22.43485 -17.16514,-37.62564 -2.36643,13.11511 -0.72726,25.15723 4.86113,35.82797 z" />
      </g>
    </g>
    <g transform="translate(152.27408 24.022236)">
      <path d="m 1688.363,775.15351 h 294.1563 v 404.22439 c 0,57.3147 -294.1563,57.3147 -294.1563,0 z" fill="#f7f7f7" />
      <path d="m 1688.363,775.15351 c 0,-43.91682 294.1563,-43.91682 294.1563,0 0,43.91682 -294.1563,43.91682 -294.1563,0 z" fill="#e1e1e1" />
      <g transform="translate(1769.7738 980.07873)scale(.2448545)">
        <path d="m 179.7826,63.4619 16.3957,-4.43125 -12.8507,16.39565 11.0782,16.39564 -15.5094,-6.20375 -3.9881,33.67754 -5.3176,-33.67754 -17.2818,7.53313 12.8506,-19.0544 -17.2819,-19.94066 21.27,10.19189 3.9882,-32.34816 z m -62.4807,174.5915 9.3057,38.1088 22.5994,-4.87438 -17.2819,19.94065 15.0662,19.94065 -21.7131,-7.53313 -5.3175,40.76755 -7.9763,-40.76755 -23.9288,8.86251 18.1682,-22.5994 -23.9288,-24.37191 29.2463,11.96438 z m 90.8408,174.59149 4.4312,-39.43818 7.5332,38.1088 16.8387,-4.87438 -12.8506,19.94066 11.0781,19.94065 -16.3956,-7.53314 -3.545,41.21069 -6.6469,-41.21069 -17.725,8.86251 13.2937,-22.5994 -17.725,-24.37191 z m 221.56279,-58.93571 -17.72499,24.37191 15.5093,24.81504 -22.1562,-8.41939 -5.7606,50.95945 -8.4194,-51.8457 -25.2582,11.96439 19.0544,-28.36004 -24.815,-31.01879 30.1325,15.50939 6.2038,-49.63007 9.7487,48.3007 z M 367.2248,87.39069 l 5.3175,-35.00693 8.4193,33.67755 20.3839,-3.98813 -15.5095,16.83877 13.2938,17.72503 -19.4975,-6.20376 -4.4313,35.89318 -7.5331,-36.3363 -21.2701,7.97626 16.3957,-19.94066 -21.7131,-21.27003 z m -60.7082,192.31651 33.2344,92.17013 -61.5944,-96.60138 -35.007,89.51137 13.2938,-96.15826 -72.6726,-6.64688 78.8763,-11.07814 -48.3007,-81.09199 68.2414,61.59446 39.4382,-68.24134 -19.9407,77.10386 81.5351,23.92878 z" fill="#fff" />
        <path d="m 272.839,58.58752 35.007,144.90208 85.9663,-19.49753 -66.0257,74.44511 57.1632,74.4451 -81.5351,-26.14441 -19.4975,153.32146 -30.5757,-155.98022 -90.3976,35.45005 68.2413,-85.52324 -89.9545,-92.17013 109.452,46.08506 z" fill="#ea428b" />
      </g>
      <path d="m 1590.8496,596.20723 c 16.1335,32.26715 23.4756,66.43009 20.9935,103.66142 75.29,-24.82089 46.0229,-170.67782 -20.9935,-103.66142 z" fill="#bb1c76" />
      <path d="m 1613.6021,697.93705 c 1.6547,-19.02934 8.3746,-36.19551 21.6124,-49.43331 2.4821,22.3388 -5.8925,37.85023 -21.6124,49.43331 z" fill="#ef6f2f" />
      <path d="m 1609.706,701.46041 c 24.6688,-20.41867 33.4591,-52.53245 14.1362,-113.10466 -14.5736,20.13202 -47.1498,22.05075 -51.2116,-5.55737 -4.5157,-30.69336 34.1053,-15.36053 30.2722,-35.76069 -39.7687,-211.65234 286.0406,-263.6276 308.5604,-30.00317 7.2234,74.93757 -4.8749,147.16139 3.3192,243.57338 3.221,37.89811 -167.724,36.53063 -162.4057,1.41301 2.9316,-19.35802 5.0068,-36.10446 -1.3824,-51.79593 -43.3152,7.22289 -91.343,4.34899 -141.2883,-8.76457 z" fill="#d4a4e8" />
      <path d="m 1601.5515,574.14788 c -1.2268,6.02659 -6.2865,8.54147 -11.8892,4.87257 5.4107,9.73526 14.8348,6.19719 11.8892,-4.87257 z" fill="#a46bbd" />
      <path fill="#a46bbd" inkscape:original-d="m 1827.0314,684.10711 c -59.0327,32.85416 -135.6128,38.80763 -217.3254,17.3533 24.6688,-20.41867 33.4591,-52.53245 14.1362,-113.10466 -14.5736,20.13202 -47.1498,22.05075 -51.2116,-5.55737 -4.5157,-30.69336 34.1053,-15.36053 30.2722,-35.76069 -39.7687,-211.65234 286.0406,-263.6276 308.5604,-30.00317 7.2234,74.93757 -4.8751,147.1614 3.3192,243.57338 3.287,38.67448 -167.3152,35.0384 -162.4057,2.62012 2.9316,-19.35802 5.0068,-37.31157 -1.3424,-52.97597" inkscape:path-effect="#path-effect5255" />
      <g transform="matrix(.98630078-2386e-8.04225226 1.0250087-8.6691897-8.583768)">
        <path d="m 1791.8769,571.44536 c 7.7862,5.46774 12.4436,12.79737 12.4842,22.85118 -3.2338,-9.05036 -8.1172,-14.49729 -15.7143,-18.54104 z m 6.3682,-13.09948 c 9.4839,2.91803 17.1844,8.5675 20.2656,18.86027 -5.6962,-7.72553 -13.3431,-11.76689 -22.1951,-13.31997 z m 3.9079,-14.89338 c 10.1622,0.17499 18.8698,3.44618 24.1548,12.04073 -7.5152,-5.45505 -15.4341,-7.48352 -24.4663,-6.40826 z" />
        <g clip-path="url(#clipPath5221)">
          <path d="m 1691.2514,612.01992 c -54.5739,-159.44855 97.9941,-205.44573 113.7986,-112.34327 12.813,75.48002 -37.1084,117.69374 -113.7986,112.34327 z" fill="#fff" id="path6575" />
          <g clip-path="url(#clipPath5205)">
            <ellipse cx="1765.136" cy="380.80853" fill="url(#linearGradient7950)" id="path4165" rx="50.289474" ry="62.884708" transform="rotate(5.3984827)" />
            <path d="m 1705.3323,550.39168 61.7919,55.12053 13.5044,-38.36396 z" fill="#ccb2d3" />
            <path d="m 1705.3323,550.39168 96.462,4.9811 -16.4821,27.8661 z" fill="#8d5da4" />
            <ellipse cx="1759.9951" cy="382.50745" rx="40.960762" ry="51.219597" transform="rotate(5.3984845)" />
            <ellipse cx="594.21381" cy="1733.4851" fill="#fff" rx="8.4021368" ry="5.9922581" transform="rotate(306.39582)" />
            <ellipse cx="538.77698" cy="1726.6295" fill="#fff" rx="23.80768" ry="16.979223" transform="rotate(304.02448)" />
          </g>
        </g>
        <path d="m 1784.003,461.84061 c 9.2184,-6.3589 15.0037,-14.79232 17.1347,-26.38189 2.1302,12.46803 -2.7587,23.89569 -11.7449,31.71651 z m 13.2847,12.41714 c 11.7344,-4.47016 19.196,-12.12072 24.0254,-23.69838 0.061,14.24236 -8.434,24.88857 -20.4343,30.22051 z m 12.4421,16.75351 c 9.4097,-1.93404 18.5327,-7.61833 24.3122,-17.48579 -1.6442,15.71908 -12.4101,23.45599 -28.992,26.15118 -23.7158,-86.37827 -161.9533,-44.05372 -113.7986,111.75824 -61.9975,-155.59258 86.8624,-208.52126 118.4784,-120.42363 z" />
      </g>
      <g>
        <path d="m 1800.7014,385.57947 c -22.6673,27.05643 -19.7466,56.86647 0.6559,88.15884 -56.3721,-19.76585 -144.9986,-12.59123 -209.3666,8.14452 -12.5881,-20.24972 -19.5482,-38.61353 -26.501,-65.19739 -7.6441,24.74187 -5.7176,49.64144 2.0066,75.71821 -10.9819,3.88116 -20.9655,8.84884 -30.134,15.55891 -37.5314,-135.25584 37.8509,-229.55589 163.1533,-191.79696 68.8845,20.75782 106.1694,21.3544 135.2737,12.26955 z" fill="#243870" />
        <path d="m 1800.7014,385.57947 c -22.6673,27.05643 -19.7466,56.86647 0.6559,88.15884 -56.3721,-19.76585 -144.9986,-12.59123 -209.3666,8.14452 -12.5881,-20.24972 -19.5482,-38.61353 -26.501,-65.19739 -7.6441,24.74187 -5.7176,49.64144 2.0066,75.71821 -10.9819,3.88116 -20.9655,8.84884 -30.134,15.55891 -37.5314,-135.25584 37.8509,-229.55589 163.1533,-191.79696 68.8845,20.75782 106.1694,21.3544 135.2737,12.26955 z" style="stroke-miterlimit:20;fill:none;stroke:#132248;stroke-width:8" />
        <path d="m 1609.5973,477.16925 c -17.2071,-54.70963 -11.8241,-121.18019 15.5,-168 m -23.5,170 c -23.4835,-51.09872 -30.5815,-111.7911 -12.5,-157.85355 m 175.5,9.85355 c -27,33.5 -33.5,87 -10.5,132.5" style="stroke-miterlimit:20;fill:none;stroke:#132248;stroke-width:4" />
        <g>
          <path d="M 1619.2024,433.81716 C 1502.0759,200.30405 1502.8347,195.72533 1666.5249,387.18552 Z" fill="#d4a4e8" stroke="#a46bbd" stroke-width="8" />
          <path d="m 1563.4854,320.01623 c 5.0333,-13.19987 7.9348,-27.20567 8.3787,-41.45106 m 16.0534,93.16813 c 10.3991,-15.46047 17.5194,-33.0604 20.4618,-51.60518 m 0.2084,91.62065 c 15.1146,-14.74583 26.6678,-33.06211 32.9792,-53.5617" fill="none" stroke="#a46bbd" stroke-width="4" />
        </g>
        <path d="m 1713.5332,462.16226 c -29.0517,-52.92025 -23.883,-105.07339 7.14,-140.38659 l -29.5929,-8.33031 c -41.4715,22.98398 -72.3255,72.3922 -51.6382,157.01824 22.7384,-5.24345 47.7015,-7.67418 74.0911,-8.30134 z" fill="#ea428b" />
        <path d="m 1663.5062,466.16343 c -20.6024,-67.89272 -5.7666,-120.44095 40.0625,-148.86116 l -26.2102,-6.78936 c -55.8258,26.80957 -80.4022,90.99562 -59.7998,164.1258 z" fill="#652d87" />
        <path d="m 1725.6282,462.13221 c -44.9277,-0.6817 -93.9043,6.95082 -133.6375,19.75062 m 55.607,-174.1024 c 16.3681,0.0163 34.0788,2.70815 52.9179,8.38517 15.1911,4.57772 28.8454,8.17492 41.214,10.90402" style="stroke-miterlimit:20;fill:none;stroke:#132042;stroke-width:8" />
      </g>
      <g>
        <path d="m 1819.9416,709.75587 c 72.8235,-17.17291 108.6597,-96.86449 69.8717,-239.76046 -51.0769,-72.36523 -29.5488,-114.57723 -5.216,-106.82616 39.6911,198.87728 95.4211,233.52005 97.7726,372.82619 2.3771,140.82314 -108.7816,200.58032 -156.1239,206.39209 16.7202,-53.31804 18.0091,-118.81541 12.699,-165.77305 29.749,-14.14091 45.6647,-36.61101 54.9921,-66.38 -16.1726,17.23101 -36.4335,31.16313 -58.023,38.8267 -4.0145,-14.74095 -9.3514,-28.00555 -15.9725,-39.30531 z" fill="#243870" />
        <path d="m 1981.7401,712.69795 c -10.2609,93.66066 -63.9338,172.17527 -149.4704,201.23162 7.0744,-22.92706 8.3246,-47.01897 8.8276,-71.26032 81,-26.5 125,-91.5 136.5,-167.5 z" fill="#ea428b" />
        <path d="m 1974.4523,658.98915 c -15.1011,92.34306 -61.0075,144.06679 -133.2684,160.96628 l -1.6716,46.64824 c 79.0011,-24.31371 123.6103,-88.51611 139.8212,-179.10028 z" fill="#652d87" />
        <path d="m 1839.7342,786.81329 c 67.8822,-22.62741 114.0366,-76.70205 122.5218,-172.86857 M 1828.2489,725.9813 c 69.2964,-22.62742 111.6726,-83.78175 112.3797,-171.46299" style="stroke-miterlimit:20;fill:none;stroke:#132248;stroke-width:4" />
        <path d="m 1819.9416,709.75587 c 72.8235,-17.17291 108.6597,-96.86449 69.8717,-239.76046 -51.0769,-72.36523 -29.5488,-114.57723 -5.216,-106.82616 39.6911,198.87728 95.4211,233.52005 97.7726,372.82619 2.3771,140.82314 -108.7816,200.58032 -156.1239,206.39209 16.7202,-53.31804 18.0091,-118.81541 12.699,-165.77305 29.749,-14.14091 45.6647,-36.61101 54.9921,-66.38 -16.1726,17.23101 -36.4335,31.16313 -58.023,38.8267 -4.0145,-14.74095 -9.3514,-28.00555 -15.9725,-39.30531 z" style="stroke-miterlimit:20;fill:none;stroke:#132248;stroke-width:8" />
      </g>
      <g>
        <path d="m 1793.7506,408.63265 c -2.1001,-57.54473 33.2895,-105.27222 49.9047,-106.05556 16.4311,-0.77462 94.3143,81.68708 44.8678,194.5476 z" fill="#d4a4e8" />
        <path fill="#a46bbd" inkscape:original-d="m 1793.7506,408.63265 c -2.1001,-57.54473 33.2895,-105.27222 49.9047,-106.05556 16.4311,-0.77462 94.3143,81.68708 44.8678,194.5476" inkscape:path-effect="#path-effect6315" />
        <path d="m 1849.2204,357.88304 c 15.384,26.51879 19.3919,57.70904 12.7933,87.28919 14.0003,-27.31501 8.5372,-63.85236 -12.7933,-87.28919 z" fill="#a46bbd" />
      </g>
    </g>
    <path d="m -421.1591,1160.4396 9.40516,53.9735 46.35074,-29.2095 -29.20957,46.3509 53.97342,9.4051" style="fill:none;stroke-width:2.83077073;stroke-linecap:round;stroke:#230f38;stroke-linejoin:round" />
    <text fill="#230f38" font-family="Junction" font-size="16.77492714px" x="-379.30548" y="1226.8545" xml:space="preserve"><tspan x="-379.30548" y="1226.8545">2016</tspan></text>
    <g>
      <g transform="translate(230.52255)">
        <path d="m 909.93895,1191.85 c 25.29797,89.0638 453.50745,85.6186 418.64355,0 -121.3653,-61.913 -284.8902,-61.6006 -418.64355,0 z" opacity=".1" />
      </g>
      <use transform="rotate(5.3783239 1210.145 910.81049)" xlink:href="#path148" />
      <path d="m 1239.5937,1189.9522 c 83.9402,-34.9233 154.4706,-23.7772 155.5762,-6.392 2.1485,33.7863 118.4788,27.7522 118.4788,-2.2786 0,-83.0202 -70.8341,-128.2432 -205.781,-101.3697 z" fill="#fbe2f1" stroke="#ffb8da" stroke-width="8" />
      <path d="m 1319.4798,909.67942 c -5.805,87.8743 4.215,175.14688 27.3805,261.58868 11.0413,41.2005 139.0976,30.639 123.906,-0.8379 -43.2929,-89.7038 -73.5163,-171.49492 -86.3401,-264.50814 z" fill="#fbe2f1" stroke="#ffb8da" stroke-width="8" />
      <g transform="translate(230.52255)">
        <path d="m 932.18746,1092.5476 4.11561,-21.2015 c -231.61951,-78.17729 -244.42686,188.5271 -122.20244,161.2086 81.00644,-18.1058 41.24834,-150.177 -14.31355,-105.4568 37.59136,-30.2562 84.00628,-40.6353 132.40038,-34.5503 z" fill="url(#linearGradient4636-5)" />
        <path d="m 934.99998,1078.1668 c -151,-36 -214.5,52 -168,148 20.57409,12.6015 48.01442,10.127 68.70711,-2.7071 -44.95644,-14.2987 -72.58768,-66.084 -35.92001,-96.3618 37.20919,-30.725 84.00628,-40.6353 132.40038,-34.5503 z" fill="#57c4dd" />
        <path fill="#8c61ad" inkscape:original-d="m 808.01226,1168.1058 c 16.54903,-32.5103 39.62113,3.0337 21.6671,20.0079 -36.37189,34.3868 -67.55287,-30.7039 -29.89228,-61.0158 37.59136,-30.2562 84.00628,-40.6353 132.40038,-34.5503 l 4.11561,-21.2015 c -231.61951,-78.17729 -244.42686,188.5271 -122.20244,161.2086 81.00644,-18.1058 41.24834,-150.177 -14.31355,-105.4568" inkscape:path-effect="#path-effect4544-7" />
      </g>
      <path d="m 1258.2508,1215.4052 c -14.1245,3.356 -28.9206,7.5337 -44.1824,12.6237 -17.2764,5.7619 -25.5661,-24.5102 -14.6241,-43.1789 -30.2926,-18.3817 -49.2463,-50.7045 -53.2925,-93.4215 -15.3435,-161.98673 126.7789,-182.8372 94.7008,-421.76296 -35.3027,-262.94287 396.4365,-231.62286 299.8829,41.37414 -7.5322,21.29672 36.3692,14.57406 30.2984,38.27185 -13.6134,53.14151 -83.608,103.63967 -179.3335,80.92965 13.2554,125.3754 -14.5426,218.78312 -100.4784,295.56772 z" fill="#faf2f9" />
      <path d="m 1508.2664,759.24534 c 8.5228,18.02918 21.5706,27.12472 41.075,29.09154 l -6.0644,7.21167 c -17.7014,-4.09753 -32.552,-14.34039 -35.0106,-36.30321 z m 34.9581,-16.60026 c 1.2268,6.02659 6.2865,8.54148 11.8893,4.87257 -5.4107,9.73526 -14.8348,6.1972 -11.8893,-4.87257 z" fill="#ffb8da" />
      <g transform="translate(271.39464 27.777424)scale(.96537388)">
        <g clip-path="url(#clipPath4420-9)">
          <g clip-path="url(#clipPath4397-0)">
            <ellipse cx="997.53296" cy="931.37866" fill="#fff" id="path4645-4" rx="76.866737" ry="85.735947" transform="rotate(345.86316)" />
            <g clip-path="url(#clipPath4718-0)">
              <ellipse cx="1019.2915" cy="930.67151" fill="url(#linearGradient4543)" id="ellipse4662-1" rx="62.41729" ry="69.619423" transform="rotate(345.86316)" />
              <path d="m 1228.4358,657.57254 -62.8926,76.08341 -38.0154,-33.05202 z" fill="#fbffff" />
              <path d="m 1228.4358,657.57254 -102.9814,24.37787 13.6293,32.26931 z" fill="#9ae2d6" />
              <ellipse cx="1025.6375" cy="931.6416" rx="51.205803" ry="57.114269" transform="rotate(345.86316)" />
              <ellipse cx="1346.2784" cy="92.640366" fill="#fff" rx="23.741217" ry="34.0923" transform="rotate(23.983984)" />
              <ellipse cx="510.74249" cy="1297.0547" fill="#fff" rx="7.0499334" ry="9.1153803" transform="rotate(318.89909)" />
              <ellipse cx="406.45673" cy="1323.8134" fill="#fff" rx="3.7777085" ry="5.1814265" transform="rotate(315.5152)" />
            </g>
          </g>
          <path d="m 1120.8728,677.7435 c -10.4997,0.77269 -19.3198,6.00797 -23.8112,14.6512 8.5915,-6.90582 15.4849,-8.93509 24.6522,-8.86867 z m 4.6259,16.7665 c -9.0403,3.39107 -14.8214,9.95896 -18.7004,21.35956 6.3596,-9.00319 12.0842,-13.57427 20.9161,-16.03288 z m 9.6191,15.29467 c -7.2325,4.90875 -12.0222,12.42676 -13.5413,23.01903 4.083,-9.33101 9.3689,-14.76097 16.5901,-18.54111 z m 7.2443,-116.36974 c -12.2062,-4.32005 -19.8693,-12.09524 -23.7779,-24.28634 -0.4795,14.57608 7.3365,24.84311 19.3153,30.03133 z m -12.5324,15.92257 c -14.9026,-0.86266 -25.2172,-7.92103 -31.7637,-21.92249 2.0054,17.37665 13.3911,26.85569 28.5011,28.98714 z m -9.0631,17.75321 c -13.9732,2.77514 -25.8806,-0.17616 -34.6553,-10.7385 6.2021,15.05426 18.19,19.94918 33.7666,18.46919 z m 54.0714,-54.70279 c -65.4084,15.82102 -82.0068,107.1228 -29.9073,149.39555 -42.6261,-55.12015 -24.8675,-128.48473 31.9073,-142.39555 53.9321,-13.21432 111.1267,49.21513 87.1015,122.63207 35.9454,-67.43012 -24.841,-145.17544 -89.1015,-129.63207 z" />
        </g>
        <path d="m 1164.3757,746.4719 c 20.0968,-29.10481 70.8669,-37.80861 99.7454,-23.81679 -34.3412,-7.17213 -72.93,0.26532 -99.7454,23.81679 z" fill="#fabad5" />
      </g>
      <path fill="#ffb8da" inkscape:original-d="m 1222.1108,1195.6324 c -43.5299,-14.9501 -70.9893,-51.7366 -75.959,-104.2039 -15.3435,-161.98673 126.7789,-182.8372 94.7008,-421.76296 -35.3027,-262.94287 396.4365,-231.62286 299.8829,41.37414 -7.5322,21.29672 36.3692,14.57406 30.2984,38.27185 -17.0328,66.48974 -122.3282,128.84143 -255.4163,48.85745" inkscape:path-effect="#path-effect4407-5" />
      <path d="m 1391.4781,830.23306 c 13.4777,125.38352 -14.3203,218.79124 -100.2561,295.57584" fill="none" stroke="#ffb8da" stroke-width="8" />
      <g transform="translate(230.52255)">
        <path d="m 1249.8799,621.61902 c 245.4277,-86.51547 26.5065,-367.51913 -233.2719,-114.86672 13.4399,47.14184 156.3617,-39.05135 233.2719,114.86672 z" fill="url(#linearGradient2392)" />
        <path d="m 1019.8811,510.47329 c 208.5951,-175.20767 366.2046,-55.62622 309.9474,61.25274 -16.1674,18.21342 -37.8459,33.60705 -64.6026,44.37379 -17.2027,-127.60994 -220.5428,-70.13999 -245.3448,-105.62653 z" fill="#57c4dd" />
        <path d="M 1249.8799,621.61902 C 1495.3076,535.10355 1276.3864,254.09989 1016.608,506.7523" style="stroke:#8c61ad;stroke-miterlimit:7;fill:none;stroke-width:8" />
        <g>
          <path d="m 1220.7911,502.42137 c 151.7254,-225.52706 154.2272,-222.858 60.9201,36.42115 z" fill="#faf2f9" stroke="#ffb8da" stroke-width="8" />
          <path d="m 1295.7331,392.05944 c 13.9954,-0.8954 27.5171,-4.17461 39.9625,-9.74411 m -73.1262,56.92591 c 19.2218,2.60674 38.3484,0.68707 55.8288,-5.68906 m -82.6733,46.85925 c 21.9128,6.95598 44.7539,7.65237 65.9753,1.8059" fill="none" stroke="#ffb8da" stroke-width="4" />
        </g>
        <path d="m 1249.8799,621.61902 c 99.3039,-38.20575 72.7191,-254.31461 -222.8982,-99.11255 l 5.1168,16.43979 c 43.7606,-8.64132 81.9559,-2.41053 116.7733,16.77068 -8.3672,43.69868 29.826,90.99443 101.0081,65.90208 z" fill="url(#linearGradient7849-1)" />
        <path fill="#8c61ad" inkscape:original-d="m 1233.7602,538.50178 c -65.4467,-6.1754 -55.8569,74.47183 1.8009,56.37093 67.998,-21.34707 34.1128,-114.77985 -35.8525,-91.99152 -89.0842,29.01555 -57.8459,156.81488 50.1713,118.73783 99.053,-34.91708 74.7406,-255.25534 -222.8982,-99.11255 l 5.1168,16.43979 c 43.7606,-8.64132 82.3095,-2.05698 117.5301,16.66269" inkscape:path-effect="#path-effect7876-0" />
      </g>
      <g transform="translate(230.52255)">
        <path d="m 1019.5944,671.32632 c -73.65532,-101.30085 -23.96026,-205.07317 -11.4698,-205.41004 13.0079,-0.35082 55.925,45.71939 64.8126,102.91058 z" fill="#faf2f9" />
        <path fill="#ffb8da" inkscape:original-d="m 1019.5944,671.32632 c -73.65532,-101.30085 -23.96026,-205.07317 -11.4698,-205.41004 13.0079,-0.35082 55.925,45.71939 64.8126,102.91058" inkscape:path-effect="#path-effect4647-2" />
        <path d="m 1013.5033,524.09684 c -5.7386,27.99742 -0.5096,59.39274 9.1558,84.46487 -14.0666,-19.38933 -20.3477,-58.72348 -9.1558,-84.46487 z" fill="#ffb8da" />
      </g>
      <g transform="translate(230.52255)">
        <path d="m 978.74044,802.70362 c 104.04656,30.19343 172.49216,-181.44544 88.02646,-275.50928 -10.2304,51.35564 -28.4146,95.51464 -60.1152,139.61377 -66.61317,-6.15882 -104.70341,113.61108 -27.91126,135.89551 z" fill="url(#linearGradient4640-2)" />
        <path d="m 1036.5,678.16676 c 27,-30.49999 32,-71.99999 17.5,-102.99999 l 8.5,-28.5 c 29.5,51.5 28.5,139.5 -19.5,193.49999 15.3031,-19.25245 13.9047,-49.11151 -6.5,-62 z" fill="#57c4dd" />
        <path fill="#8c61ad" inkscape:original-d="m 999.53299,735.87734 c 15.09721,-0.3059 22.60861,-15.48199 11.79991,-25.24562 -23.60108,-21.31935 -55.58611,26.2166 -26.09619,45.3259 46.30579,30.00588 103.08969,-56.54558 40.11949,-84.12053 -77.39649,-33.89232 -130.42558,106.54563 -46.61576,130.86653 104.04656,30.19342 172.49216,-181.44544 88.02646,-275.50928 -10.2304,51.35564 -28.4146,95.51464 -59.9563,139.60223" inkscape:path-effect="#path-effect4456-8" />
        <path d="m 1048.8174,729.58614 c -4.7508,-83.34594 -134.93449,-48.03597 -84.79415,67.00695" style="stroke:#8c61ad;stroke-miterlimit:7;fill:none;stroke-width:4" />
      </g>
      <g transform="translate(230.52255)">
        <path d="m 1075.2033,922.77378 c -7.5361,92.49042 -0.2214,178.06082 19.3616,272.37462 8.6717,41.7636 137.8236,31.2227 123.9061,-0.8379 -40.6759,-93.702 -70.1138,-180.55 -78.3212,-275.29408 z" fill="#faf2f9" />
        <path fill="#ffb8da" inkscape:original-d="m 1075.2033,922.77378 c -7.5361,92.49042 -0.2214,178.06082 19.3616,272.37462 8.6717,41.7636 137.8236,31.2227 123.9061,-0.8379 -40.6759,-93.702 -70.1138,-180.55 -78.3212,-275.29408" inkscape:path-effect="#path-effect4393-7" />
      </g>
      <g transform="translate(230.52255)">
        <path d="m 1022.9787,1032.2986 c 58.3551,-19.6925 92.7235,36.2582 69.4522,79.5052 127.281,-15.5587 191.6829,23.1714 191.6829,106.1916 0,30.0308 -116.3303,36.0649 -118.4788,2.2786 -1.2538,-19.7166 -81.572,-25.7691 -182.08916,7.7549 48.39666,-53.7709 49.42266,-126.3954 39.43286,-195.7303 z" fill="#faf2f9" />
        <path fill="#ffb8da" inkscape:original-d="m 1022.9787,1032.2986 c 72.1954,-24.363 107.6767,67.0532 43.27,106.7823" inkscape:path-effect="#path-effect4403-5" />
        <path d="m 968.81729,1184.6253 c -10.8375,18.8934 -2.54782,49.1655 14.72855,43.4036 100.51716,-33.524 180.83536,-27.4715 182.08916,-7.7549 2.1485,33.7863 118.4788,27.7522 118.4788,-2.2786 0,-83.0202 -64.4019,-121.7503 -191.9743,-106.1009" fill="none" stroke="#ffb8da" stroke-width="8" />
      </g>
      <path d="m 1205.8637,875.25923 c 57.2576,-53.64603 147.5234,10.11644 67.1284,113.37252 -47.0453,60.42305 -118.0179,135.15835 -145.7912,114.58185 -24.4184,-18.0909 11.1013,-164.65451 78.6628,-227.95437 z" fill="url(#linearGradient4539)" id="path148" stroke="url(#linearGradient4541)" stroke-width="8" />
      <path d="m 1251.5416,945.5673 c -40.9779,42.73354 -71.6079,92.5131 -95.8112,156.9079 m 61.4512,-184.78449 c -37.1921,34.38222 -68.8399,85.24719 -97.5597,166.25889 m 90.3177,-212.2368 c -24.5605,23.30168 -18.0781,52.77538 7.242,45.97791 -24.2482,33.16672 4.0746,53.31108 34.36,27.87659 -12.3595,30.95844 9.0028,47.74792 37.4103,20.03552" style="stroke:url(#linearGradient7642-8);stroke-miterlimit:7;fill:none;stroke-width:6" />
    </g>
  </g>
</svg>