<svg xmlns="http://www.w3.org/2000/svg" xmlns:inkscape="http://www.inkscape.org/namespaces/inkscape" xmlns:xlink="http://www.w3.org/1999/xlink" height="1000" viewBox="0 0 1000 1000" width="1000">
  <defs>
    <inkscape:path-effect bendpath1="m -48.7,-32.5 h 97.4" bendpath2="m 47.220673,-32.32752 c -7.342794,21.751119 -6.17328,43.423478 -0.696765,64.870794" bendpath3="m -48.7,32.799999 h 97.4" bendpath4="m -47.859588,-31.852726 c -5.655521,21.9486815 -5.246854,43.629091 0.866071,65.19902" effect="envelope" id="path-effect2060" yy="false" />
    <inkscape:path-effect effect="powerstroke" end_linecap_type="zerowidth" id="path-effect8116" interpolator_type="CubicBezierSmooth" offset_points="0.57,4 | 6.57,4" start_linecap_type="zerowidth" />
    <inkscape:path-effect effect="powerstroke" id="path-effect8084" interpolator_type="CubicBezierSmooth" offset_points="0.27,4" start_linecap_type="zerowidth" />
    <inkscape:path-effect effect="powerstroke" end_linecap_type="zerowidth" id="path-effect8082" interpolator_type="CubicBezierSmooth" offset_points="0.24,4 | 4.68,4" start_linecap_type="zerowidth" />
    <inkscape:path-effect effect="powerstroke" id="path-effect8066" interpolator_type="CubicBezierSmooth" offset_points="0.18,4" start_linecap_type="zerowidth" />
    <inkscape:path-effect effect="powerstroke" end_linecap_type="zerowidth" id="path-effect7920" interpolator_type="CubicBezierSmooth" offset_points="0.19,4 | 2.78,4" start_linecap_type="zerowidth" />
    <inkscape:path-effect effect="powerstroke" end_linecap_type="zerowidth" id="path-effect7870" interpolator_type="CubicBezierSmooth" offset_points="0.45,4 | 1.76,4" start_linecap_type="zerowidth" />
    <linearGradient id="linearGradient6931">
      <stop offset="0" stop-color="#0d1c03" />
      <stop offset="1" stop-color="#2f6a0a" />
    </linearGradient>
    <inkscape:path-effect effect="powerstroke" end_linecap_type="zerowidth" id="path-effect4380" interpolator_type="CubicBezierSmooth" offset_points="0.17,4 | 1.7,4" start_linecap_type="zerowidth" />
    <clipPath id="clipPath7760">
      <use xlink:href="#path4297" />
    </clipPath>
    <clipPath id="clipPath7776">
      <use xlink:href="#path6777" />
    </clipPath>
    <clipPath id="clipPath7866">
      <use xlink:href="#path5053" />
    </clipPath>
    <clipPath id="clipPath7892">
      <use xlink:href="#path7872" />
    </clipPath>
    <clipPath id="clipPath7989">
      <use xlink:href="#path6696" />
    </clipPath>
    <linearGradient gradientTransform="matrix(1.0027993,0,0,1.0027993,-441.62389,95.341245)" gradientUnits="userSpaceOnUse" id="linearGradient9068" x1="654.17603" x2="727.79163" y1="-764.07043" y2="-763.88116" xlink:href="#linearGradient6931" />
    <linearGradient gradientTransform="matrix(1.0085478,0,0,1.0085478,-456.28019,-69.237194)" gradientUnits="userSpaceOnUse" id="linearGradient9070" x1="845.9201" x2="924.85797" y1="-357.78979" y2="-349.59338" xlink:href="#linearGradient6931" />
  </defs>
  <g>
    <path d="m 685.51016,697.16208 c -58.35115,-23.92042 -114.27981,-58.38858 -161.87517,-102.10081 l -44.62586,35.01107 c 48.67525,72.74194 90.81503,119.59075 159.74431,160.9665 z" fill="#222" stroke="#111" stroke-width="8" />
    <path d="m 695.93532,679.84413 c -23.13282,39.69671 -50.75917,73.61968 -87.33073,106.4477 -23.56307,21.15111 5.16075,47.89567 23.0044,20.16067 27.70486,-43.06262 54.47232,-77.12069 84.74657,-104.82818 z" fill="#3f6322" stroke="#263917" stroke-width="4" />
    <path d="m 681.47643,686.85044 c -40.02062,-11.30449 -92.33409,75.64821 -59.93724,103.18913 80.0021,68.01066 150.09384,-77.7229 59.93724,-103.18913 z" fill="#222" stroke="#111" stroke-width="8" />
    <path d="m 968.43472,216.71487 c -10.81783,63.16483 -40.2998,103.36889 -74.93462,135.00061 -14.99014,95.05075 -93.0254,205.78401 -198.56586,320.12889 l 32.2093,26.74862 c 78.76497,-160.77474 245.69258,-248.2006 241.29118,-481.87812 z" style="stroke-width:4;fill:#d4ecc6;stroke-miterlimit:20;stroke:#b3dc99" />
    <path d="m 893.5001,351.71548 c 11.05648,-2.56023 21.57695,-7.25621 31.54944,-15.23978 23.29962,-29.69714 40.93133,-69.44883 43.38518,-119.76083 m -251.36713,474.40893 c 59.43355,-117.2888 165.78339,-192.54749 207.98195,-354.6481" style="stroke-width:2;fill:none;stroke-miterlimit:20;stroke:#b3dc99" />
    <path d="m 690.76953,662.36546 c -11.09914,7.37025 -21.36334,29.20116 -25.16628,47.40187 12.25356,3.40071 23.10975,12.38798 29.37077,23.37458 19.5855,-8.47382 36.32811,-21.78647 42.21788,-30.08151 9.34503,-13.16127 -35.63871,-47.85569 -46.42237,-40.69494 z" fill="#5c3632" stroke="#532320" stroke-width="4" />
  </g>
  <g>
    <path d="m 457.50219,62.487928 c -51.50588,-134.01458 -260.75788,-68.6956596 -193.98182,106.964972 37.08262,97.54944 6.24496,144.18036 -60.74269,133.60992 57.65977,85.30513 184.87523,45.05521 164.44285,-84.47293 z" fill="#f0ea39" stroke="#bdb921" stroke-width="8" />
    <path d="m 380.16856,95.236822 c 10.90779,-18.879796 40.03634,-43.849629 71.58118,-58.983384 13.16884,-6.317798 21.52984,14.83041 6.44468,21.794203 -23.60084,10.894903 -46.79217,29.283398 -62.40416,52.406479 -7.24683,10.73335 -25.4641,1.81845 -15.6217,-15.217298 z" fill="#141414" stroke="#000" stroke-width="6" />
    <path d="m 390.54644,114.49744 c 43.33129,-82.250086 140.95296,-79.988293 173.47987,-121.0004864 0.45166,19.2469614 -3.87677,31.8033104 -14.89758,44.9099114 110.1558,-33.838514 212.79812,12.708896 221.53477,137.246335 -13.35322,-13.68089 -29.75208,-21.99769 -46.23654,-26.60051 43.88064,102.75035 -48.89319,156.07879 -57.87702,245.10775 -3.91457,38.79302 12.0989,72.10777 57.23256,83.112 -91.56256,46.91605 -175.24873,-49.05695 -160.0198,-145.25596 z" fill="#f0ea39" stroke="#bdb921" stroke-width="8" />
  </g>
  <use transform="rotate(3.78091 430.19486 916.44381)" xlink:href="#g8062" />
  <path d="m 420.77983,594.74914 c -61.33872,81.50001 -61.05117,175.90291 -32.94018,270.69157 9.63773,32.49788 -118.67441,35.7365 -121.24317,2.02224 -6.95026,-91.22013 4.83778,-158.90242 44.21211,-235.83806 z" fill="#1c1c1c" stroke="#111" stroke-width="8" />
  <g>
    <path d="m 108.79965,624.80386 c -34.400727,83.20934 56.43994,113.65296 1.21688,219.60358 121.09113,-42.10839 139.71216,-170.32949 93.94842,-250.09192" fill="#f0ea39" stroke="#bdb921" stroke-width="8" />
    <path d="m 195.94413,606.00181 c 18.56566,15.09744 37.56373,19.26593 56.43341,18.96436 -63.92796,-81.61132 -32.72944,-190.39099 38.6361,-159.92288 l 22.33648,-21.72685 c -44.75013,-69.57108 -115.83842,-30.97082 -180.87534,-78.12971 2.73404,19.67863 10.15499,34.62305 22.31524,44.62305 -156.8504949,30.12651 -22.37567,198.48952 -109.947656,260.81811 37.141271,2.75813 61.689976,-6.38511 79.115936,-40.03994 z" fill="#f0ea39" />
    <path fill="#bdb921" inkscape:original-d="m 195.94413,606.00181 c 18.56566,15.09744 37.56373,19.26593 56.43341,18.96436 -63.92796,-81.61132 -32.72944,-190.39099 38.6361,-159.92288 l 22.33648,-21.72685 c -44.75013,-69.57108 -115.83842,-30.97082 -180.87534,-78.12971 2.73404,19.67863 10.15499,34.62305 22.31524,44.62305 -156.8504949,30.12651 -22.37567,198.48952 -109.947656,260.81811 37.141271,2.75813 61.689976,-6.38511 79.115936,-40.03994" inkscape:path-effect="#path-effect8116" />
  </g>
  <path d="m 391.31865,259.84274 c 4.2653,-222.944688 360.057,-194.010981 292.92679,62.49169 l -138.61708,87.82788 c 67.3725,150.04106 -15.7537,248.69841 -119.92381,248.69841 -31.47143,0 -63.48576,-10.86731 -85.64155,-32.66138 -64.91478,82.92848 -78.74855,179.74559 -46.39492,273.12004 11.09774,32.02871 -121.65421,35.81933 -122.65738,2.02224 -2.70762,-91.22013 15.83778,-158.90242 55.21211,-235.83806 4.70137,-9.18626 15.55213,-12.81253 27.59011,-9.87056 1.75066,-40.35926 -19.83709,-95.36353 -6.12883,-149.34993 13.76882,-54.22492 55.01333,-80.07145 104.25776,-76.03697 41.85025,3.42869 55.3949,22.34575 76.00453,27.53765 -2.81512,-53.17096 -38.16225,-117.73269 -36.62773,-197.94101 z" fill="#222" />
  <g transform="matrix(.4901729.11841566-.20639286.96146637 281.41405 522.34099)" inkscape:path-effect="#path-effect2060">
    <path fill="#ececec" inkscape:original-d="m -40.8,-31.2 c -0.3,16.5 23.5,12.4 23,34 -0.5,21.6 16.4,13.2 17.7,28.8 -2.3,-4.1 -9.2,-7.1 -14.3,-8.2 2.3,-0.2 5.2,0.1 7.4,0.8 -5.5,-3.9 -12.6,-5.3 -15.1,-10.5 -2.5,-5.2 -0.6,-8.1 -6.8,-20.4 -6.2,-12.3 -14.9,-9.2 -11.9,-24.5 z m -4.2,34.7 c 4.6,9.7 13.3,6.4 20.8,8.1 -5.7,-6.4 -14.3,-2.8 -20.8,-8.1 z m -3.7,-10.9 c 8.1,11.2 16.8,4.8 23.7,15.9 -8.4,-5.4 -17.6,2 -23.7,-15.9 z m 0.7,-8.3 c 1.1,17.6 12.7,11 21.3,19.7 -6.1,-12.5 -14.3,-7.8 -21.3,-19.7 z m -0.5,-12.3 c 3.6,13.6 14.7,10.8 20.3,26.7 -6.8,-9.4 -20.7,-7.1 -20.3,-26.7 z m 30.1,47.5 c -9.5,0.4 -6.2,5.5 -4.5,4.5 1.7,-1 1.1,-3.4 4.5,-4.5 z m -1.5,-1.3 c -12.7,-0.9 -10.6,3.4 -8.3,3.5 2.3,0.1 2.7,-2.9 8.3,-3.5 z m -2.2,-1.8 c -12.3,-4.4 -13.6,-0.1 -11.2,1.3 2.4,1.4 4.9,-1.2 11.2,-1.3 z" />
    <path fill="#ececec" inkscape:original-d="m 40.8,-31.2 c 0.3,16.5 -23.5,12.4 -23,34 0.5,21.6 -16.4,13.2 -17.7,28.8 2.3,-4.1 9.2,-7.1 14.3,-8.2 -2.3,-0.2 -5.2,0.1 -7.4,0.8 5.5,-3.9 12.6,-5.3 15.1,-10.5 2.5,-5.2 0.6,-8.1 6.8,-20.4 6.2,-12.3 14.9,-9.2 11.9,-24.5 z m 4.2,34.7 c -4.6,9.7 -13.3,6.4 -20.8,8.1 5.7,-6.4 14.3,-2.8 20.8,-8.1 z m 3.7,-10.9 c -8.1,11.2 -16.8,4.8 -23.7,15.9 8.4,-5.4 17.6,2 23.7,-15.9 z m -0.7,-8.3 c -1.1,17.6 -12.7,11 -21.3,19.7 6.1,-12.5 14.3,-7.8 21.3,-19.7 z m 0.5,-12.3 c -3.6,13.6 -14.7,10.8 -20.3,26.7 6.8,-9.4 20.7,-7.1 20.3,-26.7 z m -30.1,47.5 c 9.5,0.4 6.2,5.5 4.5,4.5 -1.7,-1 -1.1,-3.4 -4.5,-4.5 z m 1.5,-1.3 c 12.7,-0.9 10.6,3.4 8.3,3.5 -2.3,0.1 -2.7,-2.9 -8.3,-3.5 z m 2.2,-1.8 c 12.3,-4.4 13.6,-0.1 11.2,1.3 -2.4,1.4 -4.9,-1.2 -11.2,-1.3 z" />
    <path fill="#bebebe" inkscape:original-d="m -0.6,13.5 -1.7,0.5 v -32.2 c 0,-5.2 0.7,-9.7 2.3,-14.3 1.6,4.6 2.3,9.1 2.3,14.3 v 32.2 l -1.7,-0.5 -0.6,-35.8 z m -7.5,3.5 c -1.1,0 -1.8,-1 -1.4,-1.9 0.4,-0.9 2,-0.8 2,0.3 h 6.5 c 0.5,-0.8 1.5,-0.8 2,0 h 6.5 c 0,-1.1 1.6,-1.2 2,-0.3 0.4,0.9 -0.3,1.9 -1.4,1.9 z m 7.2,13.3 -0.6,-11.8 h 3 l -0.6,11.8 z" />
    <path fill="#bebebe" inkscape:original-d="m 2,30.799999 a 2,2 0 0 1 -2,2 2,2 0 0 1 -2,-2 2,2 0 0 1 2,-2 2,2 0 0 1 2,2" />
  </g>
  <path fill="#111" inkscape:original-d="m 426.20537,482.72257 c 11.1886,-57.83936 -36.6669,-129.83093 -34.88672,-222.87983 4.26531,-222.944688 360.057,-194.010981 292.92679,62.49169 l -138.61708,87.82788 c 67.3725,150.04106 -15.7537,248.69841 -119.92381,248.69841 -56.6035,0 -114.96322,-35.15407 -114.32676,-105.89119" inkscape:path-effect="#path-effect8082" />
  <path fill="#111" inkscape:original-d="m 251.70333,670.56426 c 9.92109,-41.28554 -19.47062,-103.42996 -4.01924,-164.28119 13.76882,-54.22492 55.01333,-80.07145 104.25776,-76.03697 41.85025,3.42869 55.3949,22.34575 76.20113,27.37068" inkscape:path-effect="#path-effect8084" />
  <path d="m 340.02248,626.2136 c -64.87426,82.91422 -78.70803,179.73133 -46.3544,273.10578 11.09774,32.02871 -121.65421,35.81933 -122.65738,2.02224 -2.70762,-91.22013 15.83778,-158.90242 55.21211,-235.83806 4.70137,-9.18626 15.55213,-12.81253 27.72216,-10.06454" fill="none" stroke="#111" stroke-width="8" />
  <g>
    <path d="m 488.18537,627.70598 c -12.87232,109.40872 -10.28539,195.34887 25.06825,285.72332 12.34888,31.56744 -124.14928,35.58304 -128.26333,2.02224 -12.91472,-105.35314 5.4089,-209.64068 48.04979,-293.57822 z" fill="#222" />
    <path fill="#111" inkscape:original-d="m 488.18537,627.70598 c -12.87232,109.40872 -10.28539,195.34887 25.06825,285.72332 12.34888,31.56744 -124.14928,35.58304 -128.26333,2.02224 -12.91472,-105.35314 5.4089,-209.64068 48.04979,-293.57822" inkscape:path-effect="#path-effect7920" />
  </g>
  <g>
    <path d="m 489.02288,313.05091 c -9.95088,0.395 -17.41849,5.52072 -19.14916,14.43301 5.65276,-6.79147 12.88796,-9.91716 22.34754,-9.19536 m 1.88152,3.76287 c -9.08448,3.07667 -15.15081,9.50737 -13.71542,20.66953 2.4965,-9.21396 8.63342,-14.36166 18.25419,-16.58239 m 5.07658,3.22805 c -7.53378,4.67033 -10.90732,11.37869 -7.53418,21.1522 0.78422,-8.72077 4.70757,-14.35955 12.06235,-17.86786 m 177.89063,-52.65838 c 5.4495,-4.74905 13.68838,-5.08695 20.28705,0.1935 -7.80821,-1.63832 -14.42658,-0.57509 -19.67534,5.00556 z m -1.56086,11.92517 c 7.48384,-3.36614 14.91837,-2.2861 21.89986,2.35992 -5.5641,-8.0953 -12.8834,-9.90801 -20.78168,-7.21923 z m 17.70977,15.36376 c -2.24616,-8.47338 -8.15494,-12.46561 -16.26151,-12.08412 l -2.6801,4.44276 c 7.9944,-1.39461 13.50078,1.3286 18.94161,7.64136 z" />
    <g clip-path="url(#clipPath7892)">
      <path d="m 688.57018,222.43271 c 6.229,27.3879 5.79731,68.25538 -4.67387,100.65548 -10.91272,-2.84263 -19.65737,-7.26323 -26.90522,-16.89869 -7.44514,-21.94792 -8.33583,-50.00944 -5.4594,-73.26921 12.04799,-4.98672 24.35075,-7.99248 37.03849,-10.48758 z" fill="#fff" id="path7872" />
      <g clip-path="url(#clipPath7866)">
        <ellipse cx="250.45825" cy="-665.11548" fill="url(#linearGradient9068)" id="path5053" rx="49.877991" ry="19.356596" transform="rotate(90.879542)" />
        <path d="m 656.38446,267.95034 31.79842,13.16979 -8.72048,36.6192 z" fill="#83e84a" />
        <path d="m 656.38446,267.95034 30.85465,25.38109 2.79518,-24.02186 z" fill="#52af1a" />
        <ellipse cx="250.93062" cy="-663.87177" rx="38.874554" ry="15.086394" transform="rotate(90.879542)" />
        <ellipse cx="-140.84993" cy="693.25122" fill="#fff" rx="18.942949" ry="6.0243635" transform="rotate(278.4968)" />
        <ellipse cx="-142.47128" cy="707.55511" fill="#fff" rx="5.8444176" ry="1.9593087" transform="rotate(280.47032)" />
      </g>
    </g>
    <g clip-path="url(#clipPath7776)">
      <path d="m 606.3575,328.89511 c -1.24689,-37.34079 -9.40121,-65.68614 -21.21429,-86.18626 -39.89048,-2.28883 -79.78097,3.86511 -119.67145,18.24289 3.68083,73.48414 74.86255,109.58728 140.88574,67.94337 z" fill="#fff" id="path6777" />
      <g clip-path="url(#clipPath7760)">
        <ellipse cx="437.35101" cy="-444.17401" fill="url(#linearGradient9070)" id="path4297" rx="56.273163" ry="47.406849" transform="rotate(71.317767)" />
        <path d="m 534.28457,338.04725 38.69901,-64.13355 -61.91551,26.78159 z" fill="#83e84a" />
        <path d="m 504.75616,289.71212 68.22742,-15.79842 -57.90856,42.54171 z" fill="#52af1a" />
        <ellipse cx="439.36578" cy="-447.05338" rx="44.712227" ry="37.667439" transform="rotate(71.317767)" />
        <ellipse cx="592.87366" cy="64.309563" fill="#fff" rx="15.676593" ry="22.366495" transform="rotate(19.034829)" />
        <ellipse cx="620.15118" cy="60.854019" fill="#fff" rx="5.2522163" ry="7.2122135" transform="rotate(21.346952)" />
      </g>
    </g>
    <path d="m 656.99109,306.1895 c 11.44529,20.4068 43.55048,12.16388 40.17156,32.97549 -10.34756,63.7332 -108.39909,103.72156 -215.58449,54.65163 z" fill="#222" />
    <path d="m 629.12675,354.84628 c 8.87594,19.95243 23.96183,27.96861 43.02974,27.55851 l 8.54388,-7.71149 c -23.79703,2.30105 -36.58464,-3.88579 -51.57362,-19.84702 z m 49.50129,-15.26563 c -4.71134,3.81998 -9.0455,2.89641 -10.65705,-3.33523 -2.58063,10.35677 6.56376,12.82377 10.65705,3.33523 z" fill="#111" />
    <path fill="#111" inkscape:original-d="m 656.99109,306.1895 c 11.44529,20.4068 43.55048,12.16388 40.17156,32.97549 -10.34756,63.7332 -108.39909,103.72156 -215.58449,54.65163" inkscape:path-effect="#path-effect7870" />
    <g clip-path="url(#clipPath7989)">
      <path d="m 585.10837,242.64843 c -40.27369,-69.79484 -122.98425,-48.52897 -119.63661,18.30331 47.63943,-16.53195 83.23064,-20.162 119.63661,-18.30331 z m 66.42332,-9.72814 c 5.32713,-43.07682 23.575,-69.68433 37.03849,-10.48758 -13.11922,1.94975 -25.33079,5.71479 -37.03849,10.48758 z" fill="#2d2d2d" id="path6696" />
      <path d="m 506.85045,193.36338 c 13.14263,21.79657 20.06439,43.41676 23.24454,68.53416 l 21.0361,-2.91454 c -3.65445,-25.03697 -12.46848,-48.05471 -28.2653,-67.69887 z m 162.64338,-17.94907 c 6.09904,20.14878 10.48766,40.36415 13.57628,61.08957 l -10.06533,-0.0407 c -1.97868,-20.3043 -5.24593,-39.91911 -9.93923,-59.90365 z" fill="#3e3e3e" />
    </g>
    <path d="m 487.87108,253.75938 c -10.59924,-2.84987 -16.84853,-7.946 -23.60622,-16.11664 2.43816,8.89357 6.60928,15.25991 13.15151,19.62533 m -13.95257,4.15781 10.91952,-3.47241 c -10.22365,-2.02709 -20.65268,-7.0795 -28.04165,-16.01133 3.10218,9.44459 9.23954,15.85158 17.12213,19.48374 z m 142.8937,67.46923 c 1.91704,-32.77831 -4.9117,-61.7069 -18.9599,-89.42076 -38.72829,-3.06748 -80.65944,3.43158 -119.38537,17.8727 -9.76575,3.6417 -21.43617,4.67977 -32.41399,0.95657 10.33286,8.7168 22.67085,9.70606 34.24635,5.23305 35.21375,-13.6073 76.05373,-19.31218 112.85968,-17.88921 14.03442,25.95496 19.38309,50.1158 23.65323,83.24765 z m 69.75677,-103.86275 c 3.76303,-5.36598 7.12383,-11.8692 7.11718,-19.01138 2.43116,6.80774 2.27723,12.97377 -0.41226,18.58371 z m 29.25316,-13.37928 c -2.48629,8.33141 -8.90113,12.49754 -16.94092,13.61897 -12.24859,1.70849 -24.66175,5.08657 -34.13848,9.4171 -2.94279,22.35535 -2.47987,46.91003 2.70306,71.50035 -9.39292,-23.32785 -10.98273,-50.1859 -7.31685,-75.23397 10.31752,-4.99242 24.69744,-8.61472 38.06115,-10.75285 7.37679,-1.18025 12.46613,-3.22529 17.63204,-8.5496 z m -13.98506,10.9099 -8.50327,1.3816 c 5.60192,-4.94251 10.47705,-11.67782 11.83295,-19.87524 1.4844,6.96906 0.244,13.40113 -3.32968,18.49364 z" />
  </g>
  <g id="g8062" transform="translate(0 2.5)">
    <path d="m 326.11518,574.10204 c -14.158,-15.40106 -14.90955,-35.2165 -6.11574,-47.76178 -21.56988,-22.03864 -0.74005,-51.50101 26.81424,-45.40278 8.09342,-18.43426 26.08799,-23.3942 47.45057,-16.87201 m -68.14907,110.03657 c -75.3362,-54.98011 -104.47366,-153.39635 -87.0204,-172.99311 15.07813,-16.92994 75.08027,7.40933 155.16947,62.95654 81.2074,56.32274 11.80093,168.38383 -68.14907,110.03657 z" fill="#373737" stroke="#111" stroke-width="8" />
    <path d="m 238.03688,446.25449 78.35476,87.47071 m -56.23137,-137.95696 94.6542,73.40793 m -119.35253,-60.33639 87.48779,76.00142" style="stroke-width:4;fill:none;stroke-miterlimit:20;stroke:#111" />
  </g>
  <g>
    <path d="m 707.28166,197.40279 c -43.18202,-67.94168 -148.24684,-22.46024 -202.0911,-48.43077 3.94975,22.84925 -6.53286,41.7001 -33.77623,53.17597 11.20503,-19.20862 11.4418,-46.89306 -19.07035,-67.2852 l -53.07152,97.838 c -1.12992,48.18956 16.5037,87.07609 51.91191,102.19338 -13.5483,5.06215 -25.81178,4.45175 -42.88612,-2.78402 40.08065,76.60445 35.36971,127.78895 -25.47903,132.34202 27.61666,-25.22224 26.23692,-58.25566 -11.26168,-115.81481 -44.63921,-68.51978 -40.74662,-159.48673 18.9889,-234.13992 126.78687,-82.380497 308.50219,-46.633736 316.73522,82.90535 z" fill="#f0ea39" />
    <path fill="#bdb921" inkscape:original-d="m 707.28166,197.40279 c -43.18202,-67.94168 -148.24684,-22.46024 -202.0911,-48.43077 3.94975,22.84925 -6.53286,41.7001 -33.77623,53.17597 11.20503,-19.20862 11.4418,-46.89306 -19.07035,-67.2852 l -53.07152,97.838 c -1.12992,48.18956 16.5037,87.07609 51.91191,102.19338 -13.5483,5.06215 -25.81178,4.45175 -42.88612,-2.78402 40.08065,76.60445 35.36971,127.78895 -25.47903,132.34202 27.61666,-25.22224 26.23692,-58.25566 -11.26168,-115.81481 -44.63921,-68.51978 -40.74662,-159.48673 18.9889,-234.13992" inkscape:path-effect="#path-effect8066" />
    <path d="m 407.17436,262.29855 c -79.61318,-94.61595 -17.82539,-199.772166 -6.03463,-200.680116 13.66959,-1.052631 65.36831,36.489449 67.85915,102.565346 z" fill="#222" />
    <path fill="#111" inkscape:original-d="m 407.17436,262.29855 c -79.61318,-94.61595 -17.82539,-199.772166 -6.03463,-200.680116 13.66959,-1.052631 65.36831,36.489449 67.85915,102.565346" inkscape:path-effect="#path-effect4380" />
    <path d="m 406.64276,116.36598 c -5.50146,28.75457 -3.97552,58.29641 6.79382,87.99418 -16.46673,-24.35316 -19.54402,-58.83605 -6.79382,-87.99418 z" fill="#111" />
  </g>
</svg>
