<?xml version="1.0" encoding="UTF-8" standalone="no"?>
<!-- Created with Inkscape (http://www.inkscape.org/) -->

<svg xmlns:dc="http://purl.org/dc/elements/1.1/" xmlns:cc="http://creativecommons.org/ns#" xmlns:rdf="http://www.w3.org/1999/02/22-rdf-syntax-ns#" xmlns:svg="http://www.w3.org/2000/svg" xmlns="http://www.w3.org/2000/svg" xmlns:xlink="http://www.w3.org/1999/xlink" xmlns:sodipodi="http://sodipodi.sourceforge.net/DTD/sodipodi-0.dtd" xmlns:inkscape="http://www.inkscape.org/namespaces/inkscape" id="svg2" version="1.1" inkscape:version="0.91+devel r" width="1058" height="928" viewBox="0 0 1058 928" sodipodi:docname="Fuzzy Brushy.svg">
  <title id="title6214">Induced Exposure to String-Theoretical Dimensions</title>
  <sodipodi:namedview pagecolor="#ffffff" bordercolor="#666666" borderopacity="1" objecttolerance="10" gridtolerance="10" guidetolerance="10" inkscape:pageopacity="0" inkscape:pageshadow="2" inkscape:window-width="1364" inkscape:window-height="698" id="namedview4" showgrid="true" inkscape:zoom="0.50319453" inkscape:cx="322.12483" inkscape:cy="613.65227" inkscape:window-x="0" inkscape:window-y="0" inkscape:window-maximized="1" inkscape:current-layer="layer2" showguides="false" inkscape:snap-object-midpoints="false" inkscape:snap-center="false" inkscape:object-nodes="false" inkscape:object-paths="false" inkscape:snap-smooth-nodes="false" inkscape:snap-intersection-paths="false" />
  <metadata id="metadata8">
    <rdf:RDF>
      <cc:Work rdf:about="">
        <dc:format>image/svg+xml</dc:format>
        <dc:type rdf:resource="http://purl.org/dc/dcmitype/StillImage" />
        <dc:title>Induced Exposure to String-Theoretical Dimensions</dc:title>
        <dc:date>23 January 2015</dc:date>
        <dc:creator>
          <cc:Agent>
            <dc:title>Parcly Taxel / Jeremy Tan</dc:title>
          </cc:Agent>
        </dc:creator>
        <dc:rights>
          <cc:Agent>
            <dc:title>CC BY-SA 4.0 / FAL 1.3</dc:title>
          </cc:Agent>
        </dc:rights>
        <dc:subject>
          <rdf:Bag>
            <rdf:li>Fuzzy Brushy contemplating her newly (albeit artificially</rdf:li>
            <rdf:li>via enchanted socks) opened third eye Thistle</rdf:li>
          </rdf:Bag>
        </dc:subject>
      </cc:Work>
    </rdf:RDF>
  </metadata>
  <defs id="defs6">
    <inkscape:path-effect end_linecap_type="butt" miter_limit="4" linejoin_type="extrp_arc" start_linecap_type="butt" interpolator_beta="0.2" interpolator_type="CubicBezierSmooth" sort_points="true" offset_points="2.5,5" is_visible="true" id="path-effect5854" effect="powerstroke" />
    <inkscape:path-effect end_linecap_type="zerowidth" miter_limit="4" linejoin_type="extrp_arc" start_linecap_type="zerowidth" interpolator_beta="0.2" interpolator_type="CubicBezierSmooth" sort_points="true" offset_points="0.21,5 | 2.74,5" is_visible="true" id="path-effect5763" effect="powerstroke" />
    <inkscape:path-effect effect="powerstroke" id="path-effect5339" is_visible="true" offset_points="0.32,5 | 1.5,5 | 2.74,5" sort_points="true" interpolator_type="CubicBezierSmooth" interpolator_beta="0.2" start_linecap_type="zerowidth" linejoin_type="extrp_arc" miter_limit="4" end_linecap_type="zerowidth" />
    <inkscape:path-effect end_linecap_type="zerowidth" miter_limit="4" linejoin_type="extrp_arc" start_linecap_type="zerowidth" interpolator_beta="0.2" interpolator_type="CubicBezierSmooth" sort_points="true" offset_points="0.8,5 | 2.08,5" is_visible="true" id="path-effect4520" effect="powerstroke" />
    <inkscape:path-effect end_linecap_type="zerowidth" miter_limit="4" linejoin_type="extrp_arc" start_linecap_type="butt" interpolator_beta="0.2" interpolator_type="CubicBezierSmooth" sort_points="true" offset_points="0.2,5 | 5,5 | 9.73,5" is_visible="true" id="path-effect4451" effect="powerstroke" />
    <inkscape:path-effect end_linecap_type="zerowidth" miter_limit="4" linejoin_type="extrp_arc" start_linecap_type="butt" interpolator_beta="0.2" interpolator_type="CubicBezierSmooth" sort_points="true" offset_points="4.55,5" is_visible="true" id="path-effect4449" effect="powerstroke" />
    <inkscape:path-effect end_linecap_type="zerowidth" miter_limit="4" linejoin_type="extrp_arc" start_linecap_type="zerowidth" interpolator_beta="0.2" interpolator_type="CubicBezierSmooth" sort_points="true" offset_points="0.38,5 | 6.5,5 | 12.64,5" is_visible="true" id="path-effect4441" effect="powerstroke" />
    <inkscape:path-effect end_linecap_type="zerowidth" miter_limit="4" linejoin_type="extrp_arc" start_linecap_type="butt" interpolator_beta="0.2" interpolator_type="CubicBezierSmooth" sort_points="true" offset_points="2.25,5" is_visible="true" id="path-effect4435" effect="powerstroke" />
    <inkscape:path-effect end_linecap_type="butt" miter_limit="4" linejoin_type="extrp_arc" start_linecap_type="zerowidth" interpolator_beta="0.2" interpolator_type="CubicBezierSmooth" sort_points="true" offset_points="0.25,5" is_visible="true" id="path-effect4429" effect="powerstroke" />
    <inkscape:path-effect effect="powerstroke" id="path-effect10585" is_visible="true" offset_points="0.32,5 | 6.66,5" sort_points="true" interpolator_type="CubicBezierSmooth" interpolator_beta="0.2" start_linecap_type="zerowidth" linejoin_type="extrp_arc" miter_limit="4" end_linecap_type="zerowidth" />
    <inkscape:path-effect effect="powerstroke" id="path-effect10583" is_visible="true" offset_points="0.26,5 | 0.74,5" sort_points="true" interpolator_type="CubicBezierSmooth" interpolator_beta="0.2" start_linecap_type="zerowidth" linejoin_type="extrp_arc" miter_limit="4" end_linecap_type="zerowidth" />
    <inkscape:path-effect effect="powerstroke" id="path-effect8445" is_visible="true" offset_points="0.21,5 | 2.74,5" sort_points="true" interpolator_type="CubicBezierSmooth" interpolator_beta="0.2" start_linecap_type="zerowidth" linejoin_type="extrp_arc" miter_limit="4" end_linecap_type="zerowidth" />
    <inkscape:path-effect effect="powerstroke" id="path-effect8315" is_visible="true" offset_points="0.18,5 | 1.7,5" sort_points="true" interpolator_type="CubicBezierSmooth" interpolator_beta="0.2" start_linecap_type="zerowidth" linejoin_type="extrp_arc" miter_limit="4" end_linecap_type="zerowidth" />
    <linearGradient inkscape:collect="always" id="linearGradient8257">
      <stop style="stop-color:#1bbe54;stop-opacity:1" offset="0" id="stop8259" />
      <stop style="stop-color:#15d377;stop-opacity:1" offset="1" id="stop8261" />
    </linearGradient>
    <clipPath clipPathUnits="userSpaceOnUse" id="clipPath8282">
      <use x="0" y="0" xlink:href="#path7636" id="use8284" width="100%" height="100%" />
    </clipPath>
    <clipPath clipPathUnits="userSpaceOnUse" id="clipPath8357">
      <use x="0" y="0" xlink:href="#path7614" id="use8359" width="100%" height="100%" />
    </clipPath>
    <clipPath clipPathUnits="userSpaceOnUse" id="clipPath8376">
      <path sodipodi:nodetypes="cccssccc" inkscape:connector-curvature="0" id="path8378" d="M 966.31167,98.099276 C 929.18339,103.86009 896.11703,123.1244 877.92332,156.47722 L 820.49,139.85322 c 13.43858,-3.96583 22.0534,-7.26118 31.14007,-15.50045 27.85667,-25.258804 46.54754,-55.508378 57.33794,-90.33549 3.55351,-11.4693 -1.67247,-20.712757 -14.08453,-24.8670096 l 55.02672,5.0241116 z" style="opacity:1;fill:none;fill-opacity:1;fill-rule:nonzero;stroke:lime;stroke-width:0.5;stroke-linecap:butt;stroke-linejoin:miter;stroke-miterlimit:4;stroke-dasharray:none;stroke-dashoffset:7.80000019;stroke-opacity:1" />
    </clipPath>
    <clipPath id="clipPath4500" clipPathUnits="userSpaceOnUse">
      <path sodipodi:nodetypes="cccccccccc" inkscape:connector-curvature="0" d="m 907.41342,-98.796188 -35.30433,52.185277 71.70909,11.389091 c -4.83587,-26.641985 -15.27219,-46.277246 -36.40476,-63.574368 z M 805.03207,25.309928 c 25.65126,10.737738 53.39042,29.652327 65.91778,51.724344 L 782.06524,93.140878 738.81602,60.927665 736.72813,43.627976 Z" style="opacity:1;fill:none;fill-opacity:1;fill-rule:nonzero;stroke:black;stroke-width:1;stroke-linecap:butt;stroke-linejoin:miter;stroke-miterlimit:20;stroke-dasharray:none;stroke-dashoffset:7.80000019;stroke-opacity:1" id="path4502" />
    </clipPath>
    <linearGradient y2="573.89447" x2="739.47156" y1="484.43378" x1="742.40607" gradientUnits="userSpaceOnUse" id="linearGradient4563" xlink:href="#linearGradient8257" inkscape:collect="always" />
    <clipPath id="clipPath5352" clipPathUnits="userSpaceOnUse">
      <path sodipodi:nodetypes="ccccccc" inkscape:connector-curvature="0" id="path5354" d="m 446.82842,527.64744 c -5.82962,10.33031 -17.26663,32.72183 -19.27933,36.52054 L 44.368118,632.81298 63.580637,870.42181 461.46672,693.61273 c 23.86966,0.94786 60.6121,-0.53767 100.2313,-14.80779 z" style="opacity:1;fill:none;fill-opacity:1;fill-rule:nonzero;stroke:olive;stroke-width:1;stroke-linecap:butt;stroke-linejoin:miter;stroke-miterlimit:4;stroke-dasharray:none;stroke-dashoffset:7.80000019;stroke-opacity:1" />
    </clipPath>
    <clipPath id="clipPath5356" clipPathUnits="userSpaceOnUse">
      <path sodipodi:nodetypes="cc" inkscape:connector-curvature="0" id="path5358" d="M 511.66406,697.5625 C 475.56881,663.23043 441.58304,589.42081 437.23828,536.42383 L 372.88727,601.51273 360.23273,714.56 Z" style="color:black;font-style:normal;font-variant:normal;font-weight:normal;font-stretch:normal;font-size:medium;line-height:normal;font-family:sans-serif;text-indent:0;text-align:start;text-decoration:none;text-decoration-line:none;text-decoration-style:solid;text-decoration-color:black;letter-spacing:normal;word-spacing:normal;text-transform:none;direction:ltr;block-progression:tb;writing-mode:lr-tb;baseline-shift:baseline;text-anchor:start;white-space:normal;clip-rule:nonzero;display:inline;overflow:visible;visibility:visible;opacity:1;isolation:auto;mix-blend-mode:normal;color-interpolation:sRGB;color-interpolation-filters:linearRGB;solid-color:black;solid-opacity:1;fill:none;fill-opacity:1;fill-rule:nonzero;stroke:olive;stroke-width:1;stroke-linecap:butt;stroke-linejoin:miter;stroke-miterlimit:4;stroke-dasharray:none;stroke-dashoffset:7.80000019;stroke-opacity:1;color-rendering:auto;image-rendering:auto;shape-rendering:auto;text-rendering:auto;enable-background:accumulate" />
    </clipPath>
    <clipPath id="clipPath5670" clipPathUnits="userSpaceOnUse">
      <path sodipodi:nodetypes="cc" d="m 432.25455,536.83273 c 4.48284,54.68133 38.45906,128.68018 75.96363,164.35273 L 1196,736 l 42,-998 -810,-18 z" style="opacity:1;fill:none;fill-opacity:1;fill-rule:nonzero;stroke:#160725;stroke-width:10;stroke-linecap:butt;stroke-linejoin:miter;stroke-miterlimit:4;stroke-dasharray:none;stroke-dashoffset:7.80000019;stroke-opacity:1" id="path5672" clip-path="none" inkscape:connector-curvature="0" />
    </clipPath>
    <clipPath id="clipPath5717" clipPathUnits="userSpaceOnUse">
      <path sodipodi:nodetypes="csccscc" style="opacity:1;fill:none;fill-opacity:1;fill-rule:nonzero;stroke:black;stroke-width:0.40000001;stroke-linecap:butt;stroke-linejoin:miter;stroke-miterlimit:4;stroke-dasharray:none;stroke-dashoffset:7.80000019;stroke-opacity:1" d="m 822.27099,630.90668 c -1.12555,-42.73402 4.17498,-80.37552 10.51302,-109.31999 6.93439,-31.66788 15.60688,-59.5829 19.24184,-71.50992 l -56.05729,-14.37094 c -9.11004,10.23748 -24.56353,29.41845 -40.14647,57.78097 -17.69147,32.20027 -36.15575,74.21385 -47.54774,123.54158 z" id="path5719" inkscape:connector-curvature="0" />
    </clipPath>
    <clipPath id="clipPath5770" clipPathUnits="userSpaceOnUse">
      <path style="color:black;font-style:normal;font-variant:normal;font-weight:normal;font-stretch:normal;font-size:medium;line-height:normal;font-family:sans-serif;text-indent:0;text-align:start;text-decoration:none;text-decoration-line:none;text-decoration-style:solid;text-decoration-color:black;letter-spacing:normal;word-spacing:normal;text-transform:none;direction:ltr;block-progression:tb;writing-mode:lr-tb;baseline-shift:baseline;text-anchor:start;white-space:normal;clip-rule:nonzero;display:inline;overflow:visible;visibility:visible;opacity:1;isolation:auto;mix-blend-mode:normal;color-interpolation:sRGB;color-interpolation-filters:linearRGB;solid-color:black;solid-opacity:1;fill:none;fill-opacity:1;fill-rule:nonzero;stroke:#4d4d4d;stroke-width:0.40000001;stroke-linecap:butt;stroke-linejoin:miter;stroke-miterlimit:4;stroke-dasharray:none;stroke-dashoffset:7.80000019;stroke-opacity:1;color-rendering:auto;image-rendering:auto;shape-rendering:auto;text-rendering:auto;enable-background:accumulate" d="m 860.87502,508.51367 c -43.17313,0.32147 -90.25021,-11.48654 -132.66992,-34.0625 l -81.20239,332.63357 240.4163,-1.41421 z" id="path5772" inkscape:connector-curvature="0" sodipodi:nodetypes="cc" />
    </clipPath>
    <clipPath id="clipPath5794" clipPathUnits="userSpaceOnUse">
      <path style="opacity:1;fill:none;fill-opacity:1;fill-rule:nonzero;stroke:#160725;stroke-width:10;stroke-linecap:butt;stroke-linejoin:miter;stroke-miterlimit:4;stroke-dasharray:none;stroke-dashoffset:7.80000019;stroke-opacity:1" d="m 725.85552,478.86588 c 43.13351,22.95584 90.94901,34.97666 135.0574,34.64823 l 21.55634,-91.80257 -94.7523,-16.97056 z" id="path5796" inkscape:connector-curvature="0" sodipodi:nodetypes="cc" clip-path="none" />
    </clipPath>
    <clipPath id="clipPath5850" clipPathUnits="userSpaceOnUse">
      <path sodipodi:nodetypes="cc" inkscape:connector-curvature="0" id="path5852" d="m 769.5,470 c 30.5,13 68.5,20.25 100.25,20.5 l 13.07282,-81.86993 -85.20637,-9.19239 z" style="opacity:1;fill:none;fill-opacity:1;fill-rule:nonzero;stroke:yellow;stroke-width:0.40000001;stroke-linecap:butt;stroke-linejoin:miter;stroke-miterlimit:4;stroke-dasharray:none;stroke-dashoffset:7.80000019;stroke-opacity:1" />
    </clipPath>
    <clipPath clipPathUnits="userSpaceOnUse" id="clipPath4578">
      <use x="0" y="0" xlink:href="#path5875" id="use4580" width="100%" height="100%" />
    </clipPath>
    <clipPath clipPathUnits="userSpaceOnUse" id="clipPath4630">
      <use x="0" y="0" xlink:href="#path4584" id="use4632" width="100%" height="100%" />
    </clipPath>
    <linearGradient inkscape:collect="always" xlink:href="#linearGradient8257" id="linearGradient5138" gradientUnits="userSpaceOnUse" x1="968.88861" y1="-13.869613" x2="1014.7276" y2="-17.029612" />
    <clipPath clipPathUnits="userSpaceOnUse" id="clipPath6028">
      <path sodipodi:nodetypes="ccc" style="opacity:1;fill:none;fill-opacity:1;fill-rule:nonzero;stroke:black;stroke-width:1;stroke-linecap:butt;stroke-linejoin:miter;stroke-miterlimit:4;stroke-dasharray:none;stroke-dashoffset:7.80000019;stroke-opacity:1" d="M 1022.8692,61.793948 C 1012.4462,7.9069719 986.46473,-28.737569 953.98804,-50.138641 871.54826,11.274647 925.87283,72.953339 1022.8692,61.793948 Z" id="path6030" inkscape:connector-curvature="0" />
    </clipPath>
  </defs>
  <g inkscape:groupmode="layer" id="layer2" inkscape:label="Drawing">
    <g id="g5635">
      <path sodipodi:nodetypes="cssscc" inkscape:connector-curvature="0" id="path5631" d="M 416.52271,661.34559 C 340.35377,721.77285 188.10397,782.33473 123.77331,769.02062 76.350983,759.20595 80.234403,629.38229 121.722,626.70331 c 93.93786,-6.06591 186.30126,-23.4722 275.17019,-60.84372 14.74916,-6.2024 28.31961,0.87769 36.7492,16.25467 z" style="opacity:1;fill:#1f0c32;fill-opacity:1;fill-rule:nonzero;stroke:none;stroke-width:10;stroke-linecap:butt;stroke-linejoin:miter;stroke-miterlimit:4;stroke-dasharray:none;stroke-dashoffset:7.80000019;stroke-opacity:1" />
      <path style="opacity:1;fill:none;fill-opacity:1;fill-rule:nonzero;stroke:#e1e1e1;stroke-width:6;stroke-linecap:butt;stroke-linejoin:miter;stroke-miterlimit:4;stroke-dasharray:none;stroke-dashoffset:7.80000019;stroke-opacity:1" d="m 90.5323,717.22483 c 81.11426,2.31019 111.43502,-12.70199 174.73242,-56.22516 49.54591,-34.06766 107.6143,-8.42019 160.05817,-36.62341" id="path5640" inkscape:connector-curvature="0" sodipodi:nodetypes="csc" />
      <path style="opacity:1;fill:none;fill-opacity:1;fill-rule:nonzero;stroke:#160725;stroke-width:10;stroke-linecap:butt;stroke-linejoin:miter;stroke-miterlimit:4;stroke-dasharray:none;stroke-dashoffset:7.80000019;stroke-opacity:1" d="M 416.52271,661.34559 C 340.35377,721.77285 188.10397,782.33473 123.77331,769.02062 76.350983,759.20595 80.234403,629.38229 121.722,626.70331 c 93.93786,-6.06591 186.30126,-23.4722 275.17019,-60.84372 14.74916,-6.2024 28.31961,0.87769 36.7492,16.25467 z" id="path5633" inkscape:connector-curvature="0" sodipodi:nodetypes="cssscc" />
    </g>
    <g id="g4482">
      <path style="opacity:1;fill:#fcef8b;fill-opacity:1;fill-rule:nonzero;stroke:none;stroke-width:1;stroke-linecap:butt;stroke-linejoin:miter;stroke-miterlimit:20;stroke-dasharray:none;stroke-dashoffset:7.80000019;stroke-opacity:1" d="m 693.87634,79.58456 c 7.07106,164.04877 75.26702,337.85491 208.20309,428.36457 -16.67157,-28.69848 -25.2071,-61.61879 -31.64823,-93.63098 47.17546,85.08892 120.33468,97.2011 113.9365,165.38275 -7.04085,75.03022 -139.63189,133.51138 -45.09229,232.14982 -2.69636,-103.12606 115.58099,-64.41544 164.94659,-138.55856 11.7622,2.82382 24.9012,-3.40619 32.4478,-19.02217 -21.0903,4.69139 -37.1091,-10.23973 -26.3966,-33.58447 36.9714,-80.56806 18.7288,-171.74821 -65.0017,-232.63686 37.6997,6.82654 73.7329,-37.75319 35.2587,-73.90313 9.6152,45.38834 -50.819,50.73585 -40.1025,0.59178 16.7251,-78.25997 68.4891,-95.90857 54.2571,-204.58986 -1.4307,-333.87799 -342.33074,-306.49121 -400.80846,-30.56289 z" id="path4465" inkscape:connector-curvature="0" sodipodi:nodetypes="cscscccsccscc" />
      <path style="opacity:1;fill:none;fill-opacity:1;fill-rule:nonzero;stroke:#ceb805;stroke-width:10;stroke-linecap:butt;stroke-linejoin:miter;stroke-miterlimit:20;stroke-dasharray:none;stroke-dashoffset:7.80000019;stroke-opacity:1" d="m 693.87634,79.58456 c 7.07106,164.04877 75.26702,337.85491 208.20309,428.36457 -16.67157,-28.69848 -25.2071,-61.61879 -31.64823,-93.63098 47.17546,85.08892 120.33468,97.2011 113.9365,165.38275 -7.04085,75.03022 -139.63189,133.51138 -45.09229,232.14982 -2.69636,-103.12606 115.58099,-64.41544 165.06939,-138.52974" id="path4363" inkscape:connector-curvature="0" sodipodi:nodetypes="cscscc" />
      <path style="opacity:1;fill:#ceb805;fill-opacity:1;fill-rule:nonzero;stroke:none;stroke-width:10;stroke-linecap:butt;stroke-linejoin:miter;stroke-miterlimit:20;stroke-dasharray:none;stroke-dashoffset:7.80000019;stroke-opacity:1" d="m 998.28833,338.29807 c 0,0 0.0748,5.4272 4.01747,16.06497 1.899,5.12378 4.8852,11.54804 9.505,17.78252 4.633,6.2523 11.092,12.53467 19.6718,16.64457 15.6837,7.51274 31.8592,5.7721 44.3372,-0.61383 13.3107,-6.81211 22.8687,-19.00006 25.469,-32.8346 2.8364,-15.09115 -2.6585,-31.05034 -17.3348,-44.84005 -4.399,-4.13324 -9.2621,-7.74283 -14.4921,-10.75653 2.9302,4.7526 5.0197,9.97452 6.1769,15.43663 2.3377,11.03541 -0.047,18.55418 -3.3734,23.06268 -3.4074,4.61859 -8.2237,6.77806 -12.4943,7.03035 -4.9376,0.29169 -9.3291,-1.84969 -12.1237,-5.92185 -3.2514,-4.73786 -4.6916,-12.52112 -2.3301,-23.57065 4.7435,-22.19592 12.4114,-39.20373 19.1561,-52.63008 8.8727,-17.66263 11.9,-21.83744 19.2045,-37.14896 7.3873,-15.48502 12.0161,-29.00546 14.908,-43.3511 2.7945,-13.86246 3.5701,-26.83827 3.5453,-37.941 -0.051,-22.67536 -2.4887,-35.21291 -2.4887,-35.21291 l -9.9154,1.29844 c 0,0 2.3548,12.21222 2.4049,33.93626 0.025,10.62676 -0.7173,22.90622 -3.345,35.94049 -2.7078,13.43169 -7.0527,26.17917 -14.1346,41.02407 -7.3908,15.49237 -9.7659,18.35387 -19.1159,36.96644 -6.9228,13.78075 -15.0025,31.65177 -19.9984,55.02842 -2.6851,12.56414 -1.51,23.48792 3.8641,31.31894 4.7991,6.99299 12.5571,10.74241 20.9586,10.24608 7.1671,-0.4234 14.7035,-4.00966 19.9381,-11.12433 2.9886,-4.06205 5.1651,-9.21353 5.9504,-15.39371 5.2817,8.48324 6.6707,16.9919 5.2115,24.75519 -1.9752,10.50916 -9.373,20.24049 -20.1968,25.77983 -10.0389,5.13767 -22.9218,6.50371 -35.4613,0.4971 -13.8022,-6.61149 -23.2561,-18.96087 -29.0339,-27.66281 -5.9989,-9.03481 -8.48047,-13.81057 -8.48047,-13.81057 z" id="path4385" inkscape:connector-curvature="0" sodipodi:nodetypes="ccsc" inkscape:path-effect="#path-effect4429" inkscape:original-d="m 998.28833,338.29807 c 34.50427,100.24082 138.75797,28.94938 82.24187,-24.15254 9.6152,45.38834 -50.819,50.73585 -40.1025,0.59178 16.7251,-78.25997 68.4891,-95.90857 54.2571,-204.58986" />
      <path sodipodi:nodetypes="cscc" inkscape:connector-curvature="0" id="path4375" d="m 1042.4422,392.11125 c 0,0 4.3255,2.90839 12.6431,9.85603 7.8332,6.54312 20.8171,18.21928 33.1829,34.66154 12.4425,16.54423 25.8164,39.95236 31.9004,70.15154 6.0151,29.85692 5.2233,68.96996 -14.4398,111.81982 -2.6105,5.68892 -4.0602,11.53739 -3.8573,17.20647 0.2038,5.69254 2.0915,11.10826 5.9097,15.47561 4.3948,5.0269 11.1269,8.32435 19.2753,8.79551 -1.5931,1.8811 -3.3107,3.46842 -5.1166,4.75742 -4.2046,3.00101 -8.3579,4.179 -11.8506,4.46363 -4.4705,0.36433 -8.4928,-0.66484 -11.8078,-2.16121 -3.3362,-1.50598 -6.0736,-3.53285 -8.1518,-5.33877 -4.28,-3.71919 -6.0345,-6.12505 -6.0345,-6.12505 0,0 0.061,3.01244 3.0864,8.46896 1.4554,2.62518 3.8147,5.94684 7.4802,8.80211 3.635,2.83154 8.9217,5.4447 15.5891,5.61725 5.279,0.13661 11.4967,-1.30332 17.498,-5.58663 5.543,-3.95621 10.087,-9.62727 13.4228,-16.5299 1.6556,-3.42596 2.9478,-7.01594 3.8553,-10.71116 -2.9462,1.68571 -6.1295,2.91783 -9.4429,3.65486 -10.015,2.22778 -16.9074,-0.83772 -20.2744,-4.68893 -2.1293,-2.43551 -3.3112,-5.57237 -3.4427,-9.25742 -0.1334,-3.73647 0.8147,-8.01758 2.9506,-12.67207 20.6305,-44.95805 21.5384,-86.2388 15.1431,-117.97061 -6.4538,-32.02155 -20.6169,-56.77852 -33.7031,-74.18194 -12.998,-17.28613 -26.6111,-29.51768 -34.7616,-36.3258 -8.6727,-7.24439 -13.1686,-10.26604 -13.1686,-10.26604 l -5.8852,8.08478 z" style="opacity:1;fill:#ceb805;fill-opacity:1;fill-rule:nonzero;stroke:none;stroke-width:10.10000038;stroke-linecap:butt;stroke-linejoin:miter;stroke-miterlimit:20;stroke-dasharray:none;stroke-dashoffset:7.80000019;stroke-opacity:1" inkscape:path-effect="#path-effect4435" inkscape:original-d="m 1045.3848,388.06886 c 83.6172,60.86845 101.8598,152.0486 64.8884,232.61666 -10.7125,23.34474 5.3063,38.27586 26.3966,33.58447 -12.5546,25.97879 -40.5863,25.98121 -52.5746,1.4038" />
    </g>
    <g id="g8214">
      <path sodipodi:nodetypes="ccc" inkscape:connector-curvature="0" id="path7638" d="m 1054.5536,183.55869 c -122.3295,101.82338 -123.27282,-53.03872 -3.8859,-90.551102 -10.3671,31.784072 -9.1956,63.681042 3.8859,90.551102 z" style="opacity:1;fill:#ad047a;fill-opacity:1;fill-rule:nonzero;stroke:none;stroke-width:1;stroke-linecap:butt;stroke-linejoin:miter;stroke-miterlimit:20;stroke-dasharray:none;stroke-dashoffset:7.80000019;stroke-opacity:1" />
      <path sodipodi:nodetypes="ccc" inkscape:connector-curvature="0" id="path7648" d="m 992.72588,181.60374 c 15.37962,-7.24784 37.77572,-7.91942 53.33202,1.27297 -24.2184,25.27907 -54.03912,28.60229 -53.33202,-1.27297 z" style="opacity:1;fill:#f60;fill-opacity:1;fill-rule:nonzero;stroke:none;stroke-width:1;stroke-linecap:butt;stroke-linejoin:miter;stroke-miterlimit:4;stroke-dasharray:none;stroke-dashoffset:7.80000019;stroke-opacity:1" />
    </g>
    <g id="g4477">
      <path sodipodi:nodetypes="scsccccsccccsccs" inkscape:connector-curvature="0" id="path4473" d="M -269.81623,706.28427 C -516.66601,611.54317 -559.91674,838.79899 -441,855 c -66.55635,-68.14214 -7.57198,-165.82739 154.75736,-94.95837 55.85541,24.3851 108.82843,23.85786 156.24264,5.95837 -20.5,20.5 -54.5,30.5 -86.5,36 491.78888,105.27208 462.54163,-304.25274 701.03763,-293.8894 l 20.77595,-26.26985 C 466.86205,433.07551 406.8168,380.61995 312.57064,363.26433 266.96174,354.86536 266.60869,312.35263 305.49956,308.11 270.61687,271.4536 221.89248,321.80212 248.72036,365.51097 166.76605,346.17913 87.92031,361.90812 34,401 64.665476,393.59619 94.029437,390.58579 122,394 -7.6652304,440.86773 -2.601369,563.66319 -87.141815,649.75945 c -39.143845,39.86422 -60.089745,14.08867 -47.831605,-13.0787 -24.09666,9.29072 -31.35792,32.43914 -16.74961,50.66129 -29.69858,27.96418 -73.6314,36.0067 -118.0932,18.94223 z" style="opacity:1;fill:#fcef8b;fill-opacity:1;fill-rule:nonzero;stroke:none;stroke-width:10;stroke-linecap:butt;stroke-linejoin:miter;stroke-miterlimit:20;stroke-dasharray:none;stroke-dashoffset:7.80000019;stroke-opacity:1" />
      <path style="opacity:1;fill:#ceb805;fill-opacity:1;fill-rule:nonzero;stroke:none;stroke-width:10;stroke-linecap:butt;stroke-linejoin:miter;stroke-miterlimit:20;stroke-dasharray:none;stroke-dashoffset:7.80000019;stroke-opacity:1" d="m 249.99024,360.82948 c 0,0 -17.97679,-6.29334 -57.27179,-8.17088 -19.14218,-0.91462 -44.27299,-0.27916 -72.1439,5.59736 -27.677909,5.83584 -60.034669,17.32702 -89.509335,38.69595 -6.446138,4.67341 -12.612224,9.72139 -18.466406,15.11787 7.457774,-2.3065 14.9864,-4.37734 22.574663,-6.20943 18.306417,-4.41987 40.979221,-8.46528 65.052678,-8.24873 -21.820028,10.28625 -39.90503,23.23839 -55.380944,38.59718 -20.054212,19.90243 -34.9483687,43.00643 -48.7390389,68.58745 1.5e-6,0 -5.56e-5,1.1e-4 -5.56e-5,1.1e-4 -23.2018125,43.03826 -45.0920355,98.96858 -86.8155485,141.45994 -9.291673,9.46266 -17.368903,14.93467 -23.919653,17.42377 -6.22359,2.36479 -10.53116,1.8566 -13.24493,0.32353 -2.58515,-1.46042 -4.66485,-4.39031 -5.35826,-8.96196 -0.66735,-4.39991 0.0268,-10.12196 2.8164,-16.30449 1.64897,-3.65456 3.83968,-7.03953 6.49822,-10.04071 -4.39828,0.60802 -8.71166,1.72175 -12.8545,3.31906 -16.1182,6.21455 -26.90175,18.88668 -27.46474,34.11139 -0.0532,1.4397 -0.0121,2.89122 0.12618,4.34835 0.70017,7.3777 4.01292,13.31651 7.58278,17.51462 3.58679,4.21803 7.66409,7.00566 10.91827,8.75911 6.7676,3.64659 10.46328,3.7354 10.46328,3.7354 0,0 -2.70434,-2.41935 -7.39548,-7.68376 -2.26973,-2.54709 -4.92244,-5.84058 -7.11991,-9.71679 -2.19288,-3.86811 -4.00912,-8.44997 -4.49364,-13.55349 -0.0969,-1.02037 -0.12533,-2.03283 -0.0883,-3.03391 0.27128,-7.33621 4.08901,-14.40243 11.12964,-19.71893 -0.47359,3.41389 -0.46907,6.70481 -0.005,9.76374 1.04687,6.90206 4.49141,12.87267 10.32651,16.16907 6.0942,3.44276 13.68334,3.36971 21.71555,0.31769 8.38653,-3.18664 17.642929,-9.72392 27.502914,-19.76535 43.051679,-43.84397 66.102342,-102.20642 88.4827112,-143.72095 0,0 5.32e-5,-1e-4 5.32e-5,-1e-4 13.5722626,-25.17588 27.9192426,-47.31722 46.9736766,-66.22934 18.929867,-18.78847 42.024258,-33.8412 71.817425,-44.60999 6.31673,-2.2832 12.72717,-4.29829 19.21414,-6.03989 -6.69742,-1.58137 -13.47706,-2.79172 -20.30795,-3.62553 -22.17096,-2.70629 -43.781233,-1.26521 -62.851741,1.7076 21.373487,-11.51825 43.282401,-18.57102 62.883411,-22.70388 26.83871,-5.65893 51.08514,-6.2783 69.60364,-5.39341 38.0033,1.81593 55.43572,7.91107 55.43572,7.91107 l 2.31338,-9.72874 z" id="path4397" inkscape:connector-curvature="0" sodipodi:nodetypes="cccscc" inkscape:path-effect="#path-effect4449" inkscape:original-d="M 248.83355,365.69385 C 166.76605,346.17913 87.92031,361.90812 34,401 64.665476,393.59619 94.029437,390.58579 122,394 -7.6652304,440.86773 -2.601369,563.66319 -87.141815,649.75945 c -39.143845,39.86422 -60.089745,14.08867 -47.831605,-13.0787 -30.60243,11.79909 -34.05163,45.94879 -0.17297,63.80362" />
      <path style="opacity:1;fill:#ceb805;fill-opacity:1;fill-rule:nonzero;stroke:none;stroke-width:10;stroke-linecap:butt;stroke-linejoin:miter;stroke-miterlimit:20;stroke-dasharray:none;stroke-dashoffset:7.80000019;stroke-opacity:1" d="m -155.07431,683.77586 c 0,0 -3.55688,5.15354 -18.49399,13.60313 -19.01545,10.75661 -52.28382,20.42313 -94.45635,4.23728 -58.90883,-22.60925 -108.23276,-27.77868 -147.31563,-19.89552 -39.01968,7.87041 -66.61247,28.60953 -81.57348,54.84088 -13.83995,24.26576 -16.46003,52.82392 -6.86461,76.89522 9.34599,23.44555 30.2412,42.1565 62.10331,46.49737 4.80989,0.6553 9.66163,0.95422 14.51558,0.89433 -3.6012,-2.91039 -7.02831,-6.02984 -10.26361,-9.34222 -15.79096,-16.1672 -24.01151,-33.84813 -25.28226,-50.14517 -1.26385,-16.20873 4.31854,-31.18684 16.59937,-42.25545 12.26365,-11.05312 31.54533,-18.48951 58.0609,-18.70663 26.53714,-0.21731 59.91658,6.81194 99.80188,24.22488 47.56771,20.7669 91.49373,23.15013 130.08041,14.88145 -6.0662,2.99543 -12.31804,5.48187 -18.40062,7.5621 -14.89858,5.0953 -30.03389,8.15715 -40.78355,10.00475 -8.9807,1.54355 -18.01389,2.76448 -27.08213,3.66042 8.93112,2.17985 17.89286,4.23224 26.8825,6.15656 100.02358,21.411 188.392992,23.79006 264.995104,3.21423 77.624246,-20.85038 133.858236,-62.27581 185.171016,-116.00407 36.01537,-37.71076 79.02023,-93.59413 114.3028,-125.95178 18.27044,-16.75582 37.84187,-31.12735 60.04071,-40.98003 22.18758,-9.84769 47.38007,-15.36431 77.35753,-14.0617 l 2.5534,0.11095 1.58542,-2.00465 c 38.4519,-48.61996 -17.67596,22.3501 20.77595,-26.26985 l 2.44927,-3.09695 -2.44477,-3.10052 C 469.77817,428.69855 408.65148,375.87374 313.47617,358.34701 c -10.97679,-2.0214 -18.67339,-6.06118 -23.61713,-10.58434 -4.94388,-4.52328 -7.18593,-9.54275 -7.52574,-14.01312 -0.37032,-4.87181 1.45926,-9.5346 5.33512,-13.21776 3.93135,-3.73589 10.05868,-6.54422 18.37338,-7.45128 3.22028,-0.3513 6.46737,-0.38418 9.69411,-0.0981 -1.95375,-2.96368 -4.16723,-5.7477 -6.61427,-8.31918 -12.01871,-12.62983 -25.55937,-15.82462 -37.21101,-13.51143 -13.0676,2.5943 -23.20232,11.77871 -29.07924,21.97428 -6.72867,11.67321 -8.23871,24.73477 -5.8124,36.50235 1.8164,8.80952 5.91179,16.01668 10.36757,21.4844 4.44167,5.45039 9.35887,9.34304 13.37119,11.97435 8.30201,5.44452 12.92202,6.34015 12.92202,6.34015 0,0 -3.44684,-3.11763 -9.6672,-10.1351 -5.95467,-6.71773 -14.33588,-17.56557 -17.23517,-31.68828 -1.95422,-9.51922 -0.69722,-20.08979 4.71773,-29.48392 4.80686,-8.33918 12.77765,-15.25673 22.36279,-17.15966 6.10188,-1.2114 13.31392,-0.4248 20.66467,4.38165 -5.4085,1.77416 -10.06864,4.44711 -13.75701,7.95516 -5.89966,5.61126 -9.01626,13.14946 -8.40351,21.21038 0.55529,7.3051 4.16101,14.6127 10.74658,20.6374 6.56787,6.00852 16.09216,10.74141 28.55642,13.03673 90.18165,16.60713 148.78292,65.87945 187.26467,113.67067 -18.80077,23.77237 2.37227,-2.99958 -16.74028,21.167 -30.42884,-0.95438 -56.34073,4.82802 -79.27622,15.00646 -23.50799,10.43249 -43.97711,25.53538 -62.74989,42.7519 -35.1735,32.25762 -80.45785,90.48188 -114.77559,126.41509 -50.4526,52.82761 -105.20188,93.07427 -180.531525,113.29446 -68.478659,18.38124 -147.273515,18.03104 -236.438555,1.40783 5.89831,-1.48652 12.08059,-3.25761 18.25237,-5.36909 15.70544,-5.37313 33.53233,-13.65727 46.86548,-26.99043 4.72134,-4.72133 8.82741,-10.02013 12.22072,-15.77056 -5.72115,2.78775 -11.56811,5.30953 -17.52217,7.55726 -42.8894,16.19131 -94.66606,19.37554 -152.47619,-5.86294 -40.78337,-17.80502 -75.57608,-25.29398 -103.86986,-25.06461 -28.28641,0.2293 -50.16233,8.19014 -64.68896,21.28286 -14.67575,13.22714 -21.39029,31.28832 -19.90086,50.43175 1.16209,14.93631 7.27411,30.31831 18.05287,44.67426 -20.08528,-6.61454 -33.26655,-20.53859 -39.84028,-37.0296 -8.36223,-20.97766 -6.21842,-46.35608 6.26191,-68.238 13.3897,-23.47635 38.398,-42.64478 74.89268,-50.00033 36.66183,-7.38924 83.99185,-2.72206 141.7268,19.43665 45.38259,17.41787 81.76845,7.12042 102.96329,-4.86936 16.49378,-9.33042 20.40651,-15.00875 20.40651,-15.00875 l -6.8363,-7.2983 z" id="path4393" inkscape:connector-curvature="0" sodipodi:nodetypes="cscsccccscc" inkscape:path-effect="#path-effect4451" inkscape:original-d="m -151.65616,687.42501 c -29.76545,27.88121 -73.69827,35.92373 -118.16007,18.85926 C -516.66601,611.54317 -559.91674,838.79899 -441,855 c -66.55635,-68.14214 -7.57198,-165.82739 154.75736,-94.95837 55.85541,24.3851 108.82843,23.85786 156.24264,5.95837 -20.5,20.5 -54.5,30.5 -86.5,36 491.78888,105.27208 462.54163,-304.25274 701.03763,-293.8894 l 20.77595,-26.26985 C 466.86205,433.07551 406.8168,380.61995 312.57064,363.26433 c -45.6089,-8.39897 -45.96195,-50.9117 -7.07108,-55.15433 -41.71929,-43.84063 -103.23758,36.76955 -31.81979,81.31728" />
    </g>
    <g id="g5865">
      <path style="opacity:1;fill:#eaf1f3;fill-opacity:1;fill-rule:nonzero;stroke:#c8dce1;stroke-width:10;stroke-linecap:butt;stroke-linejoin:miter;stroke-miterlimit:4;stroke-dasharray:none;stroke-dashoffset:7.80000019;stroke-opacity:1" d="m 813.39105,418.21763 c -57.09697,117.04211 -80.88741,233.31548 -71.33095,323.19805 3.53631,33.26046 146.60757,27.39311 135.20815,-2.41421 C 846.20932,657.78829 837.30274,537.3461 861.03066,426.60241 Z" id="path8331" inkscape:connector-curvature="0" sodipodi:nodetypes="csscc" clip-path="url(#clipPath5850)" />
      <path sodipodi:nodetypes="csscc" inkscape:connector-curvature="0" id="path5840" d="m 787.67066,476.42388 c -38.36658,96.77568 -53.5779,190.05556 -45.61056,264.9918 3.53631,33.26046 146.60757,27.39311 135.20815,-2.41421 -25.25077,-66.02594 -35.85968,-157.98074 -26.19408,-249.57279 -19.91658,-0.58441 -43.48523,-6.56044 -63.40351,-13.0048 z" style="opacity:1;fill:#1f0c32;fill-opacity:1;fill-rule:nonzero;stroke:none;stroke-width:10;stroke-linecap:butt;stroke-linejoin:miter;stroke-miterlimit:4;stroke-dasharray:none;stroke-dashoffset:7.80000019;stroke-opacity:1" />
      <path sodipodi:nodetypes="csc" inkscape:connector-curvature="0" id="path5820" d="m 791.81571,763.60256 c 40.68223,-62.44513 -22.90672,-91.0617 6.97644,-148.36061 29.10547,-55.80775 -9.64816,-86.1376 23.2159,-130.24599" style="opacity:1;fill:none;fill-opacity:1;fill-rule:nonzero;stroke:#e1e1e1;stroke-width:6;stroke-linecap:butt;stroke-linejoin:miter;stroke-miterlimit:4;stroke-dasharray:none;stroke-dashoffset:7.80000019;stroke-opacity:1" />
      <path style="opacity:1;fill:#160725;fill-opacity:1;fill-rule:nonzero;stroke:none;stroke-width:10;stroke-linecap:butt;stroke-linejoin:miter;stroke-miterlimit:4;stroke-dasharray:none;stroke-dashoffset:7.80000019;stroke-opacity:1" d="m 881.93838,737.21544 c 0,0 -6.16956,-12.50854 -14.69741,-48.14056 -4.19982,-17.54813 -9.17556,-42.93746 -12.1359,-75.28471 -2.93151,-32.03235 -4.2246,-74.88246 0.94149,-123.83676 0.18517,-1.7547 0.37777,-3.5086 0.5778,-5.26167 -1.74256,-0.0544 -3.48406,-0.13857 -5.22375,-0.25239 -15.25896,-0.99835 -37.97417,-4.93763 -62.1908,-12.77268 -1.48146,-0.47931 -2.95892,-0.97092 -4.43222,-1.47476 -0.58927,1.46137 -1.17427,2.92446 -1.75498,4.38926 -18.0269,45.47096 -32.28219,93.50897 -40.4619,141.69164 -8.16608,48.10242 -9.23979,90.23934 -5.47259,125.6715 0.32501,3.05678 1.4654,5.79778 3.14269,8.18125 1.65811,2.35621 3.83341,4.35701 6.25151,6.05236 4.98577,3.49556 11.5195,6.05104 18.5108,7.91516 14.96928,3.99132 33.65105,5.26276 50.42069,4.7637 18.71938,-0.55709 35.82559,-3.28605 47.7108,-7.51522 6.42166,-2.28504 11.83105,-5.17403 15.36009,-8.8529 1.93296,-2.01504 3.4021,-4.37317 4.05994,-7.10403 0.66489,-2.76014 0.40619,-5.52182 -0.60626,-8.16918 -13.4792,-35.24554 -20.88095,-73.02223 -24.80275,-104.5792 -3.94816,-31.76902 -4.747,-59.95596 -4.57653,-80.92796 0.35005,-43.06549 3.48746,-61.75488 3.48746,-61.75488 l -9.94478,-1.04946 c 0,0 -3.1868,18.99054 -3.54242,62.72311 -0.17312,21.29003 0.6368,49.93224 4.6523,82.24285 3.98183,32.03967 11.52406,70.67004 25.38645,106.91756 0.36521,0.95495 0.37808,1.6779 0.2336,2.27044 -0.15144,0.62111 -0.57132,1.47385 -1.56351,2.50817 -1.96182,2.04511 -5.67,4.28107 -11.49598,6.35416 -10.55979,3.75753 -26.55245,6.40221 -44.65588,6.94097 -16.21372,0.48251 -33.84741,-0.7778 -47.54689,-4.43056 -6.44198,-1.71765 -11.7142,-3.89421 -15.34641,-6.44078 -1.72877,-1.21206 -2.97239,-2.42962 -3.81007,-3.62017 -0.81838,-1.16311 -1.25561,-2.3043 -1.38089,-3.48265 -3.6595,-34.41914 -2.64377,-75.6324 5.38753,-122.94072 7.7877,-45.8735 21.19457,-91.71832 38.19774,-135.3513 17.89995,5.82876 39.15615,9.88593 54.96742,11.40366 -4.63785,47.59746 -3.31586,89.26063 -0.43838,120.70318 3.01011,32.89192 8.07477,58.75787 12.36916,76.70073 8.72216,36.44306 15.08257,49.3849 15.08257,49.3849 l 9.34026,-3.57206 z" id="path5842" inkscape:connector-curvature="0" sodipodi:nodetypes="cccssc" inkscape:path-effect="#path-effect5854" inkscape:original-d="m 877.26825,739.00147 c -25.25077,-66.02594 -35.85968,-157.98074 -26.19408,-249.57279 -19.7398,-1.29152 -43.48523,-6.56044 -63.40351,-13.0048 -38.36658,96.77568 -53.5779,190.05556 -45.61056,264.9918 3.53631,33.26046 146.60757,27.39311 135.20815,-2.41421 -25.25077,-66.02594 -35.85968,-157.98074 -26.19408,-249.57279" />
    </g>
    <g clip-path="url(#clipPath5670)" id="g5649">
      <path style="opacity:1;fill:#f6f9fa;fill-opacity:1;fill-rule:nonzero;stroke:none;stroke-width:10;stroke-linecap:butt;stroke-linejoin:miter;stroke-miterlimit:4;stroke-dasharray:none;stroke-dashoffset:7.80000019;stroke-opacity:1" d="M 553.88003,440.77799 C 690.89263,390.6857 757.99808,258.83238 733.26629,109.9677 700.45759,-87.513228 977.65124,-145.65396 1017.9604,62.743474 c 3.6986,19.121599 41.7189,-12.217225 47.3784,11.276262 11.1993,46.490544 -73.28198,9.410686 -67.90691,128.996184 18.36681,-9.76212 37.43011,-16.22016 55.86651,-20.26848 -31.0458,39.21578 -93.42002,69.95226 -165.97093,71.15699 17.96409,214.726 -110.15616,384.45182 -323.58375,418.78497 -51.10401,19.55466 -110.51347,21.21964 -167.78727,5.94427 -78.37874,62.77508 -228.53228,122.03412 -291.96542,109.30419 -47.480623,-9.52854 -44.380151,-139.3732 -2.90949,-142.30236 93.89959,-6.63233 186.15636,-24.59516 274.79829,-62.50197 14.43917,-6.17476 27.82002,0.45243 36.54178,15.06449 35.91948,-47.24431 44.34417,-121.91471 141.45842,-157.42003 z" id="path10593" inkscape:connector-curvature="0" sodipodi:nodetypes="sssscccccssscs" />
      <path inkscape:connector-curvature="0" inkscape:original-d="m 663.88589,595.66284 c -62.86468,89.136 -180.15998,112.85514 -285.85513,77.41767" inkscape:path-effect="#path-effect10583" id="path10539" d="m 663.88589,595.66284 c 0,0 -3.87916,3.90092 -13.15429,12.9644 -8.12049,7.9352 -25.00511,24.17267 -48.45598,39.19267 -13.87977,8.88983 -35.95877,20.75548 -66.47319,28.41093 -30.26323,7.59242 -56.94892,8.05848 -73.93928,7.38593 -28.50346,-1.1283 -54.17594,-5.62204 -65.04919,-7.47939 -13.25342,-2.26392 -18.7832,-3.05687 -18.7832,-3.05687 0,0 4.66879,3.1465 17.48611,7.88571 11.76913,4.35165 34.87754,11.41262 65.94985,12.64651 17.56835,0.69764 45.28222,0.22879 76.77035,-7.67011 31.8014,-7.97749 54.87651,-20.37071 69.43425,-29.69771 25.37147,-16.25525 39.88816,-34.2902 46.88416,-44.39616 7.55711,-10.91651 9.33041,-16.18591 9.33041,-16.18591 z" style="opacity:1;fill:#c8dce1;fill-opacity:1;fill-rule:nonzero;stroke:none;stroke-width:10;stroke-linecap:butt;stroke-linejoin:miter;stroke-miterlimit:4;stroke-dasharray:none;stroke-dashoffset:7.80000019;stroke-opacity:1" />
      <path sodipodi:nodetypes="cssssccc" inkscape:connector-curvature="0" id="path10548" d="m 391.15785,619.58427 c 0,0 4.43406,-1.1341 12.82937,-7.76419 9.16269,-7.23611 19.44107,-18.50518 32.40395,-42.9782 4.98515,-9.4116 12.5783,-24.64118 19.14621,-36.27977 8.19063,-14.5141 18.66414,-30.86353 33.58512,-45.83697 15.00132,-15.05406 35.66783,-29.98815 66.47431,-41.25112 61.85991,-22.61621 114.06575,-63.37898 147.96625,-121.59933 33.68899,-57.85712 48.38164,-131.98689 34.63562,-214.72644 -7.79955,-46.946823 2.32722,-85.99939 23.30265,-115.1645732 20.96166,-29.1460338 52.82124,-48.3936998 87.61419,-54.9181018 0,-3e-6 1.6e-4,-3e-5 1.6e-4,-3e-5 33.41646,-6.26624 69.29246,-0.693348 99.3554,19.108036 29.98959,19.75308 54.61092,53.978034 64.58032,105.519416 0.6475,3.347807 2.1916,6.188395 4.8386,8.10861 2.5253,1.831905 5.4595,2.390345 8.0964,2.464937 5,0.141443 11.1123,-1.491888 16.0714,-2.656914 5.5214,-1.297142 9.9559,-2.127787 13.2669,-1.629768 1.482,0.22291 2.4993,0.687976 3.1773,1.298885 0.6751,0.608217 1.4574,1.759891 1.9759,3.911972 1.2562,5.214876 1.0372,8.715465 0.1964,11.228163 -0.8334,2.490658 -2.4658,4.57388 -5.0703,6.6246 -2.7154,2.138088 -6.2399,4.054527 -10.5729,6.265315 -4.2373,2.161923 -9.106,4.538403 -14.0441,7.516963 -10.3735,6.25699 -20.8766,15.07461 -28.3676,30.45031 -7.44645,15.28403 -11.51778,36.25614 -10.18247,65.96435 0.1202,2.67414 0.28093,5.3463 0.48216,8.01557 2.26058,-1.32091 4.54753,-2.59615 6.85947,-3.82496 13.41634,-7.13092 26.65674,-12.15688 38.75564,-15.73223 -15.7875,15.57486 -35.9921,28.29157 -57.53864,37.53039 -27.06353,11.60441 -55.36632,17.47178 -81.96267,19.09495 -37.21514,2.27123 -68.09555,-2.81612 -84.44564,-5.9154 -17.88692,-3.3906 -25.41009,-5.31496 -25.41009,-5.31496 0,0 6.57275,4.24471 24.14192,10.15144 16.4413,5.52755 47.0051,13.45982 86.33206,11.05504 27.60717,-1.68813 57.05905,-7.78379 85.296,-19.89027 27.94876,-11.98293 54.24426,-29.78775 72.27146,-52.55904 2.6421,-3.33737 5.1197,-6.80171 7.4241,-10.38065 -4.1588,0.69123 -8.299,1.48932 -12.4167,2.39349 -14.57,3.19934 -31.9739,8.40955 -50.0246,17.12935 -0.2957,-24.37523 3.5131,-41.29293 9.3553,-53.30948 6.4116,-13.18786 15.3904,-20.74288 24.5952,-26.29498 4.5361,-2.73604 9.0037,-4.91911 13.4253,-7.17554 4.2832,-2.1858 8.6271,-4.48926 12.2132,-7.31287 3.6349,-2.862081 6.7384,-6.441045 8.3671,-11.308076 1.608,-4.805456 1.5924,-10.308466 0.042,-16.743432 -0.8915,-3.700769 -2.5254,-6.709398 -5.026,-8.964472 -2.4977,-2.252287 -5.4113,-3.349432 -8.3616,-3.793192 -5.519,-0.830129 -11.87,0.568673 -17.0413,1.783566 -5.7328,1.346778 -10.1588,2.490441 -13.5017,2.395878 -1.5421,-0.04363 -2.2265,-0.359745 -2.5072,-0.563384 -0.1679,-0.121797 -0.617,-0.488938 -0.8925,-1.91321 -10.423,-53.8869761 -36.40447,-90.531517 -68.88116,-111.932589 -32.45705,-21.388131 -70.99075,-27.323614 -106.71563,-20.624502 0,0 -1.7e-4,3.7e-5 -1.7e-4,3.7e-5 -37.16867,6.969893 -71.34478,27.558884 -93.90534,58.939042 -22.6451,31.497737 -33.23085,73.268182 -25.03321,122.611164 13.39349,80.61761 -0.98175,152.35623 -33.40743,208.04687 -32.62202,56.02783 -82.88782,95.35734 -142.76329,117.24802 -32.23237,11.78429 -54.12394,27.53434 -70.1186,43.58344 -15.83613,15.89003 -26.82078,33.1051 -35.21615,47.98202 -6.62542,11.74048 -14.52098,27.53973 -19.27933,36.52053 -6.45978,12.19205 -10.8585,20.09028 -15.67297,27.75014 -4.46556,7.10474 -8.29426,12.34616 -11.4266,16.36842 -6.24606,8.0206 -9.29167,11.29773 -9.29167,11.29773 z" style="opacity:1;fill:#c8dce1;fill-opacity:1;fill-rule:nonzero;stroke:none;stroke-width:10;stroke-linecap:butt;stroke-linejoin:miter;stroke-miterlimit:4;stroke-dasharray:none;stroke-dashoffset:7.80000019;stroke-opacity:1" inkscape:original-d="M 391.15785,619.58427 C 448.06468,577.77391 440.07709,482.38475 553.88003,440.77799 690.89263,390.6857 757.99808,258.83238 733.26629,109.9677 700.45759,-87.513228 977.65124,-145.65396 1017.9604,62.743474 c 3.6986,19.121599 41.7189,-12.217225 47.3784,11.276262 11.1993,46.490544 -73.28198,9.410686 -67.90691,128.996184 18.36681,-9.76212 37.43011,-16.22016 55.86651,-20.26848 -44.373,56.0501 -152.74433,94.77847 -264.12124,54.34634" inkscape:path-effect="#path-effect10585" />
    </g>
    <g id="g4604" clip-path="url(#clipPath6028)">
      <path style="opacity:1;fill:white;fill-opacity:1;fill-rule:nonzero;stroke:none;stroke-width:4.5;stroke-linecap:butt;stroke-linejoin:miter;stroke-miterlimit:4;stroke-dasharray:none;stroke-dashoffset:7.80000019;stroke-opacity:1" d="m 980.44454,-44.530331 c -25.25825,16.404698 -37.20517,42.5974083 -46.5388,68.76467 24.1793,8.655961 57.91659,5.705893 83.19566,-16.2144176" id="path4584" inkscape:connector-curvature="0" sodipodi:nodetypes="ccc" />
      <g id="g4621" clip-path="url(#clipPath4630)">
        <g id="g4570" clip-path="url(#clipPath4578)" transform="translate(-2.4841289,3.2293676)">
          <ellipse style="opacity:1;fill:url(#linearGradient5138);fill-opacity:1;fill-rule:nonzero;stroke:none;stroke-width:1;stroke-linecap:butt;stroke-linejoin:miter;stroke-miterlimit:4;stroke-dasharray:none;stroke-dashoffset:7.80000019;stroke-opacity:1" id="path5875" inkscape:connector-curvature="0" transform="rotate(55.864117,988.71998,-24.037084)" cx="988.71997" cy="-24.037085" rx="33.882965" ry="20.334299" />
          <path style="opacity:1;fill:#9ee7bd;fill-opacity:1;fill-rule:nonzero;stroke:none;stroke-width:1;stroke-linecap:butt;stroke-linejoin:miter;stroke-miterlimit:4;stroke-dasharray:none;stroke-dashoffset:7.80000019;stroke-opacity:1" d="M 994.375,-21 988,18.75 968.875,10.875 Z" id="path4519" inkscape:connector-curvature="0" sodipodi:nodetypes="cccc" />
          <path sodipodi:nodetypes="cccc" inkscape:connector-curvature="0" id="path4516" d="m 994.375,-21 -29,23.8749995 L 975,13.625 Z" style="opacity:1;fill:#5dd68e;fill-opacity:1;fill-rule:nonzero;stroke:none;stroke-width:1;stroke-linecap:butt;stroke-linejoin:miter;stroke-miterlimit:4;stroke-dasharray:none;stroke-dashoffset:7.80000019;stroke-opacity:1" />
          <ellipse ry="15.220738" rx="27.355436" cy="-833.37439" cx="534.79706" transform="rotate(55.864116)" inkscape:connector-curvature="0" id="path4506" style="opacity:1;fill:black;fill-opacity:1;fill-rule:nonzero;stroke:none;stroke-width:0.83596146;stroke-linecap:butt;stroke-linejoin:miter;stroke-miterlimit:4;stroke-dasharray:none;stroke-dashoffset:7.80000019;stroke-opacity:1" />
          <path inkscape:connector-curvature="0" d="m 978.1665,-35.778639 c 4.63399,4.947572 9.26798,9.704168 13.90198,16.002962 m -9.82575,4.984172 c -1.51306,-13.637043 25.87207,-0.15922 18.68117,7.5040992 -7.5164,8.01014796 -15.25737,-22.3113132 -0.1681,-22.4702102" style="opacity:0.5;fill:none;fill-opacity:1;fill-rule:nonzero;stroke:white;stroke-width:1.1733942;stroke-linecap:butt;stroke-linejoin:miter;stroke-miterlimit:4;stroke-dasharray:none;stroke-dashoffset:7.80000019;stroke-opacity:1" id="path5987" sodipodi:nodetypes="cccsc" />
          <ellipse transform="rotate(-11.72928)" ry="11.110647" rx="6.0779581" cy="171.29817" cx="963.11554" id="path4512" style="opacity:1;fill:white;fill-opacity:1;fill-rule:nonzero;stroke:none;stroke-width:1;stroke-linecap:butt;stroke-linejoin:miter;stroke-miterlimit:4;stroke-dasharray:none;stroke-dashoffset:7.80000019;stroke-opacity:1" />
          <ellipse style="opacity:1;fill:white;fill-opacity:1;fill-rule:nonzero;stroke:none;stroke-width:0.30410138;stroke-linecap:butt;stroke-linejoin:miter;stroke-miterlimit:4;stroke-dasharray:none;stroke-dashoffset:7.80000019;stroke-opacity:1" id="ellipse4514" cx="983.2226" cy="91.294899" rx="1.9646245" ry="3.3375497" transform="rotate(-6.3200005)" />
        </g>
      </g>
      <path sodipodi:nodetypes="cccc" inkscape:connector-curvature="0" id="path4638" d="m 977.03033,-45.707108 c -23.66726,16.227922 -36.04096,40.1099717 -43.12459,69.941447 12.68882,-28.4671445 25.53791,-50.468728 46.92789,-65.671525 z" style="opacity:1;fill:black;fill-opacity:1;fill-rule:nonzero;stroke:none;stroke-width:4.5;stroke-linecap:butt;stroke-linejoin:miter;stroke-miterlimit:4;stroke-dasharray:none;stroke-dashoffset:7.80000019;stroke-opacity:1" />
    </g>
    <g id="g5605">
      <path sodipodi:nodetypes="ccsssccc" inkscape:connector-curvature="0" id="path4666" d="m 496.02506,687.90668 c -32.70856,2.76663 -66.74997,-0.38667 -100.06861,-9.27301 -78.37874,62.77508 -228.53228,122.03412 -291.96542,109.30419 -47.480623,-9.52854 -44.380151,-139.3732 -2.90949,-142.30236 93.89959,-6.63233 186.15636,-24.59516 274.79829,-62.50197 14.43917,-6.17476 27.82002,0.45243 36.54178,15.06449 8.64578,-11.37166 15.69863,-24.33227 22.77874,-37.95323 10.40571,44.64813 33.74843,94.28781 60.82471,127.66189 z" style="opacity:1;fill:#230f38;fill-opacity:1;fill-rule:nonzero;stroke:none;stroke-width:10;stroke-linecap:butt;stroke-linejoin:miter;stroke-miterlimit:4;stroke-dasharray:none;stroke-dashoffset:7.80000019;stroke-opacity:1" />
      <path style="opacity:1;fill:none;fill-opacity:1;fill-rule:nonzero;stroke:white;stroke-width:6;stroke-linecap:butt;stroke-linejoin:miter;stroke-miterlimit:4;stroke-dasharray:none;stroke-dashoffset:7.80000019;stroke-opacity:1" d="m 71.044781,738.25888 c 115.885649,19.26101 137.718679,-79.47707 250.606129,-79.47706 63.57006,10e-6 88.9655,-27.39563 141.05226,-21.1528" id="path5333" inkscape:connector-curvature="0" sodipodi:nodetypes="csc" />
      <path d="M 399.43939,675.85301 C 322.222,739.5669 168.40083,800.86379 103.99103,787.93786 56.510407,778.40932 59.610879,648.56466 101.08154,645.6355 c 93.89959,-6.63233 186.15636,-24.59517 274.79829,-62.50197 14.71152,-6.29123 28.32442,0.70699 36.84658,16.03277 m 19.52814,-62.33357 c 4.48284,54.68133 38.45906,128.68018 75.96363,164.35273" style="opacity:1;fill:none;fill-opacity:1;fill-rule:nonzero;stroke:#160725;stroke-width:10;stroke-linecap:butt;stroke-linejoin:miter;stroke-miterlimit:4;stroke-dasharray:none;stroke-dashoffset:7.80000019;stroke-opacity:1" id="path5335" clip-path="url(#clipPath5352)" />
      <path style="opacity:1;fill:#230f38;fill-opacity:1;fill-rule:nonzero;stroke:none;stroke-width:10;stroke-linecap:butt;stroke-linejoin:miter;stroke-miterlimit:4;stroke-dasharray:none;stroke-dashoffset:7.80000019;stroke-opacity:1" d="m 386.96419,676.09321 18.56155,4.94975 -9.19239,-13.61181 z" id="path4670" inkscape:connector-curvature="0" />
      <path inkscape:original-d="m 391.15785,619.58427 c 56.90683,-41.81036 48.91924,-137.19952 162.72218,-178.80628 l 110.00586,154.88485 c -62.86468,89.136 -180.15998,112.85514 -285.85513,77.41767" inkscape:path-effect="#path-effect5339" sodipodi:nodetypes="cccc" inkscape:connector-curvature="0" id="path5337" d="m 391.15785,619.58427 c 0,0 4.43406,-1.1341 12.82937,-7.76419 9.16269,-7.23611 19.44107,-18.50518 32.40395,-42.9782 2.26547,-4.27705 13.35868,-26.02405 19.14621,-36.27976 8.03731,-14.24242 18.69073,-31.03019 34.1217,-46.37296 15.08445,-14.99825 34.81253,-28.78118 62.37289,-39.37841 21.56,30.35582 76.78533,108.11138 52.77454,74.30493 13.05896,18.38661 38.67207,54.44909 52.93578,74.53195 -26.64995,36.482 -61.94872,60.2386 -99.43474,73.73736 -38.00573,13.6859 -73.35062,15.14594 -96.4444,14.23178 -28.50346,-1.1283 -54.17594,-5.62204 -65.04919,-7.47939 -13.25342,-2.26392 -18.7832,-3.05687 -18.7832,-3.05687 0,0 4.66879,3.1465 17.48611,7.88571 11.76913,4.35165 34.87754,11.41262 65.94985,12.64651 23.86966,0.94786 60.6121,-0.53767 100.2313,-14.80779 40.15906,-14.46457 78.08778,-40.29519 106.27389,-80.26035 l 2.03956,-2.8919 -2.04913,-2.88511 C 649.62803,566.95343 631.29372,541.13929 612.95941,515.32515 590.30716,483.43149 580.60873,469.7764 557.95649,437.88274 l -2.20955,-3.11099 -3.58381,1.31026 c -30.78469,11.255 -52.7867,26.34976 -69.54927,43.01482 -16.37766,16.28239 -27.55294,33.96231 -35.78544,48.55061 -5.82962,10.33031 -17.26663,32.72183 -19.27933,36.52054 -6.45978,12.19205 -10.8585,20.09028 -15.67297,27.75014 -4.46556,7.10474 -8.29426,12.34616 -11.4266,16.36842 -6.24606,8.0206 -9.29167,11.29773 -9.29167,11.29773 z" style="opacity:1;fill:#160725;fill-opacity:1;fill-rule:nonzero;stroke:none;stroke-width:10;stroke-linecap:butt;stroke-linejoin:miter;stroke-miterlimit:4;stroke-dasharray:none;stroke-dashoffset:7.80000019;stroke-opacity:1" clip-path="url(#clipPath5356)" />
    </g>
    <g id="g3348" transform="matrix(0.26844023,0.29160134,-0.29160134,0.26844023,555.15686,453.8655)">
      <g id="g4" style="stroke-width:6">
        <path style="fill:none;stroke:#9f7800" d="M 275.0742,369.63915 158.57275,215.83655 82.380457,38.571754 M 87.60678,257.1415 231.65765,173.2983" id="path6" inkscape:connector-curvature="0" />
        <path style="fill:#f8e22d;stroke:#e2cb03" d="m 79.673947,21.897754 c -39.66287,-67.1666 -88.8128696,54.2459 -8.20105,41.4194 99.628863,-15.852 189.537053,13.5071 145.995153,118.239996 112.5719,13.8679 93.69375,106.5451 30.70237,185.3443 -50.96767,63.7579 78.87749,80.9882 40.06528,13.3262 90.51645,-147.5225 57.8368,-201.5562 -31.17499,-221.7151 C 283.49606,71.158454 252.65425,16.055754 79.673947,21.897754 Z" id="path8" inkscape:connector-curvature="0" />
        <path style="fill:#e2cb00;stroke:#dcb005" d="m 227.913,230.0761 c 9.47881,-0.034 65.48587,-72.9055 56.34568,-87.3935 -8.08331,-15.1038 -99.10887,-2.3966 -103.81949,5.8287 -3.03437,5.2984 16.62962,18.7012 34.48785,34.5252 4.93863,23.3437 6.88025,47.0611 12.98596,47.0396 z M 44.46389,326.1329 97.41545,295.3126 120.3907,238.0602 59.26089,229.7597 6.3093297,260.5791 46.87511,280.8486 Z" id="path10" inkscape:connector-curvature="0" />
        <path style="fill:#f6fcfd;stroke:#c0dde3;stroke-miterlimit:20" d="m 76.93718,414.856 c 13.71613,-41.1484 57.96053,-38.1484 70.15263,-73.2007 7.11207,61.4686 46.70439,85.9008 90.39277,79.8047 -22.8602,-36.0682 5.55603,-69.6767 -25.94024,-107.7769 28.95625,13.208 55.9125,-2.46 77.24868,19.3842 3.55603,-47.2445 -28.95624,-65.0246 -65.53256,-66.5486 7.62006,-29.9723 23.8762,-51.8165 56.38848,-56.3885 C 242.05462,181.174 172.90198,195.826 165.78992,251.7065 143.43773,218.6863 64.7931,216.7822 55.64902,267.5827 c 26.41623,-9.144 46.19639,7.0641 50.76843,23.3202 -48.26042,23.8762 -63.51656,90.4248 -29.48027,123.9531 z" id="path12" inkscape:connector-curvature="0" />
      </g>
      <path d="m 157.17149,203.6763 c -25.38146,25.677 -26.91672,63.4718 0.75782,89.3183 -28.02399,0.5964 -55.03722,16.0039 -67.81055,53.8594 16.08374,-31.6874 40.93,-46.3075 70.76953,-46.9785 -6.65396,37.3364 6.82176,73.0816 40.23047,74.7285 -31.67984,-10.5599 -42.11671,-48.1343 -33.23438,-79.3184 27.10177,-26.0503 60.39967,-27.3219 88.19922,-13.7734 -20.2328,-20.4153 -61.7397,-18.9179 -89.8457,6.5156 -5.11839,-39.5135 15.32329,-71.732 57.18359,-82.4101 -37.9284,6.1419 -66.93378,38.8052 -62.78906,80.4785 -21.51955,-24.6546 -22.03152,-56.5828 -3.46094,-82.4199 z" id="path14" inkscape:connector-curvature="0" style="fill:#fcc815" />
    </g>
    <g id="g4624">
      <path inkscape:connector-curvature="0" d="m 871.32702,168.02481 c -1.9866,-7.8832 -1.26933,-14.87212 1.9008,-20.66077 l 4.10169,2.87352 c -3.7463,4.63627 -5.73889,10.6526 -6.00249,17.78725 z m -8.28178,-2.62692 c -1.57932,-8.39411 0.48753,-15.3565 5.76065,-21.54458 l 4.03739,3.17619 c -5.46068,4.24591 -8.91046,10.05385 -9.79804,18.36839 z M 855.375,161.25 c 0,-8.5 3.125,-16.1875 9.25,-21.375 l 3.5625,3.875 c -6.25,3.6875 -10.4375,9.1875 -12.8125,17.5 z m -24.8565,-5.32106 c 10.46353,-7.35672 19.08571,-15.63252 25.36846,-24.56128 l 5.12856,4.92098 c -6.29826,8.32499 -18.47065,16.14491 -30.49702,19.6403 z m -5.5423,-7.78219 c 10.29534,-5.24306 19.68422,-12.63892 27.53352,-21.19245 l 4.53522,5.47263 c -7.71644,7.70677 -20.06031,13.96836 -32.06874,15.71982 z" style="opacity:1;fill:black;fill-opacity:1;fill-rule:nonzero;stroke:none;stroke-width:1;stroke-linecap:butt;stroke-linejoin:miter;stroke-miterlimit:4;stroke-dasharray:none;stroke-dashoffset:7.80000019;stroke-opacity:1" id="path8342" />
      <g clip-path="url(#clipPath8376)" id="g8365">
        <g id="g8347" clip-path="url(#clipPath8357)">
          <ellipse transform="rotate(-36.818658)" ry="71.759705" rx="58.699657" cy="614.60052" cx="663.60608" id="path7614" style="opacity:1;fill:white;fill-opacity:1;fill-rule:nonzero;stroke:none;stroke-width:1;stroke-linecap:butt;stroke-linejoin:miter;stroke-miterlimit:20;stroke-dasharray:none;stroke-dashoffset:7.80000019;stroke-opacity:1" />
          <g clip-path="url(#clipPath8282)" id="g8274">
            <ellipse style="opacity:1;fill:url(#linearGradient4563);fill-opacity:1;fill-rule:nonzero;stroke:none;stroke-width:1.22876322;stroke-linecap:butt;stroke-linejoin:miter;stroke-miterlimit:20;stroke-dasharray:none;stroke-dashoffset:7.80000019;stroke-opacity:1" id="path7636" cx="753.51086" cy="529.63873" rx="46.693092" ry="58.366364" transform="rotate(-30)" />
            <path sodipodi:nodetypes="cccc" inkscape:connector-curvature="0" id="path8255" d="m 932.50227,79.936328 -22.74874,97.823382 -45.7193,-21.15255 z" style="opacity:1;fill:#9ee7bd;fill-opacity:1;fill-rule:nonzero;stroke:none;stroke-width:1;stroke-linecap:butt;stroke-linejoin:miter;stroke-miterlimit:4;stroke-dasharray:none;stroke-dashoffset:7.80000019;stroke-opacity:1" />
            <path style="opacity:1;fill:#5dd68e;fill-opacity:1;fill-rule:nonzero;stroke:none;stroke-width:1;stroke-linecap:butt;stroke-linejoin:miter;stroke-miterlimit:4;stroke-dasharray:none;stroke-dashoffset:7.80000019;stroke-opacity:1" d="m 932.50227,79.936328 -77.25662,62.821592 22.57716,22.68807 z" id="path8253" inkscape:connector-curvature="0" sodipodi:nodetypes="cccc" />
            <ellipse transform="rotate(-30)" ry="44.373009" rx="36.725151" cy="530.04596" cx="759.38757" id="ellipse8228" style="opacity:1;fill:black;fill-opacity:1;fill-rule:nonzero;stroke:none;stroke-width:0.96644962;stroke-linecap:butt;stroke-linejoin:miter;stroke-miterlimit:20;stroke-dasharray:none;stroke-dashoffset:7.80000019;stroke-opacity:1" />
            <ellipse transform="rotate(10.947237)" ry="7.0634766" rx="4.9864206" cy="-82.980217" cx="915.86511" id="ellipse8247" style="opacity:1;fill:white;fill-opacity:1;fill-rule:nonzero;stroke:none;stroke-width:0.28906786;stroke-linecap:butt;stroke-linejoin:miter;stroke-miterlimit:4;stroke-dasharray:none;stroke-dashoffset:7.80000019;stroke-opacity:1" />
            <ellipse style="opacity:1;fill:white;fill-opacity:1;fill-rule:nonzero;stroke:none;stroke-width:1;stroke-linecap:butt;stroke-linejoin:miter;stroke-miterlimit:4;stroke-dasharray:none;stroke-dashoffset:7.80000019;stroke-opacity:1" id="path8239" cx="893.50787" cy="-53.004051" rx="17.25" ry="24.704805" transform="rotate(7.7812409)" />
          </g>
        </g>
      </g>
      <path id="path4550" style="opacity:1;fill:black;fill-opacity:1;fill-rule:nonzero;stroke:none;stroke-width:0.5;stroke-linecap:butt;stroke-linejoin:miter;stroke-miterlimit:20;stroke-dasharray:none;stroke-dashoffset:7.80000019;stroke-opacity:1" d="m 909.56321,34.450724 1.26546,-7.381817 c 31.64366,15.348121 50.45396,40.259115 53.49042,71.31478 l -2.06865,0.333253 C 953.83634,69.251699 935.29777,47.507226 909.56321,34.450724 Z M 820.49,139.85322 c 10.68858,-4.46583 20.75712,-10.31251 29.89007,-18.50045 25.10667,-22.508804 45.04754,-55.508378 55.83794,-88.08549 3.77538,-11.398191 -2.67247,-19.962757 -11.33453,-24.1170096 15.62787,1.5987956 22.30225,13.1524796 17.98056,27.4619146 -8.84777,29.29559 -31.92201,68.751185 -58.26196,90.458315 -9.27968,7.64752 -21.87516,12.52614 -34.11208,12.78272 z" inkscape:connector-curvature="0" sodipodi:nodetypes="ccccccsscssc" />
      <path sodipodi:nodetypes="ccc" inkscape:connector-curvature="0" id="path7632" d="m 877.92332,156.47722 c 19.26327,-29.97834 56.15699,-51.10179 88.38835,-58.377944 -41.20153,2.681984 -71.31423,22.315504 -88.38835,58.377944 z" style="opacity:1;fill:#c8dce1;fill-opacity:1;fill-rule:nonzero;stroke:none;stroke-width:1;stroke-linecap:butt;stroke-linejoin:miter;stroke-miterlimit:4;stroke-dasharray:none;stroke-dashoffset:7.80000019;stroke-opacity:1" />
    </g>
    <path style="opacity:1;fill:#c8dce1;fill-opacity:1;fill-rule:nonzero;stroke:none;stroke-width:1;stroke-linecap:butt;stroke-linejoin:miter;stroke-miterlimit:20;stroke-dasharray:none;stroke-dashoffset:7.80000019;stroke-opacity:1" d="m 1042.7718,81.481918 c 3.3536,2.463903 5.9649,1.822521 7.3959,-1.97433 1.1437,7.323527 -4.6824,8.767837 -7.3959,1.97433 z" id="path7620" inkscape:connector-curvature="0" sodipodi:nodetypes="ccc" />
    <path sodipodi:nodetypes="cc" inkscape:connector-curvature="0" id="path10550" d="M 563.23119,672.86244 C 777.17131,638.35625 905.29156,468.63043 887.58943,254.03141" style="opacity:1;fill:none;fill-opacity:1;fill-rule:nonzero;stroke:#c8dce1;stroke-width:10;stroke-linecap:butt;stroke-linejoin:miter;stroke-miterlimit:4;stroke-dasharray:none;stroke-dashoffset:7.80000019;stroke-opacity:1" />
    <g id="g5798">
      <g id="g8451" clip-path="url(#clipPath5794)">
        <path sodipodi:nodetypes="csscc" inkscape:connector-curvature="0" id="path8447" d="M 810.39105,421.21763 C 717.29408,536.25974 689.50364,672.60418 708.0601,763.48675 c 6.69136,32.77177 147.56846,27.00765 135.20815,-2.41421 -37.05893,-88.21318 -36.96551,-217.72644 14.76241,-331.47013 z" style="opacity:1;fill:#f6f9fa;fill-opacity:1;fill-rule:nonzero;stroke:none;stroke-width:10;stroke-linecap:butt;stroke-linejoin:miter;stroke-miterlimit:4;stroke-dasharray:none;stroke-dashoffset:7.80000019;stroke-opacity:1" />
        <path style="opacity:1;fill:#c8dce1;fill-opacity:1;fill-rule:nonzero;stroke:none;stroke-width:10;stroke-linecap:butt;stroke-linejoin:miter;stroke-miterlimit:4;stroke-dasharray:none;stroke-dashoffset:7.80000019;stroke-opacity:1" d="m 810.39105,421.21763 c 0,0 -4.77574,3.64759 -14.42249,14.4882 -9.11004,10.23748 -24.56353,29.41845 -40.14647,57.78097 -17.69147,32.20027 -36.15575,74.21385 -47.54774,123.54158 -11.30785,48.96342 -14.55345,101.22369 -5.11318,147.45863 1.17904,5.7745 5.17562,10.27377 10.27837,13.63532 5.04311,3.32225 11.67829,5.88328 19.05619,7.79102 14.47206,3.74211 32.78848,5.21021 50.46087,4.68671 17.69256,-0.52409 34.86601,-3.04511 47.03419,-7.42489 6.12777,-2.20562 11.50421,-5.06227 14.96704,-8.8183 1.83128,-1.98634 3.22361,-4.33022 3.79663,-7.06488 0.5788,-2.76229 0.23314,-5.51476 -0.87647,-8.15603 -16.93394,-40.30868 -24.48516,-85.63603 -25.607,-128.22928 -1.12555,-42.73402 4.17498,-80.37552 10.51302,-109.31999 6.93439,-31.66788 15.60688,-59.5829 19.24184,-71.50992 4.40609,-14.45722 6.00481,-20.47436 6.00481,-20.47436 0,0 -3.85487,4.93305 -10.65052,18.62574 -6.37861,12.8524 -16.8757,37.01884 -24.36451,71.22016 -6.47293,29.56185 -11.89138,68.02393 -10.74048,111.72353 1.14569,43.50227 8.85479,90.11315 26.38336,131.83728 0.41336,0.98394 0.43793,1.70164 0.32232,2.24563 -0.12133,0.57088 -0.48733,1.36078 -1.37519,2.32383 -1.8517,2.00848 -5.43557,4.18413 -11.00152,6.18753 -10.78453,3.88175 -26.80572,6.33067 -43.94362,6.83834 -17.05376,0.50517 -34.37459,-0.93705 -47.66133,-4.37267 -6.84259,-1.76932 -12.26547,-3.97882 -16.11499,-6.53532 -3.79513,-2.52038 -5.46742,-4.96817 -5.92515,-7.20998 -9.08058,-44.47324 -6.01941,-95.23567 5.0607,-143.21162 11.14351,-48.25049 29.21922,-89.39851 46.56703,-120.97335 14.05735,-25.58587 29.52741,-50.11704 35.39013,-59.60682 7.55202,-12.22421 10.41416,-17.47706 10.41416,-17.47706 z" id="path8226" inkscape:connector-curvature="0" sodipodi:nodetypes="cssc" inkscape:path-effect="#path-effect8445" inkscape:original-d="M 810.39105,421.21763 C 717.29408,536.25974 689.50364,672.60418 708.0601,763.48675 c 6.69136,32.77177 147.56846,27.00765 135.20815,-2.41421 -37.05893,-88.21318 -36.96551,-217.72644 14.76241,-331.47013" />
      </g>
      <g id="g5774">
        <path style="opacity:1;fill:#230f38;fill-opacity:1;fill-rule:nonzero;stroke:none;stroke-width:10;stroke-linecap:butt;stroke-linejoin:miter;stroke-miterlimit:4;stroke-dasharray:none;stroke-dashoffset:7.80000019;stroke-opacity:1" d="m 760.92522,494.58688 c -53.12858,96.01893 -67.59154,196.77539 -52.86512,268.89987 6.69136,32.77177 147.56846,27.00765 135.20815,-2.41421 -28.33496,-67.44709 -34.95062,-159.03824 -13.37374,-249.26439 -24.25722,-2.44506 -47.0662,-8.6555 -68.96929,-17.22127 z" id="path5689" inkscape:connector-curvature="0" sodipodi:nodetypes="csscc" />
        <path sodipodi:nodetypes="csc" inkscape:connector-curvature="0" id="path5333-5" d="m 754.98728,784.60256 c 44.92487,-61.73802 -21.09739,-91.84556 11.09776,-154.36061 25.04993,-48.64078 3.30159,-78.72339 30.50879,-124.24599" style="opacity:1;fill:none;fill-opacity:1;fill-rule:nonzero;stroke:white;stroke-width:6;stroke-linecap:butt;stroke-linejoin:miter;stroke-miterlimit:4;stroke-dasharray:none;stroke-dashoffset:7.80000019;stroke-opacity:1" />
        <path clip-path="url(#clipPath5770)" inkscape:original-d="M 810.39105,421.21763 C 717.29408,536.25974 689.50364,672.60418 708.0601,763.48675 c 6.69136,32.77177 147.56846,27.00765 135.20815,-2.41421 -37.05893,-88.21318 -36.96551,-217.72644 14.76241,-331.47013" inkscape:path-effect="#path-effect5763" sodipodi:nodetypes="cssc" inkscape:connector-curvature="0" id="path5691" d="m 810.39105,421.21763 c 0,0 -4.77574,3.64759 -14.42249,14.4882 -9.11004,10.23748 -24.56353,29.41845 -40.14647,57.78097 -17.69147,32.20027 -36.15575,74.21385 -47.54774,123.54158 -11.30785,48.96342 -14.55345,101.22369 -5.11318,147.45863 1.17904,5.7745 5.17562,10.27377 10.27837,13.63532 5.04311,3.32225 11.67829,5.88328 19.05619,7.79102 14.47206,3.74211 32.78848,5.21021 50.46087,4.68671 17.69256,-0.52409 34.86601,-3.04511 47.03419,-7.42489 6.12777,-2.20562 11.50421,-5.06227 14.96704,-8.8183 1.83128,-1.98634 3.22361,-4.33022 3.79663,-7.06488 0.5788,-2.76229 0.23314,-5.51476 -0.87647,-8.15603 -16.93394,-40.30868 -24.48516,-85.63603 -25.607,-128.22928 -1.12555,-42.73402 4.17498,-80.37552 10.51302,-109.31999 6.93439,-31.66788 15.60688,-59.5829 19.24184,-71.50992 4.40609,-14.45722 6.00481,-20.47436 6.00481,-20.47436 0,0 -3.85487,4.93305 -10.65052,18.62574 -6.37861,12.8524 -16.8757,37.01884 -24.36451,71.22016 -6.47293,29.56185 -11.89138,68.02393 -10.74048,111.72353 1.14569,43.50227 8.85479,90.11315 26.38336,131.83728 0.41336,0.98394 0.43793,1.70164 0.32232,2.24563 -0.12133,0.57088 -0.48733,1.36078 -1.37519,2.32383 -1.8517,2.00848 -5.43557,4.18413 -11.00152,6.18753 -10.78453,3.88175 -26.80572,6.33067 -43.94362,6.83834 -17.05376,0.50517 -34.37459,-0.93705 -47.66133,-4.37267 -6.84259,-1.76932 -12.26547,-3.97882 -16.11499,-6.53532 -3.79513,-2.52038 -5.46742,-4.96817 -5.92515,-7.20998 -9.08058,-44.47324 -6.01941,-95.23567 5.0607,-143.21162 11.14351,-48.25049 29.21922,-89.39851 46.56703,-120.97335 14.05735,-25.58587 29.52741,-50.11704 35.39013,-59.60682 7.55202,-12.22421 10.41416,-17.47706 10.41416,-17.47706 z" style="opacity:1;fill:#160725;fill-opacity:1;fill-rule:nonzero;stroke:none;stroke-width:10;stroke-linecap:butt;stroke-linejoin:miter;stroke-miterlimit:4;stroke-dasharray:none;stroke-dashoffset:7.80000019;stroke-opacity:1" />
        <path clip-path="url(#clipPath5717)" sodipodi:nodetypes="cc" inkscape:connector-curvature="0" id="path5685" d="m 725.85552,478.86588 c 43.13351,22.95584 90.94901,34.97666 135.0574,34.64823" style="opacity:1;fill:none;fill-opacity:1;fill-rule:nonzero;stroke:#160725;stroke-width:10;stroke-linecap:butt;stroke-linejoin:miter;stroke-miterlimit:4;stroke-dasharray:none;stroke-dashoffset:7.80000019;stroke-opacity:1" />
      </g>
    </g>
    <g id="g4535">
      <g id="g4488">
        <path style="opacity:1;fill:#fcef8b;fill-opacity:1;fill-rule:nonzero;stroke:none;stroke-width:1;stroke-linecap:butt;stroke-linejoin:miter;stroke-miterlimit:20;stroke-dasharray:none;stroke-dashoffset:7.80000019;stroke-opacity:1" d="m 805.12612,412.0187 c -5.96541,-17.89623 -16.50704,-38.99343 -29.77567,-53.38725 5.07731,77.3305 -56.94242,132.92178 -155.54212,144.41247 43.87978,-43.20896 55.08531,-96.95301 26.98039,-136.89562 -26.80334,6.18414 -56.64628,-9.27891 -68.16251,-48.88543 20.70206,18.70686 46.80643,16.96238 55.84799,-6.72062 23.82766,-62.41296 -40.31089,-92.38555 7.24507,-179.67114 C 678.56889,63.23624 615.60606,35.302631 701.61673,-56.670923 851.915,-283.67742 1163.2201,-191.43983 1148.2201,91.513496 c -9.8995,-20.859653 -22.3952,-38.72971 -38.3051,-54.639613 19.5,57.154329 21.5121,118.471617 6.1495,168.230757 C 1106.6222,83.714503 1015.447,-74.614974 897.05875,-108.19836 955.46804,7.3725838 865.60264,104.78283 763.59654,59.096541 822.92351,56.674943 826.60377,6.0079381 778.5,7.6563641 725.60483,0.99702814 712.48112,54.633915 745.92228,87.051916 c -22.71472,89.622914 32.55515,117.883074 37.33605,73.410194 24.97968,25.52462 4.3626,58.59122 -25.90252,50.98037 -13.78507,75.46213 65.26176,104.92979 47.77031,200.57622 z" id="path4455" inkscape:connector-curvature="0" sodipodi:nodetypes="cccccssccccccccccc" />
        <path sodipodi:nodetypes="ccccc" inkscape:connector-curvature="0" id="path3402" d="m 646.90026,366.12231 c 27.99338,39.9686 16.78785,93.71265 -27.09193,136.92161 98.5997,-11.49069 160.61943,-67.08197 155.54212,-144.41247 13.26863,14.39382 23.81026,35.49102 29.77567,53.38725 17.49145,-95.64643 -61.55538,-125.11409 -47.71723,-200.56295" style="opacity:1;fill:none;fill-opacity:1;fill-rule:nonzero;stroke:#ceb805;stroke-width:10;stroke-linecap:butt;stroke-linejoin:miter;stroke-miterlimit:20;stroke-dasharray:none;stroke-dashoffset:7.80000019;stroke-opacity:1" />
        <path inkscape:original-d="m 682.52297,339.72598 c -26.86787,42.13539 -86.4393,37.57644 -103.89676,-22.46311 20.70206,18.70686 46.80643,16.96238 55.84799,-6.72062 23.82766,-62.41296 -40.31089,-92.38555 7.24507,-179.67114 C 678.56889,63.23624 615.60606,35.302631 701.61673,-56.670923 851.915,-283.67742 1163.2201,-191.43983 1148.2201,91.513496 c -9.8995,-20.859653 -22.3952,-38.72971 -38.3051,-54.639613 19.5,57.154329 21.5121,118.471617 6.1495,168.230757 C 1106.6222,83.714503 1015.447,-74.614974 897.05875,-108.19836 955.46804,7.3725838 865.60264,104.78283 763.59654,59.096541 822.92351,56.674943 826.60377,6.0079381 778.5,7.6563641 725.60483,0.99702814 712.48112,54.633915 745.92228,87.051916 c -22.71472,89.622914 32.55515,117.883074 37.33605,73.410194 32.41972,33.12697 -11.96367,78.95764 -54.6792,32.05118" inkscape:path-effect="#path-effect4441" sodipodi:nodetypes="ccsscccccccccc" inkscape:connector-curvature="0" id="path4417" d="m 682.52297,339.72598 c 0,0 -2.74217,2.75805 -9.16907,7.8355 -5.74473,4.53851 -17.00907,12.53775 -32.17387,14.53135 -4.17093,0.54832 -8.65856,0.55452 -13.31889,-0.21586 -12.45337,-2.0586 -28.49319,-10.43077 -38.88281,-31.53314 7.13886,3.48312 14.82575,5.21685 22.4583,4.42847 5.74704,-0.59363 11.33655,-2.64013 16.20824,-6.40313 4.86961,-3.7614 8.8539,-9.11123 11.50049,-16.04359 6.15349,-16.11814 6.82349,-30.39644 4.85779,-44.1209 -1.93533,-13.51241 -6.43265,-26.41231 -9.97906,-39.48031 -3.4323,-12.64748 -6.12973,-25.89569 -5.18609,-41.09994 0.94375,-15.20617 5.55343,-32.85276 17.2719,-54.36117 9.57314,-17.57083 12.74568,-32.71874 13.4113,-46.976389 0.63467,-13.594782 -1.11104,-27.614529 -1.2891,-40.130894 -0.18598,-13.073415 1.1202,-26.637361 7.61014,-42.4971503 6.51487,-15.9207197 18.34661,-34.3733607 39.4264,-56.9145547 0.0953,-0.101954 0.19075,-0.203852 0.28621,-0.305695 0.0769,-0.116455 0.15388,-0.232864 0.23092,-0.349227 37.56765,-56.74118 84.98319,-92.74429 134.0691,-110.92672 49.14314,-18.20363 100.08034,-18.63046 145.53852,-4.21033 47.59191,15.09699 89.08951,46.37463 117.55911,90.750021 25.8348,40.268502 40.8623,91.115448 40.7903,150.703594 -9.2882,-15.73012 -19.6275,-28.402794 -30.2923,-39.067566 -4.942,-4.94208 -10.1338,-9.627965 -15.555,-14.039262 2.6468,6.311639 5.0773,12.711807 7.2873,19.18932 11.1068,32.553732 15.0604,62.296653 15.8837,85.451663 0.5655,15.90437 -0.152,34.18335 -3.4505,53.1671 -8.5584,-50.85483 -30.2365,-109.916686 -66.0222,-164.329049 -36.8973,-56.10268 -89.77491,-107.803151 -153.17053,-125.786691 -3.6915,-1.04717 -7.41499,-1.97814 -11.16495,-2.79152 1.87218,3.23454 3.65222,6.52155 5.33798,9.85706 27.67044,54.749845 21.45251,106.17822459 -5.93447,138.639386 -13.00599,15.415689 -30.74505,26.389445 -51.47317,30.785915 -15.63195,3.315564 -33.06355,2.901989 -51.41997,-2.31622 6.41149,-1.738687 11.93869,-4.161686 16.55235,-7.093211 8.84152,-5.617913 14.45739,-13.219982 15.93295,-21.327344 1.49498,-8.214091 -1.41817,-16.265808 -8.25383,-21.935936 C 801.33342,5.2795503 791.33211,2.2839277 778.72887,2.6466818 764.65408,0.94399251 752.89834,3.230546 743.75382,8.4518143 734.51088,13.729275 728.29105,21.805068 725.10627,31.075645 c -6.3612,18.516897 -0.58052,40.814988 15.29061,57.501721 -5.39431,22.535204 -5.90868,41.112324 -3.70689,55.653574 2.28631,15.0994 7.55266,26.21798 13.89299,33.17891 3.42007,3.75483 7.28469,6.44419 11.32048,7.79502 4.08734,1.36809 8.30832,1.34119 12.17026,-0.20686 4.11669,-1.65017 7.40127,-4.84845 9.74112,-8.97071 0.72663,-1.28015 1.3689,-2.65875 1.92771,-4.12671 3.13801,5.56165 3.98398,10.87857 3.58549,15.29278 -0.60032,6.6499 -3.99388,11.972 -8.32385,15.37618 -3.01488,2.37026 -6.52577,3.87267 -10.21187,4.55105 -5.71634,1.05202 -11.45207,0.38565 -16.74167,-1.13657 -5.27309,-1.51748 -10.03455,-3.86251 -13.85554,-6.03842 -7.89774,-4.49747 -11.61598,-7.43232 -11.61598,-7.43232 0,0 1.72216,4.46705 8.55252,11.38328 3.28007,3.32131 7.94262,7.18303 13.91847,9.96441 5.97196,2.77956 13.52477,4.56281 21.55601,3.08946 5.16031,-0.94668 10.19515,-3.07332 14.57858,-6.51952 6.31131,-4.96187 11.22727,-12.71586 12.09027,-22.36453 0.85754,-9.58752 -2.40369,-20.84296 -12.44318,-31.10146 -2.60541,-2.66226 -5.4721,-5.0556 -8.55673,-7.14387 0.36905,3.35855 0.37305,6.74721 0.0119,10.10662 -0.52328,4.86767 -1.69134,8.54368 -3.17916,11.16134 -1.47093,2.58795 -3.15611,3.98611 -4.75479,4.62694 -1.46956,0.58907 -3.21277,0.68065 -5.27371,-0.009 -2.10518,-0.70453 -4.56845,-2.2478 -7.10339,-5.03087 -4.68864,-5.14757 -9.33227,-14.27254 -11.40264,-27.95098 -2.05873,-13.60157 -1.55714,-31.74619 4.19576,-54.444725 0.24214,-0.955411 0.49111,-1.909079 0.74689,-2.860931 -0.71925,-0.636382 -1.42392,-1.289051 -2.11347,-1.957502 -15.14565,-14.682258 -19.98878,-34.145809 -14.83871,-49.137216 2.44208,-7.108655 7.1489,-13.213497 14.1468,-17.207663 7.00406,-3.997676 16.66289,-6.07376 29.16488,-4.4998 0.13249,0.01668 0.26492,0.03372 0.39731,0.05113 0.13282,-0.0054 0.26565,-0.01035 0.3985,-0.0149 11.19689,-0.383696 18.66022,2.29905 22.94454,5.852859 4.14378,3.437241 5.62911,7.892152 4.79983,12.448601 -0.85917,4.720663 -4.35117,10.167393 -11.44225,14.67409 -7.07496,4.496446 -17.52796,7.898116 -31.58074,8.47172 -7.51971,0.306938 -15.05,-0.237939 -22.44719,-1.624233 6.57525,4.245503 13.46429,7.98408 20.60734,11.183297 26.75972,11.98509 52.768,14.468159 75.70847,9.602799 22.95112,-4.867621 42.63277,-17.036789 57.04375,-34.11779 28.62975,-33.9341826 35.50547,-85.306803 12.14351,-139.108016 55.47943,19.606897 102.7182,66.429307 136.7903,118.236248 41.6143,63.274879 63.609,132.815884 67.8408,187.219384 0.6423,8.25835 0.9151,16.5413 0.8173,24.82402 3.4612,-7.72318 6.4484,-15.65013 8.9451,-23.73677 9.1131,-29.5172 11.0714,-58.99108 10.218,-82.99479 -0.6637,-18.66682 -3.29,-41.430738 -9.8357,-66.466337 8.0744,10.277504 15.6988,22.252554 22.4787,36.538706 2.9137,6.139657 5.5353,12.413731 7.8561,18.801171 0.7363,-6.87736 1.2878,-13.773257 1.654,-20.680228 3.6892,-69.591483 -12.0634,-129.047387 -41.8466,-175.470656 -29.7273,-46.336236 -73.1208,-79.080596 -122.94942,-94.887116 -47.5807,-15.09344 -100.80287,-14.6114 -152.03824,4.36776 -51.10496,18.93086 -100.07629,56.24166 -138.69981,114.431684 -21.47332,23.0142 -34.01801,42.370433 -41.0949,59.67671389 -7.13231,17.44183911 -8.55018,32.40220811 -8.35102,46.40167511 0.20661,14.523485 1.92843,25.876031 1.29688,39.495287 -0.59967,12.931815 -3.42433,26.57586 -12.20135,42.68544 -12.3298,22.63049 -17.40949,41.65773 -18.45704,58.52463 -1.04423,16.81352 1.9456,31.23672 5.50156,44.33988 3.81633,14.06259 7.87666,25.48783 9.70883,38.25955 1.766,12.3104 1.19636,24.81416 -4.27895,39.15591 -2.05219,5.3754 -4.99065,9.16766 -8.26776,11.69888 -3.28301,2.53579 -7.08591,3.95009 -11.12612,4.36742 -9.19587,0.94987 -19.51948,-3.21974 -28.43071,-11.27213 -4.87202,-4.40247 -8.94858,-9.61192 -12.05058,-15.39948 0.64529,6.94329 1.95024,13.80937 3.89718,20.50527 10.33029,35.52784 33.54299,49.96619 52.40518,53.0842 5.69289,0.94106 11.17173,0.93249 16.25335,0.26452 19.11597,-2.51274 30.126,-14.65198 34.53821,-21.04807 5.01676,-7.27245 5.50118,-11.23355 5.50118,-11.23355 z" style="opacity:1;fill:#ceb805;fill-opacity:1;fill-rule:nonzero;stroke:none;stroke-width:10;stroke-linecap:butt;stroke-linejoin:miter;stroke-miterlimit:20;stroke-dasharray:none;stroke-dashoffset:7.80000019;stroke-opacity:1" />
      </g>
      <g id="g8324">
        <path sodipodi:nodetypes="cscc" inkscape:connector-curvature="0" id="path8320" d="M 755.56525,140.67245 C 647.15106,56.902482 687.18834,-71.331768 702.68588,-77.125448 c 9.9335,-3.713627 78.21589,33.026248 100.76005,102.907762 z" style="opacity:1;fill:#f6f9fa;fill-opacity:1;fill-rule:nonzero;stroke:none;stroke-width:10;stroke-linecap:butt;stroke-linejoin:miter;stroke-miterlimit:4;stroke-dasharray:none;stroke-dashoffset:7.80000019;stroke-opacity:1" />
        <path style="opacity:1;fill:#c8dce1;fill-opacity:1;fill-rule:nonzero;stroke:none;stroke-width:10;stroke-linecap:butt;stroke-linejoin:miter;stroke-miterlimit:4;stroke-dasharray:none;stroke-dashoffset:7.80000019;stroke-opacity:1" d="m 755.56525,140.67245 c 0,0 -3.14832,-3.70324 -10.45707,-11.95286 -6.57444,-7.42077 -19.05335,-21.56507 -30.45877,-39.33332 -14.32106,-22.310454 -25.6765,-51.53418 -26.99418,-87.0393114 -0.74327,-20.0273716 1.91848,-38.7243316 6.29886,-53.3421846 2.02635,-6.762167 4.30465,-12.234669 6.47011,-16.10079 1.0596,-1.891762 2.05858,-3.337575 2.85943,-4.256411 0.88644,-1.017027 1.31997,-1.151973 1.15312,-1.089599 -0.35852,0.134032 -0.32686,0.01485 0.39492,0.0735 0.6293,0.05114 1.57859,0.222179 2.78734,0.554034 2.52014,0.691886 5.80314,1.979433 9.622,3.86015 8.63638,4.253261 18.48181,10.749455 27.91144,18.539362 10.16508,8.397479 18.33111,17.007433 24.60462,24.627639 13.08305,15.8915024 21.63857,30.1404101 26.39145,38.227603 5.05923,8.608461 7.29741,12.342052 7.29741,12.342052 0,0 0.17915,-4.408731 -2.70238,-14.313286 -2.78984,-9.5893703 -9.11302,-25.421297 -23.26619,-42.612458 -6.62561,-8.0478 -15.23701,-17.126026 -25.95599,-25.98108 -9.90711,-8.184361 -20.39908,-15.140478 -29.86226,-19.80092 -4.16821,-2.052763 -8.06472,-3.618585 -11.39262,-4.532241 -1.62275,-0.445513 -3.17482,-0.754005 -4.6548,-0.870402 -1.38644,-0.109041 -3.06687,-0.08262 -4.67669,0.519206 -2.10132,0.785569 -3.79814,2.330214 -5.14976,3.871955 -1.43807,1.640337 -2.78227,3.627062 -4.08569,5.954123 -2.61847,4.674916 -5.15218,10.867375 -7.32462,18.117076 -4.70722,15.70856 -7.49522,35.501871 -6.71282,56.5835404 1.39117,37.4852716 13.39377,68.4257286 28.57285,92.0721586 12.4799,19.441544 26.84702,31.458054 35.53434,37.651424 9.18949,6.55138 13.79595,8.23104 13.79595,8.23104 z" id="path4146" inkscape:connector-curvature="0" sodipodi:nodetypes="csc" inkscape:path-effect="#path-effect8315" inkscape:original-d="M 755.56525,140.67245 C 647.15106,56.902482 687.18834,-71.331768 702.68588,-77.125448 c 9.9335,-3.713627 78.21589,33.026248 100.76005,102.907762" />
        <path sodipodi:nodetypes="ccc" inkscape:connector-curvature="0" id="path7644" d="M 749.14645,73.621319 C 728.66012,52.427877 716.04701,10.743174 723,-19.500001 c -1.82576,29.116976 8.91882,67.653965 26.14645,93.12132 z" style="opacity:1;fill:#c8dce1;fill-opacity:1;fill-rule:nonzero;stroke:none;stroke-width:1;stroke-linecap:butt;stroke-linejoin:miter;stroke-miterlimit:4;stroke-dasharray:none;stroke-dashoffset:7.80000019;stroke-opacity:1" />
      </g>
      <g id="g4530">
        <path style="opacity:1;fill:#f6f9fa;fill-opacity:1;fill-rule:nonzero;stroke:none;stroke-width:10;stroke-linecap:butt;stroke-linejoin:miter;stroke-miterlimit:4;stroke-dasharray:none;stroke-dashoffset:7.80000019;stroke-opacity:1" d="M 912.79226,-46.411916 C 904.85764,-50.953179 895.88802,-60.18656 900,-69.000001 c 100.1727,-214.705919 103.2593,-214.242839 56.85086,22.447406 -1.74921,8.921249 -7.76619,11.343933 -19.18212,8.691497 z" id="path4526" inkscape:connector-curvature="0" sodipodi:nodetypes="csscc" />
        <path inkscape:original-d="M 912.79226,-46.411916 C 904.85764,-50.953179 895.88802,-60.18656 900,-69.000001 c 100.1727,-214.705919 103.2593,-214.242839 56.85086,22.447406 -1.74921,8.921249 -7.76619,11.343933 -19.18212,8.691497" inkscape:path-effect="#path-effect4520" sodipodi:nodetypes="cssc" inkscape:connector-curvature="0" id="path4518" d="m 912.79226,-46.411916 c 0,0 -0.41416,-1.12659 -1.65651,-3.167784 -0.47275,-0.77673 -4.20208,-6.382907 -5.52012,-9.079808 -0.91704,-1.876388 -1.51955,-3.657784 -1.6312,-5.355101 -0.0463,-0.704705 -0.002,-1.695114 0.54667,-2.87137 22.48392,-48.191071 43.23947,-92.386771 57.58159,-120.177201 6.71427,-13.01011 12.14078,-22.6799 16.27533,-28.79575 2.06079,-3.04833 3.62317,-4.94427 4.71198,-5.94675 0.54886,-0.50535 0.7527,-0.572 0.63268,-0.52086 -0.17759,0.0757 -1.02353,0.36797 -2.12455,-0.0529 -1.0549,-0.40323 -1.45857,-1.12869 -1.47385,-1.16449 0.0225,0.0526 0.1473,0.23669 0.2976,1.08765 0.28344,1.60484 0.39858,4.206 0.24238,7.96753 -0.32083,7.72557 -1.72198,19.11581 -3.98135,33.61201 -5.111,32.79227 -15.33031,85.327223 -24.74862,133.362047 -0.12345,0.629613 -0.25583,1.124262 -0.37265,1.50195 -0.40615,1.313208 -0.86087,2.181226 -1.17722,2.708088 -0.33872,0.564134 -0.71498,1.061242 -1.23521,1.525467 -0.87726,0.78283 -2.0786,1.395225 -3.53355,1.907236 -1.37528,0.483978 -2.88641,0.842697 -4.07736,1.109261 -2.50456,0.560583 -3.87956,0.901573 -3.87956,0.901573 0,0 0.97567,1.027881 3.411,2.30129 1.16577,0.60957 2.77937,1.311592 4.65584,1.733725 1.83795,0.413472 4.29278,0.638905 6.87484,-0.128178 1.66595,-0.494922 3.40689,-1.414442 4.95216,-2.956482 1.55109,-1.547843 2.77287,-3.591607 3.56283,-6.147612 0.21745,-0.703572 0.43792,-1.542234 0.63202,-2.532195 9.40371,-47.960372 19.66749,-100.71208 24.81618,-133.74617 2.26691,-14.54453 3.74592,-26.40256 4.09203,-34.7371 0.16533,-3.9812 0.0878,-7.4379 -0.38617,-10.12169 -0.22919,-1.29766 -0.60298,-2.72887 -1.23918,-3.95346 -0.66384,-1.27781 -1.87024,-2.81011 -3.86171,-3.57132 -2.03643,-0.77841 -3.9617,-0.40433 -5.36645,0.19434 -1.34532,0.57334 -2.51314,1.46828 -3.48553,2.36357 -1.95803,1.80278 -4.03523,4.46654 -6.22307,7.70281 -4.49045,6.64229 -10.13831,16.75244 -16.87722,29.8103 -14.45606,28.0112 -35.30234,72.40599 -57.75741,120.535247 -1.43594,3.077725 -1.5912,5.845669 -1.47399,7.723752 0.26557,4.255436 2.31675,7.655481 4.14678,9.841998 3.97766,4.752508 8.81205,6.445152 10.95058,6.923176 2.52179,0.563691 3.69999,0.213181 3.69999,0.213181 z" style="opacity:1;fill:#c8dce1;fill-opacity:1;fill-rule:nonzero;stroke:none;stroke-width:10;stroke-linecap:butt;stroke-linejoin:miter;stroke-miterlimit:4;stroke-dasharray:none;stroke-dashoffset:7.80000019;stroke-opacity:1" />
        <path id="path8308" style="opacity:1;fill:none;fill-opacity:1;fill-rule:nonzero;stroke:#c8dce1;stroke-width:5;stroke-linecap:butt;stroke-linejoin:miter;stroke-miterlimit:4;stroke-dasharray:none;stroke-dashoffset:7.80000019;stroke-opacity:1" d="m 951.81389,-177.77432 c 11.34455,-3.21129 22.04431,-7.88003 31.6453,-14.00602 m -54.68519,60.62812 c 16.58558,-1.1446 32.54825,-5.24145 46.66422,-12.45767 m -66.98317,55.768377 c 20.04477,2.205805 39.99254,0.138098 57.76177,-6.744161" inkscape:connector-curvature="0" sodipodi:nodetypes="cccccc" />
      </g>
      <use x="0" y="0" xlink:href="#g4488" id="use4493" clip-path="url(#clipPath4500)" width="100%" height="100%" />
    </g>
    <path id="path5181" style="opacity:1;fill:none;fill-opacity:1;fill-rule:nonzero;stroke:black;stroke-width:1;stroke-linecap:butt;stroke-linejoin:miter;stroke-miterlimit:4;stroke-dasharray:none;stroke-dashoffset:7.80000019;stroke-opacity:1" d="m 1060.1044,314.26002 0,14.10774 m -12.4589,-3.9965 c 8.5134,-6.05321 23.4998,14.37594 12.4589,14.37594 -11.0409,0 3.9455,-20.42915 12.4589,-14.37594" inkscape:connector-curvature="0" />
  </g>
</svg>
