<svg xmlns="http://www.w3.org/2000/svg" xmlns:inkscape="http://www.inkscape.org/namespaces/inkscape" xmlns:sodipodi="http://sodipodi.sourceforge.net/DTD/sodipodi-0.dtd" xmlns:xlink="http://www.w3.org/1999/xlink" height="576" viewBox="0 0 1024 576" width="1024">
  <defs>
    <linearGradient id="linearGradient17574">
      <stop offset="0" stop-color="#e8af66" />
      <stop offset="1" stop-color="#f9deb6" />
    </linearGradient>
    <inkscape:path-effect effect="powerstroke" end_linecap_type="zerowidth" id="path-effect17559" interpolator_type="CubicBezierSmooth" offset_points="0.23,4.5 | 6.68,4.5" start_linecap_type="zerowidth" />
    <inkscape:path-effect effect="powerstroke" end_linecap_type="zerowidth" id="path-effect17518" interpolator_type="CubicBezierSmooth" offset_points="0.27,4.5 | 2.63,4.5" start_linecap_type="zerowidth" />
    <linearGradient id="linearGradient5155">
      <stop offset="0" stop-color="#287916" />
      <stop offset="1" stop-color="#61ba4e" />
    </linearGradient>
    <inkscape:path-effect effect="powerstroke" end_linecap_type="zerowidth" id="path-effect10830" interpolator_type="CubicBezierSmooth" offset_points="0.16,4.5 | 1.67,4.5" start_linecap_type="zerowidth" />
    <clipPath id="clipPath5507">
      <use xlink:href="#path5377" />
    </clipPath>
    <clipPath id="clipPath5565">
      <use xlink:href="#path4392" />
    </clipPath>
    <clipPath id="clipPath11324">
      <use xlink:href="#path11280" />
    </clipPath>
    <linearGradient gradientUnits="userSpaceOnUse" id="linearGradient17508" x1="568.08215" x2="669.3999" y1="-298.97263" y2="-290.92764" xlink:href="#linearGradient5155" />
    <linearGradient gradientUnits="userSpaceOnUse" id="linearGradient17576" x1="0" x2="1024" y1="288" y2="288" xlink:href="#linearGradient17574" />
  </defs>
  <rect fill="url(#linearGradient17576)" height="576" width="1024" />
  <ellipse cx="438.61652" cy="539.28412" opacity=".25" rx="341.34225" ry="30.301922" />
  <g clip-path="url(#clipPath11324)" opacity=".5" transform="translate(543.72168 9.3128801)">
    <path d="m 407.41773,417.04529 c -12.81136,10.18166 -12.42628,25.85721 0,38.88925 12.42628,-13.03204 12.81136,-28.70759 0,-38.88925 z" fill="#12a439" />
    <path d="m 420.11409,435.9181 -12.69636,8.25635 -12.69636,-8.25635 m 23.39272,-13.25 -10.69636,9.25635 -10.69636,-9.25635 m 10.69636,35.26644 v -42.88925" fill="none" stroke="#13752d" stroke-miterlimit="20" />
  </g>
  <g>
    <path d="m 957.63419,457.37323 c -2.27318,5.62813 -3.18958,11.62884 -3.49294,19.96086 27.79321,-17.51294 49.45085,6.0745 44.35905,39.19328 -5.41876,35.24569 -24.36089,56.03823 -47.36089,44.03823 -23,12 -41.94213,-8.79254 -47.36089,-44.03823 -5.09176,-33.11878 16.56584,-56.70622 44.35905,-39.19328 -0.30336,-8.33202 -1.21976,-14.33273 -3.49294,-19.96086 z" fill="#d11f1f" id="path14169" opacity=".1" />
    <path d="m 653.20084,181.58559 c -13.83574,5.41201 -25.41453,21.99883 -23.43679,53.74142 19.30781,2.70352 33.2673,-14.90239 23.43679,-53.74142 z" fill="#f9696b" />
    <path d="M 953.42598,461.72073 C 963.56925,359.78547 867.903,340.59756 837.46514,422.6874 c -14.58022,39.32234 -64.4995,56.81358 -119.49691,22.82871 -109.21505,-67.48788 -24.50101,-146.0636 -63.61985,-277.06192 -10.16535,24.07541 -9.37325,41.36824 -5.13751,62.92797 -35.59937,-8.74168 -56.58575,-33.60276 -49.5648,-59.39222 6.16059,-22.62924 -3.92052,-42.74141 -29.5074,-44.64427 -17.09425,-1.27125 -15.06748,38.7498 -27.7062,36.46417 -272.38915,-49.25949 -311.68512,293.79804 -92.99846,331.09776 99.98852,17.05429 162.77926,-19.94876 258.14415,-6.77929 95.6915,13.21458 129.81479,-5.372 144.84095,-48.49018 21.72602,-62.3437 82.25039,-60.76567 95.702,21.92827 3.29302,20.24386 0.74502,22.53214 -4.52303,18.38876 -9.11934,-7.17245 -30.22299,-10.35906 -36.77691,15.85663 -6.55392,26.21569 13.21621,71.05786 33.31621,64.53739 17.95594,-5.82494 24.5858,8.29166 36.13489,-4.27311 35.92093,-39.07999 18.47509,-83.60462 -8.07822,-81.3531 -13.33989,1.13112 -17.68224,16.28383 -14.76807,-13.00224 z" fill="#faba62" />
    <g transform="rotate(272.22683 469.9889 354.26688)">
      <path d="m 668.79103,444.47954 c 0.8666,6.49122 6.25324,8.27366 11.57091,4.51616 -5.40174,9.76763 -14.63931,5.83378 -11.57091,-4.51616 z" fill="#ef6f2f" />
      <g clip-path="url(#clipPath5565)">
        <ellipse cx="613.41095" cy="-256.65152" fill="#fff" id="path4392" rx="86.424873" ry="67.093895" transform="rotate(59.445381)" />
        <g clip-path="url(#clipPath5507)">
          <ellipse cx="613.68597" cy="-277.99625" fill="url(#linearGradient17508)" id="path5377" rx="66.24382" ry="54.415215" transform="rotate(63.441454)" />
          <path d="m 515.71253,438.15569 69.69515,33.47936 5.37581,-41.33816 z" fill="#caecc4" />
          <path d="m 515.71253,438.15569 74.70022,-22.50326 -1.29762,28.91818 z" fill="#78d863" />
          <ellipse cx="616.09589" cy="-274.33804" rx="53.464901" ry="43.918114" transform="rotate(63.441447)" />
          <ellipse cx="614.17426" cy="163.30577" fill="#fff" rx="16.954323" ry="25.511131" transform="rotate(23.935265)" />
          <ellipse cx="638.72089" cy="201.69559" fill="#fff" rx="6.0629544" ry="9.1088419" transform="rotate(22.500977)" />
        </g>
      </g>
      <path d="m 473.20645,335.15078 c -11.21826,-5.60501 -20.3054,-14.31035 -23.64892,-27.21775 -1.18693,16.29208 4.91313,25.77349 19.52366,33.72674 m -5.89098,13.60611 c -12.13626,-3.15848 -23.34228,-9.98757 -29.28809,-21.92182 2.21536,16.18431 10.6269,24.34019 26.56844,29.09292 m -0.0566,22.61834 c 2.60859,-66.35966 60.95301,-81.89024 102.49194,-48.7002 36.57003,29.21983 44.08339,70.9561 37.16763,108.11145 16.61535,-37.89658 2.7904,-85.7479 -32.69104,-113.66416 -49.94658,-39.29724 -109.15889,-12.03485 -113.45622,45.78861 -12.2589,-0.53118 -22.00959,-5.66 -29.67872,-14.47956 6.08921,16.54548 16.38446,21.75181 36.16641,22.94386 z" />
      <ellipse cx="632.14044" cy="-40.287098" fill="#fff" rx="9.4858494" ry="5.9857354" transform="rotate(49.09077)" />
      <ellipse cx="658.96667" cy="52.705723" fill="#fff" rx="9.6895809" ry="5.8916869" transform="rotate(40.75282)" />
      <ellipse cx="636.04272" cy="138.03354" fill="#fff" rx="9.0245295" ry="5.6226897" transform="rotate(34.878991)" />
    </g>
    <path fill="#ef6f2f" inkscape:original-d="m 717.96823,445.51611 c -109.21501,-67.48795 -24.50101,-146.0636 -63.61985,-277.06192 -10.16535,24.07541 -9.37325,41.36824 -5.13751,62.92797 -35.59937,-8.74168 -56.58575,-33.60276 -49.5648,-59.39222 6.16059,-22.62924 -3.92052,-42.74141 -29.5074,-44.64427 -17.09425,-1.27125 -15.06748,38.7498 -27.7062,36.46417 -272.38915,-49.25949 -311.68512,293.79804 -92.99846,331.09776 99.98852,17.05429 162.77926,-19.9488 258.14415,-6.77929" inkscape:path-effect="#path-effect17559" />
    <g>
      <g transform="rotate(272.22683 469.9889 354.26688)">
        <ellipse cx="546.75159" cy="490.74512" rx="14.682372" ry="20.957914" style="stroke:#a1102e;stroke-width:2.25;stroke-miterlimit:20;fill:#c71c3d" transform="rotate(343.75354)" />
        <path d="m 383.53337,254.08193 c 85.8166,-12.17553 212.0076,20.17746 284.48374,99.39513 -2.4138,-24.90328 -6.96171,-42.01311 -15.94325,-62.82898 -76.74439,-55.24113 -170.47502,-78.34975 -270.20564,-58.70022 z" fill="#fac42d" />
        <path d="m 454.5344,224.90369 -11.12238,27.62057 25.76684,2.78059 21.874,-28.17668 z" fill="#ffff64" />
        <path d="m 383.53337,254.08193 c 85.8166,-12.17553 212.0076,20.17746 284.48374,99.39513 -2.4138,-24.90328 -6.96171,-42.01311 -15.94325,-62.82898 -76.74439,-55.24113 -170.47502,-78.34975 -270.20564,-58.70022 z" style="stroke:#a0833d;stroke-width:4.5;stroke-miterlimit:20;fill:none" />
        <ellipse cx="356.28928" cy="642.35455" fill="#ec556c" rx="2.8923142" ry="4.9131355" transform="rotate(323.76324)" />
      </g>
      <path d="m 355.73867,434.26231 c -14.37684,-56.03971 1.11847,-114.21272 49.74947,-144.63362 -11.83576,-0.71027 -24.29391,-0.44795 -37.43513,0.9601 38.9217,-19.94351 66.35648,-39.44335 83.27963,-72.50428 -14.74229,10.1465 -28.79856,15.7515 -48.3438,20.50685 79.64975,-65.31373 88.42714,-146.738272 30.35275,-209.422961 5.16369,91.778931 -79.60847,99.015041 -128.10424,146.335411 11.38971,-23.70582 27.46621,-38.70553 16.87844,-47.04532 -19.98113,-15.73875 -185.5475,128.11178 -9.06396,325.43766 z" style="stroke:#e7d462;stroke-width:9;stroke-miterlimit:20;fill:#faf5ab" />
      <path d="M 239.85414,328.87602 C 257.9714,177.83086 444.94141,188.06942 458.9425,66.546287 M 250.21494,358.21893 C 277.04427,193.04253 417.3998,225.55111 467.57497,146.98953" style="stroke:#e7d462;stroke-width:4.5;stroke-miterlimit:20;fill:none" />
      <path d="M 355.32495,509.60296 C 187.70913,605.90468 185.70931,572.13615 123.55313,450.41754 99.13896,402.60839 58.479783,403.96488 66.488797,376.49913 74.41496,349.31718 99.200809,325.8141 146.14597,232.6123 Z" fill="#ca9a56" stroke="#b2884d" stroke-width="9" />
      <path d="m 124.05967,407.80202 c 33.09844,25.24127 57.88165,62.17623 79.52215,110.31358 -13.69085,-50.83715 -40.55232,-92.28176 -79.52215,-110.31358 z" fill="#b2884d" />
      <path d="M 507.94794,534.03259 C 244.32499,457.82649 160.26854,108.90936 21.125134,153.87487 262.82326,225.55585 164.67623,668.62143 507.94794,534.03259 Z" fill="#ca9a56" stroke="#b2884d" stroke-width="9" />
      <path d="m 687.88301,473.14787 c -87.19595,0 -160.31326,32.38647 -258.43198,21.43761 l -29.47067,13.18766 c 144.23479,-3.47068 222.82914,24.86803 293.3299,21.05921 80.12263,-4.32864 129.41178,-39.84866 142.68456,-102.52151 -46.17908,66.76572 -80.60342,46.83703 -148.11181,46.83703 z" fill="#faf5ab" />
      <path fill="#e7d462" inkscape:original-d="m 687.88301,473.14787 c -87.19595,0 -160.31326,32.38647 -258.43198,21.43761 l -29.47067,13.18766 c 144.23479,-3.47068 222.82914,24.86803 293.3299,21.05921" inkscape:path-effect="#path-effect17518" />
      <path d="m 498.96327,488.69327 c -122.69703,93.91679 -231.77248,-5.91464 -230.45915,-16.92728 1.32475,-11.10847 45.37806,-48.87393 108.65259,-48.62618 z" fill="#faba62" />
      <path d="m 330.55615,479.20998 c 36.36042,23.29786 69.95326,22.86644 101.62672,5.97764 -34.51545,9.31447 -68.36579,6.87703 -101.62672,-5.97764 z" fill="#ef6f2f" />
      <path fill="#ef6f2f" inkscape:original-d="m 498.96327,488.69327 c -122.69703,93.91679 -231.77248,-5.91464 -230.45915,-16.92728 1.32475,-11.10847 45.37806,-48.87393 108.65259,-48.62618" inkscape:path-effect="#path-effect10830" />
    </g>
    <use xlink:href="#path14169" />
    <g transform="translate(949.67684 516.43459)scale(.65690076)">
      <path d="m -26.3,8.2 c -24.1,-14.4 -13.2,30.1 6.6,20.4 17.7,1.5 11,-43.7 -6.6,-20.4 z M 2.4,-6.5 C -18.9,0.3 -15.8,-49.6 7.5,-24 30.1,-40.1 22,3.9 2.4,-6.5 Z M 22,17.4 C 5.2,-6.4 -2.6,36.4 19.1,36 40.2,49.5 51.6,2.7 22,17.4 Z" fill="#ec3f41" />
      <path d="m -27.5,5 c -5.7,0.5 -7.9,-3.7 -9,-8.9 4,1.1 7.6,5 9,8.9 z m 0.9,2.3 c -0.6,-5.6 0.4,-9.9 2.3,-13.4 1.6,0.2 2.5,1 2.7,2.4 -2.4,2.5 -4,6 -5,11 z M 7.8,-29 c -3.9,0.3 -6.2,-4 -5.6,-9.5 4.8,1.5 6.1,4.3 5.6,9.5 z m 0.4,2.5 c 0.5,-3.6 2.3,-9 5.3,-11 1.1,0.4 1.9,1.4 2.1,2.8 -3.1,1.7 -5.9,4.4 -7.4,8.2 z M 22.7,15 c 0.4,-6.2 0.2,-10.8 -1.9,-15.5 0.9,-1.3 2.2,-1.7 3.8,-1.2 0.6,5.9 0,11.6 -1.9,16.7 z m 1.1,0.3 c 0.7,-5.3 2.4,-7.6 5.8,-11 1.8,6 -0.9,9.1 -5.8,11 z" fill="#6bb944" />
    </g>
  </g>
  <text font-family="Junction" font-size="32px" line-height="1.25" x="505.56909" y="73.193855" xml:space="preserve"><tspan sodipodi:role="line">Like my head's a rotten apple…!</tspan></text>
</svg>
