<svg xmlns="http://www.w3.org/2000/svg" xmlns:inkscape="http://www.inkscape.org/namespaces/inkscape" xmlns:sodipodi="http://sodipodi.sourceforge.net/DTD/sodipodi-0.dtd" xmlns:xlink="http://www.w3.org/1999/xlink" height="2328" viewBox="0 0 1024 2328" width="1024">
  <defs>
    <inkscape:path-effect effect="powerstroke" id="path-effect4940" interpolator_type="CubicBezierSmooth" offset_points="0.18,3.5 | 1,3.5" start_linecap_type="zerowidth" />
    <inkscape:path-effect effect="powerstroke" end_linecap_type="zerowidth" id="path-effect4938" interpolator_type="CubicBezierSmooth" offset_points="0.5,3.5 | 2.7,3.5" start_linecap_type="zerowidth" />
    <inkscape:path-effect effect="powerstroke" id="path-effect4923" interpolator_type="CubicBezierSmooth" offset_points="0.09,3.5" start_linecap_type="zerowidth" />
    <inkscape:path-effect effect="powerstroke" id="path-effect4882" interpolator_type="CubicBezierSmooth" offset_points="0.4,3.5" start_linecap_type="zerowidth" />
    <inkscape:path-effect effect="powerstroke" end_linecap_type="zerowidth" id="path-effect4764" interpolator_type="CubicBezierSmooth" offset_points="0.34,3.5 | 1.57,3.5" start_linecap_type="zerowidth" />
    <linearGradient id="linearGradient4685">
      <stop offset="0" stop-color="#277915" />
      <stop offset="1" stop-color="#5eba4a" />
    </linearGradient>
    <inkscape:path-effect effect="powerstroke" end_linecap_type="zerowidth" id="path-effect4707" interpolator_type="CubicBezierSmooth" offset_points="0.14,2 | 5.71,2" start_linecap_type="zerowidth" />
    <inkscape:path-effect effect="powerstroke" end_linecap_type="zerowidth" id="path-effect4424" interpolator_type="CubicBezierSmooth" offset_points="0.15,2 | 1.85,2" start_linecap_type="zerowidth" />
    <inkscape:path-effect effect="powerstroke" end_linecap_type="zerowidth" id="path-effect4386" interpolator_type="CubicBezierSmooth" offset_points="0.37,2 | 1.83,2" start_linecap_type="zerowidth" />
    <linearGradient id="linearGradient10020">
      <stop offset="0" stop-color="#daf0ff" />
      <stop offset="1" stop-color="#9ac7e8" />
    </linearGradient>
    <inkscape:path-effect effect="powerstroke" end_linecap_type="zerowidth" id="path-effect7843" interpolator_type="CubicBezierSmooth" offset_points="0.25,2 | 2.76,2" start_linecap_type="zerowidth" />
    <inkscape:path-effect effect="powerstroke" id="path-effect6388" interpolator_type="CubicBezierSmooth" offset_points="0.82,2 | 2,2" start_linecap_type="zerowidth" />
    <inkscape:path-effect effect="powerstroke" id="path-effect6382" interpolator_type="CubicBezierSmooth" offset_points="0.35,2" start_linecap_type="zerowidth" />
    <inkscape:path-effect effect="powerstroke" end_linecap_type="zerowidth" id="path-effect6374" interpolator_type="CubicBezierSmooth" offset_points="0.27,2 | 5.48,2" start_linecap_type="zerowidth" />
    <linearGradient id="linearGradient6046">
      <stop offset="0" stop-color="#196e91" />
      <stop offset="1" stop-color="#7dd0f1" />
    </linearGradient>
    <inkscape:path-effect effect="join_type" id="path-effect4670" line_width="4" />
    <inkscape:path-effect effect="join_type" id="path-effect4644" line_width="4" />
    <inkscape:path-effect effect="join_type" id="path-effect4605" line_width="4" />
    <inkscape:path-effect effect="join_type" id="path-effect4547" line_width="4" />
    <inkscape:path-effect bendpath1="m -23.505994,-46.055658 h 47.256899" bendpath2="m 14.291667,-45.661283 c 24.118107,22.237785 25.971251,65.765056 5.447002,92.801931" bendpath3="m -23.505994,46.3 h 47.256899" bendpath4="m -24.607658,-45.011285 c 21.6250532,26.791467 22.0344381,60.757073 3.273109,92.730117" effect="envelope" id="path-effect9103" yy="false" />
    <inkscape:path-effect effect="powerstroke" id="path-effect8921" interpolator_type="CubicBezierSmooth" offset_points="0.35,2" start_linecap_type="zerowidth" />
    <inkscape:path-effect effect="powerstroke" end_linecap_type="zerowidth" id="path-effect6145" interpolator_type="CubicBezierSmooth" offset_points="0.57,2 | 3.76,2" start_linecap_type="zerowidth" />
    <inkscape:path-effect effect="powerstroke" id="path-effect5023" interpolator_type="CubicBezierSmooth" offset_points="0.42,2" start_linecap_type="zerowidth" />
    <inkscape:path-effect effect="powerstroke" id="path-effect5021" interpolator_type="CubicBezierSmooth" offset_points="0.16,2 | 1,2" start_linecap_type="zerowidth" />
    <inkscape:path-effect effect="powerstroke" id="path-effect4965" interpolator_type="CubicBezierSmooth" offset_points="0.37,2" start_linecap_type="zerowidth" />
    <inkscape:path-effect effect="powerstroke" end_linecap_type="zerowidth" id="path-effect4955" interpolator_type="CubicBezierSmooth" offset_points="0.44,2 | 3.54,2" start_linecap_type="zerowidth" />
    <inkscape:path-effect effect="powerstroke" end_linecap_type="zerowidth" id="path-effect4452" interpolator_type="CubicBezierSmooth" offset_points="0.22,2 | 2.75,2" start_linecap_type="zerowidth" />
    <linearGradient id="linearGradient4446">
      <stop offset="0" stop-color="#580d36" />
      <stop offset="1" stop-color="#bc1d75" />
    </linearGradient>
    <inkscape:path-effect effect="powerstroke" end_linecap_type="zerowidth" id="path-effect4410" interpolator_type="CubicBezierSmooth" offset_points="0.34,2 | 1.8,2" start_linecap_type="zerowidth" />
    <linearGradient id="linearGradient4643">
      <stop offset="0" stop-color="#facee3" />
      <stop offset="0.43221149" stop-color="#daf0ff" />
      <stop offset="1" stop-color="#9ac7e8" />
    </linearGradient>
    <linearGradient id="linearGradient5584">
      <stop offset="0" stop-color="#e088ad" />
      <stop offset="1" stop-color="#facee3" />
    </linearGradient>
    <inkscape:path-effect effect="powerstroke" id="path-effect4998" interpolator_type="CubicBezierSmooth" offset_points="0.37,2 | 1,2" start_linecap_type="zerowidth" />
    <inkscape:path-effect effect="powerstroke" end_linecap_type="zerowidth" id="path-effect4994" interpolator_type="CubicBezierSmooth" offset_points="0.6,2 | 4.72,2" start_linecap_type="zerowidth" />
    <inkscape:path-effect effect="powerstroke" end_linecap_type="zerowidth" id="path-effect3851" interpolator_type="CubicBezierSmooth" offset_points="0.18,2 | 5.73,2" start_linecap_type="zerowidth" />
    <inkscape:path-effect effect="powerstroke" end_linecap_type="zerowidth" id="path-effect2070" interpolator_type="CubicBezierSmooth" offset_points="0.42,2 | 3.45,2" start_linecap_type="zerowidth" />
    <inkscape:path-effect effect="powerstroke" end_linecap_type="zerowidth" id="path-effect858" interpolator_type="CubicBezierSmooth" offset_points="0.2,2 | 1.68,2" start_linecap_type="zerowidth" />
    <inkscape:path-effect effect="powerstroke" end_linecap_type="zerowidth" id="path-effect4492" interpolator_type="CubicBezierSmooth" offset_points="0.43,2 | 3.53,2" start_linecap_type="zerowidth" />
    <inkscape:path-effect effect="powerstroke" id="path-effect4494" interpolator_type="CubicBezierSmooth" offset_points="0.36,2" start_linecap_type="zerowidth" />
    <clipPath id="clipPath4515">
      <use xlink:href="#ellipse4475" />
    </clipPath>
    <clipPath id="clipPath4537">
      <use xlink:href="#ellipse4435" />
    </clipPath>
    <clipPath id="clipPath8832">
      <use xlink:href="#path4421" />
    </clipPath>
    <clipPath id="clipPath8905">
      <use xlink:href="#path4934" />
    </clipPath>
    <clipPath id="clipPath4554">
      <path d="m 780.37836,1394.4121 c 34.4338,0.4853 42.50285,11.0215 19.76154,55.9059 l -18.39217,22.2138 -36.75651,-16.5356 -2.17752,-55.2268 z" />
    </clipPath>
    <clipPath id="clipPath4621">
      <path d="m 787.20571,1444.328 39.62126,-29.5262 c -3.65925,17.5366 -16.27737,32.349 -33.18577,44.7917 z" />
    </clipPath>
    <clipPath id="clipPath4647">
      <path d="m 770.65465,1412.58 50.82708,-24.2713 c -17.8446,-8.8714 -50.67154,-6.2351 -50.82708,24.2713 z" />
    </clipPath>
    <clipPath id="clipPath4661">
      <path d="m 798.85482,1399.1137 c 5.50993,-4.1657 11.70007,-7.8023 20.19707,-9.6447 7.00199,-1.0879 10.21743,4.1223 8.68629,9.8519 l -18.74992,10.8886 z" />
    </clipPath>
    <clipPath id="clipPath4676">
      <path d="m 806.22814,1430.1523 c 6.87933,-2.4665 13.49828,-7.012 18.38359,-13.6997 5.24303,-5.6 5.70488,-12.9795 3.12645,-17.1317 -6.96585,1.0625 -13.72635,4.4797 -18.74992,10.8887 z" />
    </clipPath>
    <clipPath id="clipPath4943">
      <path d="m 629.74301,1271.0752 3.0905,-20.0414 6.66066,21.5451 z" />
    </clipPath>
    <clipPath id="clipPath4949">
      <path d="m 629.74301,1271.0752 -9.75116,-1.5037 6.66066,21.5451 z" />
    </clipPath>
    <clipPath id="clipPath4963">
      <path d="m 632.40118,1269.1722 -2.65817,1.903 -2.68136,4.5671 -0.40914,15.4743 12.84166,-18.5377 z" />
    </clipPath>
    <clipPath id="clipPath4967">
      <path d="m 627.08491,1272.9782 2.6581,-1.903 2.6814,-4.5671 0.4091,-15.4743 -12.8416,18.5377 z" />
    </clipPath>
    <clipPath id="clipPath6060">
      <use xlink:href="#ellipse6016" />
    </clipPath>
    <clipPath id="clipPath6076">
      <use xlink:href="#ellipse4446" />
    </clipPath>
    <clipPath id="clipPath8874">
      <use xlink:href="#rect5486" />
    </clipPath>
    <clipPath id="clipPath9535">
      <use xlink:href="#rect4416" />
    </clipPath>
    <clipPath id="clipPath2832">
      <use xlink:href="#ellipse1105" />
    </clipPath>
    <clipPath id="clipPath2808">
      <use xlink:href="#ellipse2712" />
    </clipPath>
    <clipPath id="clipPath2690">
      <use xlink:href="#path1103" />
    </clipPath>
    <clipPath id="clipPath2528">
      <use xlink:href="#path1107" />
    </clipPath>
    <linearGradient gradientTransform="translate(0,-546.51965)" gradientUnits="userSpaceOnUse" id="linearGradient4939" x1="0" x2="1024" y1="834.51965" y2="834.51965" xlink:href="#linearGradient5584" />
    <linearGradient gradientTransform="translate(0,37.48035)" gradientUnits="userSpaceOnUse" id="linearGradient4941" x1="0" x2="1024" y1="834.51965" y2="834.51965" xlink:href="#linearGradient4643" />
    <linearGradient gradientUnits="userSpaceOnUse" id="linearGradient4943" x1="570.18829" x2="569.86139" y1="1340.3864" y2="1377.9362" xlink:href="#linearGradient4446" />
    <linearGradient gradientTransform="translate(-7.2654145,2.6688534)" gradientUnits="userSpaceOnUse" id="linearGradient4945" x1="541.44519" x2="541.98151" y1="1333.1534" y2="1363.9048" xlink:href="#linearGradient4446" />
    <linearGradient gradientUnits="userSpaceOnUse" id="linearGradient4947" x1="1322.9054" x2="1359.2081" y1="168.46024" y2="171.2336" xlink:href="#linearGradient6046" />
    <linearGradient gradientTransform="translate(0,621.48035)" gradientUnits="userSpaceOnUse" id="linearGradient4949" x1="0" x2="1024" y1="834.51965" y2="834.51965" xlink:href="#linearGradient10020" />
    <linearGradient gradientUnits="userSpaceOnUse" id="linearGradient4951" x1="480.13202" x2="481.71359" y1="354.8624" y2="432.74225" xlink:href="#linearGradient4446" />
    <linearGradient gradientTransform="translate(-1142.2354,-88.657949)" gradientUnits="userSpaceOnUse" id="linearGradient4953" x1="480.13202" x2="481.71359" y1="354.8624" y2="432.74225" xlink:href="#linearGradient4446" />
    <linearGradient gradientUnits="userSpaceOnUse" id="linearGradient4687" x1="551.659" x2="552.87616" y1="2171.3438" y2="2232.8167" xlink:href="#linearGradient4685" />
    <clipPath id="clipPath4706">
      <use xlink:href="#path4666" />
    </clipPath>
    <clipPath id="clipPath4719">
      <use xlink:href="#path4662" />
    </clipPath>
    <linearGradient gradientUnits="userSpaceOnUse" id="linearGradient4823" x1="75.00499" x2="72.985283" y1="2216.385" y2="2270.6868" xlink:href="#linearGradient4685" />
    <clipPath id="clipPath4852">
      <use xlink:href="#path4726" />
    </clipPath>
    <clipPath id="clipPath7781">
      <use transform="translate(0 584)" xlink:href="#rect9539" />
    </clipPath>
  </defs>
  <g inkscape:groupmode="layer" inkscape:label="Layer 1">
    <g transform="translate(280)">
      <path d="m -60.16802,412.2702 c -6.66194,17.8821 -3.94217,24.4686 7.85709,29.7336 57.62282,25.7122 35.20891,103.8902 -19.32092,103.8902 -54.52984,0 -76.94375,-78.178 -19.32092,-103.8902 11.79925,-5.265 14.51902,-11.8515 7.85709,-29.7336 z" fill="#c80e64" fill-opacity=".65" id="use5099" opacity=".124" />
      <use xlink:href="#use5099" />
      <g transform="translate(-71.71697 492.6424)scale(.8473558)">
        <path d="m -2.8,-18.3 c -4.7,10.8 -3.3,14.2 1.9,20 5.2,5.8 3.1,13.5 -1.6,12.8 -4.7,-0.7 -2.4,-8.5 1.5,-5" fill="none" stroke="#7ed0f2" />
        <path d="m -6,-16.9 1.7,-4 a 8.5,12.8 -6 1 1 3.8,-0.7 l 2.3,6.4 z" fill="#faf5ab" />
        <path d="m -14.1,12.3 c 5.2,2.9 5.8,7.4 4.5,13.1 -1.3,5.7 0.5,14.8 7.1,12.3 6.6,-2.5 3.3,-11.7 -1.5,-11.8 m 18.3,-17.5 c -5.3,5.8 -7.8,12.7 -3.5,20.8 4.3,8.1 4.4,16.6 -0.7,16.6 -5.1,0 -6.3,-6 -4.8,-9.2" fill="none" stroke="#faf5ab" />
        <path d="m -17.9,14.8 1.4,-6.9 a 8.5,12.8 -14 1 1 3.5,-1.4 l 2.8,4.8 m 18.7,-0.2 4.5,-4.5 a 8.5,12.8 18 1 1 3.7,0.8 l 0.2,6.4 z" fill="#7ed0f2" />
      </g>
    </g>
    <rect fill="#230f38" height="2328" width="1024" />
    <g clip-path="url(#clipPath8874)">
      <rect fill="url(#linearGradient4939)" height="576" id="rect5486" width="1024" />
      <g transform="translate(0-546.51965)">
        <g>
          <path d="m 506.72919,905.77384 c 0.35604,23.4509 -15.80794,26.06154 -14.3544,44.90583 2.107,27.31621 26.68632,54.21993 41.01898,34.74401 25.67061,-34.88241 1.97435,-100.15671 -9.31032,-108.97817 -11.28467,-8.82146 -32.49646,2.59631 -39.41408,19.12463 z" fill="#e89cbf" stroke="#dd6fa4" stroke-width="3.8039999" />
          <path d="m 503.40795,917.90058 c 9.87975,17.79743 23.37185,33.22361 41.47584,43.4701 -1.33317,6.63188 -3.11957,12.56875 -6.40707,19.47784 -18.9484,-11.55212 -34.04872,-30.03494 -43.07953,-48.5735 3.05073,-4.33681 5.85695,-8.83818 8.01076,-14.37444 z" fill="#e7bb40" />
          <g id="g5007-3" transform="translate(30.753147-10.47847)">
            <circle cx="474.86816" cy="945.94708" fill="#e89cbf" r="3.875" stroke="#dd6fa4" stroke-miterlimit="20" />
            <ellipse cx="990.91351" cy="370.20911" fill="#f0f0f0" rx="1.1181548" ry="0.86155719" transform="rotate(42.765373)" />
          </g>
          <path d="m 523.04722,944.59277 5.35815,5.04717 -8.05576,17.28835 -7.70768,-8.2269 z" fill="#f2f271" />
          <use transform="translate(12.095269 15.877504)" xlink:href="#g5007-3" />
          <use transform="translate(26.355531 29.264339)" xlink:href="#g5007-3" />
          <path d="m 503.40795,917.90058 c 9.87975,17.79743 23.37185,33.22361 41.47584,43.4701 -1.33317,6.63188 -3.11957,12.56875 -6.40707,19.47784 -18.9484,-11.55212 -34.04872,-30.03494 -43.07953,-48.5735 3.05073,-4.33681 5.85695,-8.83818 8.01076,-14.37444 z" style="stroke:#887138;fill:none;stroke-miterlimit:20;stroke-width:2" />
        </g>
        <path d="m 137.62413,1029.7075 c -15.10742,11.6585 -16.28019,18.6873 -9.04698,29.3935 35.32378,52.2853 -25.02662,106.8012 -71.315899,77.9774 -46.289356,-28.8233 -23.992416,-107.0347 38.513565,-98.4029 12.799134,1.7676 18.589434,-2.3859 22.386464,-21.0871 z" fill="#c80e64" fill-opacity=".65" id="path5456" opacity=".124" />
        <path d="m 126.52552,1035.8677 c 21.63266,-29.9311 5.88713,-73.13674 -42.318161,-86.05331 -48.39891,-12.96845 36.493261,-32.53414 12.415131,-88.37326 -35.482518,-82.28682 61.29317,-107.36729 56.06617,-39.89636 -6.23122,80.43359 38.75461,114.5726 100.2093,64.21993 38.20395,-31.30226 67.70833,-36.11352 126.6525,3.70654 87.60508,59.1821 150.91748,-17.38117 116.18975,-96.56157 l 60.95743,-53.36273 c 13.35463,-120.75308 -150.35322,-123.35696 -143.03115,-24.20918 2.56853,34.78038 20.18391,67.79215 15.41389,95.76487 -57.39155,14.38201 -119.85955,-36.90834 -186.86163,29.30122 -46.81993,46.26613 -73.52335,39.93788 -69.71077,-23.25022 7.96212,-131.96065 -165.112734,-65.54657 -98.168913,50.40353 32.094203,55.5888 -114.374656,74.81292 1.71545,101.43783 40.524383,9.29414 55.355303,31.26171 41.636493,61.73461 -4.72743,10.5008 -14.39148,11.9131 -24.641686,10.9152 -28.931043,-2.8164 -52.959411,14.6509 -56.490974,45.7858 -7.254844,63.96 82.78433,70.8864 97.14552,17.6673 10.06202,-37.2874 -23.25322,-46.9889 -7.17835,-69.2302 z" fill="#f5b7d0" />
        <path fill="#e880b0" inkscape:original-d="m 309.73468,860.95087 c 19.20499,0.2474 40.99005,9.04699 69.81578,28.52037 87.60508,59.1821 150.91748,-17.38117 116.18975,-96.56157 l 60.95743,-53.36273 c 13.35463,-120.75308 -150.35323,-123.35696 -143.03115,-24.20918 3.11102,42.12615 28.61325,81.48458 9.22648,112.6836" inkscape:path-effect="#path-effect4994" />
        <path fill="#e880b0" inkscape:original-d="m 310.92426,806.20723 c 41.4295,-4.14188 80.86447,14.24048 118.15612,4.8954" inkscape:path-effect="#path-effect4998" />
        <g transform="rotate(359.83658-7656.0758 5650.8319)scale(1.0291189)">
          <ellipse cx="872.841" cy="-86.377884" fill="#f5b7d0" rx="32.310875" ry="26.541403" transform="rotate(61.874585)" />
          <path d="m 460.3159,733.71565 c -5.39502,2.16391 -10.46789,1.38604 -14.28236,-3.37492 4.66033,2.45866 8.83462,2.94444 13.70167,0.64774 z m -0.92556,-7.80665 c -5.66875,0.32137 -9.84731,-2.49229 -11.91072,-7.63792 3.39113,3.60202 6.96102,5.33642 11.90855,4.8773 z m 53.35516,-5.75512 c -11.19997,-20.15169 -28.70272,-24.7979 -40.2178,-17.98827 -10.38051,6.13868 -15.49208,20.69715 -8.71751,38.59194 -3.81411,3.42381 -8.21316,3.98542 -13.0987,1.67104 4.2758,0.43428 7.41274,-0.58731 9.90048,-2.83228 -6.00065,-19.10107 -0.54778,-33.34972 10.42529,-39.8653 12.14179,-7.20953 33.73253,-2.50483 41.70824,20.42287 z" />
        </g>
        <path d="m 421.18634,800.85559 c 0,8.40583 -1.92651,17.33359 -4.54531,25.66395 -5.15016,-1.12993 -9.49218,-3.49107 -12.13652,-7.35739 -1.53174,-4.84575 -2.46428,-11.26507 -2.46428,-18.30656 0,-15.09555 4.286,-27.33292 9.57305,-27.33293 5.28705,-10e-6 9.57306,12.23736 9.57306,27.33293 z" fill="#f5b7d0" transform="rotate(349.79319)" />
        <path d="m 554.96593,705.90258 c 3.44495,-1.00345 5.97267,-3.10573 6.90605,-6.56576 -1.75999,2.66259 -4.51364,4.04909 -7.58476,4.70201 z m -1.91814,-5.01901 c 3.3759,-2.2923 4.73536,-5.09972 5.00288,-9.08287 -1.26471,3.3599 -3.0623,5.60066 -5.64666,7.15281 m 3.60738,12.31986 c 3.18627,0.0701 6.01804,-0.99873 7.48233,-3.69127 -2.28425,1.78235 -4.98644,2.24522 -7.85207,1.81401 m -13.7652,-22.01235 c -5.17977,0.95669 -8.12517,12.85291 -4.77019,26.52327 -1.22339,-13.85446 1.27839,-23.84158 5.18742,-24.56357 4.40352,-0.81333 10.33424,8.11054 13.82095,22.53501 -1.11359,-13.57796 -8.08402,-25.63137 -14.23818,-24.49471 z" />
        <g>
          <path d="m 546.09373,762.84494 c -7.18696,7.99971 -11.41188,20.67492 -11.44601,32.29465 -21.20349,-9.86511 -9.08221,-59.49675 11.44601,-32.29465 z" fill="#bb1c76" />
          <path d="m 526.83708,771.59069 c 7.68788,2.19092 8.45924,14.81878 3.47428,18.93019 -4.63176,-4.63825 -5.40204,-12.53054 -3.47428,-18.93019 z" fill="#ef6f2f" />
          <path d="m 543.25993,734.51968 c 10.6412,10.50915 24.22534,-0.44854 22.66312,12.0656 -2.51373,20.13628 -25.00098,23.57503 -30.82287,6.46498 -10.03864,21.12889 -9.18833,33.1397 -0.4524,42.6269 -21.8255,1.67863 -41.89484,-1.4171 -63.01026,-10.85425 z" fill="#f5b7d0" />
          <path d="m 548.22464,747.90596 c 1.23086,2.75412 3.47434,3.24332 5.98907,1.49885 -1.90043,4.4532 -6.37602,3.41264 -5.98907,-1.49885 z" fill="#e880b0" />
          <path fill="#e880b0" inkscape:original-d="m 543.25993,734.51968 c 10.6412,10.50915 24.22534,-0.44854 22.66312,12.0656 -2.51373,20.13628 -25.00098,23.57503 -30.82287,6.46498 -10.03864,21.12889 -9.18833,33.1397 -0.4524,42.6269 -21.8255,1.67863 -41.89484,-1.4171 -63.01026,-10.85425" inkscape:path-effect="#path-effect2070" />
        </g>
        <g>
          <path d="m 523.53982,600.93403 c 9.31281,-57.45111 -75.89851,-54.59851 -74.55266,18.03834 -60.27264,-71.00074 -120.56372,63.48394 -64.58932,108.71539 45.57075,-3.5597 34.21298,-36.5891 46.21576,-62.12851 25.16507,-18.45981 65.01287,-19.74487 87.99087,4.87254 23.74575,-46.01369 73.84861,-30.6184 79.54732,25.28334 4.03865,39.61724 43.40122,32.14367 30.84271,-7.36436 -4.38221,8.94422 -8.73233,12.65851 -18.24048,15.08329 18.49485,-82.75863 -29.31858,-114.93466 -59.58398,-99.85648 -4.35475,-12.61577 -17.13132,-12.43696 -27.63022,-2.64355 z" style="stroke:#bb1c76;fill:#eb458b;stroke-miterlimit:20;stroke-width:4" />
          <path d="m 550.69531,604.74219 c -6.41014,3.43037 -10.47035,8.20505 -12.0039,12.49023 -0.80128,2.239 -0.92977,4.32098 -0.44727,5.98633 0.4825,1.66535 1.53837,2.93617 3.28906,3.68945 1.85838,0.79962 3.54475,0.68661 5.08008,-0.12695 1.53533,-0.81356 2.91607,-2.3777 3.91992,-4.54687 1.9218,-4.15271 2.35239,-10.49817 0.16211,-17.49219 z" style="stroke:#bb1c76;fill:#eb458b;stroke-miterlimit:20;stroke-width:2.5" sodipodi:type="inkscape:offset" inkscape:original="M 551.16992 603.57812 C 537.01686 610.62915 533.47675 624.25888 541.23633 627.59766 C 549.40431 631.11217 556.36451 618.62691 551.16992 603.57812 z " inkscape:radius="-0.75" />
          <path d="m 369.51612,636.22932 c -1.68178,19.77792 12.00139,25.97473 24.02208,23.53488 -6.87962,16.46614 6.81038,33.57694 22.28826,29.66878 m 61.77624,-124.21262 c -12.93393,12.21391 -12.89632,34.85915 -0.62668,48.96244 -15.5579,3.20271 -16.52203,26.60251 0.12488,38.16904 m 43.89986,-75.7543 c -19.80139,-6.75594 -34.33654,23.4171 -18.53196,55.28581 -13.35951,-2.7821 -16.7176,8.22821 -9.02373,23.3081" style="stroke:#bb1c76;fill:none;stroke-miterlimit:20;stroke-width:2" />
        </g>
        <g>
          <path d="m 540.17708,669.68485 c -6.37352,8.83222 -10.23522,19.27802 -12.97723,36.12086 -24.5298,-26.04226 -58.81928,-35.612 -93.5535,-33.57544 l -0.534,-5.33135 c 33.86412,-8.40839 62.34726,-3.73577 87.30771,14.41831 2.52022,-7.8252 7.19072,-14.99385 11.37378,-20.07152 z" fill="#fac42d" />
          <path d="m 466.65737,674.01913 -10.58636,-1.42812 5.12472,-9.69558 12.72507,0.44069 z" fill="#ffff64" />
          <ellipse cx="350.85278" cy="791.97894" fill="#f5b7d0" rx="4.1577935" ry="5.4231286" stroke="#e880b0" stroke-miterlimit="20" transform="rotate(346.77862)" />
          <ellipse cx="26.243702" cy="864.59924" fill="#fff" rx="0.9621222" ry="1.2578446" transform="rotate(324.47356)" />
          <path d="m 539.85737,670.13224 c -6.18349,8.73829 -9.96166,19.11413 -12.65752,35.67347 -24.5298,-26.04226 -58.81928,-35.612 -93.5535,-33.57544 l -0.534,-5.33135 c 33.86412,-8.40839 62.34726,-3.73577 87.30771,14.41831 2.43518,-7.56117 6.87799,-14.50935 10.94879,-19.55045 2.95238,2.43159 5.90963,5.32105 8.48852,8.36546 z" style="stroke:#a0833d;fill:none;stroke-miterlimit:20;stroke-width:2" />
        </g>
        <g id="g867">
          <path d="m 420.56831,727.8236 c -40.69897,-43.85374 -13.90286,-89.34188 -10.29722,-90.40236 3.60563,-1.06048 27.94476,14.56367 35.08948,40.81075 z" fill="#f5b7d0" />
          <path fill="#e880b0" inkscape:original-d="m 420.56831,727.8236 c -40.69897,-43.85374 -13.90286,-89.34188 -10.29722,-90.40236 3.60563,-1.06048 27.94476,14.56367 35.08948,40.81075" inkscape:path-effect="#path-effect858" />
          <path d="m 412.95045,663.35483 c -2.22405,13.42412 0.77842,25.54149 7.77372,36.50364 -5.05842,-11.52246 -7.54669,-23.88709 -7.77372,-36.50364 z" fill="#e880b0" />
        </g>
        <g id="g3863">
          <path d="m 382.62958,716.28602 c -57.98748,-6.88634 -51.79452,96.8443 15.94347,87.22507 -18.85951,22.99381 4.15844,50.37979 36.97382,41.51292 -4.40633,8.0117 -10.37976,12.89143 -21.9533,15.47944 38.42107,13.41312 55.24082,-26.1017 26.39238,-33.68443 14.88189,-19.32443 6.03091,-45.86433 -11.70358,-58.07551 26.09688,-22.59336 12.4371,-61.99214 -27.5086,-59.00971 z" fill="#eb458b" />
          <path fill="#bb1c76" inkscape:original-d="m 382.62958,716.28602 c -57.98748,-6.88634 -51.79452,96.8443 15.94347,87.22507 -18.85951,22.99381 4.15844,50.37979 36.97382,41.51292 -4.40633,8.0117 -10.37976,12.89143 -21.9533,15.47944 38.42107,13.41312 55.24082,-26.1017 26.39238,-33.68443 14.88189,-19.32443 6.03091,-45.86433 -11.70358,-58.07551 26.09688,-22.59336 12.4371,-61.99214 -27.5086,-59.00971" inkscape:path-effect="#path-effect3851" />
          <path d="m 413.78516,764.98047 c -2.03166,0.0914 -3.75774,0.55535 -4.95704,1.26758 -1.19929,0.71222 -1.86018,1.61323 -1.98242,2.73047 -0.13632,1.24603 0.37514,2.23324 1.48633,3.05859 1.11119,0.82535 2.83928,1.40413 4.92188,1.53906 3.91593,0.25372 9.02834,-1.13079 13.64648,-4.76562 -4.49336,-2.81428 -9.31982,-4.0008 -13.11523,-3.83008 z" style="stroke:#bb1c76;fill:#eb458b;stroke-miterlimit:20;stroke-width:2.5" sodipodi:type="inkscape:offset" inkscape:original="M 413.75195 764.23047 C 409.50312 764.42158 406.40093 766.14236 406.09961 768.89648 C 405.43757 774.94759 418.31769 777.37178 428.2832 768.74414 C 423.39654 765.3794 418.00079 764.03936 413.75195 764.23047 z " inkscape:radius="-0.75" />
          <path d="m 363.03283,719.18538 c -17.23259,23.75129 3.36541,47.61415 25.01181,44.86136 -2.08159,20.42703 14.03976,33.39939 34.14573,26.57121 -15.84635,17.89923 -3.00092,45.68819 21.22758,30.89555" style="stroke:#bb1c76;fill:none;stroke-miterlimit:20;stroke-width:2" />
        </g>
        <g>
          <path d="m 439.60009,889.8273 c -14.9839,22.64806 -1.63715,42.69838 15.89653,39.83232 6.96917,-1.13916 13.83312,-5.23283 23.69778,-6.207 -6.39153,14.8343 -18.77201,16.53278 -20.8738,32.6429 -3.54432,27.16713 14.98992,58.54278 33.01475,42.42322 32.2835,-28.87107 22.48882,-97.61926 13.25494,-108.56902 -8.01602,-9.50559 -26.48447,-5.6188 -37.86529,5.2259 -2.5142,-2.61891 -3.88917,-5.75118 -4.83657,-9.93765 z" fill="#f5b7d0" />
          <path fill="#e880b0" inkscape:original-d="m 481.58603,915.09184 c -4.46467,23.02473 -20.82035,22.26224 -23.26543,41.00368 -3.54432,27.16713 14.98992,58.54278 33.01475,42.42322 32.2835,-28.87107 22.48882,-97.61926 13.25494,-108.56902 -9.23389,-10.94976 -32.33752,-4.12864 -42.5002,10.62802" inkscape:path-effect="#path-effect4492" />
          <path fill="#e880b0" inkscape:original-d="m 439.60009,889.8273 c -14.9839,22.64806 -1.63715,42.69838 15.89653,39.83232 6.96917,-1.13916 13.83312,-5.23283 23.81847,-6.25738" inkscape:path-effect="#path-effect4494" />
          <path d="m 468.54628,893.84036 c -3.18412,-2.10434 -4.925,-4.58384 -6.65785,-8.60239 0.2769,4.89437 1.12346,8.0752 3.64682,11.60387 z" fill="#e880b0" />
          <path d="m 475.76259,926.29516 c 6.06624,19.43087 16.15056,37.27212 31.80115,50.97629 -2.65006,6.22385 -5.60302,11.67524 -10.22303,17.77432 -16.21275,-15.15388 -27.25218,-36.31435 -32.33685,-56.29884 3.86664,-3.62822 7.5272,-7.46716 10.75873,-12.45177 z" fill="#fac42d" />
          <path d="m 481.62165,941.71597 3.25224,6.60351 -11.57126,13.25299 -4.42277,-10.43548 z" fill="#ffff64" />
          <path d="m 475.76259,926.29516 c 6.06624,19.43087 16.15056,37.27212 31.80115,50.97629 -2.65006,6.22385 -5.60302,11.67524 -10.22303,17.77432 -16.21275,-15.15388 -27.25218,-36.31435 -32.33685,-56.29884 3.86664,-3.62822 7.5272,-7.46716 10.75873,-12.45177 z" style="stroke:#a0833d;fill:none;stroke-miterlimit:20;stroke-width:2" />
          <g id="g5007" transform="translate(-.5-2)">
            <circle cx="474.86816" cy="945.94708" fill="#f5b7d0" r="3.875" stroke="#e880b0" stroke-miterlimit="20" />
            <ellipse cx="990.91351" cy="370.20911" fill="#fff" rx="1.1181548" ry="0.86155719" transform="rotate(42.765373)" />
          </g>
          <use transform="translate(8.625 18)" xlink:href="#g5007" />
          <use transform="translate(19.875 34)" xlink:href="#g5007" />
        </g>
        <use xlink:href="#path5456" />
        <g transform="rotate(31.909865-1866.83 695.16041)scale(.84735581)">
          <path d="m -2.8,-18.3 c -4.7,10.8 -3.3,14.2 1.9,20 5.2,5.8 3.1,13.5 -1.6,12.8 -4.7,-0.7 -2.4,-8.5 1.5,-5" fill="none" stroke="#7ed0f2" />
          <path d="m -6,-16.9 1.7,-4 a 8.5,12.8 -6 1 1 3.8,-0.7 l 2.3,6.4 z" fill="#faf5ab" />
          <path d="m -14.1,12.3 c 5.2,2.9 5.8,7.4 4.5,13.1 -1.3,5.7 0.5,14.8 7.1,12.3 6.6,-2.5 3.3,-11.7 -1.5,-11.8 m 18.3,-17.5 c -5.3,5.8 -7.8,12.7 -3.5,20.8 4.3,8.1 4.4,16.6 -0.7,16.6 -5.1,0 -6.3,-6 -4.8,-9.2" fill="none" stroke="#faf5ab" />
          <path d="m -17.9,14.8 1.4,-6.9 a 8.5,12.8 -14 1 1 3.5,-1.4 l 2.8,4.8 m 18.7,-0.2 4.5,-4.5 a 8.5,12.8 18 1 1 3.7,0.8 l 0.2,6.4 z" fill="#7ed0f2" />
        </g>
      </g>
      <text font-family="Junction" font-size="58.39645767px" line-height="36.58572006px" transform="rotate(354.88323)" x="644.81158" y="162.82639" xml:space="preserve"><tspan x="644.81158" y="162.82639" sodipodi:role="line">HA<tspan font-size="50.64067078px">HA</tspan><tspan font-size="43.79737473px">HA</tspan><tspan font-size="37.86647034px">HA</tspan><tspan font-size="32.84802628px">HA!</tspan></tspan></text>
    </g>
    <g clip-path="url(#clipPath9535)">
      <rect fill="url(#linearGradient4941)" height="576" id="rect4416" width="1024" y="584" />
      <text style="font-size:18px;text-align:end;line-height:22.5px;font-family:Junction;text-anchor:end" x="632.28448" y="860.06335" xml:space="preserve"><tspan x="632.28448" y="860.06335" sodipodi:role="line">What in this featureless</tspan><tspan x="632.28448" y="882.56335" sodipodi:role="line">realm of yours are you</tspan><tspan x="632.28448" y="905.06335" sodipodi:role="line">laughing over?</tspan></text>
      <g transform="translate(0-546.51965)">
        <ellipse cx="800.03436" cy="1615.0629" opacity=".25" rx="151.63031" ry="22.599291" />
        <path d="m 612.23351,1362.8044 c 3.37881,3.3663 4.9842,7.6974 4.66647,12.0756 40.35375,1.8121 30.26066,-25.8838 -4.66647,-12.0756 z" fill="#bb1c76" />
        <path d="m 619.54819,1376.2532 c 0.36713,-5.8454 8.2089,-10.1981 16.30433,-10.0267 -0.5802,6.7241 -8.05499,10.1067 -16.30433,10.0267 z" fill="#ef6f2f" />
        <g id="g5010">
          <path d="m 819.55446,1393.1593 c 51.14349,-60.3125 145.4394,-57.764 163.75373,14.5242 -8.72755,-10.4949 -18.81427,-16.4592 -29.86122,-19.2228 29.28301,38.6469 17.00513,108.0276 30.79684,161.6027 -9.02404,-10.5807 -14.96761,-25.5097 -20.12515,-39.1836 -2.54527,37.9748 8.60333,71.1412 35.02854,96.0012 -16.50097,-3.0432 -29.51854,-12.1081 -39.54064,-22.3072 1.6694,7.9922 2.70017,13.4317 6.27278,19.6517 -21.24346,-14.7482 -36.34776,-36.3078 -44.83712,-60.8846 -1.43407,17.7077 -2.67687,33.7383 0.78264,52.2068 -17.85424,-26.6389 -22.16867,-49.0669 -21.86537,-98.2978 -3.13708,10.779 -5.90279,17.2235 -10.76552,24.384 8.31819,-59.4454 -5.43808,-128.5762 -63.50236,-114.0239 z" fill="#5fbb4e" />
          <path d="m 934.51275,1427.603 c 11.35835,51.6266 -9.00973,126.5571 15.93875,163.5126 -13.33588,-13.2425 -23.16309,-29.6919 -29.40928,-47.7747 -1.43407,17.7077 -2.67687,33.7383 0.78264,52.2068 -17.85424,-26.6389 -22.16867,-49.0669 -21.86537,-98.2978 -3.13708,10.779 -5.90279,17.2235 -10.76552,24.384 8.31819,-59.4454 -5.43808,-128.5762 -63.50236,-114.0239 l -6.13715,-14.4507 c 1.19917,-1.4142 2.42205,-2.7937 3.57225,-3.9552 61.60929,-34.1047 99.96329,-13.5204 111.38604,38.3989 z" fill="#faf5ab" />
          <path d="m 919.12819,1437.603 c 8.76453,38.1933 1.97474,93.4304 15.44717,133.8335 -5.5843,-8.7096 -10.09972,-18.1558 -13.53314,-28.0956 -1.43407,17.7077 -2.67687,33.7383 0.78264,52.2068 -17.85424,-26.6389 -22.16867,-49.0669 -21.86537,-98.2978 -3.13708,10.779 -5.90279,17.2235 -10.76552,24.384 8.31819,-59.4454 -5.43808,-128.5762 -63.50236,-114.0239 l -2.52193,-5.4051 c 33.46105,-31.4128 82.24627,-24.3559 95.95851,35.3981 z" fill="#ef7135" />
          <path d="m 921.82486,1595.5477 c -17.85424,-26.6389 -22.16867,-49.0669 -21.86537,-98.2978 -3.13708,10.779 -5.90279,17.2235 -10.76552,24.384 8.31819,-59.4454 -5.43808,-128.5762 -63.52453,-114.0068 30.08922,-25.6548 68.20325,2.1555 78.45875,30.9759 13.39954,37.6559 12.13395,75.4354 16.5018,110.3302 -1.233,15.5526 -1.89673,30.1101 1.19487,46.6145 z" fill="#ec4141" />
          <path d="m 983.30819,1407.6835 c -8.72755,-10.4949 -18.81427,-16.4592 -29.86122,-19.2228 29.28301,38.6469 17.00513,108.0276 30.79684,161.6027 -9.02404,-10.5807 -14.96761,-25.5097 -20.12515,-39.1836 -2.54527,37.9748 8.60333,71.1412 35.02854,96.0012 -16.50097,-3.0432 -29.51854,-12.1081 -39.54064,-22.3072 l 0.40998,4.7415 c -19.44134,-30.8391 0.14731,-103.3841 -11.15281,-164.5164 -10.17121,-55.025 -62.67251,-75.734 -103.80814,-54.6713 52.40683,-34.9179 122.7059,-23.8082 138.2526,37.5559 z" fill="#1b98d1" />
          <path d="m 959.2724,1424.603 c -10.83276,-44.7535 -39.20495,-78.1047 -95.082,-64.8777 48.94991,-21.234 105.3873,-6.2372 119.11779,47.9582 -8.72755,-10.4949 -18.81427,-16.4592 -29.86122,-19.2228 29.28301,38.6469 17.00513,108.0276 30.79684,161.6027 -7.95374,-9.3258 -13.5144,-22.0296 -18.31903,-34.1424 -4.23095,-29.2676 1.11449,-59.2307 -6.65238,-91.318 z" fill="#632e86" />
          <path d="m 819.55446,1393.1593 c 51.14349,-60.3125 145.4394,-57.764 163.75373,14.5242 -8.72755,-10.4949 -18.81427,-16.4592 -29.86122,-19.2228 29.28301,38.6469 17.00513,108.0276 30.79684,161.6027 -9.02404,-10.5807 -14.96761,-25.5097 -20.12515,-39.1836 -2.54527,37.9748 8.60333,71.1412 35.02854,96.0012 -16.50097,-3.0432 -29.51854,-12.1081 -39.54064,-22.3072 1.6694,7.9922 2.70017,13.4317 6.27278,19.6517 -21.24346,-14.7482 -36.34776,-36.3078 -44.83712,-60.8846 -1.43407,17.7077 -2.67687,33.7383 0.78264,52.2068 -17.85424,-26.6389 -22.16867,-49.0669 -21.86537,-98.2978 -3.13708,10.779 -5.90279,17.2235 -10.76552,24.384 8.31819,-59.4454 -5.43808,-128.5762 -63.50236,-114.0239 z" style="stroke:#1b98d1;fill:none;stroke-miterlimit:20;stroke-width:4" />
        </g>
        <g>
          <path d="m 774.01805,1452.5957 c 52.23337,60.3834 63.91486,115.2167 53.84301,154.9811 -2.92112,11.5328 63.57172,15.0463 61.48529,0.3323 -6.86067,-48.3829 -27.80249,-85.344 -50.49362,-113.5293 -3.09455,-3.8439 -6.84881,-2.4068 -10.04016,-0.6661 -18.49263,-27.8173 -35.18336,-46.3245 -54.79452,-41.118 z" style="stroke:#6babda;fill:#88c4e9;stroke-miterlimit:20;stroke-width:4" />
          <path d="m 819.17863,1532.5893 c 6.47733,15.7133 8.71754,36.8877 7.87094,56.2707 l 61.79294,-1.1205 c -6.29097,-26.4201 -15.48255,-47.3716 -27.72956,-68.2032 z" fill="#6babda" opacity=".5" />
          <path d="m 817.86151,1527.9134 c -5.7011,0.8135 -2.96574,8.6733 1.78383,7.9626 16.45512,-2.4624 29.08369,-6.2967 42.9044,-13.2862 4.37527,-2.2127 0.49491,-9.5551 -3.93106,-7.1884 -12.74747,6.8164 -25.10423,10.2783 -40.75717,12.512 z m 10.56717,56.5353 c -5.67947,-0.9528 -6.11654,7.3039 -1.36049,7.9696 23.38947,3.274 43.7806,2.4943 62.21096,-1.1178 4.8115,-0.943 3.70598,-9.2714 -1.21521,-8.2851 -19.05937,3.82 -37.64256,5.1226 -59.63526,1.4333 z" fill="#e7bb40" />
          <path d="m 862.52475,1586.3264 -0.29013,8.4135 11.72071,-1.028 -0.37643,-8.1969 z m -16.53472,-65.44 -1.04013,9.187 7.56675,-2.5946 -0.29897,-8.9143 z" fill="#f2f271" />
          <path d="m 817.86151,1527.9134 c -5.7011,0.8135 -2.96574,8.6733 1.78383,7.9626 16.45512,-2.4624 29.08369,-6.2967 42.9044,-13.2862 4.37527,-2.2127 0.49491,-9.5551 -3.93106,-7.1884 -12.74747,6.8164 -25.10423,10.2783 -40.75717,12.512 z m 10.56717,56.5353 c -5.67947,-0.9528 -6.11654,7.3039 -1.36049,7.9696 23.38947,3.274 43.7806,2.4943 62.21096,-1.1178 4.8115,-0.943 3.70598,-9.2714 -1.21521,-8.2851 -19.05937,3.82 -37.64256,5.1226 -59.63526,1.4333 z" style="stroke:#887138;fill:none;stroke-miterlimit:20;stroke-width:2" />
        </g>
        <g>
          <path d="m 707.51263,1518.6669 c 7.08716,13.4907 1.66801,57.4972 -18.35431,54.7917 -20.02232,-2.7055 -49.53571,-50.1197 -39.30587,-101.0625 3.34247,-16.645 27.59346,-16.0247 44.23274,-8.0912 l 24.75022,6.5478 c 4.89666,34.4683 -23.56716,20.5829 -36.39388,24.0566 8.44148,11.4459 17.57937,9.4968 25.0711,23.7576 z" fill="#88c4e9" />
          <path fill="#6babda" inkscape:original-d="m 678.26036,1487.4723 c 9.32344,20.0873 20.42941,14.3999 29.25227,31.1946 7.0872,13.4907 1.66801,57.4972 -18.35431,54.7917 -20.02232,-2.7055 -49.53571,-50.1197 -39.30587,-101.0625 3.34247,-16.645 27.59346,-16.0247 44.23274,-8.0912 l 24.75022,6.5478 c 4.89666,34.4683 -23.56716,20.5829 -36.54044,23.996" inkscape:path-effect="#path-effect4965" />
          <path d="m 682.24564,1493.5722 c 3.60989,4.4673 8.88337,8.3891 14.7588,11.7957 -1.80541,19.9902 -10.49394,38.6442 -26.96159,56.9327 -4.40938,-5.3144 -8.99468,-12.2888 -11.52989,-17.8576 14.54437,-14.4349 21.30461,-30.1887 23.73268,-50.8708 z" fill="#e7bb40" />
          <path d="m 678.51497,1511.8218 16.04833,7.5356 -3.0788,9.3702 -16.84052,-6.866 z" fill="#f2f271" />
          <path d="m 682.24564,1493.5722 c 3.60989,4.4673 8.88337,8.3891 14.7588,11.7957 -1.80541,19.9902 -10.49394,38.6442 -26.96159,56.9327 -4.40938,-5.3144 -8.99468,-12.2888 -11.52989,-17.8576 14.54437,-14.4349 21.30461,-30.1887 23.73268,-50.8708 z" style="stroke:#887138;fill:none;stroke-miterlimit:20;stroke-width:2" />
        </g>
        <path d="m 822.01901,1394.3213 c -14.82352,-16.5473 -51.05044,-22.0139 -81.11651,4.4396 -8.42168,-47.1132 12.19469,-79.8753 -3.16913,-124.3447 -36.26291,-104.9602 -181.34056,-51.6187 -133.95926,67.5338 -5.73982,2.3305 -10.78876,2.4048 -8.38906,9.5745 9.38815,28.0495 31.87695,-6.1899 41.64272,20.1717 -7.90386,-0.1661 -14.29013,0.9741 -21.23122,3.5054 19.22296,4.0027 37.92096,3.5628 54.62438,-0.5332 -28.28647,101.4155 72.27511,127.854 113.04804,95.9961 2.3392,9.0174 7.51232,18.7593 16.43867,23.2294 -9.50557,27.1618 -17.02505,58.9562 -9.36331,75.6415 10.87115,23.6745 56.74585,-1.3328 52.83861,-20.5967 -5.80651,-28.6279 -2.67892,-50.48 5.03979,-74.4753 1.46997,-4.5697 -2.89487,-11.013 -22.36961,-12.975 6.87549,-19.1568 17.11615,-43.5573 -4.03411,-67.1671 z" fill="#9bdbf5" />
        <g id="g4976">
          <path d="m 617.80498,1269.2343 15.07386,-18.4957 8.8022,22.1775 -15.0738,18.4957 z" style="stroke:#a0833d;fill:#fac42d;stroke-miterlimit:20;stroke-width:2" />
          <path d="m 621.46463,1269.7986 10.45291,-12.8257 6.10385,15.3789 -10.45287,12.8257 z" style="stroke:#de2828;fill:#ec4141;stroke-miterlimit:20;clip-path:url(#clipPath4967);stroke-width:1.38689137" />
          <path d="m 621.46463,1269.7986 10.45291,-12.8257 6.10385,15.3789 -10.45287,12.8257 z" style="stroke:#4e9a42;fill:#5fbb4e;stroke-miterlimit:20;clip-path:url(#clipPath4963);stroke-width:1.38689137" />
          <path d="m 621.46463,1269.7986 10.45291,-12.8257 6.10385,15.3789 -10.45287,12.8257 z" style="stroke:#db5716;fill:#ef7135;stroke-miterlimit:20;clip-path:url(#clipPath4949);stroke-width:1.38689137" />
          <path d="m 621.46463,1269.7986 10.45291,-12.8257 6.10385,15.3789 -10.45287,12.8257 z" style="stroke:#45235b;fill:#632e86;stroke-miterlimit:20;clip-path:url(#clipPath4943);stroke-width:1.38689137" />
        </g>
        <g id="RD" transform="matrix(.33873389-.08889953.07296495.55057627 813.97652 1420.2173)" inkscape:path-effect="#path-effect9103">
          <path fill="#1b98d1" inkscape:original-d="m 5.4,-14.7 c -4.2,2.7 -7.4,6 -10.5,10.6 l 8.1,-4.1 c -8.4,12.9 -9.5,30.5 -7.1,54.5 -22.6,-75.8 13.6,-77.2 9.5,-61 z" />
          <path fill="#fde85f" inkscape:original-d="m 3.9,-26.6 c -7.9,7.3 -12,16.6 -15.2,27.6 l 8.2,-4.3 c -5.9,14 -5,29.6 -1,49.6 -16.4,-39.2 4.8,-50 -17.1,-35.5 9.4,-50.5 24.2,-46.3 25.1,-37.4 z" />
          <path fill="#ec4141" inkscape:original-d="m -8.4,-36.9 c -10.5,15 -15.3,31.5 -15.1,51.5 l 11.7,-8 c -1.9,12.2 0.7,24.8 7.7,39.7 -6,-17.9 -7.4,-31.8 -3.9,-45.5 l -10.5,6.8 c 2.6,-16.4 7.6,-29.3 17,-40.7 z" />
          <path fill="#fff" inkscape:original-d="m -3.1,-27.4 c -10.5,9.8 -1.1,18.9 7,8.4 -2,14.5 8.6,16.2 15,10.8 6.4,-5.4 5.8,-15.8 -2.2,-19.9 8.8,-8.6 -2.5,-19.8 -10.6,-14.6 -10.1,-10 -26,8.3 -9.2,15.3 z" />
          <path fill="#1b98d1" inkscape:original-d="m 5.9,-42.4 c -9.8,-9.4 -25.3,8.3 -8.1,14.8 -11.2,10 -1.6,19.3 6.9,6.6 -3.2,15.6 7.5,17.9 13.9,12.5 6.4,-5.4 5.4,-15.6 -2.6,-19.5 8,-8 0.3,-15.6 -5.4,-15.6 -5.7,0 -9.9,6.8 -3.5,9 -12.5,12.4 8.3,18 3.7,7.7 6.4,11.5 -17.1,6.3 -5.3,-7.4 -5.1,-2.3 -2.3,-10.2 5.1,-10.2 7.4,0 13.8,9.3 6.8,16.2 7.6,4.3 8.6,14.8 1.8,20.5 -6.8,5.7 -17.3,3.4 -15.9,-9.8 -8.6,9.5 -17.1,-0.5 -7.2,-9.7 -16.5,-7.2 -0.6,-26.1 10.5,-15.7 z" />
        </g>
        <path d="m 606.11905,1350.1994 c 2.7362,1.5609 4.90965,0.8819 6.17975,-2.0229 0.34977,4.7073 -3.14924,6.1746 -6.17975,2.0229 z" fill="#6babda" />
        <path fill="#6babda" inkscape:original-d="m 821.93311,1474.2637 c 4.31178,-20.2296 26.28845,-50.6928 0.0859,-79.9424 -14.82354,-16.5473 -51.05044,-22.0139 -81.11651,4.4396 -8.42168,-47.1132 12.19469,-79.8753 -3.16913,-124.3447 -36.26291,-104.9602 -181.34056,-51.6187 -133.86248,67.8568" inkscape:path-effect="#path-effect8921" />
        <path fill="#6babda" inkscape:original-d="m 799.86555,1438.9161 c -2.75626,71.8929 -164.37443,61.0196 -129.47789,-64.2709" inkscape:path-effect="#path-effect5021" />
        <path fill="#6babda" inkscape:original-d="m 814.67015,1496.1639 c -18.25,2.5 -27.77154,-12.2784 -31.20326,-25.5932" inkscape:path-effect="#path-effect5023" />
        <g>
          <g clip-path="url(#clipPath8832)">
            <ellipse cx="1121.0669" cy="954.86377" fill="#fff" id="path4421" rx="29.301012" ry="39.01273" transform="rotate(22.47242)" />
            <g clip-path="url(#clipPath4537)" transform="rotate(9.3763172 690.95654 1318.1852)">
              <ellipse cx="564.18652" cy="1359.4602" fill="url(#linearGradient4943)" id="ellipse4435" rx="17.558563" ry="24.626982" transform="rotate(356.09076)" />
              <path d="m 653.08629,1323.0512 22.72967,15.0826 4.17668,-11.2544 z" fill="#fcb6df" />
              <path d="m 653.08629,1323.0512 27.52822,-2.3448 -0.87883,9.128 z" fill="#d9539d" />
              <ellipse cx="538.06305" cy="1368.7631" rx="13.78246" ry="19.639282" transform="rotate(355.12538)" />
              <ellipse cx="961.5025" cy="1102.599" fill="#fff" rx="7.2666626" ry="10.785037" transform="rotate(14.483088)" />
              <ellipse cx="1056.9905" cy="1033.3625" fill="#fff" rx="2.4867921" ry="3.348804" transform="rotate(18.991318)" />
            </g>
          </g>
          <path d="m 699.42902,1287.6982 c 17.41678,-9.27 18.6808,-6.4643 1.33503,3.2801 m -7.38117,-11.3581 c 13.82466,-13.8674 16.36503,-12.0921 2.42204,2.4996 m 8.59746,14.845 c 17.56475,-0.8286 17.77456,2.3096 -2.62444,3.6165 -3.18146,-23.5881 -22.98258,-32.5759 -40.48675,-20.6268 -13.43126,9.1688 -24.39657,29.5776 -19.04528,51.674 -8.67224,-20.6362 2.30009,-43.8375 17.27812,-54.2663 17.5376,-12.211 40.07105,-5.1253 44.87835,19.6026 z" />
        </g>
        <g>
          <g clip-path="url(#clipPath8905)">
            <path d="m 612.18365,1333.693 c 7.81781,-21.0502 3.78533,-52.9612 -15.37662,-57.8441 -4.81098,19.2674 -2.32787,44.5065 6.49064,65.9241 3.66366,-1.8899 6.55531,-4.5239 8.88598,-8.08 z" fill="#fff" id="path4934" />
            <g clip-path="url(#clipPath4515)" transform="translate(-.6464466-7.6464466)">
              <ellipse cx="537.58704" cy="1351.0599" fill="url(#linearGradient4945)" id="ellipse4475" rx="9.1628065" ry="21.292416" transform="rotate(356.87471)" />
              <path d="m 611.52289,1325.3534 -8.62582,14.558 -5.84297,-9.6503 z" fill="#fcb6df" />
              <path d="m 611.52289,1325.3534 -14.53457,-0.619 1.12644,8.09 z" fill="#d9539d" />
              <ellipse cx="550.88214" cy="1345.7524" rx="6.5064697" ry="16.310307" transform="rotate(357.40786)" />
              <ellipse cx="936.60907" cy="1099.6527" fill="#fff" rx="3.611275" ry="7.7358413" transform="rotate(15.508493)" />
              <ellipse cx="1074.1853" cy="982.99554" fill="#fff" rx="1.3771557" ry="2.230103" transform="rotate(22.783234)" />
            </g>
          </g>
          <path d="m 610.57455,1290.0818 2.22569,-1.3304 c 6.74998,16.2989 5.23627,30.5011 -0.61659,44.9416 3.92327,-15.0158 3.76644,-29.2109 -1.6091,-43.6112 z" />
        </g>
        <path fill="#6babda" inkscape:original-d="m 612.18365,1333.693 c -6.63068,12.5324 -20.48006,6.8322 -16.7986,17.8315 9.38816,28.0495 31.87695,-6.1899 41.64272,20.1717 -7.90386,-0.1661 -14.29013,0.9741 -21.23122,3.5054 32.54356,6.7763 63.58255,0.8199 86.14753,-13.941" inkscape:path-effect="#path-effect4955" />
        <path d="m 826.18073,1461.4743 c 19.34713,1.9761 23.71197,8.4194 22.242,12.9891 -7.71871,23.9953 -10.8463,45.8474 -5.03979,74.4753 3.90724,19.2639 -41.96746,44.2712 -52.83861,20.5967 -7.66174,-16.6853 -0.14226,-48.4797 9.44604,-75.6616" style="stroke:#6babda;fill:none;stroke-miterlimit:20;stroke-width:4" />
        <g>
          <path d="m 844.58,1505.2604 c -1.40527,4.0052 -0.95561,7.2552 2.60007,9.857 3.49037,2.5539 -4.30543,3.1172 -0.83534,6.0195 5.27802,4.4144 -5.61452,2.0638 -1.84633,6.7698 2.2354,2.7918 -2.81555,6.6211 1.05582,9.5694 -19.20002,9.5946 -38.74812,15.9593 -61.42465,19.8597 -7.66351,-26.1397 9.28318,-37.0751 8.53457,-56.3517 16.82705,3.7199 33.93552,6.3228 51.91586,4.2763 z" fill="#6babda" opacity=".5" />
          <path d="m 783.59369,1553.3825 c 19.90297,-2.0012 41.36897,-8.43 60.85054,-20.1733 3.31873,-2.0005 6.27756,4.6326 2.13191,7.0261 -19.45524,11.2325 -43.99651,17.9875 -61.96664,20.013 -5.31784,0.5994 -6.08451,-6.3562 -1.01581,-6.8658 z m 11.17472,-55.9157 c 17.26572,4.4259 31.37173,5.6725 50.38498,3.7601 3.85557,-0.3878 3.79925,6.7422 -0.85339,7.1777 -20.09844,1.8812 -33.41495,0.204 -50.96741,-4.1479 -5.19428,-1.2879 -3.49887,-8.0548 1.43582,-6.7899 z" fill="#fac42d" />
          <path d="m 822.13419,1508.8633 1.23088,-7.0776 8.61622,0.2051 -1.22042,7.3293 z m -2.30814,36.1262 9.26607,-3.7764 -0.44939,7.6314 -9.56095,3.7129 z" fill="#ffff64" />
          <path d="m 783.59369,1553.3825 c 19.90297,-2.0012 41.36897,-8.43 60.85054,-20.1733 3.31873,-2.0005 6.27756,4.6326 2.13191,7.0261 -19.45524,11.2325 -43.99653,17.9873 -61.96664,20.013 -5.31786,0.5992 -6.08451,-6.3562 -1.01581,-6.8658 z m 11.17472,-55.9157 c 17.26571,4.4259 31.37173,5.6725 50.38498,3.7601 3.85557,-0.3878 3.79925,6.7422 -0.85339,7.1777 -20.09844,1.8812 -33.41494,0.204 -50.96741,-4.1479 -5.19427,-1.2879 -3.49888,-8.0548 1.43582,-6.7899 z" style="stroke:#a0833d;fill:none;stroke-miterlimit:20;stroke-width:2" />
        </g>
        <g id="g4905">
          <path d="m 714.07019,1468.8478 c 4.76487,56.6219 3.84404,97.0467 -14.62021,139.3696 -7.68838,17.623 60.79368,17.4502 63.1552,2.6077 7.41431,-46.5998 0.50034,-102.2217 -22.27698,-144.4052 z" fill="#9bdbf5" />
          <path fill="#6babda" inkscape:original-d="m 714.07019,1468.8478 c 4.76487,56.6219 3.84404,97.0467 -14.62021,139.3696 -7.68838,17.623 60.79368,17.4502 63.1552,2.6077 7.41431,-46.5998 0.50034,-102.2217 -22.27698,-144.4052" inkscape:path-effect="#path-effect4452" />
          <path d="m 710.16205,1571.2683 c 18.64173,4.7387 37.06118,5.7538 56.58679,2.5701 -0.008,5.8566 -0.24334,11.8362 -0.66392,17.9285 -20.50208,3.8896 -39.31608,2.871 -60.70204,-2.8443 1.97181,-5.9731 3.39655,-11.4159 4.77917,-17.6543 z" fill="#fac42d" />
          <path d="m 724.38676,1574.1194 -4.08361,17.9709 8.64771,1.2919 8.64681,-17.8938 z" fill="#ffff64" />
          <path d="m 710.16205,1571.2683 c 18.64173,4.7387 37.06118,5.7538 56.58679,2.5701 -0.008,5.8566 -0.24334,11.8362 -0.66392,17.9285 -20.50208,3.8896 -39.31608,2.871 -60.70204,-2.8443 1.97181,-5.9731 3.39655,-11.4159 4.77917,-17.6543 z" style="stroke:#a0833d;fill:none;stroke-miterlimit:20;stroke-width:2" />
        </g>
        <g id="g4696">
          <path d="m 773.18857,1463.2285 c 35.64296,-10.4917 58.4832,-54.1478 51.41584,-67.6882 -4.77997,-9.1579 -34.52314,-6.1601 -66.9584,10.9249" style="stroke:#a0833d;fill:#fac42d;stroke-miterlimit:20;clip-path:url(#clipPath4554);stroke-width:4" />
          <path d="m 787.20571,1444.328 27.65321,-20.6075 m -26.20317,-1.7033 29.15042,-16.9285 m -47.15152,7.4913 37.66543,-17.9863" style="stroke:#a0833d;fill:none;stroke-miterlimit:20;stroke-width:2" />
          <path d="m 756.71484,1404.6953 c 9.99509,1.0098 14.0512,5.6848 15.63786,12.4883 11.70177,-3.351 27.00796,8.5054 14.13741,22.7788 2.45011,7.3451 1.73033,18.8414 -13.30154,23.2661 -41.32519,12.1642 -62.48451,-32.9723 -28.04839,-56.6928 z" fill="#9bdbf5" />
          <path fill="#6babda" inkscape:original-d="m 756.71484,1404.6953 c 9.99509,1.0098 14.0512,5.6848 15.63786,12.4883 11.70177,-3.351 27.00796,8.5054 14.13741,22.7788 2.45011,7.3451 1.73033,18.8414 -13.30154,23.2661 -41.32519,12.1642 -62.48451,-32.9723 -28.04839,-56.6928" inkscape:path-effect="#path-effect6145" />
          <g clip-path="url(#clipPath4676)">
            <path d="m 804.37568,1443.5708 c 16.5108,-16.9884 24.89854,-39.0836 20.22873,-48.0305 -3.19095,-6.1135 -17.50661,-6.8099 -36.32139,-1.5145 25.68671,5.8633 27.71031,12.1305 16.09266,49.545 z" fill="#ef7135" />
            <path fill="#db5716" inkscape:original-d="m 804.37568,1443.5708 c 16.5108,-16.9884 24.89854,-39.0836 20.22873,-48.0305 -3.19095,-6.1135 -17.50661,-6.8099 -36.32139,-1.5145 25.68671,5.8633 27.71031,12.1305 16.09266,49.545 z" inkscape:path-effect="#path-effect4670" />
          </g>
          <g clip-path="url(#clipPath4661)">
            <path d="m 804.37568,1443.5708 c 16.5108,-16.9884 24.89854,-39.0836 20.22873,-48.0305 -3.19095,-6.1135 -17.50661,-6.8099 -36.32139,-1.5145 25.68671,5.8633 27.71031,12.1305 16.09266,49.545 z" fill="#5fbb4e" />
            <path fill="#4e9a42" inkscape:original-d="m 804.37568,1443.5708 c 16.5108,-16.9884 24.89854,-39.0836 20.22873,-48.0305 -3.19095,-6.1135 -17.50661,-6.8099 -36.32139,-1.5145 25.68671,5.8633 27.71031,12.1305 16.09266,49.545 z" inkscape:path-effect="#path-effect4644" />
          </g>
          <g clip-path="url(#clipPath4647)">
            <path d="m 804.37568,1443.5708 c 16.5108,-16.9884 24.89854,-39.0836 20.22873,-48.0305 -3.19095,-6.1135 -17.50661,-6.8099 -36.32139,-1.5145 25.68671,5.8633 27.71031,12.1305 16.09266,49.545 z" fill="#632e86" />
            <path fill="#45235b" inkscape:original-d="m 804.37568,1443.5708 c 16.5108,-16.9884 24.89854,-39.0836 20.22873,-48.0305 -3.19095,-6.1135 -17.50661,-6.8099 -36.32139,-1.5145 25.68671,5.8633 27.71031,12.1305 16.09266,49.545 z" inkscape:path-effect="#path-effect4547" />
          </g>
          <g clip-path="url(#clipPath4621)">
            <path d="m 804.37568,1443.5708 c 16.5108,-16.9884 24.89854,-39.0836 20.22873,-48.0305 -3.19095,-6.1135 -17.50661,-6.8099 -36.32139,-1.5145 25.68671,5.8633 27.71031,12.1305 16.09266,49.545 z" fill="#ec4141" />
            <path fill="#de2828" inkscape:original-d="m 804.37568,1443.5708 c 16.5108,-16.9884 24.89854,-39.0836 20.22873,-48.0305 -3.19095,-6.1135 -17.50661,-6.8099 -36.32139,-1.5145 25.68671,5.8633 27.71031,12.1305 16.09266,49.545 z" inkscape:path-effect="#path-effect4605" />
          </g>
        </g>
        <g>
          <path d="m 739.02422,1276.8564 c 1.23188,31.6016 -14.13347,55.4568 -42.53471,66.9505 8.39509,1.8947 17.6078,1.6644 27.30191,0.2771 -20.38322,25.2544 -23.90343,57.4589 -13.5039,89.0357 3.50958,-18.44 7.92418,-31.0704 16.94401,-44.6326 1.32017,25.8677 8.3174,49.5397 27.85644,66.1932 -7.53398,-63.5555 22.15368,-95.2018 -11.5787,-191.6343 z" fill="#1b98d1" />
          <path d="m 751.65331,1289.1261 c -2.2055,-8.0106 -4.8774,-16.7416 -8.14404,-26.0801 l -4.48505,13.8104 c 1.23188,31.6016 -14.13347,55.4568 -42.53471,66.9505 8.39509,1.8947 17.6078,1.6644 27.30191,0.2771 -10.23769,12.6843 -16.22142,27.1219 -18.5098,42.7682 25.45053,-23.1259 43.94689,-61.5783 46.37169,-97.7261 z" fill="#5fbb4e" />
          <path d="m 755.08797,1454.6803 c -5.05896,-42.6766 6.66507,-70.9656 4.59427,-113.9377 -5.61878,30.9646 -23.73376,56.2669 -23.69533,88.4487 4.21597,9.3074 10.42093,18.0908 19.10106,25.489 z" fill="#632e86" />
          <path d="m 739.02422,1276.8564 c 1.23188,31.6016 -14.13347,55.4568 -42.53471,66.9505 8.39509,1.8947 17.6078,1.6644 27.30191,0.2771 -20.38322,25.2544 -23.90343,57.4589 -13.5039,89.0357 3.50958,-18.44 7.92418,-31.0704 16.94401,-44.6326 1.32017,25.8677 8.3174,49.5397 27.85644,66.1932 -7.53398,-63.5555 22.15368,-95.2018 -11.5787,-191.6343 z" style="stroke:#1b98d1;fill:none;stroke-miterlimit:20;stroke-width:4" />
          <path d="m 702.93139,1233.8687 c -25.22504,5.4974 -52.02643,29.0467 -67.77491,65.0052 -0.8634,-10.7198 -0.0148,-21.8747 2.80502,-32.4494 -23.1794,24.3321 -47.58945,48.0251 -79.93075,60.4603 16.3,-19.0087 12.71337,-53.9052 22.36135,-79.2394 -10.76352,8.7311 -18.41361,17.5201 -25.41923,29.8021 3.65401,-30.4986 19.67618,-52.8459 43.40135,-68.9288 -14.95457,3.3367 -26.03509,6.7403 -38.96878,14.5444 42.89269,-45.9199 104.31148,-38.4169 151.38037,-5.5463 z" fill="#ef7135" />
          <path d="m 684.27663,1202.4376 c 9.22034,4.1367 18.0941,9.2025 26.50918,15.0792 l -7.85442,16.3519 c -25.22504,5.4974 -52.02643,29.0467 -67.77491,65.0052 -0.8634,-10.7198 -0.0148,-21.8747 2.80502,-32.4494 -6.55832,6.8845 -13.21516,13.7178 -20.36441,20.2865 12.55213,-40.3757 34.05145,-75.0175 66.67954,-84.2734 z" fill="#faf5ab" />
          <path d="m 598.37422,1208.5187 c -14.95457,3.3367 -26.03509,6.7403 -38.96878,14.5444 30.61123,-32.7717 70.65827,-38.3337 108.24637,-26.7718 -41.4591,12.2259 -75.68768,31.2699 -106.85831,57.3224 7.56609,-18.865 20.60055,-33.5844 37.58072,-45.095 z" fill="#ec4141" />
          <path d="m 702.93139,1233.8687 c -25.22504,5.4974 -52.02643,29.0467 -67.77491,65.0052 -0.8634,-10.7198 -0.0148,-21.8747 2.80502,-32.4494 -23.1794,24.3321 -47.58945,48.0251 -79.93075,60.4603 16.3,-19.0087 12.71337,-53.9052 22.36135,-79.2394 -10.76352,8.7311 -18.41361,17.5201 -25.41923,29.8021 3.65401,-30.4986 19.67618,-52.8459 43.40135,-68.9288 -14.95457,3.3367 -26.03509,6.7403 -38.96878,14.5444 42.89269,-45.9199 104.31148,-38.4169 151.38037,-5.5463 z" style="stroke:#1b98d1;fill:none;stroke-miterlimit:20;stroke-width:4" />
          <path d="m 698.49065,1240.8437 c 4.91776,-30.2061 19.68377,-47.6347 23.9835,-47.6347 4.29972,0 48.65167,40.8915 11.21857,99.31 z" fill="#9bdbf5" />
          <path fill="#6babda" inkscape:original-d="m 698.49065,1240.8437 c 4.91776,-30.2061 19.68377,-47.6347 23.9835,-47.6347 4.29972,0 48.65167,40.8915 11.21857,99.31" inkscape:path-effect="#path-effect4410" />
          <path d="m 726.66805,1222.2485 c 7.24975,14.359 8.2125,30.4774 1.03465,45.3157 3.63463,-14.703 3.11935,-30.1931 -1.03465,-45.3157 z" fill="#6babda" />
        </g>
      </g>
      <g transform="translate(0-546.51965)">
        <g transform="rotate(353.37744 210.39645 1404.802)">
          <path d="m 208.70507,1484.3751 c -10.07032,46.0543 1.55822,82.5781 -11.7864,123.5832 -12.32324,37.8666 49.24267,52.2301 53.78518,33.7304 14.24467,-58.0123 -13.02183,-106.128 -12.42771,-165.9571 z" fill="#e89cbf" stroke="#dd6fa4" stroke-width="4" />
          <path d="m 201.02872,1583.2718 c 17.31702,13.2367 34.53828,19.031 55.06607,20.0993 0.0796,6.6513 -0.14478,11.7035 -0.75402,18.6251 -21.89028,-2.5379 -41.31836,-9.0404 -57.60901,-21.6213 1.53027,-6.2553 2.49477,-10.8473 3.29696,-17.1031 z" style="stroke:#887138;fill:#e7bb40;stroke-miterlimit:20;stroke-width:2" />
          <use transform="rotate(6.6225577-5311.3456-1024.3675)" xlink:href="#g5007" />
          <use transform="rotate(6.6225577-5375.19-868.85166)" xlink:href="#g5007" />
          <use transform="rotate(6.6225577-5406.8011-706.8545)" xlink:href="#g5007" />
        </g>
        <g>
          <path d="m 280.68656,1196.848 c 6.87282,-57.7938 -78.1414,-51.3372 -73.72237,21.1776 -63.22377,-68.3861 -117.768683,68.53 -59.93,111.3518 45.37925,-5.4854 32.63367,-38.0044 43.54472,-64.029 24.3612,-19.5083 67.03491,-28.5201 91.03426,-4.8974 28.87682,-49.0106 74.91907,-32.5017 50.77969,17.3644 -10.92059,22.5593 18.59438,35.529 36.86498,7.8597 -8.92727,4.4166 -17.12961,3.9415 -28.63989,1.9013 69.94457,-50.0744 16.43321,-118.2555 -32.21404,-89.2567 -4.88482,-12.4202 -17.64237,-11.7008 -27.71735,-1.4717 z" style="stroke:#bb1c76;fill:#eb458b;stroke-miterlimit:20;stroke-width:4" />
          <path d="m 550.69531,604.74219 c -6.41014,3.43037 -10.47035,8.20505 -12.0039,12.49023 -0.80128,2.239 -0.92977,4.32098 -0.44727,5.98633 0.4825,1.66535 1.53837,2.93617 3.28906,3.68945 1.85838,0.79962 3.54475,0.68661 5.08008,-0.12695 1.53533,-0.81356 2.91607,-2.3777 3.91992,-4.54687 1.9218,-4.15271 2.35239,-10.49817 0.16211,-17.49219 z" style="stroke:#bb1c76;fill:#eb458b;stroke-miterlimit:20;stroke-width:2.5" transform="rotate(357.5742 14475.105 6634.0681)" sodipodi:type="inkscape:offset" inkscape:original="M 551.16992 603.57812 C 537.01686 610.62915 533.47675 624.25888 541.23633 627.59766 C 549.40431 631.11217 556.36451 618.62691 551.16992 603.57812 z " inkscape:radius="-0.75" />
          <path d="m 128.30544,1239.3947 c -0.78785,23.7963 11.13851,31.6171 25.57685,27.5695 -6.13003,20.0748 11.85754,37.8631 29.3181,32.1524 m 50.07862,-136.006 c -12.40538,12.7504 -11.46903,31.0945 1.38654,44.6658 -15.4084,3.8583 -15.3687,28.1785 1.75285,39.03 m 40.70133,-74.1656 c -20.0696,-5.9118 -32.86176,18.5819 -15.72249,49.753 -13.46528,-2.214 -16.87836,10.0969 -8.55312,24.8377" style="stroke:#bb1c76;fill:none;stroke-miterlimit:20;stroke-width:2" />
        </g>
        <path d="m 317.00739,1357.7099 -10.37915,28.8797 c -11.06998,-2.3858 -17.39919,-9.498 -15.88209,-18.449 l 10.3759,0.8444 -9.64964,-4.409 c 3.17336,-17.3673 14.0058,-16.9844 25.53498,-6.8661 z" style="stroke:#b0d8e7;fill:#fff;stroke-miterlimit:20;stroke-width:2" />
        <path d="m 135.45797,1504.9861 c -95.403087,-20.0509 -149.212883,17.6137 -169.487515,104.1274 l -13.511341,-89.1789 c 57.386928,-126.1828 171.776166,-78.7638 236.068316,-112.3927 6.09136,-31.5274 -17.51613,-67.4043 -12.82513,-102.363 12.49612,-93.1246 155.84906,-74.9115 136.01904,29.9063 -0.78037,4.1249 16.71534,2.701 15.80597,9.1988 -2.32347,16.6021 -16.40788,21.7856 -25.22868,9.29 -5.29159,14.3308 -2.04543,30.0585 7.10353,34.1453 -16.9811,6.6178 -34.99535,7.3018 -54.60551,3.9972 29.58881,89.8899 -29.18564,132.2171 -119.33868,113.2696 z" fill="#f5b7d0" />
        <path d="m 311.86059,1345.7881 c 1.20032,2.6857 3.38813,3.1627 5.84047,1.4615 -1.85328,4.3428 -6.21782,3.328 -5.84047,-1.4615 z" fill="#e880b0" />
        <path fill="#e880b0" inkscape:original-d="m 182.25275,1423.7265 c 21.60238,-35.1102 -12.06782,-77.4306 -6.55045,-118.5476 12.49613,-93.1246 155.84906,-74.9115 136.01904,29.9063 -0.78037,4.1249 16.71534,2.701 15.80597,9.1988 -2.32347,16.6021 -16.40788,21.7856 -25.22868,9.29 -5.29159,14.3308 -2.04543,30.0585 7.10353,34.1453 -22.16966,8.6398 -46.12975,7.4553 -73.05559,0.019" inkscape:path-effect="#path-effect6374" />
        <g transform="rotate(359.22959-6765.5272 2627.8268)scale(1.0711502)">
          <g clip-path="url(#clipPath6076)">
            <ellipse cx="1277.9871" cy="423.99493" fill="#fff" id="ellipse4446" rx="33.020836" ry="27.124594" transform="rotate(60.962212)" />
            <g clip-path="url(#clipPath6060)">
              <ellipse cx="1341.3492" cy="162.44887" fill="url(#linearGradient4947)" id="ellipse6016" rx="24.050581" ry="19.756071" transform="rotate(71.894666)" />
              <path d="m 268.36332,1325.3418 -19.54569,27.6596 -15.30241,-12.3865 z" fill="#dcf3fd" />
              <path d="m 268.36332,1325.3418 -38.72633,8.8894 7.82579,10.7133 z" fill="#9cdcf4" />
              <ellipse cx="1342.353" cy="160.07814" rx="19.190516" ry="15.763839" transform="rotate(71.894666)" />
              <ellipse cx="806.3963" cy="1071.326" fill="#fff" rx="7.2666626" ry="10.785037" transform="rotate(26.016254)" />
              <ellipse cx="901.77905" cy="1013.1402" fill="#fff" rx="2.4867921" ry="3.348804" transform="rotate(30.566569)" />
            </g>
          </g>
          <path d="m 224.89972,1301.1736 c -4.73702,-3.3512 -6.28712,-8.2604 -4.66178,-13.6878 0.41872,5.0386 2.25914,8.6974 6.50727,11.4795 z m -3.54712,7.7978 c -5.79259,-1.3175 -9.60421,-4.9204 -10.04245,-11.1397 2.48773,4.7759 5.71379,7.521 11.13982,8.42 z m 55.10569,29.9779 c 3.90189,-23.0324 -8.07233,-40.6762 -24.52406,-45.1908 -13.37789,-3.671 -28.45524,1.7975 -30.9378,23.8729 -7.2615,0.5761 -10.74575,-2.57 -13.29241,-7.4728 3.26737,3.379 7.44282,4.9172 10.85505,4.6272 3.8417,-21.6585 19.31401,-27.5764 34.01393,-23.5709 16.99409,4.6307 31.76047,24.8797 23.88529,47.7344 z" />
        </g>
        <g>
          <ellipse cx="-143.89311" cy="1316.3783" fill="#7ed0f2" rx="5.0672927" ry="6.2597365" stroke="#17a2dd" stroke-miterlimit="20" transform="rotate(340.22913)" />
          <ellipse cx="-629.1994" cy="1161.7738" fill="#fff" rx="0.77192044" ry="1.1680423" transform="rotate(317.93572)" />
          <path d="m 200.66051,1264.7583 c 35.80067,-6.6011 72.04372,-2.3547 104.60233,13.1877 3.65316,6.6114 6.49022,13.6102 8.01622,21.0609 -34.07264,-21.508 -73.36656,-29.7548 -111.45807,-27.0542 z" fill="#fac42d" />
          <path d="m 235.05651,1261.7686 16.22216,0.9463 -7.33039,10.8053 -13.08873,-1.4776 z" fill="#ffff64" />
          <path d="m 200.66051,1264.7583 c 35.80067,-6.6011 72.04372,-2.3547 104.60233,13.1877 3.65316,6.6114 6.49022,13.6102 8.01622,21.0609 -34.07264,-21.508 -73.36656,-29.7548 -111.45807,-27.0542 z" style="stroke:#a0833d;fill:none;stroke-miterlimit:20;stroke-width:2" />
        </g>
        <path fill="#e880b0" inkscape:original-d="m 64.535183,1429.6788 c 44.876277,-8.9601 91.021727,-4.8912 123.992247,-22.1369" inkscape:path-effect="#path-effect6382" />
        <path fill="#e880b0" inkscape:original-d="m 71.914292,1500.5945 c 18.694969,-2.0098 39.834968,-0.5913 63.543678,4.3916 90.15304,18.9475 148.92749,-23.3797 119.33868,-113.2696" inkscape:path-effect="#path-effect6388" />
        <use transform="rotate(3.5428395-9307.9073-2760.1366)" xlink:href="#g867" />
        <use transform="rotate(4.531749-7229.5583-1989.3509)" xlink:href="#g3863" />
        <g>
          <path d="m 208.70507,1484.3751 c -10.07032,46.0543 1.55822,82.5781 -11.7864,123.5832 -12.32324,37.8666 49.24267,52.2301 53.78518,33.7304 14.24467,-58.0123 -13.02183,-106.128 -12.42771,-165.9571 z" fill="#f5b7d0" />
          <path fill="#e880b0" inkscape:original-d="m 208.70507,1484.3751 c -10.07032,46.0543 1.55822,82.5781 -11.7864,123.5832 -12.32324,37.8666 49.24267,52.2301 53.78518,33.7304 14.24467,-58.0123 -13.02183,-106.128 -12.42771,-165.9571" inkscape:path-effect="#path-effect7843" />
          <path d="m 201.02872,1583.2718 c 17.31702,13.2367 34.53828,19.031 55.06607,20.0993 0.0796,6.6513 -0.14478,11.7035 -0.75402,18.6251 -21.89028,-2.5379 -41.31836,-9.0404 -57.60901,-21.6213 1.53027,-6.2553 2.49477,-10.8473 3.29696,-17.1031 z" fill="#fac42d" />
          <path d="m 214.02906,1591.8065 9.34727,4.5889 -4.2552,16.6802 -9.46553,-4.6108 z" fill="#ffff64" />
          <use transform="translate(-265.60779 654.12248)" xlink:href="#g5007" />
          <path d="m 201.02872,1583.2718 c 17.31702,13.2367 34.53828,19.031 55.06607,20.0993 0.0796,6.6513 -0.14478,11.7035 -0.75402,18.6251 -21.89028,-2.5379 -41.31836,-9.0404 -57.60901,-21.6213 1.53027,-6.2553 2.49477,-10.8473 3.29696,-17.1031 z" style="stroke:#a0833d;fill:none;stroke-miterlimit:20;stroke-width:2" />
          <use transform="translate(-248.09843 662.52322)" xlink:href="#g5007" />
          <use transform="translate(-229.62651 667.24982)" xlink:href="#g5007" />
        </g>
      </g>
    </g>
    <g>
      <rect fill="url(#linearGradient4949)" height="576" id="rect9539" width="1024" y="1168" />
      <text style="font-size:18px;text-align:end;line-height:22.5px;font-family:Junction;text-anchor:end" x="404.45935" y="1317.5746" xml:space="preserve"><tspan x="404.45935" y="1317.5746" sodipodi:role="line">Wait a minute…</tspan></text>
      <g>
        <ellipse cx="589.03436" cy="1642.1674" opacity=".25" rx="143.04752" ry="21.320087" />
        <g>
          <path d="m 577.40522,1493.6331 c 22.08566,35.8788 25.468,79.2119 8.06646,128.8399 -5.07579,14.4758 55.28783,16.7343 56.93652,-0.5014 3.58031,-37.4294 0.69937,-76.5508 -15.869,-113.8297 z" style="stroke:#6babda;stroke-miterlimit:20;fill:#88c4e9;stroke-width:4" />
          <path d="m 591.75025,1538.4481 c 4.18134,23.4433 1.58925,47.4503 -4.72573,68.9165 l 59.2516,3.0258 c 1.12087,-27.9714 -1.02441,-53.8868 -7.6628,-77.0661 z" fill="#6babda" opacity=".5" />
          <path d="m 588.05458,1603.3619 c -5.56921,-1.4656 -6.15723,5.9019 -1.53745,7.2139 19.61788,5.5714 39.0187,6.412 60.53749,3.4068 4.85587,-0.6782 4.94966,-7.9614 -0.036,-7.3834 -21.98132,2.5489 -40.04987,1.7405 -58.96406,-3.2373 z m 2.48605,-68.5608 c -5.74714,-0.3671 -5.18663,6.7475 0.52102,7.0731 16.61133,0.9476 33.42565,-1.2985 48.38189,-5.3203 4.73479,-1.2732 2.41187,-8.5215 -2.40398,-7.1079 -13.87026,4.0714 -30.71958,6.3629 -46.49893,5.3551 z" fill="#e7bb40" />
          <path d="m 600.59024,1606.0033 0.12237,7.824 6.15389,0.8999 -0.81215,-7.9967 z m -1.09313,-71.0663 0.28282,7.3267 6.18767,-0.2157 -0.61093,-7.4302 z" fill="#f2f271" />
          <path d="m 588.05458,1603.3619 c -5.56921,-1.4656 -6.15723,5.9019 -1.53745,7.2139 19.61788,5.5714 39.0187,6.412 60.53749,3.4068 4.85587,-0.6782 4.94966,-7.9614 -0.036,-7.3834 -21.98132,2.5489 -40.04987,1.7405 -58.96406,-3.2373 z m 2.48605,-68.5608 c -5.74714,-0.3671 -5.18663,6.7475 0.52102,7.0731 16.61133,0.9476 33.42565,-1.2985 48.38189,-5.3203 4.73479,-1.2732 2.41187,-8.5215 -2.40398,-7.1079 -13.87026,4.0714 -30.71958,6.3629 -46.49893,5.3551 z" style="stroke:#887138;fill:none;stroke-miterlimit:20;stroke-width:2" />
        </g>
        <g>
          <path d="m 523.06558,1502.0321 c 0.13,48.9647 -4.54891,85.8866 -23.84096,124.3786 -8.83259,17.623 59.40195,17.4502 62.72715,2.6077 9.15244,-40.8533 4.37912,-88.6407 -9.60959,-128.2284 z" style="stroke:#6babda;fill:#88c4e9;stroke-width:4;stroke-miterlimit:20" />
          <path d="m 512.14477,1590.0527 c 18.40939,5.5735 35.21199,7.2231 55.37865,4.8572 -0.2071,6.0445 -0.7115,11.6839 -1.60006,17.8805 -20.65644,2.9623 -38.69395,1.1621 -59.54207,-5.5753 2.23881,-5.8782 4.1013,-10.9925 5.76348,-17.1624 z" fill="#e7bb40" />
          <path d="m 522.9032,1592.9169 -4.88883,17.6773 8.58075,1.7715 7.35245,-17.5776 z" fill="#f2f271" />
          <path d="m 512.14477,1590.0527 c 18.40939,5.5735 35.21199,7.2231 55.37865,4.8572 -0.2071,6.0445 -0.7115,11.6839 -1.60006,17.8805 -20.65644,2.9623 -38.69395,1.1621 -59.54207,-5.5753 2.23881,-5.8782 4.1013,-10.9925 5.76348,-17.1624 z" style="stroke:#887138;fill:none;stroke-miterlimit:20;stroke-width:2" />
        </g>
        <use transform="rotate(355.80894 1157.3419 4063.2628)" xlink:href="#g5010" />
        <path d="m 487.44017,1454.8487 c -1.13117,-33.9212 9.48161,-42.1143 -0.0525,-81.7231 l 69.74291,4.4825 c 0.52389,23.349 -3.85023,37.9644 -0.8776,63.3988 23.61648,-31.3555 71.02424,-35.0898 85.18167,-2.6834 13.83701,31.673 0.43531,57.3634 -3.07738,79.667 5.11606,0.5103 11.35859,1.5753 13.23141,5.297 19.49569,38.7426 23.0089,77.864 20.52633,113.8297 -1.1923,17.2733 -62.01231,14.9772 -56.93652,0.5014 17.40154,-49.628 9.72778,-92.9611 -12.65435,-128.9163 -35.31882,27.2427 -112.78875,14.9746 -115.08397,-53.8536 z" fill="#9bdbf5" />
        <use transform="translate(-185 37.4804)" xlink:href="#RD" />
        <path fill="#6babda" inkscape:original-d="m 619.86555,1476.3965 c -2.91621,61.9671 -129.48206,66.7154 -132.42538,-21.5478 -1.13118,-33.9212 9.48161,-42.1143 -0.0525,-81.7231 l 69.74291,4.4825 c 0.52389,23.349 -3.85023,37.9644 -0.8776,63.3988 23.61648,-31.3555 71.02421,-35.0898 85.18167,-2.6834 15.3199,35.0673 -2.75,62.8011 -3.74057,86.734" inkscape:path-effect="#path-effect4707" />
        <path d="m 602.4547,1508.7787 c 22.45157,35.8788 30.12533,79.2119 12.72379,128.8399 -5.07579,14.4758 55.74422,16.7719 56.93652,-0.5014 2.48257,-35.9657 -1.03064,-75.0871 -20.52633,-113.8297 -1.87282,-3.7217 -8.11535,-4.7867 -13.29016,-5.3042" style="stroke:#6babda;stroke-miterlimit:20;fill:none;stroke-width:4" />
        <g>
          <path d="m 616.00712,1548.0531 c 6.94357,23.3688 7.10694,50.9138 0.34598,72.0508 l 59.31691,1.1882 c 0.039,-26.5623 -3.65544,-57.17 -12.28198,-79.4459 z" fill="#6babda" opacity=".5" />
          <path d="m 617.25863,1616.0712 c -5.61196,-1.2924 -5.97139,6.0898 -1.31317,7.258 19.78111,4.9608 39.19867,5.1998 60.61399,1.5292 4.83253,-0.8283 4.70057,-8.111 -0.26476,-7.3787 -21.89178,3.2288 -39.9767,2.9807 -59.03606,-1.4085 z m -1.18779,-71.3027 c -5.75575,-0.1888 -4.97504,6.905 0.73996,7.0536 16.63272,0.4324 33.36936,-2.3337 48.19379,-6.817 4.69306,-1.4194 2.14664,-8.5922 -2.62309,-7.03 -13.73744,4.4992 -30.50765,7.3118 -46.31066,6.7934 z" fill="#fac42d" />
          <path d="m 632.10778,1618.7362 -1.09704,7.379 7.66463,0.7921 0.79418,-7.413 z m 1.9031,-74.7762 0.50974,7.3144 8.03171,-0.9825 -0.84089,-7.4077 z" fill="#f2f271" />
          <path d="m 617.25863,1616.0712 c -5.61196,-1.2924 -5.97139,6.0898 -1.31317,7.258 19.78111,4.9608 39.19867,5.1998 60.61399,1.5292 4.83253,-0.8283 4.70057,-8.111 -0.26476,-7.3787 -21.89178,3.2288 -39.9767,2.9807 -59.03606,-1.4085 z m -1.18779,-71.3027 c -5.75575,-0.1888 -4.97504,6.905 0.73996,7.0536 16.63272,0.4324 33.36936,-2.3337 48.19379,-6.817 4.69306,-1.4194 2.14664,-8.5922 -2.62309,-7.03 -13.73744,4.4992 -30.50765,7.3118 -46.31066,6.7934 z" style="stroke:#a0833d;fill:none;stroke-miterlimit:20;stroke-width:2" />
        </g>
        <use transform="translate(-169.60908 36.67584)" xlink:href="#g4905" />
        <use transform="rotate(354.48585 1001.0761 3308.1737)" xlink:href="#g4696" />
        <g>
          <g>
            <path d="m 547.90247,1390.6565 c -7.75257,17.4998 -9.89352,31.0307 -9.89352,53.2993 3.4512,-14.1288 8.0572,-25.6339 14.72314,-34.1591 -4.28536,26.5926 -3.41496,47.6073 6.06515,63.2785 1.31987,-50.4171 36.2324,-81.8612 17.70015,-136.415 z" fill="#1b98d1" />
            <path d="m 552.12957,1455.6469 c 1.27251,6.3032 3.48485,12.1669 6.66767,17.4283 1.04374,-39.8692 23.09447,-67.8738 23.13963,-105.087 -4.47417,24.2499 -27.63176,52.8863 -29.8073,87.6587 z" fill="#632e86" />
            <path d="m 547.90247,1390.6565 c -7.75257,17.4998 -9.89352,31.0307 -9.89352,53.2993 3.4512,-14.1288 8.0572,-25.6339 14.72314,-34.1591 -4.28536,26.5926 -3.41496,47.6073 6.06515,63.2785 1.31987,-50.4171 36.2324,-81.8612 17.70015,-136.415 z" style="stroke:#1b98d1;stroke-miterlimit:20;fill:none;stroke-width:4" />
          </g>
          <path d="m 538.13619,1401.2886 c 72.64792,-25.8377 58.32331,-151.4127 -20.24551,-151.4127 -72.93191,0 -98.18852,122.0921 -20.49436,151.3258 z" fill="#9bdbf5" />
          <path fill="#6babda" inkscape:original-d="m 538.13619,1401.2886 c 72.64792,-25.8377 58.32331,-151.4127 -20.24551,-151.4127 -72.93191,0 -98.18852,122.0921 -20.49436,151.3258" inkscape:path-effect="#path-effect4424" />
          <use transform="rotate(180 518.2219 0)scale(1-1)" xlink:href="#g4395" />
          <g transform="rotate(.17755852-366942.41 66293.733)scale(.55094976)">
            <g clip-path="url(#clipPath2690)">
              <ellipse cx="450.46594" cy="414.58182" fill="#fff" id="path1103" rx="40.486153" ry="73.680595" transform="rotate(352.74368)" />
              <g clip-path="url(#clipPath2528)">
                <ellipse cx="490.43701" cy="393.79291" fill="url(#linearGradient4951)" id="path1107" rx="29.022421" ry="49.892658" transform="rotate(355.92757)" />
                <path d="m 525.6894,367.74631 -38.73161,40.08076 -13.14395,-20.44233 z" fill="#fcb6df" />
                <path d="m 525.6894,367.74631 -55.28749,5.43793 6.22089,18.69483 z" fill="#d9539d" />
                <ellipse cx="493.71515" cy="394.55725" rx="22.810556" ry="39.213791" transform="rotate(355.92757)" />
                <ellipse cx="582.39178" cy="182.00626" fill="#fff" rx="11.831699" ry="18.32346" transform="rotate(15.961773)" />
                <ellipse cx="581.56958" cy="250.10422" fill="#fff" rx="4.1595454" ry="5.1910563" transform="rotate(12.021633)" />
              </g>
            </g>
            <path d="m 458.75927,329.21098 c -31.99293,-3.78514 -30.23159,-8.32965 -4.10728,-6.01187 11.13915,-50.56318 49.25704,-59.18177 72.23829,-19.37708 13.96998,24.19672 21.73761,62.54588 8.71745,94.73005 7.01531,-36.73085 1.1449,-67.41169 -13.00906,-91.85395 -21.48956,-37.11001 -55.63003,-27.51702 -63.8394,22.51285 z m 1.80434,-17.56246 c -29.61877,-13.31447 -28.47584,-18.1588 1.58606,-5.14185 z m 8.08252,-15.9552 c -26.24057,-20.95175 -22.83142,-24.65835 3.06434,-4.51921 z" />
          </g>
          <use transform="rotate(351.27561 703.33798 2008.2208)" xlink:href="#g4976" />
          <g>
            <path d="m 574.3384,1267.8437 c -16.69436,22.4485 -37.61337,34.1289 -69.01737,40.8238 10.53901,-7.1752 18.51826,-14.7083 25.71719,-25.5374 -42.13542,8.7983 -77.48095,42.5539 -94.86604,75.2682 -2.82227,-24.6794 2.0866,-47.3688 11.09532,-69.2429 -7.48969,5.7865 -12.44969,11.1119 -19.01243,19.4962 5.89348,-36.1503 28.51039,-63.3774 57.77864,-81.9715 -13.57401,1.8965 -26.26226,5.6486 -38.1039,11.3057 41.11141,-38.7087 89.23604,-21.971 129.51841,19.655 z" fill="#ef7135" />
            <path d="m 486.03371,1226.6801 c -13.57401,1.8965 -26.26226,5.6486 -38.1039,11.3057 25.12267,-23.6544 52.86426,-26.6036 80.07703,-15.7723 -32.53334,16.2216 -63.05646,35.9478 -91.86896,59.6876 10.50173,-23.2618 28.40588,-41.5684 49.89583,-55.221 z" fill="#ec4141" />
            <path d="m 531.03822,1283.1301 c -7.19893,10.8291 -15.17818,18.3622 -25.71719,25.5374 31.404,-6.6949 52.32301,-18.3753 69.01737,-40.8238 l 3.10982,-10.2029 c -11.40986,-11.7904 -23.4489,-21.5841 -35.8283,-28.5948 -19.82198,21.0022 -36.30209,44.9064 -50.85833,70.7649 12.23673,-7.7378 25.8592,-13.6703 40.27663,-16.6808 z" fill="#faf5ab" />
            <path d="m 574.3384,1267.8437 c -16.69436,22.4485 -37.61337,34.1289 -69.01737,40.8238 10.53901,-7.1752 18.51826,-14.7083 25.71719,-25.5374 -42.13542,8.7983 -77.48095,42.5539 -94.86604,75.2682 -2.82227,-24.6794 2.0866,-47.3688 11.09532,-69.2429 -7.48969,5.7865 -12.44969,11.1119 -19.01243,19.4962 5.89348,-36.1503 28.51039,-63.3774 57.77864,-81.9715 -13.57401,1.8965 -26.26226,5.6486 -38.1039,11.3057 41.11141,-38.7087 89.23604,-21.971 129.51841,19.655 z" style="stroke:#1b98d1;stroke-miterlimit:20;fill:none;stroke-width:4" />
          </g>
          <g id="g4395">
            <path d="m 568.30039,1281.4046 c 2.44635,-26.5106 8.21862,-45.7255 14.86818,-45.7255 9.79465,0 40.12373,65.4582 -0.53416,93.8863 z" fill="#9bdbf5" />
            <path d="m 585.68762,1260.9418 c 4.3807,15.5736 4.61017,29.5113 1.18315,43.4645 6.52905,-12.877 5.47244,-30.7493 -1.18315,-43.4645 z" fill="#6babda" />
            <path fill="#6babda" inkscape:original-d="m 568.30039,1281.4046 c 2.44635,-26.5106 8.21862,-45.7255 14.86818,-45.7255 9.79465,0 40.12373,65.4582 -0.53416,93.8863" inkscape:path-effect="#path-effect4386" />
          </g>
          <path d="m 500.88493,1389.5628 c 13.0903,-3.345 25.16382,-3.4561 37.61619,-0.3344 -9.89916,-5.6739 -27.13591,-5.5938 -37.61619,0.3344 z m 9.31834,-34.0851 c 4.2121,-3.3331 13.70092,-3.5144 17.85326,-0.09 -6.34465,-0.9822 -11.68392,-1.0124 -17.85326,0.09 z m 15.39662,15.0665 c 3.08884,-0.6182 4.28305,-2.5571 3.3364,-5.581 3.35356,3.3218 1.67717,6.7255 -3.3364,5.581 z m -16.12937,-5.3295 c -0.90993,3.016 0.23767,4.9828 3.35296,5.5713 -4.5101,1.3929 -6.72238,-1.6894 -3.35296,-5.5713 z" fill="#6babda" />
          <g transform="rotate(.17755852-367048.32 66641.357)scale(.55094976)">
            <g clip-path="url(#clipPath2832)">
              <ellipse cx="674.04657" cy="287.58197" fill="#fff" id="ellipse1105" rx="40.486153" ry="73.680595" transform="rotate(5.645125)" />
              <g clip-path="url(#clipPath2808)">
                <ellipse cx="-651.79834" cy="305.13495" fill="url(#linearGradient4953)" id="ellipse2712" rx="29.022421" ry="49.892658" transform="rotate(184.67792)scale(1-1)" />
                <path d="m 616.11465,366.96226 38.30589,40.48782 13.35924,-20.30228 z" fill="#fcb6df" />
                <path d="m 616.11465,366.96226 55.22693,6.02188 -6.4181,18.62805 z" fill="#d9539d" />
                <ellipse cx="648.5202" cy="305.89929" rx="22.810556" ry="39.213791" transform="rotate(4.6779217)" />
                <ellipse cx="696.11517" cy="149.1346" fill="#fff" rx="11.831699" ry="18.32346" transform="rotate(15.961773)" />
                <ellipse cx="697.55658" cy="224.04068" fill="#fff" rx="4.1595454" ry="5.1910563" transform="rotate(12.021633)" />
              </g>
            </g>
            <path d="m 682.24279,326.30027 c 31.87249,-4.69253 29.98274,-9.18515 3.93482,-6.12614 -12.57114,-50.22632 -50.91848,-57.75851 -72.75962,-17.31699 -13.27691,24.58381 -19.92501,63.19298 -5.99574,94.99425 -8.05596,-36.51672 -3.08652,-67.40676 10.36734,-92.24126 20.42661,-37.70553 54.82582,-29.08631 64.4532,20.69014 z m -2.30256,-17.50412 c 29.22858,-14.15055 27.94847,-18.96044 -1.7315,-5.09471 z m -8.53256,-15.71914 c 25.63479,-21.68878 22.12169,-25.29704 -3.19145,-4.43034 z" />
          </g>
        </g>
      </g>
    </g>
    <g clip-path="url(#clipPath7781)">
      <use transform="translate(0 584)" xlink:href="#rect9539" />
      <g>
        <g>
          <path d="m 599.70881,2036.6257 c 26.75042,-48.9244 50.77518,-37.5272 43.14306,51.2933 15.30895,-12.4014 22.98668,16.6608 7.27483,54.7773 -38.17052,-20.2107 -68.3756,-63.0679 -50.41789,-106.0706 z" fill="#50c356" />
          <path d="m 642.86186,2087.8024 c 15.29896,-12.2848 22.97669,16.7774 7.26484,54.8939 m -50.41789,-106.0706 c 28.92331,-52.8984 54.66017,-35.2776 40.62848,74.6265" style="stroke:#2e992e;fill:none;stroke-miterlimit:20;stroke-width:7" />
          <path d="m 604.33894,2050.8705 c -16.00316,-127.5548 -64.48424,-138.5991 -71.44369,-57.0568 -18.33661,69.727 47.55034,96.1318 71.44369,57.0568 z" fill="#50c356" />
          <path fill="#2e992e" inkscape:original-d="m 604.33894,2050.8705 c -16.00316,-127.5548 -64.48424,-138.5991 -71.44369,-57.0568" inkscape:path-effect="#path-effect4940" />
        </g>
        <path d="m 418.67145,2239.6564 c -93.27654,-61.8532 -72.34727,-82.4884 -43.10449,-64.1938 -52.69359,-82.4161 4.99384,-112.2337 43.10449,64.1938 z" style="stroke:#dcf188;fill:#afd95e;stroke-miterlimit:20;stroke-width:7" />
        <path d="m 558.46151,2345.8698 c 1.26113,-13.4594 2.80596,-27.1112 5.17694,-39.7588 136.04998,-34.9903 126.81301,-261.8176 -31.7294,-265.0689 -128.14212,-2.6279 -160.21657,102.0827 -134.83693,191.7895 -12.73568,3.0373 -22.80751,12.6823 -18.88171,23.4838 6.55363,18.0318 26.01676,49.1657 120.53108,54.2917 4.34855,24.201 25.58026,35.5375 59.74002,35.2627 z" fill="#c290c6" />
        <path d="m 417.21997,2117.7595 c -12.18607,57.134 24.3116,98.5897 -7.79186,140.6674 63.75449,-26.9024 17.64148,-68.2067 7.79186,-140.6674 z" fill="#b33650" />
        <g>
          <g clip-path="url(#clipPath4852)">
            <ellipse cx="-79.691124" cy="2235.4502" fill="#59325e" id="path4726" rx="30.496857" ry="62.081184" transform="rotate(346.89385)" />
            <g clip-path="url(#clipPath4706)">
              <ellipse cx="82.017387" cy="2243.3977" fill="url(#linearGradient4823)" id="path4666" rx="26.144737" ry="42.124908" transform="rotate(350.59492)" />
              <path d="m 444.99185,2207.2032 -24.74363,15.4902 -5.14609,-14.8653 29.36602,-8.2417 z" fill="#caecc3" />
              <path d="m 443.99185,2196.2032 -35.2133,-1.1562 7.50036,19.0133 28.18924,-11.9436 z" fill="#77d963" />
              <path d="m 447.59788,2226.6553 c -8.56772,-18.0242 -11.02259,-33.8331 -5.96447,-52.7083 7.07845,17.1318 9.11476,32.3331 5.96447,52.7083 z" />
              <ellipse cx="-969.47388" cy="1994.6693" fill="#fff" rx="5.994945" ry="12.48673" transform="rotate(322.27402)" />
            </g>
          </g>
          <path d="m 454.14017,2172.4521 c -26.14854,-54.5861 -60.53344,-43.1229 -56.85083,16.8979 -13.4531,-62.5122 36.48287,-82.9867 56.85083,-16.8979 z" />
        </g>
        <path fill="#985e9f" inkscape:original-d="m 545.92128,2309.3863 c 154.27487,-19.1934 151.06284,-264.9589 -14.01223,-268.3442 -128.14212,-2.6279 -160.21657,102.0827 -134.83693,191.7895 -12.73568,3.0373 -22.80751,12.6823 -18.88171,23.4838 6.55363,18.0318 26.01676,49.1657 120.53108,54.2917" inkscape:path-effect="#path-effect4923" />
        <g>
          <path d="m 465.70024,2361.5731 c 6.54076,-18.7376 14.72945,-37.5078 24.34321,-55.5784 -12.51378,-6.1873 -20.26149,-16.8361 -25.84975,-33.3213 13.01609,-6.2386 30.63621,-4.6691 45.59457,3.1497 6.33186,17.113 20.54666,26.8685 36.13301,33.5632 -6.76431,17.963 -11.84192,38.3844 -16.05045,58.5346 z" fill="#d5ebad" />
          <path fill="#96ce7d" inkscape:original-d="m 533.41249,2313.0252 c -40.78307,0.8842 -58.7733,-9.5379 -69.21879,-40.3518" inkscape:path-effect="#path-effect4882" />
          <path d="m 490.31523,2305.9786 c -9.88554,18.0867 -18.07423,36.8569 -24.61499,55.5945" style="stroke:#96ce7d;fill:none;stroke-miterlimit:20;stroke-width:7" />
          <path d="m 480.62128,2323.3891 c 19.68244,0.6628 38.64595,6.5431 53.02197,16.2716" style="stroke:#96ce7d;fill:none;stroke-miterlimit:20;stroke-width:3" />
          <path d="m 482.36937,2274.2123 c 2.15851,3.8864 2.79031,8.4881 1.59099,12.8841 6.07098,-3.189 7.9134,-7.6435 8.11208,-13.8984" style="stroke:#94b5b3;fill:#fff;stroke-miterlimit:20;stroke-width:3" />
          <path d="m 484.68932,2246.2475 c -39.19203,-17.1832 -49.92042,5.9836 -30.96135,24.2064 17.97199,17.2741 33.01559,-4.8657 56.0603,5.3692 z" fill="#c290c6" />
          <path fill="#985e9f" inkscape:original-d="m 484.68932,2246.2475 c -39.19203,-17.1832 -49.92042,5.9836 -30.96135,24.2064 17.97199,17.2741 33.01559,-4.8657 56.0603,5.3692" inkscape:path-effect="#path-effect4764" />
          <path d="m 466.83656,2249.6837 c 1.16877,3.8139 0.0579,7.3501 -3.14296,9.2228 5.78214,-0.495 6.29474,-5.7529 3.14296,-9.2228 z" fill="#985e9f" />
        </g>
        <path d="m 411.12758,2111.8437 c 5.65685,-9.5459 13.1442,-14.6642 23.04368,-17.3158 -11.13693,-1.0607 -19.73892,6.3294 -23.04368,17.3158 z m 150.70925,-22.2926 c 19.00669,0.6116 29.62126,7.2357 34.88132,23.2669 0.25928,-18.1109 -14.52142,-27.1907 -34.88132,-23.2669 z" fill="#973365" />
        <g>
          <ellipse cx="1292.2959" cy="1864.2621" fill="#fff" rx="46.595917" ry="67.973473" transform="rotate(20.312455)" />
          <g clip-path="url(#clipPath4719)">
            <ellipse cx="560.47913" cy="2199.6184" fill="url(#linearGradient4687)" id="path4662" rx="32.004444" ry="44.917385" />
            <ellipse cx="-825.65771" cy="2085.7336" fill="#fff" rx="6.521183" ry="14.456998" transform="rotate(323.60301)" />
            <path d="m 556.54799,2207.4375 39.12254,15.0966 3.00427,-17.4825 -41.69208,-4.4103 z" fill="#caecc3" />
            <path d="m 556.54799,2197.4375 43.29932,-3.1963 -1.17251,17.5175 -41.69208,-6.7638 z" fill="#77d963" />
            <path d="m 560.05576,2231.2939 c -8.20631,-18.747 -10.09463,-39.7489 -2.14518,-59.3469 8.1627,19.6617 8.1868,39.3331 2.14518,59.3469 z" />
          </g>
          <path d="m 523.71987,2174.3221 c 36.042,-61.7028 91.74102,-50.8713 89.87358,18.527 15.60421,-75.5406 -65.14271,-88.3644 -89.87358,-18.527 z" />
        </g>
        <path d="m 563.78003,2306.1498 c -2.51256,12.6088 -4.05739,26.2606 -5.31852,39.72" style="stroke:#985e9f;fill:none;stroke-miterlimit:20;stroke-width:7" />
        <path d="m 637.39054,2233.3022 c 28.82598,-124.3983 112.17649,-146.2835 67.8633,-88.2628 36.25938,-17.1369 43.93463,11.7053 -5.87266,40.5999 36.27159,-1.7528 31.95126,16.4318 -61.99064,47.6629 z" style="stroke:#dcf188;fill:#afd95e;stroke-miterlimit:20;stroke-width:7" />
        <g>
          <path d="m 577.4588,2039.3889 c -42.11697,-2.6968 -67.20104,15.6717 -104.29512,64.5863 -52.94892,-77.3405 -47.36075,-180.2792 -24.60571,-193.4169 18.65641,-10.7713 74.07806,35.2106 93.78197,102.2428 z" fill="#50c356" />
          <path fill="#2e992e" inkscape:original-d="m 577.4588,2039.3889 c -42.11697,-2.6968 -67.20104,15.6717 -104.29512,64.5863 -52.94892,-77.3405 -47.36075,-180.2792 -24.60571,-193.4169 18.65641,-10.7713 74.07806,35.2106 93.78197,102.2428" inkscape:path-effect="#path-effect4938" />
        </g>
      </g>
      <text style="font-size:30.88941193px;font-family:Junction;text-align:center;text-anchor:middle" x="511.24231" y="1805.2974" xml:space="preserve"><tspan x="511.24231" y="1805.2974" sodipodi:role="line">She summoned Genie Twi's</tspan><tspan x="511.24231" y="1843.9092" sodipodi:role="line">Spike from the Dragon Balls…</tspan><tspan x="511.24231" y="1882.5209" sodipodi:role="line">maybe he has something to say?</tspan></text>
      <g transform="translate(763e-8)">
        <text font-family="Junction" font-size="11px" x="8.4138546" y="2318.7715" xml:space="preserve"><tspan x="8.4138546" y="2318.7715" sodipodi:role="line">aintneverhadfriendslikeus.tumblr.com</tspan></text>
        <g transform="translate(995.64875 2301.8022)scale(.52965382)">
          <path d="m -2,-18 c 6,-6 4,-14 -4,-18 17,-2 22,-10 12,-21 10,2 19,-3 20,-14 18,33 -13,37 -13,53 0,16 31,20 13,53 -1,-11 -10,-16 -20,-14 10,-11 5,-19 -12,-21 8,-4 10,-12 4,-18 z" fill="#5a318e" />
          <path d="m -12,-18 40,-7 -9,7 9,7 z" fill="#54a2e1" />
          <path d="m 8,-48 25.980762,15 v 30 l -25.980762,15 -25.980762,-15 v -30 z" fill="none" stroke="#576ab7" stroke-width="1.79999995" />
        </g>
        <text font-family="Junction" font-size="11px" x="974.91382" y="2273.2715" xml:space="preserve"><tspan x="974.91382" y="2273.2715" sodipodi:role="line">2017</tspan></text>
      </g>
    </g>
  </g>
</svg>