<?xml version="1.0" encoding="UTF-8" standalone="no"?>
<!-- Created with Inkscape (http://www.inkscape.org/) -->

<svg
   xmlns:dc="http://purl.org/dc/elements/1.1/"
   xmlns:cc="http://creativecommons.org/ns#"
   xmlns:rdf="http://www.w3.org/1999/02/22-rdf-syntax-ns#"
   xmlns:svg="http://www.w3.org/2000/svg"
   xmlns="http://www.w3.org/2000/svg"
   xmlns:xlink="http://www.w3.org/1999/xlink"
   xmlns:sodipodi="http://sodipodi.sourceforge.net/DTD/sodipodi-0.dtd"
   xmlns:inkscape="http://www.inkscape.org/namespaces/inkscape"
   id="svg2"
   version="1.1"
   inkscape:version="0.48.3.1 r9886"
   width="1024"
   height="576"
   sodipodi:docname="Lilo-Stitch Mike+Manitoba Smith.svg"
   inkscape:export-filename="/home/parclytaxel/Pictures/Lilo-Stitch Mike+Manitoba Smith.png"
   inkscape:export-xdpi="1201.6669"
   inkscape:export-ydpi="1201.6669">
  <metadata
     id="metadata8">
    <rdf:RDF>
      <cc:Work
         rdf:about="">
        <dc:format>image/svg+xml</dc:format>
        <dc:type
           rdf:resource="http://purl.org/dc/dcmitype/StillImage" />
        <dc:title></dc:title>
      </cc:Work>
    </rdf:RDF>
  </metadata>
  <defs
     id="defs6">
    <linearGradient
       inkscape:collect="always"
       id="linearGradient5782">
      <stop
         style="stop-color:#ffffff;stop-opacity:1"
         offset="0"
         id="stop5784" />
      <stop
         style="stop-color:#ffffff;stop-opacity:0"
         offset="1"
         id="stop5786" />
    </linearGradient>
    <clipPath
       clipPathUnits="userSpaceOnUse"
       id="clipPath5559">
      <path
         id="path5561"
         style="fill:none;stroke:#000000;stroke-width:0.30000001;stroke-linecap:round;stroke-linejoin:round;stroke-miterlimit:4;stroke-opacity:1;stroke-dasharray:none"
         d="M 736.25,326.75 740.01564,178.92187 811,196 l 1.25,130.5 z m 10.67805,-17.50231 2.0397,-8.35003 c -3.15884,-0.42093 -6.26277,3.64115 -2.0397,8.35003 z"
         inkscape:connector-curvature="0" />
    </clipPath>
    <clipPath
       clipPathUnits="userSpaceOnUse"
       id="clipPath5593">
      <path
         inkscape:connector-curvature="0"
         d="m 658.66997,327.80552 110.30866,-0.35355 -6.71752,-147.43177 -97.22718,7.77818 z m 64.74164,-18.57069 c -1.17921,-5.50482 -3.01892,-10.56245 -3.92171,-16.18154 6.97393,0.28078 9.8851,11.04588 3.92171,16.18154 z"
         style="fill:#1a1a1a;stroke:none"
         id="path5595"
         sodipodi:nodetypes="cccccccc" />
    </clipPath>
    <linearGradient
       inkscape:collect="always"
       xlink:href="#linearGradient5782"
       id="linearGradient5794"
       gradientUnits="userSpaceOnUse"
       x1="823.7962"
       y1="507.75"
       x2="900.24146"
       y2="507.75" />
    <mask
       maskUnits="userSpaceOnUse"
       id="mask5790">
      <rect
         style="fill:url(#linearGradient5794);fill-opacity:1;fill-rule:evenodd;stroke:none"
         id="rect5792"
         width="219.5"
         height="126.5"
         x="730.5"
         y="444.5" />
    </mask>
    <filter
       inkscape:collect="always"
       id="filter4067">
      <feGaussianBlur
         inkscape:collect="always"
         stdDeviation="1.1948223"
         id="feGaussianBlur4069" />
    </filter>
  </defs>
  <sodipodi:namedview
     pagecolor="#ffffff"
     bordercolor="#666666"
     borderopacity="1"
     objecttolerance="10"
     gridtolerance="10"
     guidetolerance="10"
     inkscape:pageopacity="0"
     inkscape:pageshadow="2"
     inkscape:window-width="1364"
     inkscape:window-height="698"
     id="namedview4"
     showgrid="false"
     fit-margin-top="0"
     fit-margin-left="0"
     fit-margin-right="0"
     fit-margin-bottom="0"
     inkscape:zoom="3.7083333"
     inkscape:cx="512"
     inkscape:cy="83.05618"
     inkscape:window-x="0"
     inkscape:window-y="0"
     inkscape:window-maximized="1"
     inkscape:current-layer="layer2"
     showguides="true"
     inkscape:object-paths="false"
     inkscape:snap-nodes="true"
     inkscape:object-nodes="false"
     inkscape:guide-bbox="true"
     inkscape:snap-intersection-paths="false" />
  <g
     inkscape:groupmode="layer"
     id="layer2"
     inkscape:label="Drawing"
     style="display:inline">
    <g
       id="Mike">
      <g
         transform="matrix(1,0,0.04685098,1,-7.7601855,-1.646447)"
         id="use4966">
        <path
           style="fill:#284563;fill-opacity:1;stroke:none"
           d="m 211.5,337.5 -15.875,195.75 58.625,0 C 250,518.5 245.02519,516.84467 222.14984,516.84467 l -0.51183,-189.20952 z"
           id="path4970"
           inkscape:connector-curvature="0"
           sodipodi:nodetypes="cccccc" />
        <path
           sodipodi:nodetypes="cccccccc"
           inkscape:connector-curvature="0"
           id="path4972"
           style="fill:#ded4ab;fill-opacity:1;stroke:none"
           d="M 208.77328,509.09002 212.71783,521.5 c -5.03033,2.375 -10.19604,3.875 -16.48193,4.35172 l -0.6109,7.39828 58.625,0 C 250,518.5 245.00035,517.375 222.125,517.375 l -0.14429,-8.19608 z" />
        <path
           sodipodi:nodetypes="ccccccc"
           inkscape:connector-curvature="0"
           id="path4974"
           style="fill:#3b5b7a;fill-opacity:1;stroke:none"
           d="m 197.9899,504.40544 24.13002,-0.35355 -0.26517,5.03813 -13.08147,0 3.94455,12.40998 c -5.03033,2.375 -10.19604,3.875 -16.46783,4.3125 z" />
        <path
           sodipodi:nodetypes="cccccccc"
           inkscape:connector-curvature="0"
           id="path4976"
           style="fill:#805d51;fill-opacity:1;stroke:none"
           d="m 197.9899,504.40544 24.13002,-0.35355 M 196.25,525.8125 c 6.27179,-0.4375 11.4375,-1.9375 16.46783,-4.3125 l 17.87099,0.0562 c -1.28948,2.07937 -2.21876,4.42043 -2.64063,7.44375 l -32.05174,0 z" />
        <path
           sodipodi:nodetypes="ccccc"
           inkscape:connector-curvature="0"
           id="path4978"
           d="m 211.5,337.5 -15.875,195.75 58.625,0 C 250,518.5 245.00035,517.375 222.125,517.375 l -0.48699,-189.73985"
           style="fill:none;stroke:#000000;stroke-width:2.5999999;stroke-linecap:round;stroke-miterlimit:4;stroke-dasharray:none" />
        <path
           inkscape:connector-curvature="0"
           d="m 197.9899,504.40544 24.13002,-0.35355 M 212.71783,521.5 c -5.03033,2.375 -10.19604,3.875 -16.46783,4.3125 m 34.375,-4.3125 -17.90717,0 -3.94455,-12.40998 13.08147,0 m 3.68871,8.40762 c -1.19101,1.27614 -2.27999,2.57798 -3.19814,4.0463 m 7.32314,-4.0463 c -1.1971,1.28266 -2.29112,2.59129 -3.21222,4.06883 m 7.33722,-4.06883 c -2.84475,3.04808 -5.1074,6.24281 -5.85063,11.50236 m -32.04638,0 57.0821,0"
           style="fill:none;stroke:#000000;stroke-width:1.42999995;stroke-linecap:butt;stroke-linejoin:miter;stroke-miterlimit:4;stroke-opacity:1;stroke-dasharray:none"
           id="path4980" />
      </g>
      <g
         id="g4958">
        <path
           sodipodi:nodetypes="ccccccc"
           inkscape:connector-curvature="0"
           id="path4956"
           d="m 211.5,337.5 -15.875,195.75 58.625,0 C 250,518.5 245.00035,517.375 222.125,517.375 L 221.75,351.5 l 4.25,0 c 1.33483,-12.9111 -4.95406,-17.71231 -14.5,-14 z"
           style="fill:#284563;fill-opacity:1;stroke:none" />
        <path
           d="M 208.77328,509.09002 212.71783,521.5 c -5.03033,2.375 -10.19604,3.875 -16.48193,4.35172 l -0.6109,7.39828 58.625,0 C 250,518.5 245.00035,517.375 222.125,517.375 l -0.14429,-8.19608 z"
           style="fill:#ded4ab;fill-opacity:1;stroke:none"
           id="path4949"
           inkscape:connector-curvature="0"
           sodipodi:nodetypes="cccccccc" />
        <path
           d="m 197.9899,504.40544 24.13002,-0.35355 -0.26517,5.03813 -13.08147,0 3.94455,12.40998 c -5.03033,2.375 -10.19604,3.875 -16.46783,4.3125 z"
           style="fill:#3b5b7a;fill-opacity:1;stroke:none"
           id="path4953"
           inkscape:connector-curvature="0"
           sodipodi:nodetypes="ccccccc" />
        <path
           d="m 197.9899,504.40544 24.13002,-0.35355 M 196.25,525.8125 c 6.27179,-0.4375 11.4375,-1.9375 16.46783,-4.3125 l 17.87099,0.0562 c -1.28948,2.07937 -2.21876,4.42043 -2.64063,7.44375 l -32.05174,0 z"
           style="fill:#805d51;fill-opacity:1;stroke:none"
           id="path4951"
           inkscape:connector-curvature="0"
           sodipodi:nodetypes="cccccccc" />
        <path
           style="fill:none;stroke:#000000;stroke-width:2.5999999;stroke-linecap:round;stroke-miterlimit:4;stroke-dasharray:none"
           d="m 211.5,337.5 -15.875,195.75 58.625,0 C 250,518.5 245.00035,517.375 222.125,517.375 L 221.75,351.5 l 4.25,0"
           id="path4923"
           inkscape:connector-curvature="0"
           sodipodi:nodetypes="cccccc" />
        <path
           id="path4944"
           style="fill:none;stroke:#000000;stroke-width:1.42999995;stroke-linecap:butt;stroke-linejoin:miter;stroke-miterlimit:4;stroke-opacity:1;stroke-dasharray:none"
           d="m 197.9899,504.40544 24.13002,-0.35355 M 212.71783,521.5 c -5.03033,2.375 -10.19604,3.875 -16.46783,4.3125 m 34.375,-4.3125 -17.90717,0 -3.94455,-12.40998 13.08147,0 m 3.68871,8.40762 c -1.19101,1.27614 -2.27999,2.57798 -3.19814,4.0463 m 7.32314,-4.0463 c -1.1971,1.28266 -2.29112,2.59129 -3.21222,4.06883 m 7.33722,-4.06883 c -2.84475,3.04808 -5.1074,6.24281 -5.85063,11.50236 m -32.04638,0 57.0821,0"
           inkscape:connector-curvature="0" />
      </g>
      <g
         id="g4905">
        <path
           style="fill:#388074;fill-opacity:1;stroke:none"
           d="m 254.875,218.875 c -5,17.5 -9.44823,23.79397 -17.02145,30.71339 -4.93416,29.8685 -5.88819,58.8424 -5.35355,90.78661 l -24.125,1.125 c 5,-67.5 7.78921,-89.3033 16.84467,-122.5 l 6.18102,-15.82205 c 10.7119,8.46852 11.04045,-2.49274 21.83193,1.67938 z"
           id="path4903"
           inkscape:connector-curvature="0"
           sodipodi:nodetypes="cccccccc" />
        <g
           id="g4872">
          <path
             sodipodi:nodetypes="cccccccccccc"
             id="path4852"
             style="fill:#a8603b;fill-opacity:1;stroke:none;display:inline"
             d="m 261.55509,251.8981 14.48628,31.29142 58.17678,-40.67677 c 11.00888,12.48483 18.43305,18.41789 29.97855,21.21967 l 16,-19.82323 c -11.60158,-0.71962 -27.45133,-9.0331 -34.90534,-15.27772 l 10.97856,-10.48385 -7.53489,-5.70711 c -4.33103,5.21492 -14.43846,16.60841 -17.44366,25.44724 l -50.57,30.9756 -9.77712,-23.23469 z"
             inkscape:connector-curvature="0" />
          <path
             sodipodi:nodetypes="cccscc"
             id="path4854"
             style="fill:#388074;fill-opacity:1;stroke:none;display:inline"
             d="m 251.30132,229.74921 10.38727,22.43727 9.13878,-6.83559 -15.75143,-37.43227 c -1.75706,-4.17554 -7.41179,-5.42005 -11.21249,-1.2658 z"
             inkscape:connector-curvature="0" />
          <path
             id="path4848"
             style="fill:#ded4ab;fill-opacity:1;stroke:none;display:inline"
             d="m 268.69876,240.07133 -9.37989,7.92907 4.5,9.9375 9.87989,-6.42907 z"
             inkscape:connector-curvature="0"
             sodipodi:nodetypes="ccccc" />
          <path
             inkscape:connector-curvature="0"
             d="m 251.30132,229.74921 24.74005,53.44031 58.17678,-40.67677 c 11.00888,12.48483 18.43305,18.41789 29.97855,21.21967 l 16,-19.82323 c -11.60158,-0.71962 -27.45133,-9.0331 -34.90534,-15.27772 l 10.97856,-10.48385 -7.53489,-5.70711 c -4.33103,5.21492 -14.43846,16.60841 -17.44366,25.44724 l -50.57,30.9756 -25.64543,-60.94473 c -1.75706,-4.17554 -7.41179,-5.42005 -11.21249,-1.2658"
             style="fill:none;stroke:#000000;stroke-width:2.5999999;stroke-linecap:round;stroke-linejoin:miter;stroke-miterlimit:4;stroke-opacity:1;stroke-dasharray:none;display:inline"
             id="path4780-7"
             sodipodi:nodetypes="ccccccccccsc" />
          <path
             inkscape:connector-curvature="0"
             id="path4827"
             style="fill:none;stroke:#000000;stroke-width:1.39999998;stroke-linecap:round;stroke-linejoin:round;stroke-miterlimit:4;stroke-opacity:1;stroke-dasharray:none"
             d="m 336.16861,237.29585 c 2.92386,-5.38357 4.44423,-4.1705 9.78338,6.71751 m 9.28078,-2.38648 -6.09879,6.36396 c 7.68978,7.07107 13.16985,9.54594 20.06415,9.54594 M 354.2936,242.60689 c 8.8217,6.66008 16.22524,8.04216 21.16351,7.09133" />
          <path
             sodipodi:nodetypes="cccc"
             inkscape:connector-curvature="0"
             d="m 268.69876,240.07133 -9.37989,7.92907 m 14.37989,3.50843 -9.87989,6.42907"
             style="fill:none;stroke:#000000;stroke-width:1.39999998;stroke-linecap:butt;stroke-linejoin:miter;stroke-miterlimit:4;stroke-opacity:1;stroke-dasharray:none;display:inline"
             id="path4789-6" />
        </g>
        <path
           sodipodi:nodetypes="ccccc"
           inkscape:connector-curvature="0"
           id="path4850"
           d="m 254.875,218.875 c -5,17.5 -9.44823,23.79397 -17.02145,30.71339 -4.93416,29.8685 -5.88819,58.8424 -5.35355,90.78661 l -24.125,1.125 c 5,-67.5 7.78921,-89.3033 16.84467,-122.5"
           style="fill:none;stroke:#000000;stroke-width:2.5999999;stroke-linecap:round;stroke-miterlimit:4;stroke-dasharray:none" />
        <g
           id="g4880">
          <path
             inkscape:connector-curvature="0"
             id="path4901"
             style="fill:#388074;fill-opacity:1;stroke:none"
             d="m 210.79285,243.15775 11.61876,-35.62114 c 2.20012,-6.74519 6.51149,-7.56802 13.21339,-1.16161 l -4.42253,8.49166 c -3.63684,13.91568 -7.18349,25.14099 -10.40453,34.38978 z"
             sodipodi:nodetypes="cscccc" />
          <path
             sodipodi:nodetypes="cccccccccsccc"
             inkscape:connector-curvature="0"
             id="path4795"
             style="fill:#a8603b;fill-opacity:1;stroke:none"
             d="m 209,272.5 62.125,-27.25 c 3.0052,-8.83883 5.75908,-14.52521 10.09011,-19.74013 l 13.35811,0 -13.625,16.95352 c 7.20401,0.99462 19.8252,1.94199 36.92678,2.16161 L 314.5,265.5 c -23.4205,2.94822 -34.71967,-7.61872 -41.97855,-14.97855 L 203.875,285.375 c -1.72335,-6.49175 -1.76237,-15.60518 -0.31694,-20.03661 l 7.41098,-22.72081 10.09842,5.86251 c -3.16964,9.15896 -6.03374,16.40611 -8.37166,22.41045" />
          <path
             id="path4792"
             style="fill:#ded4ab;fill-opacity:1;stroke:none"
             d="m 209.40716,247.2534 9.69239,7.11657 3.5,-10.75 -9.94239,-6.11657 z"
             inkscape:connector-curvature="0"
             sodipodi:nodetypes="ccccc" />
          <path
             d="m 209,272.5 62.125,-27.25 c 3.0052,-8.83883 5.75908,-14.52521 10.09011,-19.74013 l 13.35811,0 -13.625,16.95352 c 7.20401,0.99462 19.8252,1.94199 36.92678,2.16161 L 314.5,265.5 c -23.4205,2.94822 -34.71967,-7.61872 -41.97855,-14.97855 L 203.875,285.375 c -1.72335,-6.49175 -1.76237,-15.60518 -0.31694,-20.03661 l 18.85355,-57.80178 c 2.20012,-6.74519 6.51149,-7.56802 13.21339,-1.16161 m -4.42253,8.49166 c -7.09467,27.14645 -13.84614,44.05453 -18.50667,56.02388"
             style="fill:none;stroke:#000000;stroke-width:2.5999999;stroke-linecap:round;stroke-linejoin:miter;stroke-miterlimit:4;stroke-opacity:1;stroke-dasharray:none"
             id="path4780"
             inkscape:connector-curvature="0" />
          <path
             sodipodi:nodetypes="cccc"
             inkscape:connector-curvature="0"
             d="m 212.65716,237.5034 9.94239,6.11657 m -13.19239,3.63343 9.69239,7.11657"
             style="fill:none;stroke:#000000;stroke-width:1.39999998;stroke-linecap:butt;stroke-linejoin:miter;stroke-miterlimit:4;stroke-opacity:1;stroke-dasharray:none"
             id="path4789" />
          <path
             inkscape:connector-curvature="0"
             d="m 277.41789,251.08839 c 13.65058,7.80959 19.42526,8.68673 38.11872,7.92678 m -38.58839,-12.19195 c 15.59512,6.2186 26.81695,6.57062 39.67678,4.92678"
             style="fill:none;stroke:#000000;stroke-width:1.39999998;stroke-linecap:round;stroke-linejoin:miter;stroke-miterlimit:4;stroke-opacity:1;stroke-dasharray:none"
             id="path4784" />
        </g>
      </g>
      <g
         id="g4750">
        <path
           style="fill:#281417;fill-opacity:1;stroke:#000000;stroke-width:2.5999999;stroke-miterlimit:20;stroke-dasharray:none"
           d="m 230.69359,157.92312 0.61872,18.47316 -11.9047,9.104 9.16466,-1.06066 -6.42462,12.6118 14.9099,-8.19239 -3.88909,9.63434 12.72792,-5.03814 3.97748,-34.02951 z"
           id="path4728"
           inkscape:connector-curvature="0"
           sodipodi:nodetypes="cccccccccc" />
        <path
           style="fill:#ded4ab;fill-opacity:1;stroke:none"
           d="m 236.48377,201.70165 -2.31428,5.62038 13.42373,2.0339 0.97443,-5.439 z"
           id="path4746"
           inkscape:connector-curvature="0"
           sodipodi:nodetypes="ccccc" />
        <path
           style="fill:#a8603b;fill-opacity:1;stroke:none"
           d="m 235.21656,143.72032 1.93598,34.99155 6.50848,5.55932 -7.17725,17.43046 12.08388,2.21528 2.44328,-13.63769 13.51892,10.93019 c 14.3858,-7.72026 26.55853,-16.48548 37.97863,-26.83655 l -0.75066,-31.91773 14.31891,-14.23052 -9.54594,1.76777 4.94975,-8.13173 -8.3085,2.82843 c 6.18265,-12.52454 3.71802,-24.919568 -6.18719,-35.178566 0.20854,6.767812 0.0549,13.927656 -0.73485,19.364466 -2.63241,-12.917744 -6.66264,-22.421671 -16.625,-29.625001 l 1.75,29.500001 -11.75,-25.625001 c -4.24048,8.510715 -5.29532,16.951891 -4.875,28.750001 l -7.5,-10.375 -0.17678,13.15533 -15.33109,-7.02519 2.03294,10.42983 -15.9983,-2.65165 1.10864,27.24479 z"
           id="path4748"
           inkscape:connector-curvature="0"
           sodipodi:nodetypes="cccccccccccccccccccccccccc" />
        <path
           style="fill:none;stroke:#000000;stroke-width:1.39999998;stroke-linecap:round;stroke-linejoin:round;stroke-miterlimit:4;stroke-dasharray:none"
           d="m 280.73338,147.22962 0,19.5593 -5.52726,-4.75274"
           id="path3845"
           inkscape:connector-curvature="0"
           sodipodi:nodetypes="ccc" />
        <g
           id="g3833">
          <path
             sodipodi:type="arc"
             style="fill:#ffffff;stroke:none"
             id="path3804"
             sodipodi:cx="269.41968"
             sodipodi:cy="152.3112"
             sodipodi:rx="10.011102"
             sodipodi:ry="6.6652751"
             d="m 279.43078,152.3112 a 10.011102,6.6652751 0 1 1 -20.0222,0 10.011102,6.6652751 0 1 1 20.0222,0 z"
             transform="matrix(0.98024893,0.19776764,-0.19776764,0.98024893,30.894865,-51.454307)" />
          <path
             sodipodi:nodetypes="ccc"
             inkscape:connector-curvature="0"
             id="path3802"
             d="m 270.13876,146.12029 c -1.582,5.32127 0.43146,8.29352 3.45164,9.15643 3.02018,-4.26661 -0.7191,-8.00588 -3.45164,-9.15643 z"
             style="fill:#532c24;fill-opacity:1;stroke:none" />
          <path
             transform="matrix(0.98024893,0.19776764,-0.19776764,0.98024893,30.894865,-51.454307)"
             d="m 279.43078,152.3112 a 10.011102,6.6652751 0 1 1 -20.0222,0 10.011102,6.6652751 0 1 1 20.0222,0 z"
             sodipodi:ry="6.6652751"
             sodipodi:rx="10.011102"
             sodipodi:cy="152.3112"
             sodipodi:cx="269.41968"
             id="path3026"
             style="fill:none;stroke:#000000;stroke-width:1.39999998;stroke-miterlimit:4;stroke-dasharray:none"
             sodipodi:type="arc" />
          <path
             style="fill:#000000;stroke:none"
             d="m 273.90311,143.60843 c -4.20821,0.77591 -9.46319,0.51081 -16.26436,-1.23825 -1.27807,-0.32868 -1.7378,1.22131 -0.64888,1.63277 5.90605,2.23163 13.37071,3.01591 17.42945,2.0502 1.63322,-0.3886 1.08258,-2.7395 -0.51621,-2.44472 z"
             id="path3831"
             inkscape:connector-curvature="0"
             sodipodi:nodetypes="sssss" />
        </g>
        <path
           style="fill:#281417;fill-opacity:1;stroke:none"
           d="m 316.07673,128.22463 -9.54594,1.76777 4.94975,-8.13173 -8.3085,2.82843 c 6.18265,-12.52454 3.71802,-24.919568 -6.18719,-35.178566 0.20854,6.767812 0.0549,13.927656 -0.73485,19.364466 -2.63241,-12.917744 -6.66264,-22.421671 -16.625,-29.625001 l 1.75,29.500001 -11.75,-25.625001 c -4.24048,8.510715 -5.29532,16.951891 -4.875,28.750001 l -7.5,-10.375 -0.17678,13.15533 -15.33109,-7.02519 2.03294,10.42983 -15.9983,-2.65165 1.07284,27.23883 6.36695,1.07317 1.15903,23.18676 9.12441,4.21792 -3.75,-26.5 5.75,4.875 -1.25,-10.125 3.75,3.25 -0.75,-10 52.50391,9.85257 z"
           id="path4732"
           inkscape:connector-curvature="0"
           sodipodi:nodetypes="cccccccccccccccccccccccccc" />
        <path
           sodipodi:nodetypes="cccc"
           inkscape:connector-curvature="0"
           id="path4719"
           d="m 223.16161,141.71339 12.05495,2.00693 0.89135,17.07422 c -11.07713,1.92513 -15.42117,-3.78997 -12.9463,-19.08115 z"
           style="fill:#a8603b;fill-opacity:1;stroke:none" />
        <path
           d="m 235.75,154.1875 c -5.56369,0.78485 -6.25959,-0.0953 -5.66257,-6.32345 l 5.47507,1.01095 z"
           style="fill:#93512d;fill-opacity:1;stroke:none"
           id="path4726"
           inkscape:connector-curvature="0"
           sodipodi:nodetypes="cccc" />
        <path
           style="fill:none;stroke:#000000;stroke-width:2.5999999;stroke-linecap:butt;stroke-linejoin:miter;stroke-miterlimit:20;stroke-opacity:1;stroke-dasharray:none"
           d="m 236.05178,160.74372 c -11.021,1.97595 -15.36504,-3.73915 -12.89017,-19.03033 l 12.05495,2.00693 1.93598,34.99155 6.50848,5.55932 -9.49153,23.05084 13.42373,2.0339 3.41771,-19.07669 13.51892,10.93019 c 14.3858,-7.72026 26.55853,-16.48548 37.97863,-26.83655 l -0.75066,-31.91773 14.31891,-14.23052 -9.54594,1.76777 4.94975,-8.13173 -8.3085,2.82843 c 6.18265,-12.52454 3.71802,-24.919568 -6.18719,-35.178566 0.20854,6.767812 0.0549,13.927656 -0.73485,19.364466 -2.63241,-12.917744 -6.66264,-22.421671 -16.625,-29.625001 l 1.75,29.500001 -11.75,-25.625001 c -4.24048,8.510715 -5.29532,16.951891 -4.875,28.750001 l -7.5,-10.375 -0.17678,13.15533 -15.33109,-7.02519 2.03294,10.42983 -15.9983,-2.65165 1.06066,27.22361"
           id="path3796"
           inkscape:connector-curvature="0"
           sodipodi:nodetypes="ccccccccccccccccccccccccccc" />
        <g
           id="g3839">
          <path
             transform="matrix(0.98024893,0.19776764,-0.19776764,0.98024893,57.233848,-46.793292)"
             d="m 278.20773,152.3112 a 8.7880497,6.6652751 0 1 1 -17.5761,0 8.7880497,6.6652751 0 1 1 17.5761,0 z"
             sodipodi:ry="6.6652751"
             sodipodi:rx="8.7880497"
             sodipodi:cy="152.3112"
             sodipodi:cx="269.41968"
             id="path3808"
             style="fill:#ffffff;stroke:none"
             sodipodi:type="arc" />
          <path
             style="fill:#532c24;fill-opacity:1;stroke:none"
             d="m 296.53652,150.91273 c -1.84464,4.28536 -0.34136,7.5513 2.27517,8.81769 2.70473,-3.46866 0.0186,-7.58455 -2.27517,-8.81769 z"
             id="path3806"
             inkscape:connector-curvature="0"
             sodipodi:nodetypes="ccc" />
          <path
             sodipodi:type="arc"
             style="fill:none;stroke:#000000;stroke-width:1.39999998;stroke-miterlimit:4;stroke-dasharray:none"
             id="path3800"
             sodipodi:cx="269.41968"
             sodipodi:cy="152.3112"
             sodipodi:rx="8.7880497"
             sodipodi:ry="6.6652751"
             d="m 278.20773,152.3112 a 8.7880497,6.6652751 0 1 1 -17.5761,0 8.7880497,6.6652751 0 1 1 17.5761,0 z"
             transform="matrix(0.98024893,0.19776764,-0.19776764,0.98024893,57.233848,-46.793292)" />
          <path
             sodipodi:nodetypes="sssss"
             inkscape:connector-curvature="0"
             id="path3829"
             d="m 297.0339,144.76271 c 1.07737,1.62391 -0.42879,2.15055 -1.08475,1.42373 -3.20148,-3.54728 -7.389,-3.55093 -11.64938,0.0199 -1.0353,0.86772 -2.32004,-0.14078 -1.21743,-1.27171 4.70082,-4.82156 10.97912,-4.65225 13.95156,-0.17192 z"
             style="fill:#000000;stroke:none" />
        </g>
        <path
           style="fill:none;stroke:#000000;stroke-width:1.39999998;stroke-linecap:butt;stroke-linejoin:miter;stroke-miterlimit:20;stroke-opacity:1;stroke-dasharray:none"
           d="m 236.25,166.875 9.25,4.25 -3.75,-26.5 5.75,4.875 -1.25,-10.125 3.75,3.25 -0.75,-10 52.5,9.875"
           id="path4730"
           inkscape:connector-curvature="0"
           sodipodi:nodetypes="cccccccc" />
        <path
           style="fill:#281417;fill-opacity:1;fill-rule:evenodd;stroke:#000000;stroke-width:1.42999995;stroke-miterlimit:20;stroke-dasharray:none"
           d="m 236.4375,201.6875 12.1875,2.1875"
           id="path4740"
           inkscape:connector-curvature="0"
           sodipodi:nodetypes="cc" />
        <g
           id="g3856">
          <path
             style="fill:#600000;fill-opacity:1;stroke:none"
             d="m 248.51808,177.33559 c 16.81055,-16.72057 30.14815,-10.7748 30.0134,6.8752 z"
             id="path3854"
             inkscape:connector-curvature="0"
             sodipodi:nodetypes="ccc" />
          <path
             sodipodi:nodetypes="cccc"
             inkscape:connector-curvature="0"
             id="path3852"
             d="m 254.77941,172.02106 c 3.57973,1.85616 6.3033,4.81716 8.20365,8.61786 l -14.39083,-3.35876 c 1.90884,-1.90915 3.91209,-3.72233 6.18718,-5.2591 z"
             style="fill:#de8080;fill-opacity:1;stroke:#000000;stroke-width:1;stroke-linecap:butt;stroke-linejoin:miter;stroke-miterlimit:4;stroke-opacity:1;stroke-dasharray:none" />
          <path
             d="m 271.17545,168.39713 -2.43068,6.49655 8.30851,0.35355 c -1.12141,-3.14954 -2.79829,-5.2669 -5.87783,-6.8501 z m -11.5915,0.86359 6.78347,4.58839 1.52589,-6.3933 c -2.70748,-0.1455 -5.48838,0.43528 -8.30936,1.80491 z"
             style="fill:#d5d5d5;fill-opacity:1;stroke:#000000;stroke-width:1;stroke-linecap:butt;stroke-linejoin:miter;stroke-miterlimit:4;stroke-opacity:1;stroke-dasharray:none"
             id="path3849"
             inkscape:connector-curvature="0" />
          <path
             sodipodi:nodetypes="ccc"
             inkscape:connector-curvature="0"
             id="path3798"
             d="m 248.51808,177.33559 c 16.81055,-16.72057 30.14815,-10.7748 30.0134,6.8752 z"
             style="fill:none;stroke:#000000;stroke-width:1.39999998;stroke-linecap:butt;stroke-linejoin:miter;stroke-miterlimit:4;stroke-opacity:1;stroke-dasharray:none" />
        </g>
        <path
           id="path4723"
           style="fill:none;stroke:#000000;stroke-width:1.39999998;stroke-linecap:butt;stroke-linejoin:miter;stroke-miterlimit:20;stroke-opacity:1;stroke-dasharray:none"
           d="m 230.0625,147.875 c -0.57209,6.21718 0.12381,7.09735 5.6875,6.3125 m -13.1875,-7.75 13,2.4375"
           inkscape:connector-curvature="0" />
      </g>
    </g>
    <g
       id="Manitoba Smith">
      <g
         id="g5695">
        <g
           id="g5676"
           mask="url(#mask5790)">
          <use
             x="0"
             y="0"
             xlink:href="#rect5656"
             id="use5660"
             transform="matrix(0.9047912,-0.42585549,0.42585549,0.9047912,-168.53971,373.95101)"
             width="1024"
             height="576" />
          <path
             inkscape:connector-curvature="0"
             d="m 773.03238,498.02596 12.92466,5.85134 -2.37147,5.23819 -12.92466,-5.85135 z m -1.52953,-4.1228 -4.93627,10.9034 18.56141,8.40326 4.93627,-10.90341 z"
             style="font-size:medium;font-style:normal;font-variant:normal;font-weight:normal;font-stretch:normal;text-indent:0;text-align:start;text-decoration:none;line-height:normal;letter-spacing:normal;word-spacing:normal;text-transform:none;direction:ltr;block-progression:tb;writing-mode:lr-tb;text-anchor:start;baseline-shift:baseline;color:#000000;fill:#1d2727;fill-opacity:1;stroke:#000000;stroke-width:1.39999998;stroke-miterlimit:4;stroke-opacity:1;stroke-dasharray:none;marker:none;visibility:visible;display:inline;overflow:visible;enable-background:accumulate;font-family:Sans;-inkscape-font-specification:Sans"
             id="rect5645" />
          <use
             height="576"
             width="1024"
             transform="matrix(0.98577189,-0.16808873,0.16808873,0.98577189,-40.479815,145.99071)"
             id="use5662"
             xlink:href="#rect5645"
             y="0"
             x="0" />
          <use
             x="0"
             y="0"
             xlink:href="#rect5645"
             id="use5664"
             transform="matrix(0.94206723,-0.33542421,0.33542421,0.94206723,-57.476656,304.11325)"
             width="1024"
             height="576" />
          <use
             height="576"
             width="1024"
             transform="matrix(0.92562147,-0.37845079,0.37845079,0.92562147,-34.092963,347.63287)"
             id="use5666"
             xlink:href="#rect5645"
             y="0"
             x="0" />
          <use
             x="0"
             y="0"
             xlink:href="#rect5645"
             id="use5668"
             transform="matrix(0.91831515,-0.39585023,0.39585023,0.91831515,-6.7929364,366.72926)"
             width="1024"
             height="576" />
          <rect
             transform="matrix(0.97703691,0.21307014,-0.21307014,0.97703691,0,0)"
             y="325.51971"
             x="871.98077"
             height="3.1762786"
             width="24.798876"
             id="rect5656"
             style="fill:#1d2727;fill-opacity:1;fill-rule:evenodd;stroke:#000000;stroke-width:1.39999998;stroke-linecap:butt;stroke-linejoin:miter;stroke-miterlimit:4;stroke-opacity:1;stroke-dasharray:none" />
          <rect
             style="fill:#1d2727;fill-opacity:1;fill-rule:evenodd;stroke:#000000;stroke-width:1.39999998;stroke-linecap:butt;stroke-linejoin:miter;stroke-miterlimit:4;stroke-opacity:1;stroke-dasharray:none"
             id="rect5670"
             width="24.798876"
             height="3.1762786"
             x="897.43475"
             y="348.29752"
             transform="matrix(0.98209895,0.18836577,-0.18836577,0.98209895,0,0)" />
          <rect
             transform="matrix(0.99831181,0.05808214,-0.05808214,0.99831181,0,0)"
             y="465.81305"
             x="876.97906"
             height="3.1762786"
             width="24.798876"
             id="rect5672"
             style="fill:#1d2727;fill-opacity:1;fill-rule:evenodd;stroke:#000000;stroke-width:1.39999998;stroke-linecap:butt;stroke-linejoin:miter;stroke-miterlimit:4;stroke-opacity:1;stroke-dasharray:none" />
          <rect
             style="fill:#1d2727;fill-opacity:1;fill-rule:evenodd;stroke:#000000;stroke-width:1.39999998;stroke-linecap:butt;stroke-linejoin:miter;stroke-miterlimit:4;stroke-opacity:1;stroke-dasharray:none"
             id="rect5674"
             width="24.798876"
             height="3.1762786"
             x="911.44751"
             y="459.354"
             transform="matrix(0.99790753,0.06465729,-0.06465729,0.99790753,0,0)" />
          <use
             height="576"
             width="1024"
             transform="matrix(0.99799414,-0.06330657,0.06330657,0.99799414,-63.568315,42.219829)"
             id="use5658"
             xlink:href="#rect5656"
             y="0"
             x="0" />
        </g>
        <use
           height="576"
           width="1024"
           x="0"
           y="0"
           xlink:href="#use4966"
           id="use5129"
           transform="matrix(-1,0,0.00714758,1,956.46882,0.5879719)" />
        <g
           id="g5640"
           transform="matrix(-1,0,0.00714758,1,956.46882,0.5879719)">
          <rect
             style="fill:#686868;fill-opacity:1;stroke:#000000;stroke-width:2.60003304;stroke-linecap:butt;stroke-linejoin:miter;stroke-miterlimit:4;stroke-opacity:1;stroke-dasharray:none"
             id="rect5634"
             width="35.328121"
             height="12.728853"
             x="-240.57466"
             y="492.21759"
             transform="matrix(-1,0,0.0071474,0.99997446,0,0)" />
          <path
             style="fill:none;stroke:#000000;stroke-width:1.39999998;stroke-linecap:butt;stroke-linejoin:miter;stroke-miterlimit:4;stroke-opacity:1;stroke-dasharray:none"
             d="m 731.14841,492.73818 0.733,12.72792"
             id="path5636"
             inkscape:connector-curvature="0"
             transform="matrix(-1,0,0.00714758,1,956.46462,-0.5879719)"
             sodipodi:nodetypes="cc" />
          <path
             sodipodi:type="arc"
             style="fill:none;stroke:#000000;stroke-width:1.42583025;stroke-linecap:butt;stroke-linejoin:miter;stroke-miterlimit:4;stroke-opacity:1;stroke-dasharray:none"
             id="path5638"
             sodipodi:cx="725.375"
             sodipodi:cy="499.75"
             sodipodi:rx="2.75"
             sodipodi:ry="2.75"
             d="m 728.125,499.75 a 2.75,2.75 0 1 1 -5.5,0 2.75,2.75 0 1 1 5.5,0 z"
             transform="matrix(-0.98188406,0,0.00701807,0.98188406,943.38758,8.3404699)" />
        </g>
        <use
           height="576"
           width="1024"
           x="0"
           y="0"
           xlink:href="#g4958"
           id="use5131"
           transform="matrix(-1,0,0.00714758,1,956.46882,0.5879719)" />
      </g>
      <g
         id="g5616">
        <g
           id="g5605">
          <path
             sodipodi:nodetypes="ccccccccccc"
             inkscape:connector-curvature="0"
             id="path5601"
             d="m 701.83388,232.15986 -21.26505,31.80783 38.46154,24.38637 c 0.25331,2.79425 0.63991,5.72179 1.24627,8.8691 l -3.71231,-0.17679 c -2.01148,4.20603 -2.91681,9.28078 -2.38648,16.92637 4.01694,1.91752 8.84891,2.96822 15.9099,3.27795 l 0.50889,-27.37005 -38.3391,-27.71105 19.85191,-26.33645 z"
             style="fill:#a8603b;fill-opacity:1;stroke:none" />
          <path
             sodipodi:nodetypes="cscccc"
             inkscape:connector-curvature="0"
             id="path5603"
             d="M 738.37703,194.6822 C 731.76564,194.91712 725.54822,196.68842 723,200.5 l -21.16612,31.65986 10.27557,3.67328 14.9968,-19.89543 z"
             style="fill:#388074;fill-opacity:1;stroke:none" />
          <path
             sodipodi:nodetypes="ccccc"
             inkscape:connector-curvature="0"
             id="path5597"
             d="m 698.40043,237.29554 10.19721,3.19653 6.91709,-9.17653 -10.2201,-4.3322 z"
             style="fill:#ded4ab;fill-opacity:1;fill-rule:evenodd;stroke:#000000;stroke-width:1.39999998;stroke-linecap:butt;stroke-linejoin:miter;stroke-miterlimit:4;stroke-opacity:1;stroke-dasharray:none" />
          <path
             clip-path="url(#clipPath5593)"
             id="path5586"
             style="fill:none;stroke:#000000;stroke-width:2.5999999;stroke-linecap:round;stroke-linejoin:miter;stroke-miterlimit:4;stroke-opacity:1;stroke-dasharray:none"
             d="M 738.37703,194.6822 C 731.76564,194.91712 725.54822,196.68842 723,200.5 l -42.43117,63.46769 43.13351,27.34861 m 3.40391,-75.37859 -34.84871,46.23188 38.3391,27.71105 -0.50889,27.37005 c -7.06099,-0.30973 -11.89296,-1.36043 -15.9099,-3.27795 -0.53033,-7.64559 0.375,-12.72034 2.38648,-16.92637 l 3.88909,0.17679"
             inkscape:connector-curvature="0"
             sodipodi:nodetypes="ccccccccccc" />
          <path
             sodipodi:nodetypes="ccccccc"
             inkscape:connector-curvature="0"
             d="m 715.55471,299.50642 c 2.356,0.56511 4.32832,1.21215 5.86309,1.94071 m -6.69795,1.08989 c 2.37024,0.67938 5.34214,1.72648 7.74839,2.78898 M 719,288.46339 c 0.37448,7.56774 2.92085,13.81223 4.41161,20.77144 l -5.69822,-0.57322"
             style="fill:none;stroke:#000000;stroke-width:1.39999998;stroke-linecap:round;stroke-linejoin:round;stroke-miterlimit:4;stroke-opacity:1;stroke-dasharray:none"
             id="path5539" />
        </g>
        <path
           sodipodi:nodetypes="cccccc"
           inkscape:connector-curvature="0"
           id="path5614"
           d="m 728.85031,205.12249 c -2.86243,11.16726 -2.71231,23.20064 2.82843,31.1127 l -5.25152,104.60002 25.33084,0 -2.41053,-105.07857 c 3.75,-7.625 4.90317,-14.91726 4.88541,-23.33453 l -5.864,-16.48236 -10.86489,-1.21741 z"
           style="fill:#388074;fill-opacity:1;stroke:none" />
        <path
           style="fill:none;stroke:#000000;stroke-width:2.5999999;stroke-linecap:round;stroke-linejoin:miter;stroke-miterlimit:4;stroke-opacity:1;stroke-dasharray:none"
           d="m 728.85031,205.12249 c -2.86243,11.16726 -2.71231,23.20064 2.82843,31.1127 l -5.25152,104.60002 25.33084,0 -2.41053,-105.07857 c 3.75,-7.625 4.90317,-14.91726 4.88541,-23.33453"
           id="path5506"
           inkscape:connector-curvature="0"
           sodipodi:nodetypes="cccccc" />
        <g
           id="g5574">
          <path
             sodipodi:nodetypes="ccccccccccc"
             inkscape:connector-curvature="0"
             id="path5572"
             d="m 741.40146,291.91985 0.35355,26.93072 c 8.75045,-0.24542 16.97056,-1.64414 25.19068,-4.3033 -0.15401,-5.3558 -1.56945,-10.47639 -3.49657,-14.1119 -1.96711,0.32136 -4.11556,0.83426 -6.43675,1.53213 2.15886,-6.02782 1.1311,-9.69409 -2.53125,-12.06157 L 802.125,261.75 l -19.06236,-27.07408 -7.57471,6.11566 14.67794,19.44514 z"
             style="fill:#a8603b;fill-opacity:1;stroke:none" />
          <path
             sodipodi:nodetypes="cccsc"
             inkscape:connector-curvature="0"
             id="path5568"
             d="m 750.41707,207.77415 25.07086,33.01743 7.57471,-6.11566 L 759,200.5 c -1.92752,-2.73764 -7.27188,-4.70241 -13.32973,-5.47841"
             style="fill:#388074;fill-opacity:1;stroke:none" />
          <path
             sodipodi:nodetypes="ccccc"
             inkscape:connector-curvature="0"
             id="path5564"
             d="m 771.94194,236.12163 7.91327,-6.00119 7.28006,10.3398 -7.78583,5.4168 z"
             style="fill:#ded4ab;fill-opacity:1;stroke:#000000;stroke-width:1.39999998;stroke-linecap:round;stroke-linejoin:round;stroke-miterlimit:4;stroke-opacity:1;stroke-dasharray:none" />
          <path
             inkscape:connector-curvature="0"
             clip-path="url(#clipPath5559)"
             id="path5557"
             style="fill:none;stroke:#000000;stroke-width:2.5999999;stroke-linecap:round;stroke-linejoin:miter;stroke-miterlimit:4;stroke-opacity:1;stroke-dasharray:none"
             d="m 793.02026,258.50906 -51.6188,33.41079 0.35355,26.93072 c 8.75045,-0.24542 16.97056,-1.64414 25.19068,-4.3033 -0.15401,-5.3558 -1.56945,-10.47639 -3.49657,-14.1119 -4.55448,0.74404 -10.08103,2.51492 -15.55641,4.86324 m 2.52436,-97.52446 39.59798,52.14912 M 751.88306,291.4413 802.125,261.75 759,200.5 c -1.92752,-2.73764 -7.27188,-4.70241 -13.32973,-5.47841 m 8.79373,94.89446 c 3.67947,2.35736 4.70723,6.02363 2.47451,12.08107" />
          <path
             inkscape:connector-curvature="0"
             d="m 755.38434,302.49109 -0.77562,15.10281 m 6.25572,-16.64955 -0.39781,15.43745 M 745.25,293.875 l 5.25,0.75 -4,16.375 4.75,-1.25"
             style="fill:none;stroke:#000000;stroke-width:1.39999998;stroke-linecap:round;stroke-linejoin:round;stroke-miterlimit:4;stroke-opacity:1;stroke-dasharray:none"
             id="path5544" />
        </g>
      </g>
      <g
         id="g5470">
        <path
           style="fill:#ded4ab;fill-opacity:1;stroke:none;display:inline"
           d="m 748.53759,191.62982 -11.3746,-1e-5 -1.06796,4.95365 12.24907,0 z"
           id="path5280"
           inkscape:connector-curvature="0"
           sodipodi:nodetypes="cc" />
        <path
           style="fill:#281417;fill-opacity:1;stroke:#000000;stroke-width:2.5999999;stroke-miterlimit:20;stroke-dasharray:none;display:inline"
           d="m 768.53678,149.98739 -5.30324,17.70639 9.19341,11.83578 -8.59229,-3.35983 3.00065,13.83218 -12.33169,-11.71963 1.30707,10.30714 -11.02502,-8.11367 4.82066,-33.92033 z"
           id="path4728-7"
           inkscape:connector-curvature="0"
           sodipodi:nodetypes="cccccccccc" />
        <path
           style="fill:#a8603b;fill-opacity:1;stroke:none;display:inline"
           d="m 767.78028,135.10101 -10.78414,33.34455 -7.70975,3.71834 -0.7488,19.46592 -11.3746,-1e-5 3.48568,-15.52794 -15.85691,7.12661 c -11.94512,-11.12959 -21.48402,-22.70603 -29.8912,-35.62433 l 8.85503,-30.67399 -10.22233,-17.408119 85.92596,18.965429 -5.28477,17.194 z"
           id="path4748-9"
           inkscape:connector-curvature="0"
           sodipodi:nodetypes="ccccccccccccc" />
        <path
           style="fill:#281417;fill-opacity:1;stroke:none;display:inline"
           d="m 693.53326,99.522041 86.02885,18.670469 -5.35152,17.49231 -6.43031,-0.58381 -7.02624,22.12693 -9.89778,1.75492 10.37562,-24.67101 -6.80199,3.24977 3.78751,-9.47275 -4.45408,2.18774 3.27217,-9.47921 -53.28182,-3.84456 z"
           id="path4732-4"
           inkscape:connector-curvature="0"
           sodipodi:nodetypes="ccccccccccccc" />
        <path
           sodipodi:nodetypes="cccc"
           inkscape:connector-curvature="0"
           id="path4719-4"
           d="m 779.94884,136.23053 -12.16856,-1.12952 -5.21059,16.28414 c 10.22153,4.68288 15.87789,0.26263 17.37915,-15.15462 z"
           style="fill:#a8603b;fill-opacity:1;stroke:none;display:inline" />
        <path
           d="m 764.59855,145.08714 c 5.18032,2.17599 6.07743,1.5021 7.08635,-4.67272 l -5.552,-0.41683 z"
           style="fill:#93512d;fill-opacity:1;stroke:none;display:inline"
           id="path4726-6"
           inkscape:connector-curvature="0"
           sodipodi:nodetypes="cccc" />
        <path
           style="fill:none;stroke:#000000;stroke-width:2.5999999;stroke-linecap:butt;stroke-linejoin:miter;stroke-miterlimit:20;stroke-opacity:1;stroke-dasharray:none;display:inline"
           d="m 762.63691,151.3503 c 10.15431,4.71773 15.81067,0.29748 17.31193,-15.11977 l -12.16856,-1.12952 -10.78414,33.34455 -7.70975,3.71834 -0.94229,24.41956 -12.24907,0 4.55364,-20.48159 -15.85691,7.12661 c -11.94512,-11.12959 -21.48402,-22.70603 -29.8912,-35.62433 l 8.85503,-30.67399 -10.22233,-17.408119 85.94128,18.970179 -5.24829,17.18099"
           id="path3796-9"
           inkscape:connector-curvature="0"
           sodipodi:nodetypes="cccccccccccccc" />
        <path
           style="fill:none;stroke:#000000;stroke-width:1.39999998;stroke-linecap:butt;stroke-linejoin:miter;stroke-miterlimit:20;stroke-opacity:1;stroke-dasharray:none;display:inline"
           d="m 760.88365,157.2289 -10.02739,1.75396 10.37562,-24.67101 -6.80199,3.24977 3.78751,-9.47275 -4.45408,2.18774 3.27217,-9.47921 -53.28376,-3.82188"
           id="path4730-0"
           inkscape:connector-curvature="0"
           sodipodi:nodetypes="cccccccc" />
        <path
           id="path4723-8"
           style="fill:none;stroke:#000000;stroke-width:1.39999998;stroke-linecap:butt;stroke-linejoin:miter;stroke-miterlimit:20;stroke-opacity:1;stroke-dasharray:none;display:inline"
           d="m 771.70622,140.43136 c -1.03023,6.15786 -1.92735,6.83177 -7.10767,4.65578 m 14.72646,-4.1357 -13.19211,-0.95385"
           inkscape:connector-curvature="0" />
        <path
           sodipodi:nodetypes="cc"
           inkscape:connector-curvature="0"
           id="path5278"
           d="m 748.53759,191.62982 -11.3746,-1e-5"
           style="fill:none;stroke:#000000;stroke-width:1.39999998;stroke-miterlimit:4;stroke-dasharray:none;display:inline" />
        <path
           style="fill:none;stroke:#000000;stroke-width:1.39999998;stroke-linecap:round;stroke-linejoin:round;stroke-miterlimit:4;stroke-opacity:1;stroke-dasharray:none"
           d="m 723.375,126.69822 -5.28033,19.05178 7.125,-3.67678"
           id="path5282"
           inkscape:connector-curvature="0"
           sodipodi:nodetypes="ccc" />
        <g
           id="g5321">
          <path
             id="path5300"
             style="fill:#ffffff;stroke:none"
             d="m 748.54709,134.31561 c -2.75346,7.53143 -19.0693,7.64518 -20.86989,-1.77706 7.87007,0.55278 15.58177,1.19673 20.86989,1.77706 z"
             inkscape:connector-curvature="0"
             sodipodi:nodetypes="ccc" />
          <path
             style="fill:#532c24;fill-opacity:1;stroke:none"
             d="m 733.46448,133.0189 c -0.33903,1.8027 -0.93444,3.54935 -1.82718,5.11773 -2.23834,-1.41128 -3.43499,-3.48854 -3.9651,-5.56971 z"
             id="path5302"
             inkscape:connector-curvature="0"
             sodipodi:nodetypes="cccc" />
          <path
             sodipodi:nodetypes="ccc"
             inkscape:connector-curvature="0"
             d="m 725.36212,132.37888 c 8.66174,0.58655 17.3824,1.29994 23.18497,1.93673 -2.75346,7.53143 -19.0693,7.64518 -20.85796,-1.77625"
             style="fill:none;stroke:#000000;stroke-width:1.39999998;stroke-linecap:round;stroke-linejoin:round;stroke-miterlimit:4;stroke-opacity:1;stroke-dasharray:none"
             id="path5286" />
          <path
             sodipodi:nodetypes="sssss"
             inkscape:connector-curvature="0"
             id="path5314"
             d="m 744.88522,129.45134 c 2.01913,0.0583 2.27411,1.78753 -0.0795,1.86688 -8.36948,0.28218 -12.61591,-0.9105 -15.50274,-5.97379 -2.04803,-3.5921 1.21105,-5.15336 3.02037,-2.38833 3.60402,5.50772 5.30916,6.28582 12.56187,6.49524 z"
             style="fill:#000000;stroke:none" />
        </g>
        <g
           id="g5330">
          <path
             id="path5298"
             style="fill:#ffffff;stroke:none"
             d="m 720.19105,131.93012 c -5.54974,-0.49146 -10.63715,-0.7605 -17.8951,-0.95157 0.87252,8.44906 15.62759,8.01126 17.8951,0.95157 z"
             inkscape:connector-curvature="0"
             sodipodi:nodetypes="ccc" />
          <path
             sodipodi:nodetypes="cccc"
             inkscape:connector-curvature="0"
             id="path5296"
             d="m 707.15512,131.30054 c -0.33903,1.6152 -0.82552,3.09446 -1.56201,4.63159 -2.48834,-1.44253 -2.80463,-3.1729 -3.30349,-4.87907 z"
             style="fill:#532c24;fill-opacity:1;stroke:none" />
          <path
             sodipodi:nodetypes="ccc"
             inkscape:connector-curvature="0"
             d="m 702.31007,130.97884 c 0.8584,8.44877 15.61347,8.01097 17.88098,0.95128 -5.94369,-0.52635 -11.35709,-0.79758 -19.49185,-0.99148"
             style="fill:none;stroke:#000000;stroke-width:1.36409438;stroke-linecap:round;stroke-linejoin:round;stroke-miterlimit:4;stroke-opacity:1;stroke-dasharray:none"
             id="path5289" />
          <path
             style="fill:#000000;stroke:none"
             d="m 708.45579,125.16388 c 6.00495,-1.41121 9.65001,-3.10099 12.43396,-6.91438 2.01007,-2.75334 -1.38381,-4.92567 -3.28131,-2.15935 -2.38203,3.47272 -4.78512,5.03157 -9.76064,6.36475 -2.31641,0.62068 -1.59743,3.22727 0.60799,2.70898 z"
             id="path5316"
             inkscape:connector-curvature="0"
             sodipodi:nodetypes="sssss" />
        </g>
        <path
           style="fill:none;stroke:#000000;stroke-width:1.39999998;stroke-linecap:round;stroke-miterlimit:4;stroke-dasharray:none"
           d="m 719.50888,153.85725 c 9.63433,-4.77297 21.53903,-6.18719 30.46625,-3.80069"
           id="path5336"
           inkscape:connector-curvature="0"
           sodipodi:nodetypes="cc" />
        <g
           id="g5408-5">
          <path
             sodipodi:nodetypes="cccc"
             inkscape:connector-curvature="0"
             id="path5372-0"
             d="M 810,125 726,84.426776 C 704.77207,56.051514 696.06066,55.103552 683.32322,112.58211 774.29163,126.38388 788.47183,129.28033 810,125 z"
             style="fill:#cdcb99;fill-opacity:1;stroke:#000000;stroke-width:2.5999999;stroke-linecap:butt;stroke-linejoin:miter;stroke-miterlimit:4;stroke-opacity:1;stroke-dasharray:none;display:inline" />
          <path
             sodipodi:nodetypes="ccccc"
             inkscape:connector-curvature="0"
             id="path5387-6"
             d="m 713.82944,93.092528 -17.85959,15.333112 78.48885,9.54595 3.13595,-12.42978 z"
             style="fill:#a6a453;fill-opacity:1;stroke:none;display:inline" />
          <path
             sodipodi:nodetypes="cccccc"
             inkscape:connector-curvature="0"
             id="path5391-7"
             d="m 777.59465,105.54181 6.58677,-26.107547 -52.85623,-18.208 0.88388,16.086679 -18.37963,15.779586 z"
             style="fill:#cdcb99;fill-opacity:1;stroke:none;display:inline" />
          <path
             inkscape:connector-curvature="0"
             d="M 713.75,93.124999 777.625,105.5 m -3.1663,12.47159 9.72272,-38.537327 -52.85623,-18.208 0.88388,16.086679 -36.23922,31.112698 z"
             style="fill:none;stroke:#000000;stroke-width:2.5999999;stroke-linecap:butt;stroke-linejoin:miter;stroke-miterlimit:4;stroke-opacity:1;stroke-dasharray:none;display:inline"
             id="path5376-1" />
          <path
             sodipodi:nodetypes="sssss"
             inkscape:connector-curvature="0"
             id="path5379-6"
             d="m 746.26282,75.926456 c 0.12494,-3.124851 2.42685,-2.83884 2.27221,0.08839 -0.16607,3.14353 2.41313,6.547782 10.78154,12.435029 1.23107,0.866073 0.89633,2.4555 -0.88389,1.325826 -9.07155,-5.756551 -12.36269,-9.026449 -12.16986,-13.849245 z"
             style="fill:#000000;stroke:none" />
        </g>
      </g>
    </g>
    <g
       id="Fire">
      <path
         inkscape:connector-curvature="0"
         id="path4123"
         d="m 409.275,516.40589 c -3.75925,-0.48297 -6.69712,1.36624 -10.01136,2.45414 -2.66573,0.87504 -5.94271,-1.46077 -8.74761,-0.54007 -1.30434,0.42814 -2.06333,1.14458 -3.25799,1.73504 -0.73856,0.36509 -1.9572,-0.27281 -2.74996,-0.0123 -2.44144,0.80141 -6.42554,2.05274 -7.77167,4.71442 -1.13794,2.24998 3.60505,5.97741 5.22012,6.524 2.85333,0.96564 5.6074,2.05489 8.48734,2.78895 3.76392,0.95931 8.58111,-1.18551 12.24986,0.0562 3.51779,1.19057 7.40052,2.03395 11.2407,2.05156 3.31898,0.0156 7.79086,-0.76752 10.9999,0.0504 3.45574,0.8808 7.03481,1.54066 10.73958,2.29926 3.00297,0.61492 10.06576,-0.46974 13.00558,-1.19038 3.64485,-0.89353 14.5765,0.0668 18.74982,0.086 7.31679,0.0336 16.31211,1.21127 23.2509,-0.14342 2.12334,-0.41457 4.83486,0.0222 6.9999,0.0319 5.5833,0.0256 11.16655,0.0512 16.74983,0.0768 1.60602,0.008 4.20462,0.53359 5.74994,0.0264 6.08943,-1.99885 12.13058,-2.44442 18.76125,-2.41404 2.71738,0.0122 6.07967,0.56141 8.74994,0.0402 2.26433,-0.44213 6.04599,-0.97233 7.50445,-0.96564 10.58857,-1.85877 21.50444,0.0139 31.76576,-3.35445 1.28792,-0.42276 4.30674,-0.83607 5.01024,-2.22706 0.32338,-0.63945 -0.52872,-1.06971 -0.7431,-1.50344 -1.37732,-2.78643 -1.06671,-2.86483 -4.48163,-4.02059 -3.17537,-1.07462 -6.72411,-0.96293 -9.99185,-1.79577 -3.43244,-0.87485 -6.6257,-3.10838 -9.98271,-3.79583 -5.36847,-1.09929 -10.33271,-2.48494 -15.47924,-4.57098 -4.55758,-1.84727 -8.88217,-2.13868 -13.48495,-3.31186 -5.70395,-1.45373 -11.4687,-2.84116 -17.23263,-3.82897 -5.78701,-0.99179 -12.64353,-0.058 -18.49985,-0.0848 -4.82649,-0.0222 -17.22372,-0.67004 -21.25322,0.6526 -3.93338,1.29117 -7.35979,3.38516 -11.51932,4.19728 -3.12581,0.61027 -7.08815,-0.0324 -10.24991,-0.047 -7.41657,-0.034 -14.83315,-0.068 -22.24974,-0.10201 -2.91567,-0.0137 -7.51753,-0.94387 -10.2499,-0.047 -5.85079,1.92054 -11.2593,4.69536 -17.27845,6.17089 z"
         style="fill:#29251b;fill-opacity:1;fill-rule:evenodd;stroke:none" />
      <g
         id="g3936">
        <path
           style="fill:#f9b739;fill-opacity:1;stroke:none"
           d="m 427.81852,494.64254 c 33.95353,-1.19968 77.21356,-1.29827 111.8307,1.18324 l -10.85208,22.17174 -43.43359,12.2648 -46.14859,-13.84713 z"
           id="path3934"
           inkscape:connector-curvature="0"
           sodipodi:nodetypes="cccccc" />
        <path
           sodipodi:nodetypes="cccccccccc"
           id="path3918"
           style="fill:#1f272a;fill-opacity:1;stroke:none"
           d="m 539.64922,495.82578 -11.40179,8.79541 0.54971,13.37633 15.88908,-6.72515 z m -111.8307,-1.18324 11.58503,8.79541 -0.54971,13.74281 -17.60641,-1.63353 z"
           inkscape:connector-curvature="0" />
      </g>
      <g
         style="filter:url(#filter4067)"
         id="g3991">
        <path
           id="path3974"
           style="fill:#fce80e;fill-opacity:1;stroke:#f8b320;stroke-opacity:1"
           d="m 471.83659,443.70252 c 3.4808,-6.48301 5.5393,3.92312 1.4659,2.56532 -1.54644,-0.51548 0.0658,-2.1824 -1.4659,-2.56532 z m 32.43304,5.68036 c -0.41136,0.56311 -0.36647,0.87034 -0.36647,1.4659 0,0.73695 0.49794,1.12735 0.73295,1.83237 0.85157,2.55473 4.17713,-6.02444 -0.36648,-3.29827 z m -16.1249,-6.77979 c 4.76778,-0.3058 5.07803,-0.57694 6.23008,4.03123 0.11161,0.44645 0.63241,1.11726 0.36647,1.64913 -0.74521,1.49043 -7.13853,1.1149 -7.87921,-0.36647 -0.75969,-1.51937 0.85162,-4.02075 1.28266,-5.31389 z m 1.09943,-11.17749 c 2.22815,1.10591 3.87415,2.97368 6.41331,3.48152 0.62363,0.12472 2.75912,-0.16213 3.11504,0.54971 0.20826,0.41652 -0.26654,1.24938 -0.36648,1.64914 -0.15729,0.62914 -0.41656,1.49094 -1.09942,1.83237 -0.59197,0.29599 -9.14482,0.12785 -10.07807,-0.18324 -1.38219,-0.46073 -1.72293,-6.10155 0,-6.96302 0.52589,-0.26294 1.40684,-0.26501 2.01562,-0.36648 z m -55.52097,77.69271 c 0.58525,-0.90114 0.96296,-1.92592 1.4659,-2.9318 1.44879,-2.89759 2.93534,-4.94978 5.68036,-6.77979 2.09001,-1.39334 5.91838,-2.72964 6.77979,-5.31389 1.08379,-3.25137 -2.58122,-3.68065 -4.21446,-5.31389 -0.1655,-0.16549 -0.92495,-1.66665 -1.09943,-2.01561 -0.19461,-0.38922 0.13881,-1.04948 0,-1.4659 -1.44927,-4.34782 4.6322,-12.17056 7.14627,-15.94166 2.26192,-3.39289 7.31577,2.81879 9.89482,1.09942 0.98064,-0.65375 1.64302,-3.09669 2.01561,-4.21446 0.70948,-2.12843 -2.04007,-3.42658 -2.9318,-4.76417 -1.14563,-1.71845 -1.61711,-4.89228 -1.09942,-6.96303 0.58004,-2.32018 5.98478,-8.63285 8.7954,-7.69598 0.82309,0.27437 1.18688,0.94951 1.83237,1.4659 0.67224,0.53779 1.46609,0.69234 2.19885,1.09943 1.8882,1.049 5.61342,3.93081 6.77979,5.68036 0.99826,1.49738 -2.74206,10.25156 -3.84799,11.91044 -0.46174,0.69262 -1.18804,0.99881 -1.4659,1.83238 -0.39954,1.19862 0.0364,3.33464 0.91619,4.21446 0.86454,0.86453 7.1224,-2.5534 8.24569,-3.11504 2.51883,-1.25942 5.11817,4.28386 8.7954,1.83238 0.44408,-0.29605 0.95779,-0.71611 1.09943,-1.28267 0.1514,-0.6056 -0.22926,-1.10027 -0.36648,-1.64913 -0.19568,-0.78271 -0.0726,-1.66645 -0.54971,-2.38209 -0.77052,-1.15578 -5.35993,-1.19151 -6.23008,-2.9318 -0.92099,-1.84198 -0.53162,-5.56424 1.4659,-6.23008 0.36253,-0.12084 0.6249,-0.52465 1.09943,-0.36647 2.49334,0.83111 10.86332,0.90303 11.7272,2.19885 1.52732,2.29099 2.81481,7.41124 3.48151,10.07806 0.48082,1.92327 -0.5421,3.8556 1.09943,5.49713 0.99168,0.99168 3.80855,1.61434 5.13065,0.73295 1.15739,-0.7716 0.44565,-3.52111 1.4659,-4.03123 0.73509,-0.36755 2.02534,0.18973 2.56532,0.54971 3.53038,2.35359 6.59655,5.31137 6.59655,9.89483 0,1.80816 -3.2079,2.57029 -3.66475,4.3977 -1.22378,4.89512 0.52043,10.1807 4.76418,13.00986 1.31765,0.87844 3.01159,-0.0956 4.3977,0.36648 2.08658,0.69553 4.09066,2.37716 4.76417,4.3977 0.18324,0.54971 -0.18323,1.28266 0,1.83237 0.24986,0.74957 0.90283,1.67587 0.54972,2.38209 -2.16546,1.62409 -1.15122,4.65863 -2.56533,6.77979 -0.72471,1.08706 -13.46565,8.09817 -15.20871,8.7954 -4.33005,1.73202 -9.12067,1.28266 -13.74282,1.28266 -4.70309,0 -9.40619,0 -14.10928,0 -5.37497,0 -10.74994,0 -16.12491,0 -2.26637,0 -4.9164,0.37165 -7.14626,0 -4.42629,-0.73771 -8.88693,-1.67965 -13.1931,-3.11504 -2.68416,-0.89472 -9.41269,-3.67449 -10.99425,-6.04683 -1.33284,-1.99927 -1.8081,-4.41464 -2.19885,-6.77979 z"
           inkscape:connector-curvature="0" />
        <path
           sodipodi:nodetypes="cssccssssccscccsssccssccsscssssssscssssssssscssssccsccssssssc"
           inkscape:connector-curvature="0"
           id="path3987"
           style="fill:#f8b320;fill-opacity:1;stroke:none"
           d="m 467.80537,460.92684 c -1.14611,-0.67641 -2.35273,-1.43653 -3.29828,-2.38208 -0.67185,-0.67186 0.2764,-5.03852 2.19885,-4.39771 2.97082,0.99028 3.79592,6.2405 1.09943,6.77979 z m 42.32786,21.07232 c -0.35525,-0.56676 -0.63774,-1.19224 0.18324,-1.4659 0.42186,-0.14062 1.00852,-0.18324 1.4659,-0.18324 2.09803,0 3.42014,2.41278 1.28266,3.48151 -0.68677,0.34339 -1.41454,-0.39944 -2.01561,-0.54971 -0.95169,-0.23792 -1.13629,-0.18218 -0.91619,-1.28266 z m -14.84224,-10.07807 c -3.00584,-2.36933 1.67216,-4.51187 2.74857,-1.28266 0.26794,0.80384 0.26609,0.78314 -0.36648,1.09943 -0.74301,0.3715 -1.50984,0.4013 -2.38209,0.18323 z m 2.90828,9.25339 c -0.99518,1.40717 -3.87813,5.44178 -3.87813,7.29166 0,0.77068 4.77453,1.62957 5.22878,1.17532 0.40908,-0.40908 -0.99907,-2.57325 -1.14389,-3.0077 -0.61985,-1.85954 2.98383,-4.82116 -0.20676,-5.45928 z m -12.25339,3.20676 c 0.33918,-0.51583 0.46116,-1.10556 0.73295,-1.64913 3.66327,-7.32654 5.2881,2.12012 4.3977,2.56532 -1.21681,0.60841 -4.02348,-0.47332 -5.13065,-0.91619 z m -32.06656,31.15038 c -3.60547,-4.06042 -0.676,-7.37407 0.36647,-11.54396 0.56823,-2.27291 0.36274,-4.93619 1.09943,-7.14626 0.26463,-0.7939 0.70954,-1.37226 0.91618,-2.19886 0.4811,-1.92437 2.79821,-3.51581 2.01562,-5.8636 -1.10534,-3.31599 -8.09949,-3.88405 -4.21447,-9.71158 2.20578,-3.30866 4.47672,0.37151 6.77979,-0.54972 1.67817,-0.67126 3.09403,-1.48994 4.58094,-2.38208 1.62269,-0.97362 1.59419,-3.01798 3.8636,-0.74857 0.62342,0.62342 0.7669,1.87982 0.54971,2.74856 -0.58013,2.32054 -1.26502,1.93147 -2.03122,4.23008 -0.19649,0.58947 -0.0591,1.21156 -0.18324,1.83238 -0.43227,2.16134 -0.47109,3.28094 0.91619,5.13065 0.61208,0.81611 1.06883,1.54222 2.01561,2.01561 3.58244,1.79122 6.58778,1.02964 10.07806,-0.36648 0.57738,-0.23095 1.93436,-0.79349 1.64914,-1.64913 -1.11065,-3.33197 -6.15394,-5.00936 -7.14626,-8.97864 -0.62041,-2.48165 2.55045,-2.79809 4.21446,-2.38209 1.22721,0.3068 3.91471,2.66542 4.58094,3.66475 1.00624,1.50937 -1.45467,5.69721 0,7.87921 2.26847,3.40272 6.96092,1.45541 7.87921,6.04684 0.2564,1.28202 0.062,3.17125 -0.18324,4.3977 -0.17758,0.88793 -2.68328,5.34653 -1.28266,6.04684 1.76737,0.88369 12.88014,1.5421 13.92605,-0.54971 0.87087,-1.74174 -0.5749,-4.02283 1.64914,-4.76418 1.01302,-0.33767 2.98054,1.94837 3.84799,2.38209 1.57796,0.78898 9.01948,3.37996 9.71158,4.76418 0.23316,0.4663 0,1.66594 0,2.19885 0.3282,0.82048 0.38505,1.11799 0.36648,1.09942 -0.52186,-0.52186 -0.6828,1.31546 -0.91619,2.01561 -0.23211,0.69634 -2.65266,5.74801 -3.11504,5.8636 -1.2353,0.30883 -2.92367,1.46049 -4.03122,2.19885 -1.65906,1.10604 -4.60615,2.0851 -6.59655,2.74857 -2.41401,0.80467 -4.65806,2.30975 -7.14626,2.9318 -3.74604,0.93651 -10.77272,-0.40271 -14.29253,-1.28266 -1.62507,-0.40627 -2.46454,-0.39396 -4.03123,-0.91619 -2.90891,-0.96964 -5.68617,-3.48297 -8.61216,-4.21447 -5.84361,-1.4609 -11.58346,-2.8395 -17.22432,-4.94741 z" />
      </g>
      <g
         id="g4106">
        <path
           style="fill:#293338;fill-opacity:1;fill-rule:evenodd;stroke:none"
           d="m 515.08845,507.65241 -7.42892,16.03328 18.87346,-0.18324 c 1.09464,-2.42746 1.92,-4.89634 0,-7.78759 -2.00463,-3.24447 -6.39963,-5.75345 -11.44454,-8.06245 z"
           id="path3909"
           inkscape:connector-curvature="0"
           sodipodi:nodetypes="ccccc" />
        <path
           style="fill:#14191e;fill-opacity:1;fill-rule:evenodd;stroke:none"
           d="m 526.53299,523.50245 0,-7.78759 c 5.37627,-1.43605 10.75131,-1.57521 16.1249,-0.18324 l 4.21446,7.51274 z"
           id="path3904"
           inkscape:connector-curvature="0"
           sodipodi:nodetypes="ccccc" />
        <path
           style="fill:#1f272a;fill-opacity:1;fill-rule:evenodd;stroke:none"
           d="m 526.53299,515.71486 -11.44454,-8.06245 21.70584,-1.83238 5.8636,9.71159 z"
           id="path3906"
           inkscape:connector-curvature="0"
           sodipodi:nodetypes="ccccc" />
        <path
           style="fill:#1f272a;fill-opacity:1;stroke:none"
           d="m 407.59794,513.69521 5.85353,-10.34572 23.05589,2.61992 c -3.74072,3.05851 -6.96171,6.40575 -12.71017,8.34885 -6.7874,2.10507 -11.47966,0.71824 -16.19925,-0.62305 z"
           id="path3118"
           inkscape:connector-curvature="0"
           sodipodi:nodetypes="ccccc" />
        <path
           sodipodi:nodetypes="ccccc"
           inkscape:connector-curvature="0"
           id="path3888"
           d="m 407.59794,513.69521 -3.04051,7.21648 20.15094,1.49844 c 0.63453,-2.60346 0.7917,-5.25466 -0.91118,-8.09187 z"
           style="fill:#14191e;fill-opacity:1;stroke:none" />
        <path
           style="fill:#293338;fill-opacity:1;stroke:none"
           d="m 436.50736,505.96941 4.29103,16.55455 -16.09002,-0.11383 -0.91118,-8.09187 z"
           id="path3890"
           inkscape:connector-curvature="0"
           sodipodi:nodetypes="ccccc" />
        <path
           style="fill:#1f272a;fill-opacity:1;fill-rule:evenodd;stroke:none"
           d="m 429.3509,526.63109 2.77576,-11.79699 28.5507,-5.94806 c -2.13529,5.08562 -4.92211,7.61387 -11.20218,10.60738 -6.5138,5.29368 -13.27929,6.81197 -20.12428,7.13767 z"
           id="path3892"
           inkscape:connector-curvature="0"
           sodipodi:nodetypes="ccccc" />
        <path
           style="fill:#14191e;fill-opacity:1;fill-rule:evenodd;stroke:none"
           d="m 429.3509,526.63109 -0.89221,3.56884 27.75763,0 c -1.0494,-4.09862 -2.32529,-8.09705 -6.74114,-10.70651 z"
           id="path3894"
           inkscape:connector-curvature="0"
           sodipodi:nodetypes="ccccc" />
        <path
           style="fill:#293338;fill-opacity:1;fill-rule:evenodd;stroke:none"
           d="m 449.47518,519.49342 11.20218,-10.60738 2.47836,17.94332 -6.9394,3.37057 z"
           id="path3896"
           inkscape:connector-curvature="0" />
        <path
           style="fill:#1f272a;fill-opacity:1;stroke:none"
           d="m 495.1686,513.75114 23.18993,0.77805 5.96309,8.14404 c -4.81813,1.19171 -9.80481,1.83562 -15.55658,-0.007 -7.22591,-1.9655 -9.81737,-5.76295 -13.59644,-8.91509 z"
           id="path3908"
           inkscape:connector-curvature="0"
           sodipodi:nodetypes="ccccc" />
        <path
           style="fill:#14191e;fill-opacity:1;stroke:none"
           d="m 508.76504,522.66623 c -0.90341,2.22676 0.2414,4.90869 1.41088,7.59609 l 19.24092,0 -5.09522,-7.58909 z"
           id="path3895"
           inkscape:connector-curvature="0"
           sodipodi:nodetypes="ccccc" />
        <path
           style="fill:#192124;fill-opacity:1;stroke:none"
           d="m 510.17592,530.26232 -24.81237,0 9.80505,-16.51118 13.59644,8.91509 z"
           id="path3897"
           inkscape:connector-curvature="0"
           sodipodi:nodetypes="ccccc" />
        <path
           style="fill:#14191e;fill-opacity:1;stroke:none"
           d="m 449.73222,533.11283 15.71433,-21.69671 19.68009,-0.71864 5.97587,22.41535 z"
           id="path3923"
           inkscape:connector-curvature="0"
           sodipodi:nodetypes="ccccc" />
        <path
           style="fill:#192124;fill-opacity:1;stroke:none"
           d="m 456.46481,523.81718 8.68361,7.83934 6.87141,0.0916 6.41331,-5.13065 10.89436,-0.16269 -4.20086,-15.75732 -19.68009,0.71864 z"
           id="path3927"
           inkscape:connector-curvature="0" />
        <path
           style="fill:#293338;fill-opacity:1;stroke:none"
           d="m 465.44655,511.41612 6.11519,11.17015 12.46014,-1.09943 1.10476,-10.78936 z"
           id="path3925"
           inkscape:connector-curvature="0"
           sodipodi:nodetypes="ccccc" />
      </g>
    </g>
  </g>
</svg>
