<svg xmlns="http://www.w3.org/2000/svg" xmlns:inkscape="http://www.inkscape.org/namespaces/inkscape" xmlns:sodipodi="http://sodipodi.sourceforge.net/DTD/sodipodi-0.dtd" xmlns:xlink="http://www.w3.org/1999/xlink" height="1000" viewBox="0 0 1000 1000" width="1000">
  <defs>
    <inkscape:path-effect effect="powerstroke" id="path-effect914" interpolator_type="CubicBezierSmooth" offset_points="0.38,3 | 1,3" start_linecap_type="zerowidth" />
    <inkscape:path-effect effect="powerstroke" end_linecap_type="zerowidth" id="path-effect912" interpolator_type="CubicBezierSmooth" offset_points="0.27,3 | 3.84,3" start_linecap_type="zerowidth" />
    <inkscape:path-effect effect="powerstroke" id="path-effect896" interpolator_type="CubicBezierSmooth" offset_points="0.15,3 | 4,3" start_linecap_type="zerowidth" />
    <inkscape:path-effect effect="powerstroke" end_linecap_type="zerowidth" id="path-effect2492" interpolator_type="CubicBezierSmooth" offset_points="0.31,3 | 3.22,3" start_linecap_type="zerowidth" />
    <inkscape:path-effect effect="powerstroke" end_linecap_type="zerowidth" id="path-effect2486" interpolator_type="CubicBezierSmooth" offset_points="0.33,3 | 3.32,3" start_linecap_type="zerowidth" />
    <inkscape:path-effect effect="powerstroke" end_linecap_type="zerowidth" id="path-effect16954" interpolator_type="CubicBezierSmooth" offset_points="0.44,3 | 1.81,3" start_linecap_type="zerowidth" />
    <inkscape:path-effect effect="powerstroke" end_linecap_type="zerowidth" id="path-effect5954" interpolator_type="CubicBezierSmooth" offset_points="0.37,3 | 1.8,3" start_linecap_type="zerowidth" />
    <linearGradient id="linearGradient5745">
      <stop offset="0" stop-color="#570a0a" />
      <stop offset="1" stop-color="#b91616" />
    </linearGradient>
    <inkscape:path-effect effect="powerstroke" id="path-effect990-1-5" interpolator_type="CubicBezierSmooth" offset_points="0.08,3" start_linecap_type="zerowidth" />
    <clipPath id="clipPath2005">
      <use xlink:href="#path1649" />
    </clipPath>
    <linearGradient gradientUnits="userSpaceOnUse" id="linearGradient2331" x1="282.31808" x2="215.51616" y1="335.60123" y2="333.25577" xlink:href="#linearGradient5745" />
    <clipPath id="clipPath2343">
      <use xlink:href="#path2009" />
    </clipPath>
    <clipPath id="clipPath2377">
      <use xlink:href="#path16948" />
    </clipPath>
    <clipPath id="clipPath2397">
      <use xlink:href="#path4344-7" />
    </clipPath>
    <inkscape:path-effect effect="powerstroke" end_linecap_type="zerowidth" id="path-effect1008-3" interpolator_type="CubicBezierSmooth" offset_points="0.31,3 | 2.71,3" start_linecap_type="zerowidth" />
    <linearGradient gradientUnits="userSpaceOnUse" id="linearGradient985" x1="-187.99916" x2="-261.31598" y1="449.57132" y2="447.70035" xlink:href="#linearGradient5745" />
    <filter color-interpolation-filters="sRGB" height="1.1227793" id="filter3352" width="1.0262112" x="-0.013105611" y="-0.061389626">
      <feGaussianBlur stdDeviation="1.7701138" />
    </filter>
    <clipPath id="clipPath4558">
      <use xlink:href="#path2478" />
    </clipPath>
  </defs>
  <use xlink:href="#circle4328" />
  <g clip-path="url(#clipPath4558)">
    <path d="M 369.95334,955.04462 C 373.90128,914.91122 401.09465,896.76438 400.05497,843.05825 399.05301,791.30039 329.14386,754.51996 340.97305,720.89444 348.03364,700.82408 387.57083,694.91119 494.61195,726.38466 551.98505,728.26859 602.90306,723.91023 652.84045,707.70179 L 624.88873,644.80584 C 600.58992,664.25689 531.40021,667.78616 475.15145,652.71435 371.41629,624.9186 289.57798,638.36714 278.84022,690.95716 265.2718,757.4108 357.40504,776.27779 369.49155,850.46037 376.42666,893.02557 355.30485,913.73341 353.26452,955.45572 352.6664,967.68651 255.0546,983.60747 259.08718,1056.0892 262.71676,1121.3275 297.74159,1130.9984 327.95357,1149.4768 365.48264,1172.4306 442.3546,1146.6166 458.88813,1079.2904 480.24349,992.32922 368.55555,969.25402 369.95334,955.04462 Z" fill="#f1f4d5" id="path2478" />
    <path d="M 337.89046,625.45349 C 364.45599,671.93606 424.23107,686.58023 486.14521,679.78722 536.16344,674.29939 591.54789,675.83594 662.04728,692.01578 L 654.48488,625.89118 Z" fill="#e4eabb" filter="url(#filter3352)" />
  </g>
  <g>
    <path d="M 475.29636,220.68268 C 504.04158,262.11809 540.76815,287.25096 596.93023,300.44186 579.70136,310.64977 561.67567,315.47629 537.40131,314.30079 615.82439,343.82545 649.29283,426.11696 736.62791,442.53583 703.72306,449.15726 677.04198,450.00765 637.72242,445.29861 660.53951,462.48856 677.74688,466.85649 696.3786,482.24408 614.34752,476.47195 572.95463,512.63207 494.3777,480.04611 499.7801,494.23771 508.26105,504.07756 519.83721,512.81473 479.8936,513.14441 457.99976,491.69785 435.17182,466.26561 Z" style="fill:#f0dad7;stroke:#e8bbb7;stroke-width:6;stroke-miterlimit:20" />
    <path d="M 448.10052,387.41525 C 524.25769,396.68836 584.93926,456.09302 670.40438,465.10465 L 638.00811,445.78304 C 670.21583,449.75667 702.82015,449.60042 733.86628,442.73256 585.61047,433.43023 564.82559,363.66279 454.36047,347.96512 Z" fill="#c49dd6" />
    <path d="M 676.55478,417.39275 C 590.50827,405.76484 546.33019,339.47532 457.12377,332.48501 L 451.83644,363.72842 C 518.11551,364.30982 576.41861,428.446 662.46512,447.34134 687.73381,450.20998 711.30677,447.99146 733.86628,442.73256 712.9612,436.92725 693.15729,429.50721 676.55478,417.39275 Z" fill="#eaa7c3" />
    <path d="M 475.29636,220.68268 C 504.04158,262.11809 540.76815,287.25096 596.93023,300.44186 579.70136,310.64977 561.67567,315.47629 537.40131,314.30079 615.82439,343.82545 649.29283,426.11696 736.62791,442.53583 703.72306,449.15726 677.04198,450.00765 637.72242,445.29861 660.53951,462.48856 677.74688,466.85649 696.3786,482.24408 614.34752,476.47195 572.95463,512.63207 494.3777,480.04611 499.7801,494.23771 508.26105,504.07756 519.83721,512.81473 479.8936,513.14441 457.99976,491.69785 435.17182,466.26561 Z" style="fill:none;stroke:#e8bbb7;stroke-width:6;stroke-miterlimit:20" />
  </g>
  <path d="M 361.47662,557.61772 C 342.86555,530.79392 318.04808,516.27357 297.77588,519.52756 275.04835,523.17568 164.21316,599.05309 167.67944,668.89815 169.48454,705.27054 276.78207,661.0875 274.69889,623.75886 273.69608,605.78925 282.09315,585.24185 294.91135,570.13533 Z" fill="#e4eabb" stroke="#d1ba81" stroke-width="6" />
  <g>
    <path d="M 420.25895,544.43037 C 379.61181,559.471 365.08716,626.24982 420.57655,626.40213 468.89773,626.53524 539.8424,558.56001 535.57145,542.88342 532.63648,532.11074 481.63809,532.12465 442.56659,539.46409 Z" fill="#e4eabb" stroke="#d1ba81" stroke-width="6" />
    <path d="M 457.87384,536.8644 C 458.61388,543.46533 453.11693,547.75786 445.86011,550.52215 460.12998,555.29113 460.44615,565.71593 430.60191,574.40252 450.70324,579.35556 453.20299,588.55045 424.88565,599.72678 441.6586,603.78521 441.85323,618.60717 421.84864,626.58432" fill="none" stroke="#d1ba81" stroke-width="5" />
    <path d="M 526.58366,562.46651 436.15793,607.80786 M 516.58846,534.90766 451.99247,553.34961 M 535.87239,542.57825 443.61008,580.14588" fill="none" stroke="#d1ba81" stroke-width="3" />
  </g>
  <path d="M 494.61195,726.38466 C 727.31092,794.80549 760.96417,585.02873 559.33522,555.20028 518.38798,549.14265 465.01914,548.43297 436.52339,515.5092 442.6535,468.417 468.92383,409.53951 475.97605,353.49289 499.46304,166.83315 207.07462,160.85391 239.78366,380.33498 L 351.47387,449.69301 C 291.74606,559.71285 325.9437,680.58587 482.88185,672.08595 540.64407,668.95749 589.16201,674.08562 633.92945,690.36469 Z" fill="#f1f4d5" />
  <path fill="#d1ba81" inkscape:original-d="M 436.35598,548.11821 C 428.51081,497.66111 467.18276,423.3764 475.97605,353.49289 499.46304,166.83315 207.07462,160.85391 239.78366,380.33498 L 351.47387,449.69301 C 291.74606,559.71285 325.9437,680.58587 482.88185,672.08595" inkscape:path-effect="#path-effect912" />
  <path fill="#d1ba81" inkscape:original-d="M 559.33522,555.20028 C 518.38798,549.14265 465.01914,548.43297 436.47288,515.45489" inkscape:path-effect="#path-effect914" />
  <g>
    <path d="M 254.16298,283.29199 251.13473,287.13496 C 241.51038,282.12581 236.44134,275.48698 236.02445,263.94074 240.23982,274.22758 245.20451,279.40204 254.16298,283.29199 Z M 248.1887,295.98574 246.50135,300.53133 C 237.17676,299.97318 229.10513,294.88876 226.10441,285.00302 232.37791,292.9377 239.25144,295.71769 248.1887,295.98574 Z M 241.80914,340.23826 C 237.65288,335.86189 230.44896,334.67109 224.98514,338.55872 231.58777,337.82868 236.99625,339.24294 240.92222,344.29273 Z M 241.23439,352.65852 C 235.43853,349.00712 229.83423,348.39436 222.71474,351.8094 228.22273,345.78263 234.64666,345.37856 240.86122,348.51969 Z M 226.8899,364.88009 C 229.55852,358.09475 234.80597,355.58661 241.47809,356.70769 L 243.27138,360.64872 C 236.78892,358.70083 231.99575,360.19931 226.8899,364.88009 Z" />
    <g clip-path="url(#clipPath2377)">
      <path d="M 264.03492,368.89145 C 279.96041,336.37154 276.69934,291.93186 257.03169,269.58492 237.51155,303.2759 234.1877,341.20801 239.51734,379.17677 Z" fill="#fff" id="path16948" />
      <g clip-path="url(#clipPath2343)">
        <path d="M 255.2727,286.30258 265.53473,323.16301 255.77604,361.90946 249.45569,370.24827 233.76666,324.57108" fill="url(#linearGradient2331)" id="path2009" transform="rotate(-82.444319 249.0552 329.3413)" sodipodi:cx="249.055200812" sodipodi:cy="329.341295945" sodipodi:rx="43.504703769" sodipodi:ry="15.8139374656" sodipodi:type="arc" />
        <path d="M 254.6156,380.28303 244.01249,334.14739 267.24739,355.48672 Z" fill="#d7adad" />
        <path d="M 272.54714,345.84467 244.01249,334.14739 264.92004,365.63529 Z" fill="#ab4f4f" />
        <ellipse cx="-293.15256" cy="288.67435" rx="34.426739" ry="12.514085" transform="rotate(-82.444303)" />
        <ellipse cx="-216.79411" cy="338.78067" fill="#fff" rx="15.179982" ry="5.2534747" transform="rotate(-71.737203)" />
        <ellipse cx="-236.33319" cy="346.12381" fill="#fff" rx="5.10883" ry="1.7905658" transform="rotate(-71.432659)" />
      </g>
    </g>
    <path d="M 264.03492,368.89145 C 248.71866,382.18032 221.44683,375.63552 226.03444,396.83267 236.25043,444.03593 308.82429,473.23166 397.6814,438.81613 Z" fill="#f1f4d5" />
    <path d="M 239.27939,422.23889 C 257.42248,422.22283 267.17018,417.01512 273.59707,403.24559 271.7127,420.11551 259.42136,426.64327 243.59489,427.53284 M 249.00369,391.37235 C 247.51309,396.24195 243.98403,397.1115 240.52259,393.71665 242.87388,401.3169 250.4457,399.44683 249.00369,391.37235 Z" fill="#d1ba81" />
    <path fill="#d1ba81" inkscape:original-d="M 264.03492,368.89145 C 248.71866,382.18032 221.44683,375.63552 226.03444,396.83267 236.25043,444.03593 308.82429,473.23166 397.6814,438.81613" inkscape:path-effect="#path-effect16954" />
    <path d="M 258.29219,268.22524 C 252.65965,262.03174 250.42014,255.55182 249.41688,246.0757 247.03451,256.44755 248.98553,264.47359 255.49803,271.97199 271.90202,290.85932 279.04406,329.54282 264.03492,368.89145 284.0823,333.60583 276.33207,288.06175 258.29219,268.22524 Z" />
    <path d="M 383.31152,392.38526 C 389.32686,396.69562 391.45021,402.64943 388.12685,410.58029 387.74344,403.06574 385.26641,398.4507 379.33818,395.11629 M 390.66279,385.87545 C 399.55331,387.39689 404.41616,391.84805 404.30818,401.45693 401.21143,394.11806 395.56695,390.1698 387.37587,389.38097 M 397.14023,376.48762 C 405.43086,376.83102 410.95241,380.06048 412.41533,387.48741 408.00429,382.44692 402.36689,379.90771 394.48821,380.49534" />
    <g clip-path="url(#clipPath2397)">
      <path d="M 300.43502,394.21356 C 308.66813,277.32675 415.30703,273.56557 410.71496,337.14661 406.10217,401.01439 350.82757,426.8982 300.43502,394.21356 Z" fill="#fff" id="path4344-7" />
      <g clip-path="url(#clipPath2005)" transform="translate(0-.87209303)">
        <ellipse cx="-225.64249" cy="434.49429" fill="url(#linearGradient985)" id="path1649" rx="48.449471" ry="35.188297" transform="rotate(-70.554694)" />
        <path d="M 324.4245,359.94037 345.32095,412.32341 368.06956,394.2863 Z" fill="#d7adad" />
        <path d="M 324.4245,359.94037 374.54342,381.825 362.08606,399.71987 Z" fill="#ab4f4f" />
        <ellipse cx="-225.23839" cy="431.59134" rx="39.582726" ry="28.748489" transform="rotate(-70.554653)" />
        <ellipse cx="-65.491722" cy="480.96124" fill="#fff" rx="18.371038" ry="12.847883" transform="rotate(-53.128985)" />
        <ellipse cx="-35.904118" cy="506.56549" fill="#fff" rx="6.4509797" ry="4.8177276" transform="rotate(-47.648094)" />
      </g>
    </g>
    <path d="M 405.62739,310.3656 C 417.58334,304.59629 421.81198,297.84859 420.00234,286.31461 417.72871,296.15302 413.02688,301.94273 402.0708,306.42213 M 415.50667,332.18879 C 410.25696,268.60021 304.104,279.54571 300.43504,394.21356 313.62137,282.57429 410.00175,275.7998 410.71498,337.14662 424.30611,339.36047 431.38076,335.43309 435.30706,326.76395 428.69423,332.56161 423.18251,333.50104 415.50667,332.18879 Z M 411.19479,322.08605 C 425.54593,321.10844 432.29132,316.35213 434.71101,304.47134 428.91645,313.2249 422.1833,316.95793 409.38542,317.05336" />
  </g>
  <g>
    <path d="M 411.93081,600.16912 C 399.392,638.19667 367.84457,648.97761 344.27567,631.49669 325.026,617.21932 303.89256,603.33575 277.17051,590.79694 298.17076,567.14838 322.64583,567.59439 345.12566,581.2859 359.2804,581.18529 373.09255,577.41359 386.05874,571.41929 Z" fill="#f1f4d5" />
    <path fill="#d1ba81" inkscape:original-d="M 411.93081,600.16912 C 399.392,638.19667 367.84457,648.97761 344.27567,631.49669 325.026,617.21932 303.89256,603.33575 277.17051,590.79694 298.17076,567.14838 322.64583,567.59439 345.12566,581.2859 359.2804,581.18529 373.09255,577.41359 386.05874,571.41929" inkscape:path-effect="#path-effect2492" />
    <path d="M 363.17918,591.35239 C 351.81422,559.57662 327.02903,540.86041 306.50557,541.4418 283.49634,542.09362 166.02119,603.56892 162.3212,673.402 160.3944,709.76815 271.65032,676.79812 273.39836,639.45228 274.23985,621.47439 282.38355,604.54841 297.06305,591.24331 Z" fill="#f1f4d5" />
    <path fill="#d1ba81" inkscape:original-d="M 363.17918,591.35239 C 351.81422,559.57662 327.02903,540.86041 306.50557,541.4418 283.49634,542.09362 166.02119,603.56892 162.3212,673.402 160.3944,709.76815 271.65032,676.79812 273.39836,639.45228 274.23985,621.47439 282.38355,604.54841 297.06305,591.24331" inkscape:path-effect="#path-effect2486" />
  </g>
  <g>
    <path d="M 452.27178,556.92959 C 410.88358,569.79145 392.83477,635.70516 448.23785,638.80265 496.48384,641.50047 570.93664,577.38683 567.50383,561.50563 565.14481,550.59235 514.21758,547.89923 474.81158,553.1544 Z" fill="#f1f4d5" />
    <path fill="#d1ba81" inkscape:original-d="M 452.27178,556.92959 C 410.88358,569.79145 392.83477,635.70516 448.23785,638.80265 496.48384,641.50047 570.93664,577.38683 567.50383,561.50563 565.14481,550.59235 514.21758,547.89923 474.81158,553.1544" inkscape:path-effect="#path-effect1008-3" />
    <path d="M 490.23524,551.37089 C 490.62386,558.0018 484.90681,561.9965 477.51349,564.37169 491.51011,569.8914 491.27248,580.31829 461.00923,587.40849 480.81931,593.42153 482.82747,602.73615 453.95681,612.39363 470.49069,617.33665 469.89829,632.14805 449.49848,639.0521" fill="none" stroke="#d1ba81" stroke-width="5" />
    <path d="M 557.48923,580.58404 464.78425,621.06165 M 548.97095,552.53349 483.48713,567.52068 M 567.82054,561.21687 473.6942,593.83423" fill="none" stroke="#d1ba81" stroke-width="3" />
  </g>
  <g>
    <path d="M 340.20761,229.56108 C 341.36466,229.80075 342.52352,230.06446 343.6838,230.35253 383.02447,219.72527 417.6504,225.90774 446.03902,250.18527 L 468.0824,218.88983 C 416.7141,117.43358 241.53159,100.83705 195.09497,227.54159" fill="#f0dad7" />
    <path d="M 386.44186,147.83721 C 403.01163,173.12791 408.75582,202.90698 404.10465,228.77907 397.98837,226.72351 391.87209,226.33965 385.75581,226.59884 383.55011,191.55161 358.65844,160.19622 322.52907,137.64535 344.3175,138.29902 365.80968,140.63143 386.44186,147.83721 Z" fill="#c49dd6" />
    <path d="M 285.26744,142.89535 C 337.88372,155.10465 369.89535,184.46512 377.74418,225.45349 L 394.47674,226.29069 C 395.05814,197.22092 385.11628,168.51162 349.36047,138.56976 326.83568,135.60191 306.59912,137.11424 285.26744,142.89535 Z" fill="#eaa7c3" />
    <g>
      <path d="M 473.78421,282.08399 C 493.10631,371.70566 406.81973,408.70361 388.31984,472.83655 406.48227,455.51929 418.23583,446.30028 432.32806,440.07009 394.50607,492.28089 411.27388,519.1786 398.85297,572.96329 430.37021,545.10471 446.91564,522.21905 461.07573,485.75581 460.9981,506.5742 463.66028,521.65135 473.30318,539.80962 475.58537,427.66878 528.10943,413.27791 496.50749,251.29819 Z" fill="#f0dad7" />
      <path d="M 423.24849,548.89237 C 474.71134,461.77362 508.08616,347.12532 487.48929,263.64819 L 481.39535,271.65698 C 502.6383,346.70828 457.30985,448.047 405.66861,510.46512 404.53821,530.76551 402.91222,551.06589 399.85465,571.36628 407.89701,564.73043 415.96062,558.16896 423.24849,548.89237 Z" fill="#c49dd6" />
      <path d="M 410.21737,482.71923 C 465.5298,418.06351 496.50243,334.77998 479.83275,273.37472 L 483.35729,269.76935 C 505.36848,350.70139 461.79001,455.6549 403.09546,545.18654 405.38347,524.90134 405.23164,503.31772 410.21737,482.71923 Z" fill="#eaa7c3" />
      <path d="M 473.78421,282.08399 C 493.10631,371.70566 406.81973,408.70361 388.31984,472.83655 406.48227,455.51929 418.23583,446.30028 432.32806,440.07009 394.50607,492.28089 411.27388,519.1786 398.85297,572.96329 430.37021,545.10471 446.91564,522.21905 461.07573,485.75581 460.9981,506.5742 463.66028,521.65135 473.30318,539.80962 475.58537,427.66878 528.10943,413.27791 496.50749,251.29819 Z" style="fill:none;stroke:#e8bbb7;stroke-width:6;stroke-miterlimit:20" />
    </g>
    <path d="M 340.20761,229.56108 C 341.36466,229.80075 342.52352,230.06446 343.6838,230.35253 383.02447,219.72527 417.6504,225.90774 446.03902,250.18527 L 468.0824,218.88983 C 416.7141,117.43358 241.53159,100.83705 195.09497,227.54159" style="fill:none;stroke:#e8bbb7;stroke-width:6;stroke-miterlimit:20" />
    <g>
      <path d="M 295.0194,265.88476 C 206.61382,102.17517 221.28952,92.72448 336.7354,236.98195 Z" fill="#f1f4d5" />
      <path fill="#d1ba81" inkscape:original-d="M 295.0194,265.88476 C 206.61382,102.17517 221.28952,92.72448 336.7354,236.98195" inkscape:path-effect="#path-effect990-1-5" />
      <path d="M 331.7523,233.01238 C 332.04723,239.09785 330.93984,244.49446 327.41124,250.75532 332.96629,246.43535 336.78319,241.24944 339.07769,235.10747 Z" fill="#d1ba81" />
      <path d="M 282.4607,242.23994 C 304.54169,241.3899 312.47539,228.19305 309.81136,203.35955 M 266.90986,211.86538 C 282.6938,213.0554 289.97631,200.71997 287.839,177.73893 M 250.10016,178.40938 C 262.38711,180.65073 268.50807,172.54031 264.43245,152.14283" fill="none" stroke="#d1ba81" stroke-width="3" />
    </g>
    <path d="M 310.4065,182.37805 C 185.25658,146.59994 142.19546,297.1436 202.24128,385.03648 199.30318,355.37482 200.77051,335.49654 208.8666,310.19688 213.07316,327.40119 218.24861,339.93551 228.51859,353.12217 219.2427,273.45823 279.26703,214.3592 343.6838,230.35253 Z" fill="#f0dad7" />
    <path fill="#e8bbb7" inkscape:original-d="M 310.4065,182.37805 C 185.25658,146.59994 142.19546,297.1436 202.24128,385.03648 199.30318,355.37482 200.77051,335.49654 208.8666,310.19688 213.07316,327.40119 218.24861,339.93551 228.51859,353.12217 219.2427,273.45823 279.26703,214.3592 343.6838,230.35253" inkscape:path-effect="#path-effect896" />
    <g>
      <path d="M 424.84904,251.96207 C 435.63874,215.70654 466.25668,185.22307 479.53742,187.19079 495.16703,189.5067 534.65591,279.6499 462.63983,347.06703 Z" fill="#f1f4d5" />
      <path fill="#d1ba81" inkscape:original-d="M 424.84904,251.96207 C 435.63874,215.70654 466.25668,185.22299 479.53742,187.19079 495.16703,189.50663 534.65591,279.6499 462.63983,347.06703" inkscape:path-effect="#path-effect5954" />
      <path d="M 473.93062,232.19344 C 476.46665,259.44502 472.91276,278.27611 461.71105,300.3168 477.89687,281.08692 481.77605,257.70923 473.93062,232.19344 Z" fill="#d1ba81" />
    </g>
  </g>
  <circle cx="360.04517" cy="1055.465" fill="#f3aa39" id="circle4328" opacity=".1" r="107.36936" />
  <g transform="translate(364.0553 1056.6525)scale(1.6163748)">
    <path d="M -20.524,18.792 -26.796,22.056 -28.056,11.55 -30.072,21.716 -35,20.356 -31.22,25.592 -34.496,30.828 -29.82,28.992 -28.7,39.77 -26.936,28.788 -21.784,31.304 -25.676,25.286 Z M 15.232,30.176 10.528,32.768 9.583,24.425 8.071,32.498 4.375,31.418 7.21,35.576 4.753,39.734 8.26,38.276 9.1,46.835 10.423,38.114 14.287,40.112 11.368,35.333 Z M 36.384,2.176 30.336,4.768 29.121,-3.575 27.177,4.498 22.425,3.418 26.07,7.576 22.911,11.734 27.42,10.276 28.5,18.835 30.201,10.114 35.169,12.112 31.416,7.333 Z M 23.04,-41.474 18.56,-39.362 17.66,-46.16 16.22,-39.582 12.7,-40.462 15.4,-37.074 13.06,-33.686 16.4,-34.874 17.2,-27.9 18.46,-35.006 22.14,-33.378 19.36,-37.272 Z M -16.692,-36.888 -22.068,-34.584 -23.148,-42 -24.876,-34.824 -29.1,-35.784 -25.86,-32.088 -28.668,-28.392 -24.66,-29.688 -23.7,-22.08 -22.188,-29.832 -17.772,-28.056 -21.108,-32.304 Z M -0.5,-1.7 8.8,-18.9 -4.7,-5.6 -13.3,-19.4 -8.6,-3.6 -25.1,2 -9.2,4.6 -15.3,23.9 -3.4,3.4 4.4,21.6 1,1.9 15.8,-0.1 Z" fill="#550d0d" />
    <path d="M 24.2,-19.2 1.8,-9.6 -2.7,-40.5 -9.9,-10.6 -27.5,-14.6 -14,0.8 -25.7,16.2 -9,10.8 -5,42.5 1.3,10.2 19.7,17.6 5.8,-0.1 Z" fill="#fed593" />
  </g>
</svg>