<svg xmlns="http://www.w3.org/2000/svg" xmlns:cc="http://creativecommons.org/ns#" xmlns:dc="http://purl.org/dc/elements/1.1/" xmlns:inkscape="http://www.inkscape.org/namespaces/inkscape" xmlns:rdf="http://www.w3.org/1999/02/22-rdf-syntax-ns#" xmlns:xlink="http://www.w3.org/1999/xlink" height="1600" viewBox="0 0 1600.5906 1600" width="1600.5906">
  <title>The Sum of the Natural Numbers Is Negative One-twelfth</title>
  <metadata>
    <rdf:RDF>
      <cc:Work rdf:about="">
        <dc:format>image/svg+xml</dc:format>
        <dc:type rdf:resource="http://purl.org/dc/dcmitype/StillImage" />
        <dc:title>The Sum of the Natural Numbers Is Negative One-twelfth</dc:title>
        <dc:date>28 May 2015</dc:date>
        <dc:creator>
          <cc:Agent>
            <dc:title>Parcly Taxel / Jeremy Tan</dc:title>
          </cc:Agent>
        </dc:creator>
        <dc:rights>
          <cc:Agent>
            <dc:title>CC BY-SA 4.0 / FAL 1.3</dc:title>
          </cc:Agent>
        </dc:rights>
        <dc:coverage>Ambrisett dancing in the wind</dc:coverage>
      </cc:Work>
    </rdf:RDF>
  </metadata>
  <defs>
    <inkscape:path-effect effect="powerstroke" end_linecap_type="zerowidth" id="path-effect4250" interpolator_type="CubicBezierSmooth" offset_points="0.33,3.5 | 2.67,3.5" start_linecap_type="zerowidth" />
    <inkscape:path-effect effect="powerstroke" end_linecap_type="zerowidth" id="path-effect4208" interpolator_type="CubicBezierSmooth" offset_points="0.7,3.5 | 1.996,3.5" start_linecap_type="zerowidth" />
    <inkscape:path-effect effect="powerstroke" id="path-effect4202" interpolator_type="CubicBezierSmooth" offset_points="0.27,3.5" start_linecap_type="zerowidth" />
    <inkscape:path-effect effect="powerstroke" end_linecap_type="zerowidth" id="path-effect4200" interpolator_type="CubicBezierSmooth" offset_points="0.31,3.5 | 0.66,3.5" start_linecap_type="zerowidth" />
    <inkscape:path-effect effect="powerstroke" end_linecap_type="zerowidth" id="path-effect4631" interpolator_type="CubicBezierSmooth" offset_points="0.26,3.5 | 1.52,3.5" start_linecap_type="zerowidth" />
    <linearGradient id="linearGradient4199">
      <stop offset="0" stop-color="#0db9aa" />
      <stop offset="1" stop-color="#10dece" />
    </linearGradient>
    <inkscape:path-effect effect="powerstroke" end_linecap_type="zerowidth" id="path-effect4189" interpolator_type="CubicBezierSmooth" offset_points="0.18,3.5 | 2.8,3.5" start_linecap_type="zerowidth" />
    <inkscape:path-effect effect="powerstroke" end_linecap_type="zerowidth" id="path-effect4162" interpolator_type="CubicBezierSmooth" offset_points="0.17,3.5 | 1.69,3.5" start_linecap_type="zerowidth" />
    <linearGradient gradientUnits="userSpaceOnUse" id="linearGradient4205" x1="891.87305" x2="887.47406" y1="-18.778231" y2="47.772255" xlink:href="#linearGradient4199" />
    <clipPath id="clipPath4233">
      <use xlink:href="#ellipse4175" />
    </clipPath>
    <clipPath id="clipPath4288">
      <use xlink:href="#path3336" />
    </clipPath>
    <clipPath id="clipPath4419">
      <use xlink:href="#path4989" />
    </clipPath>
    <linearGradient gradientTransform="translate(-545.34146,1241.0683)" gradientUnits="userSpaceOnUse" id="linearGradient4613" x1="964.09021" x2="896.66968" y1="-325.52869" y2="-327.28177" xlink:href="#linearGradient4199" />
    <clipPath id="clipPath4627">
      <use xlink:href="#path4710" />
    </clipPath>
    <clipPath id="clipPath4429">
      <path d="m 888.24795,-413.95093 c -49.43898,3.91441 -101.83207,-19.60668 -129.94454,-64.53553 54.30231,-46.88002 138.42991,-13.23785 129.94454,64.53553 z" />
    </clipPath>
    <clipPath id="clipPath4437">
      <path d="m 786.21762,-429.23126 -72.83579,21.71967 c 10.29405,-42.0907 35.13549,-68.2407 74.14645,-76.68934 z" />
    </clipPath>
  </defs>
  <g transform="translate(-3.7782822,801.95093)" inkscape:groupmode="layer" inkscape:label="Drawing">
    <g>
      <path d="m 796.18981,79.716056 111.35508,2.185184 c -3.55708,53.82034 -24.47805,100.1589 -55.10168,129.8762 -31.01537,66.82276 -38.72365,142.46745 -16.76065,225.18684 7.14882,26.92464 -125.1279,30.79192 -124.06554,0 3.53553,-102.47563 36.26119,-190.90286 82.06961,-247.54827 2.15954,-2.67042 7.74898,-3.89442 13.26465,-2.34299 12.04992,-37.68126 8.3625,-73.98365 -10.76147,-107.356964 z" fill="#d0bc1c" />
      <path d="m 855.20372,205.63922 c -33.29182,68.47375 -42.13649,146.14881 -19.52116,231.32506 7.14882,26.92464 -125.1279,30.79192 -124.06554,0 3.53553,-102.47563 36.26119,-190.90286 82.06961,-247.54827 2.15954,-2.67042 7.74898,-3.89442 13.39603,-2.33246" style="stroke-miterlimit:20;fill:none;stroke:#b6a714;stroke-width:7" />
      <path d="m 844.27828,219.29907 15.5,-14.625 -9.5,-4 z" fill="#d0bc1c" />
      <path fill="#b6a714" inkscape:original-d="m 802.72864,198.30528 c 16.85198,-41.68672 14.48108,-81.90729 -6.53883,-118.589224 l 111.35508,2.185184 c -4.28142,64.77989 -33.71842,118.72069 -74.84869,146.21692" inkscape:path-effect="#path-effect4250" />
    </g>
    <g>
      <path d="M 790.34448,103.51945 C 597.83329,98.624405 560.31923,246.1874 337.48539,209.40262 c 23.06779,-1.87816 42.20595,-6.07085 61.43934,-14.2071 -50.54262,3.91704 -100.62015,-6.98486 -143.14645,-32.14645 36.86569,3.10452 75.65365,-3.68369 104,-20 -25.18495,1.27789 -51.05145,-2.54229 -76,-10.5 110.62426,-3.10729 169.03644,-89.010741 278.5,-85 -19.5381,-7.508947 -41.84852,-11.291742 -65,-10.5 73.47362,-20.579828 152.4294,-14.498496 216.5,12 -10.73797,-13.276666 -22.51422,-23.538015 -39,-33.5 49.55581,12.494222 89.77959,32.308995 123.65808,59.140171 z" fill="#f5c4df" />
      <path d="m 537.91211,843.23242 c 7.12515,1.65024 14.01649,3.74204 20.58789,6.26758 -109.46356,-4.01074 -167.87574,81.89271 -278.5,85 24.94855,7.95771 50.81505,11.77789 76,10.5 -28.34635,16.31631 -67.13431,23.10452 -104,20 26.59806,15.73731 56.14967,25.89579 86.92188,30.33984 210.00878,-11.57585 242.1706,-143.88841 449.77734,-97.46875 l 3.0957,-11.02734 C 711.67176,850.25763 623.13613,834.97102 537.91211,843.23242 Z" fill="#a5a1e5" transform="translate(3.7782822,-801.95093)" />
      <path d="M 790.34448,103.51945 C 597.83329,98.624405 560.31923,246.1874 337.48539,209.40262 c 23.06779,-1.87816 42.20595,-6.07085 61.43934,-14.2071 -50.54262,3.91704 -100.62015,-6.98486 -143.14645,-32.14645 36.86569,3.10452 75.65365,-3.68369 104,-20 -25.18495,1.27789 -51.05145,-2.54229 -76,-10.5 110.62426,-3.10729 169.03644,-89.010741 278.5,-85 -19.5381,-7.508947 -41.84852,-11.291742 -65,-10.5 73.47362,-20.579828 152.4294,-14.498496 216.5,12 -10.73797,-13.276666 -22.51422,-23.538015 -39,-33.5 49.55581,12.494222 89.77959,32.308995 123.65808,59.140171 z" style="stroke-miterlimit:20;fill:none;stroke:#f1add2;stroke-width:7" />
    </g>
    <g id="g4417">
      <path d="m 759.55401,364.61339 c -130.10765,-19.09188 -128.43608,65.17514 -291.07065,30.52691 96.87363,83.4386 169.17608,27.13976 271.27166,35.94113 z" style="stroke-miterlimit:20;fill:#f5c4df;stroke:#f1add2;stroke-width:7" transform="translate(3.7782822,-801.95093)" />
      <path d="m 735.13183,-319.59738 c -55.20831,43.30615 -120.56312,63.10812 -197.35355,61.64645 34.43076,-11.91976 61.0267,-26.49253 82.5,-46.5 -32.85333,-11.85637 -70.07983,-10.9017 -110,4 23.2124,-51.5276 61.37441,-79.11536 111.79289,-96.5 -27.82609,0.66477 -58.44531,-5.04969 -83.29289,-15.5 25.63002,-5.9988 45.91121,-15.47816 61,-31.5 -30.47125,8.64448 -65.16019,3.79492 -91,-11 135.84787,3.75663 197.79834,-156.33856 328.75736,-87.41421 67.64577,35.60228 25.60801,126.76946 -44.75736,95.41421 z" fill="#f5c4df" />
      <path d="m 788.49898,-517.17554 c -0.81313,-0.008 -1.62294,-0.004 -2.42773,0.0137 -75.97245,1.63029 -115.50751,115.40426 -247.29297,104.71091 24.84758,10.45031 55.46688,16.16477 83.29297,15.5 -50.41848,17.38464 -88.58057,44.9724 -111.79297,96.5 14.58256,-5.44349 28.80608,-9.02603 42.58789,-10.80273 63.18504,-29.81011 131.79258,-37.78526 190.53125,-26.60352 l 49.38086,-109.09375 c 52.33415,-5.76786 55.14954,-58.57338 13.47266,-68.08008 -6.16077,-1.40529 -12.06,-2.08823 -17.75196,-2.14453 z" fill="#a5a1e5" />
      <path d="m 735.13183,-319.59738 c -55.20831,43.30615 -120.56312,63.10812 -197.35355,61.64645 34.43076,-11.91976 61.0267,-26.49253 82.5,-46.5 -32.85333,-11.85637 -70.07983,-10.9017 -110,4 23.2124,-51.5276 61.37441,-79.11536 111.79289,-96.5 -27.82609,0.66477 -58.44531,-5.04969 -83.29289,-15.5 25.63002,-5.9988 45.91121,-15.47816 61,-31.5 -30.47125,8.64448 -65.16019,3.79492 -91,-11 135.84787,3.75663 197.79834,-156.33856 328.75736,-87.41421 67.64577,35.60228 25.60801,126.76946 -44.75736,95.41421 z" style="stroke-miterlimit:20;fill:none;stroke:#f1add2;stroke-width:7" />
    </g>
    <path d="m 871.5577,-151.22081 c 98.40602,-21.43208 181.8222,-61.91437 244.6486,-114.91445 22.8276,-19.25725 76.4612,92.58769 49.2058,105.93519 -83.7556,41.01668 -185.05662,64.706673 -290.16006,66.343792 z" style="stroke-miterlimit:20;fill:#d6c31b;stroke:#b6a714;stroke-width:7" />
    <path d="m 720.95678,180.68793 c -72.16834,22.38848 -137.10606,64.18284 -183.94887,133.92889 -17.38959,25.89203 -101.60823,-73.27153 -70.64767,-98.97838 77.75302,-64.55908 162.08683,-94.25011 233.02054,-96.71242 3.43233,-0.11915 7.48302,2.71625 10.03057,7.50354 51.25591,-41.60306 63.31436,-112.93028 55.75199,-223.67798 -7.60116,-111.31578 -65.26811,-171.63731 -43.21775,-278.37314 33.87713,-163.98387 285.25471,-101.34989 218.98149,92.56471 5.64493,1.72342 8.83396,3.5355 7.76461,10.13876 -5.54383,34.23333 -49.27728,55.70419 -99.57212,53.57312 23.7614,82.53078 90.55011,156.715454 71.47014,283.05064 -11.44739,75.79716 -51.78766,116.51354 -118.79289,100.13522 -22.10818,14.6623 -49.38351,20.05042 -80.84004,16.84704 z" fill="#d6c31b" />
    <g fill="none" transform="matrix(1.9487919,1.6614419,-1.6614419,1.9487919,783.21352,113.50509)">
      <path d="m -8.633956,-9.587066 c 0.5540025,-1.727552 1.947129,-2.773578 3.6744465,-2.773578 5.19388014,0 5.39516934,5.7564055 12.9394535,3.86504" stroke="#fff" />
      <path d="M 0.7489561,4.0749697 C 11.983223,-4.2671015 9.7642515,-12.360644 4.9595095,-12.360644 c -1.8697315,0 -3.0924684,0.745978 -4.2436795,1.612614 m 8.968649,1.8130005 C 19.864124,-10.612877 9.434164,19.900069 0,12.655555 -2.5512353,10.696456 -2.7914193,7.294672 -0.69287485,5.199122" stroke="#f5c4df" />
      <path d="m -0.72359945,-9.6499805 c -1.74263875,1.256616 -3.84403525,2.2152955 -8.10618355,0.9179445 -11.281156,-3.43386 -1.409021,27.131979 8.05669125,21.897171 M 0.6633524,12.061715 C 2.7851407,9.844277 2.5733681,6.4346415 0,4.6172426 -6.538466,-4.4189671e-4 -8.889745,-4.5940757 -8.8923785,-7.8364515" stroke="#a5a1e5" />
    </g>
    <path d="m 801.77514,163.89098 c 67.02691,16.32823 107.36718,-24.38815 118.81457,-100.18531 19.07997,-126.335186 -47.70874,-200.51986 -71.4843,-283.05221" style="stroke-miterlimit:20;fill:none;stroke:#b6a714;stroke-width:7" />
    <g>
      <g clip-path="url(#clipPath4288)">
        <ellipse cx="888.88666" cy="34.109314" fill="#fff" id="path3336" rx="50.239838" ry="62.999184" transform="rotate(-24.098762)" />
        <g clip-path="url(#clipPath4233)">
          <ellipse cx="906.05304" cy="15.420433" fill="url(#linearGradient4205)" id="ellipse4175" rx="40.135754" ry="50.328953" transform="rotate(-22.351953)" />
          <path d="m 856.02828,-325.20093 -42.5,69 -32.75,-30.75 z" fill="#a9fcf5" />
          <path d="m 856.02828,-325.20093 -80.25,18 11.25,31 z" fill="#10f6e3" />
          <ellipse cx="910.8493" cy="12.795874" rx="33.09177" ry="40.235035" transform="rotate(-22.082817)" />
          <ellipse cx="566.73199" cy="-694.80286" fill="#fff" rx="15.234509" ry="21.677902" transform="rotate(27.9595)" />
          <ellipse cx="499.41208" cy="-747.72278" fill="#fff" rx="5.6395006" ry="7.8678412" transform="rotate(35.323082)" />
        </g>
      </g>
      <path d="m 787.52479,-386.0387 c -8.46118,-5.6389 -13.17894,-14.26477 -14.88422,-24.99067 -2.97405,12.63777 1.78379,23.78984 11.96394,30.97629 z m -10.03201,10.93014 c -8.4833,-4.2085 -14.70179,-11.45136 -17.91411,-22.68818 -1.78285,13.34009 5.03642,23.52366 16.34327,29.51803 z m -3.57166,19.41977 c 13.0436,-37.38034 47.7013,-42.79817 74.37988,-21.46197 23.90044,19.11438 35.19951,54.81033 21.66282,85.87837 20.39571,-31.25686 8.92326,-68.66551 -17.95288,-90.89444 -27.11861,-22.42947 -65.62428,-19.31934 -82.08246,18.61622 -9.04379,-2.37912 -16.36853,-8.50824 -21.82564,-18.87068 1.19194,14.87266 11.27538,23.59385 25.81828,26.7325 z" />
    </g>
    <path fill="#b6a714" inkscape:original-d="M 698.61185,134.27374 C 758.99196,94.060258 773.22429,20.8008 765.16334,-97.248423 757.56218,-208.5642 699.89523,-268.88573 721.94559,-375.62156 c 33.87713,-163.98387 285.25471,-101.34989 218.69939,92.45314" inkscape:path-effect="#path-effect4202" />
    <path d="m 727.24827,178.74292 c -74.66529,21.92483 -142.03448,64.09832 -190.24036,135.8739 -17.38959,25.89203 -101.60823,-73.27153 -70.64767,-98.97838 77.75302,-64.55908 162.08683,-94.25011 233.02054,-96.71242 3.43233,-0.11915 7.48302,2.71625 10.15025,7.50319" style="stroke-miterlimit:20;fill:none;stroke:#b6a714;stroke-width:7" />
    <path d="m 709.64763,179.15386 27.75394,2.65165 -7.95495,-12.72792 z" fill="#d6c31b" />
    <g>
      <path d="m 861.99643,-415.06857 c -8.36685,-7.29661 -11.42693,-15.98612 -6.46809,-21.73543 132.39442,-153.49886 135.7209,-154.20861 41.38337,29.67803 -2.17252,4.23476 -7.23546,5.95585 -15.50843,3.30372 z" fill="#d6c31b" />
      <path fill="#b6a714" inkscape:original-d="m 861.99643,-415.06857 c -8.36685,-7.29661 -11.42693,-15.98612 -6.46809,-21.73543 132.39442,-153.49886 135.7209,-154.20861 41.38337,29.67803 -2.17252,4.23476 -7.23546,5.95585 -15.50843,3.30372" inkscape:path-effect="#path-effect4208" />
      <path d="m 921.26874,-511.6873 c 10.49397,-0.42381 20.42289,-2.09155 29.75114,-4.9328 m -59.97844,38.81088 c 15.08526,1.83251 29.3151,1.07718 42.57271,-2.08078 m -68.19782,31.81329 c 17.44343,5.2186 34.15719,6.78696 49.92646,4.9745" fill="none" stroke="#b6a714" stroke-width="3.5" />
    </g>
    <path fill="#b6a714" inkscape:original-d="m 695.02008,176.39223 c 61.32444,14.00258 109.65922,0.14708 138.9797,-46.25343" inkscape:path-effect="#path-effect4200" />
    <g>
      <path d="m 947.18315,-370.27196 c 8.3122,-0.19338 15.09104,-2.3009 20.90917,-7.0341 -3.34114,8.18412 -10.71372,12.43124 -21.67243,13.33183 z m -2.02549,-11.07739 c 8.1796,-1.49121 14.54533,-4.63322 19.55145,-10.21827 -2.01981,8.606 -8.63725,13.95413 -19.32021,16.55785 z" />
      <g clip-path="url(#clipPath4627)">
        <path d="m 917.13633,-294.80541 c -10.35151,-41.40212 2.5103,-86.5375 26.98716,-95.39083 12.21688,35.11616 9.63583,72.15233 -2.79558,107.05124 -8.47378,-1.80168 -18.3745,-5.61362 -24.19158,-11.66041 z" fill="#fff" id="path4710" />
        <g clip-path="url(#clipPath4419)" transform="translate(-4.1390874,0.10355339)">
          <ellipse cx="385.83304" cy="909.88916" fill="url(#linearGradient4613)" id="path4989" rx="45.364319" ry="15.627365" transform="rotate(-86.599224)" />
          <path d="m 923.69485,-326.14692 21.30361,59.45741 11.20248,-27.87956 z" fill="#a9fcf5" />
          <path d="m 923.69485,-326.14692 35.31822,13.34214 -4.21468,25.9513 z" fill="#10f6e3" />
          <ellipse cx="929.27429" cy="-331.39917" rx="36.381054" ry="12.843987" transform="rotate(-87.027599,929.2743,-331.39917)" />
          <ellipse cx="933.69843" cy="-345.62857" fill="#fff" rx="18.745049" ry="6.8661361" transform="rotate(-80.092849,933.69845,-345.62858)" />
          <ellipse cx="519.23761" cy="845.88342" fill="#fff" rx="6.2012486" ry="2.4462988" transform="rotate(-77.37244)" />
        </g>
      </g>
      <path d="m 917.13633,-294.80541 c -12.66608,-43.26383 -0.18176,-89.21503 26.63688,-98.76486 7.28133,-2.59281 12.47593,-6.15172 16.01215,-12.60827 0.39741,9.58252 -6.73156,16.00689 -14.85459,18.84556 -22.95022,8.02018 -34.40999,50.90376 -27.79444,92.52757 z" />
    </g>
    <path fill="#b6a714" inkscape:original-d="m 771.79432,-242.15714 c 73.51176,43.42127 168.54518,20.81403 176.89737,-30.76095 2.30458,-14.23085 -15.16913,-6.20876 -31.55536,-21.88732" inkscape:path-effect="#path-effect4631" />
    <path d="m 926.64729,-274.77649 c 1.57221,4.95317 4.50669,5.76049 8.50685,2.78349 -3.07368,7.81466 -10.21846,5.32642 -8.50685,-2.78349 z m -23.79134,11.78715 c 8.2884,10.58286 17.39287,15.024 32.1475,15.58403 l -5.14283,5.01754 c -13.10384,-1.36892 -23.38856,-8.83185 -27.00467,-20.60157 z" fill="#b6a714" />
    <use clip-path="url(#clipPath4429)" xlink:href="#g4417" />
    <g id="g4168">
      <path d="m 726.62886,-349.96715 c -46.70688,-83.88114 13.44424,-152.41901 21.77137,-151.40903 8.00753,0.97122 36.42323,32.21721 34.47049,76.00052 -24.40378,15.74876 -44.95352,41.94068 -56.24186,75.40851 z" fill="#d6c31b" />
      <path fill="#b6a714" inkscape:original-d="m 726.62886,-349.96715 c -46.70688,-83.88114 13.44424,-152.41901 21.77137,-151.40903 8.00753,0.97122 36.42323,32.21721 34.47049,76.00052" inkscape:path-effect="#path-effect4162" />
      <path d="m 746.653,-459.66667 c -8.3345,20.79023 -11.31148,43.59353 -7.49017,67.71595 -8.7605,-22.97339 -5.13483,-48.65801 7.49017,-67.71595 z" fill="#b6a714" />
    </g>
    <g transform="translate(3.7782822,-801.95093)">
      <path d="m 574.13517,473.66469 c 117.9838,-107.94218 165.46514,-43.37757 206.23864,-72.52439 26.73843,-19.11389 6.80151,-60.73402 -52.79037,-24.67767 67.36144,-112.9447 154.79179,10.89728 73.85281,57.62742 -65.83447,38.00955 -92.47518,-31.25736 -227.30108,39.57464 z" fill="#f5c4df" />
      <path d="m 830.85468,401.14663 c -8.86925,-45.99592 -47.84582,-67.06234 -88.47437,-45.5152 51.00912,-59.29706 105.5859,-2.34297 88.47437,45.5152 z" fill="#a5a1e5" />
      <path d="m 574.13517,473.66469 c 117.9838,-107.94218 165.46514,-43.37757 206.23864,-72.52439 26.73843,-19.11389 6.80151,-60.73402 -52.79037,-24.67767 67.36144,-112.9447 154.79179,10.89728 73.85281,57.62742 -65.83447,38.00955 -92.47518,-31.25736 -227.30108,39.57464 z" style="stroke-miterlimit:20;fill:none;stroke:#f1add2;stroke-width:7" />
    </g>
    <g>
      <path d="m 798.90603,-151.06638 c -91.9877,-13.5311 -176.89332,-48.39631 -250.16878,-103.3235 -24.62662,-18.46008 -73.8796,95.30696 -44.28061,108.08658 92.34455,39.87056 196.55715,58.959875 295.27217,52.65877 z" fill="#d6c31b" />
      <path fill="#b6a714" inkscape:original-d="m 798.90603,-151.06638 c -91.9877,-13.5311 -176.89332,-48.39631 -250.16878,-103.3235 -24.62662,-18.46008 -73.8796,95.30696 -44.28061,108.08658 92.34455,39.87056 196.55715,58.959875 295.27217,52.65877" inkscape:path-effect="#path-effect4189" />
    </g>
    <use clip-path="url(#clipPath4437)" xlink:href="#g4168" />
  </g>
</svg>