<?xml version="1.0" encoding="UTF-8" standalone="no"?>
<!-- Created with Inkscape (http://www.inkscape.org/) -->

<svg
   xmlns:dc="http://purl.org/dc/elements/1.1/"
   xmlns:cc="http://creativecommons.org/ns#"
   xmlns:rdf="http://www.w3.org/1999/02/22-rdf-syntax-ns#"
   xmlns:svg="http://www.w3.org/2000/svg"
   xmlns="http://www.w3.org/2000/svg"
   xmlns:xlink="http://www.w3.org/1999/xlink"
   xmlns:sodipodi="http://sodipodi.sourceforge.net/DTD/sodipodi-0.dtd"
   xmlns:inkscape="http://www.inkscape.org/namespaces/inkscape"
   id="svg4514"
   version="1.1"
   inkscape:version="0.48.4 r9939"
   width="3112.7288"
   height="2935.3101"
   sodipodi:docname="Ideal Thoughts Cutie Mark.svg"
   inkscape:export-filename="C:\Users\tan jierui\Pictures\Ideal Thoughts Cutie Mark.png"
   inkscape:export-xdpi="125.5881"
   inkscape:export-ydpi="125.5881">
  <metadata
     id="metadata4520">
    <rdf:RDF>
      <cc:Work
         rdf:about="">
        <dc:format>image/svg+xml</dc:format>
        <dc:type
           rdf:resource="http://purl.org/dc/dcmitype/StillImage" />
        <dc:title></dc:title>
      </cc:Work>
    </rdf:RDF>
  </metadata>
  <defs
     id="defs4518">
    <linearGradient
       id="linearGradient5391">
      <stop
         style="stop-color:#f9db00;stop-opacity:1"
         offset="0"
         id="stop5393" />
      <stop
         id="stop5395"
         offset="0.4821429"
         style="stop-color:#fef8d0;stop-opacity:1" />
      <stop
         id="stop5397"
         offset="0.67857146"
         style="stop-color:#ffffff;stop-opacity:1" />
      <stop
         style="stop-color:#f9db00;stop-opacity:1"
         offset="1"
         id="stop5399" />
    </linearGradient>
    <linearGradient
       id="linearGradient5367">
      <stop
         id="stop5369"
         offset="0"
         style="stop-color:#f9db00;stop-opacity:1" />
      <stop
         style="stop-color:#fef8d0;stop-opacity:1"
         offset="0.44999975"
         id="stop5371" />
      <stop
         style="stop-color:#ffffff;stop-opacity:1"
         offset="0.69999987"
         id="stop5373" />
      <stop
         id="stop5375"
         offset="1"
         style="stop-color:#f9db00;stop-opacity:1" />
    </linearGradient>
    <linearGradient
       id="linearGradient5251">
      <stop
         id="stop5253"
         offset="0"
         style="stop-color:#f9db00;stop-opacity:1" />
      <stop
         style="stop-color:#fef8d0;stop-opacity:1"
         offset="0.43333337"
         id="stop5255" />
      <stop
         style="stop-color:#ffffff;stop-opacity:1"
         offset="0.53333336"
         id="stop5257" />
      <stop
         id="stop5259"
         offset="1"
         style="stop-color:#f9db00;stop-opacity:1" />
    </linearGradient>
    <linearGradient
       id="linearGradient5213">
      <stop
         style="stop-color:#f9db00;stop-opacity:1"
         offset="0"
         id="stop5215" />
      <stop
         id="stop5221"
         offset="0.40909097"
         style="stop-color:#fef8d0;stop-opacity:1" />
      <stop
         id="stop5219"
         offset="0.68181819"
         style="stop-color:#ffffff;stop-opacity:1" />
      <stop
         style="stop-color:#f9db00;stop-opacity:1"
         offset="1"
         id="stop5217" />
    </linearGradient>
    <linearGradient
       inkscape:collect="always"
       xlink:href="#linearGradient5213"
       id="linearGradient5211"
       gradientUnits="userSpaceOnUse"
       x1="952.33728"
       y1="1255.1353"
       x2="650.36572"
       y2="953.16345" />
    <linearGradient
       inkscape:collect="always"
       xlink:href="#linearGradient5251"
       id="linearGradient5249"
       x1="484.66507"
       y1="709.2793"
       x2="1071.0403"
       y2="1295.6548"
       gradientUnits="userSpaceOnUse" />
    <linearGradient
       inkscape:collect="always"
       xlink:href="#linearGradient5367"
       id="linearGradient5365"
       x1="2113.4546"
       y1="1289.015"
       x2="1863.4547"
       y2="1164.015"
       gradientUnits="userSpaceOnUse" />
    <linearGradient
       inkscape:collect="always"
       xlink:href="#linearGradient5391"
       id="linearGradient5389"
       x1="2756.3005"
       y1="1189.8385"
       x2="2056.3005"
       y2="839.8385"
       gradientUnits="userSpaceOnUse" />
    <linearGradient
       inkscape:collect="always"
       xlink:href="#linearGradient5251"
       id="linearGradient5438"
       gradientUnits="userSpaceOnUse"
       x1="484.66507"
       y1="709.2793"
       x2="1071.0403"
       y2="1295.6548" />
    <linearGradient
       inkscape:collect="always"
       xlink:href="#linearGradient5213"
       id="linearGradient5440"
       gradientUnits="userSpaceOnUse"
       x1="952.33728"
       y1="1255.1353"
       x2="650.36572"
       y2="953.16345" />
    <linearGradient
       inkscape:collect="always"
       xlink:href="#linearGradient5391"
       id="linearGradient5442"
       gradientUnits="userSpaceOnUse"
       x1="2756.3005"
       y1="1189.8385"
       x2="2056.3005"
       y2="839.8385" />
    <linearGradient
       inkscape:collect="always"
       xlink:href="#linearGradient5367"
       id="linearGradient5444"
       gradientUnits="userSpaceOnUse"
       x1="2113.4546"
       y1="1289.015"
       x2="1863.4547"
       y2="1164.015" />
  </defs>
  <sodipodi:namedview
     pagecolor="#ffffff"
     bordercolor="#666666"
     borderopacity="1"
     objecttolerance="10"
     gridtolerance="10"
     guidetolerance="10"
     inkscape:pageopacity="0"
     inkscape:pageshadow="2"
     inkscape:window-width="1366"
     inkscape:window-height="706"
     id="namedview4516"
     showgrid="true"
     fit-margin-top="0"
     fit-margin-left="0"
     fit-margin-right="0"
     fit-margin-bottom="0"
     inkscape:zoom="0.17681267"
     inkscape:cx="1556.3644"
     inkscape:cy="1467.655"
     inkscape:window-x="-8"
     inkscape:window-y="-8"
     inkscape:window-maximized="1"
     inkscape:current-layer="layer4" />
  <g
     inkscape:groupmode="layer"
     id="layer4"
     inkscape:label="Drawing"
     style="display:inline"
     transform="translate(-60.275582,-48.142778)">
    <g
       id="g5423">
      <path
         sodipodi:nodetypes="cccccccccccc"
         inkscape:connector-curvature="0"
         id="path5421"
         d="m 2913.2799,1138.297 c 435.5779,274.3574 226.2742,1052.1748 -412.9503,1046.518 -132.9361,410.122 -735.0866,579.5433 -1233.5374,207.931 l -97.8528,71.9412 c 71.1031,34.9764 119.8737,108.0865 131.1665,170.6173 511.9453,97.5807 -99.8112,490.0753 -186.0782,231.2741 C 886.33932,2920.3187 612.35448,2701.003 678.82251,2518.5694 458.2052,2442.2019 311.12698,2125.418 394.56558,1918.9429 -142.83557,1534.2767 118.79394,835.65527 509.11688,668.77807 172.53405,267.14142 1419.8705,-208.03434 1482.0958,303.91098 1892.2177,-43.985562 2670.0352,-1.5591595 2703.9763,513.21458 c 393.1515,-73.53911 537.4012,446.89147 209.3036,625.08242 z"
         style="fill:#eef9ff;fill-opacity:1;stroke:#699aaf;stroke-width:60;stroke-linecap:butt;stroke-linejoin:miter;stroke-miterlimit:4;stroke-opacity:1;stroke-dasharray:none" />
      <g
         id="g5263">
        <path
           id="path5229"
           style="fill:url(#linearGradient5438);fill-opacity:1;fill-rule:evenodd;stroke:none"
           d="m 1003.8811,1090.4235 c 0,119.4346 -96.8209,216.2555 -216.25555,216.2555 -119.43465,0 -216.25557,-96.8209 -216.25557,-216.2555 0,-119.43469 96.82092,-216.25561 216.25557,-216.25561 119.43465,0 216.25555,96.82092 216.25555,216.25561 z m 91.8984,-10.2688 124.9853,71.3776 -49.3804,148.365 -142.3129,-17.7002 c -21.9059,27.6038 -48.46372,51.3379 -78.48847,70.0296 l 0.69028,143.8609 -153.17794,31.4177 -55.77906,-132.0296 c -35.69157,-5.2475 -69.39188,-16.6173 -99.99731,-33.0085 l -124.18489,72.5114 -103.79748,-116.9472 86.44711,-114.3417 C 488.06941,1171.6649 480.61759,1136.9822 479.47189,1100.7 l -124.98548,-71.3855 49.38037,-148.36501 142.33297,17.69118 c 21.8951,-27.60147 48.44101,-51.32444 78.45967,-70.01167 l -0.68153,-143.86981 153.17794,-31.41776 55.79219,132.03738 c 35.6843,5.24328 69.37077,16.60819 99.96009,33.00414 l 124.20899,-72.51481 103.7975,116.94715 -86.4435,114.32863 c 12.7108,32.03488 20.1645,66.72668 21.3084,103.01078 z"
           transform="matrix(1.2790445,0,0,1.2790439,-88.55719,-111.92237)"
           inkscape:connector-curvature="0" />
        <path
           sodipodi:nodetypes="ccccccccccccccccccccccccc"
           inkscape:connector-curvature="0"
           d="m 2162.9936,569.6429 159.8617,91.2951 -63.1597,189.7653 -182.0245,-22.6393 c -28.0187,35.3065 -61.9873,65.6635 -100.3903,89.5709 l 0.8829,184.0044 -195.9214,40.1847 -71.3439,-168.8717 c -45.6511,-6.7118 -88.7553,-21.2543 -127.901,-42.2193 l -158.838,92.7453 -132.7616,-149.5806 110.5697,-146.2481 c -16.2622,-40.9611 -25.7934,-85.3218 -27.2588,-131.7284 l -159.862,-91.3052 63.1597,-189.7653 182.0502,22.6278 c 28.0048,-35.3035 61.9582,-65.64621 100.3534,-89.548 l -0.8717,-184.0158 195.9214,-40.1847 71.3607,168.8816 c 45.6418,6.70639 88.7283,21.24261 127.8534,42.21375 l 158.8688,-92.74962 132.7616,149.58053 -110.565,146.23134 c 16.2576,40.974 25.7912,85.3463 27.2544,131.7553 z"
           style="fill:none;stroke:#b77e00;stroke-width:35;stroke-linecap:butt;stroke-linejoin:miter;stroke-miterlimit:4;stroke-opacity:1;stroke-dasharray:none"
           id="path5223"
           transform="translate(-850,700)" />
        <path
           sodipodi:type="arc"
           style="fill:url(#linearGradient5440);fill-opacity:1;stroke:#b77e00;stroke-width:38.43275452;stroke-miterlimit:4;stroke-opacity:1;stroke-dasharray:none"
           id="path4524"
           sodipodi:cx="787.62555"
           sodipodi:cy="1090.4235"
           sodipodi:rx="216.25557"
           sodipodi:ry="216.25557"
           d="m 1003.8811,1090.4235 c 0,119.4346 -96.8209,216.2555 -216.25555,216.2555 -119.43465,0 -216.25557,-96.8209 -216.25557,-216.2555 0,-119.43469 96.82092,-216.25561 216.25557,-216.25561 119.43465,0 216.25555,96.82092 216.25555,216.25561 z"
           transform="matrix(0.91068175,0,0,0.91068125,201.5748,289.7489)" />
        <path
           transform="matrix(1.2790445,0,0,1.2790439,-88.55719,-111.92237)"
           d="m 1003.8811,1090.4235 c 0,119.4346 -96.8209,216.2555 -216.25555,216.2555 -119.43465,0 -216.25557,-96.8209 -216.25557,-216.2555 0,-119.43469 96.82092,-216.25561 216.25557,-216.25561 119.43465,0 216.25555,96.82092 216.25555,216.25561 z"
           sodipodi:ry="216.25557"
           sodipodi:rx="216.25557"
           sodipodi:cy="1090.4235"
           sodipodi:cx="787.62555"
           id="path5036"
           style="fill:none;stroke:#b77e00;stroke-width:18.76401138;stroke-miterlimit:4;stroke-opacity:1;stroke-dasharray:none"
           sodipodi:type="arc" />
      </g>
      <g
         id="g5411">
        <path
           id="path5379"
           style="fill:url(#linearGradient5442);fill-opacity:1;stroke:none"
           d="m 1508.054,1743.9447 162.1845,190.2528 197.8093,-118.7768 c 57.1228,34.4264 121.5447,57.9751 190.4107,67.751 l 78.709,217.2172 245.8561,-45.3295 -3.9379,-230.7301 c 59.6227,-33.056 111.9047,-77.7342 153.7874,-130.9993 l 227.5409,40.4527 83.6716,-235.5823 -201.8916,-111.9994 c 0.1221,-2.933 0.1471,-5.895 0.1471,-8.8629 l 0,0 c 0,-67.1149 -12.9377,-131.2079 -36.5138,-189.8957 L 2754.547,1010.7323 2592.3625,820.47945 2394.5485,939.2583 c -57.12,-34.43052 -121.5437,-57.97945 -190.4077,-67.75051 l -78.7073,-217.21969 -245.8561,45.3295 3.9296,230.71839 c -59.6301,33.07856 -111.9112,77.75951 -153.7858,131.01921 l -227.5342,-40.4609 -83.6716,235.5823 201.8933,112.0053 c -0.1235,2.9334 -0.1485,5.8918 -0.1485,8.8562 0,67.1132 12.9371,131.2048 36.5236,189.8813 z m 1056.9074,-366.6066 c 0,239.5044 -194.1565,433.6609 -433.6609,433.6609 -239.5041,0 -433.6609,-194.1565 -433.6609,-433.6609 0,-239.5042 194.1568,-433.66068 433.6609,-433.66068 239.5044,0 433.6609,194.15648 433.6609,433.66068 z"
           inkscape:connector-curvature="0" />
        <path
           sodipodi:type="arc"
           style="fill:url(#linearGradient5444);fill-opacity:1;stroke:#b77e00;stroke-width:35;stroke-linecap:butt;stroke-linejoin:miter;stroke-miterlimit:4;stroke-opacity:1;stroke-dasharray:none"
           id="path5269"
           sodipodi:cx="1988.4548"
           sodipodi:cy="1226.5146"
           sodipodi:rx="161.17467"
           sodipodi:ry="161.17467"
           d="m 2149.6295,1226.5146 c 0,89.0144 -72.1604,161.1747 -161.1747,161.1747 -89.0143,0 -161.1746,-72.1603 -161.1746,-161.1747 0,-89.0143 72.1603,-161.1746 161.1746,-161.1746 89.0143,0 161.1747,72.1603 161.1747,161.1746 z"
           transform="translate(142.84579,150.82353)" />
        <path
           id="path5301"
           style="fill:none;stroke:#b77e00;stroke-width:35;stroke-linecap:butt;stroke-linejoin:miter;stroke-miterlimit:4;stroke-opacity:1;stroke-dasharray:none"
           d="m 1508.054,1743.9447 162.1845,190.2528 197.8093,-118.7768 c 57.1228,34.4264 121.5447,57.9751 190.4107,67.751 l 78.709,217.2172 245.8561,-45.3295 -3.9379,-230.7301 c 59.6227,-33.056 111.9047,-77.7342 153.7874,-130.9993 l 227.5409,40.4527 83.6716,-235.5823 -201.8916,-111.9994 c 0.1221,-2.933 0.1471,-5.895 0.1471,-8.8629 l 0,0 c 0,-67.1149 -12.9377,-131.2079 -36.5138,-189.8957 L 2754.547,1010.7323 2592.3625,820.47945 2394.5485,939.2583 c -57.12,-34.43052 -121.5437,-57.97945 -190.4077,-67.75051 l -78.7073,-217.21969 -245.8561,45.3295 3.9296,230.71839 c -59.6301,33.07856 -111.9112,77.75951 -153.7858,131.01921 l -227.5342,-40.4609 -83.6716,235.5823 201.8933,112.0053 c -0.1235,2.9334 -0.1485,5.8918 -0.1485,8.8562 0,67.1132 12.9371,131.2048 36.5236,189.8813 z"
           inkscape:connector-curvature="0"
           sodipodi:nodetypes="cccccccccccccccccccccccccscc" />
        <path
           transform="matrix(2.7340249,0,0,2.7340249,-3305.1844,-1975.9834)"
           d="m 2147.0711,1226.5146 c 0,87.6014 -71.0149,158.6163 -158.6163,158.6163 -87.6013,0 -158.6163,-71.0149 -158.6163,-158.6163 0,-87.6013 71.015,-158.6162 158.6163,-158.6162 87.6014,0 158.6163,71.0149 158.6163,158.6162 z"
           sodipodi:ry="158.61629"
           sodipodi:rx="158.61629"
           sodipodi:cy="1226.5146"
           sodipodi:cx="1988.4548"
           id="path5275"
           style="fill:none;stroke:#b77e00;stroke-width:8.77826691;stroke-linecap:butt;stroke-linejoin:miter;stroke-miterlimit:4;stroke-opacity:1;stroke-dasharray:none"
           sodipodi:type="arc" />
      </g>
    </g>
  </g>
</svg>
