<svg xmlns="http://www.w3.org/2000/svg" xmlns:inkscape="http://www.inkscape.org/namespaces/inkscape" xmlns:xlink="http://www.w3.org/1999/xlink" height="1600" viewBox="0 0 1600 1600" width="1600">
  <defs>
    <inkscape:path-effect effect="powerstroke" id="path-effect1348" interpolator_type="CubicBezierSmooth" offset_points="0.59,6" start_linecap_type="zerowidth" />
    <inkscape:path-effect effect="powerstroke" id="path-effect1384" interpolator_type="CubicBezierSmooth" offset_points="0.24,6" start_linecap_type="zerowidth" />
    <inkscape:path-effect effect="powerstroke" end_linecap_type="zerowidth" id="path-effect538" interpolator_type="CubicBezierSmooth" offset_points="0.88,5 | 2.56,5" start_linecap_type="zerowidth" />
    <inkscape:path-effect effect="powerstroke" id="path-effect1392" interpolator_type="CubicBezierSmooth" offset_points="0.38,5" start_linecap_type="zerowidth" />
    <inkscape:path-effect effect="powerstroke" end_linecap_type="zerowidth" id="path-effect1489" interpolator_type="CubicBezierSmooth" offset_points="0.62,1.5 | 3.36,1.5" start_linecap_type="zerowidth" />
    <inkscape:path-effect effect="powerstroke" end_linecap_type="zerowidth" id="path-effect1376" interpolator_type="CubicBezierSmooth" offset_points="0.42,6 | 1,6" start_linecap_type="zerowidth" />
    <inkscape:path-effect effect="powerstroke" id="path-effect4795" interpolator_type="CubicBezierSmooth" offset_points="0.93,6 | 11,6" start_linecap_type="zerowidth" />
    <inkscape:path-effect effect="powerstroke" id="path-effect4791" interpolator_type="CubicBezierSmooth" offset_points="1.11,6" start_linecap_type="zerowidth" />
    <inkscape:path-effect effect="powerstroke" end_linecap_type="zerowidth" id="path-effect1406" interpolator_type="CubicBezierSmooth" offset_points="0.4,1.5 | 1.57,1.5" start_linecap_type="zerowidth" />
    <inkscape:path-effect effect="powerstroke" end_linecap_type="zerowidth" id="path-effect1372" interpolator_type="CubicBezierSmooth" offset_points="0.44,1.5 | 1.37,1.5" start_linecap_type="zerowidth" />
    <inkscape:path-effect effect="powerstroke" end_linecap_type="zerowidth" id="path-effect1390" interpolator_type="CubicBezierSmooth" offset_points="0.43,1.5 | 1.35,1.5" start_linecap_type="zerowidth" />
    <inkscape:path-effect effect="powerstroke" id="path-effect5070" interpolator_type="CubicBezierSmooth" offset_points="0.4,6" start_linecap_type="zerowidth" />
    <inkscape:path-effect effect="powerstroke" id="path-effect5064" interpolator_type="CubicBezierSmooth" offset_points="0.27,6" start_linecap_type="zerowidth" />
    <inkscape:path-effect effect="powerstroke" id="path-effect4955" interpolator_type="CubicBezierSmooth" offset_points="0.57,6" start_linecap_type="zerowidth" />
    <inkscape:path-effect effect="powerstroke" end_linecap_type="zerowidth" id="path-effect4911" interpolator_type="CubicBezierSmooth" offset_points="0.35,6 | 4.32,6" start_linecap_type="zerowidth" />
    <inkscape:path-effect effect="powerstroke" end_linecap_type="zerowidth" id="path-effect4883" interpolator_type="CubicBezierSmooth" offset_points="0.31,1.5 | 0.88,1.5" start_linecap_type="zerowidth" />
    <inkscape:path-effect effect="powerstroke" end_linecap_type="zerowidth" id="path-effect4877" interpolator_type="CubicBezierSmooth" offset_points="0.2,1.5 | 0.83,1.5" start_linecap_type="zerowidth" />
    <inkscape:path-effect effect="powerstroke" end_linecap_type="zerowidth" id="path-effect4871" interpolator_type="CubicBezierSmooth" offset_points="0.23,1.5 | 0.88,1.5" start_linecap_type="zerowidth" />
    <inkscape:path-effect effect="powerstroke" end_linecap_type="zerowidth" id="path-effect4865" interpolator_type="CubicBezierSmooth" offset_points="0.13,1.5 | 0.85,1.5" start_linecap_type="zerowidth" />
    <inkscape:path-effect effect="powerstroke" end_linecap_type="zerowidth" id="path-effect4843" interpolator_type="CubicBezierSmooth" offset_points="0.33,2.5 | 1.38,2.5" start_linecap_type="zerowidth" />
    <inkscape:path-effect effect="powerstroke" end_linecap_type="zerowidth" id="path-effect4823" interpolator_type="CubicBezierSmooth" offset_points="0.47,6 | 2.75,6" start_linecap_type="zerowidth" />
    <inkscape:path-effect effect="powerstroke" id="path-effect4815" interpolator_type="CubicBezierSmooth" offset_points="0.25,6" start_linecap_type="zerowidth" />
    <inkscape:path-effect effect="powerstroke" end_linecap_type="zerowidth" id="path-effect4812" interpolator_type="CubicBezierSmooth" offset_points="0.43,6 | 4.56,6" start_linecap_type="zerowidth" />
    <inkscape:path-effect effect="powerstroke" id="path-effect4809" interpolator_type="CubicBezierSmooth" offset_points="0.39,6" start_linecap_type="zerowidth" />
    <linearGradient id="linearGradient4950">
      <stop offset="0" stop-color="#afe1f0" stop-opacity="0" />
      <stop offset="0.57713765" stop-color="#afe1f0" />
      <stop offset="0.69756889" stop-color="#afe1f0" />
      <stop offset="1" stop-color="#afe1f0" stop-opacity="0" />
    </linearGradient>
    <linearGradient id="linearGradient4930">
      <stop offset="0" stop-color="#afe1f0" stop-opacity="0" />
      <stop offset="0.38705185" stop-color="#afe1f0" />
      <stop offset="0.65275031" stop-color="#afe1f0" />
      <stop offset="1" stop-color="#afe1f0" stop-opacity="0" />
    </linearGradient>
    <linearGradient id="linearGradient4902">
      <stop offset="0" stop-color="#afe1f0" stop-opacity="0" />
      <stop offset="0.27446657" stop-color="#afe1f0" />
      <stop offset="0.63407588" stop-color="#afe1f0" />
      <stop offset="1" stop-color="#afe1f0" stop-opacity="0" />
    </linearGradient>
    <linearGradient id="linearGradient4854">
      <stop offset="0" stop-color="#afe1f0" stop-opacity="0" />
      <stop offset="0.48192474" stop-color="#afe1f0" />
      <stop offset="0.63257933" stop-color="#afe1f0" />
      <stop offset="1" stop-color="#afe1f0" stop-opacity="0" />
    </linearGradient>
    <linearGradient id="linearGradient4846">
      <stop offset="0" stop-color="#101930" stop-opacity=".55" />
      <stop offset="1" stop-color="#101930" stop-opacity="0" />
    </linearGradient>
    <linearGradient id="linearGradient4344">
      <stop offset="0" stop-color="#203760" stop-opacity=".5" />
      <stop offset="1" stop-color="#203760" stop-opacity="0" />
    </linearGradient>
    <linearGradient id="linearGradient8460">
      <stop offset="0" stop-color="#473cc7" />
      <stop offset="1" stop-color="#473cc7" stop-opacity="0" />
    </linearGradient>
    <linearGradient id="linearGradient8338">
      <stop offset="0" stop-color="#203660" stop-opacity=".55" />
      <stop offset="1" stop-color="#203660" stop-opacity="0" />
    </linearGradient>
    <linearGradient id="linearGradient8134">
      <stop offset="0" stop-color="#203660" stop-opacity=".35" />
      <stop offset="1" stop-color="#203660" stop-opacity="0" />
    </linearGradient>
    <linearGradient id="linearGradient6620">
      <stop offset="0" stop-color="#101930" stop-opacity="0" />
      <stop offset="0.49335614" stop-color="#101930" stop-opacity=".45" />
      <stop offset="0.83527601" stop-color="#101930" stop-opacity=".45" />
      <stop offset="1" stop-color="#101930" stop-opacity=".1" />
    </linearGradient>
    <linearGradient id="linearGradient6404">
      <stop offset="0" stop-color="#101930" stop-opacity="0" />
      <stop offset="0.23867057" stop-color="#101930" stop-opacity=".45" />
      <stop offset="0.76084423" stop-color="#101930" stop-opacity=".45" />
      <stop offset="1" stop-color="#101930" stop-opacity=".1" />
    </linearGradient>
    <linearGradient id="linearGradient5983">
      <stop offset="0" stop-color="#101930" stop-opacity=".6" />
      <stop offset="1" stop-color="#101930" stop-opacity="0" />
    </linearGradient>
    <linearGradient id="linearGradient5097">
      <stop offset="0" stop-color="#101930" stop-opacity="0" />
      <stop offset="0.18283792" stop-color="#101930" stop-opacity=".5" />
      <stop offset="0.78778088" stop-color="#101930" stop-opacity=".5" />
      <stop offset="1" stop-color="#101930" stop-opacity="0" />
    </linearGradient>
    <linearGradient id="linearGradient3932">
      <stop offset="0" stop-color="#c04070" stop-opacity="0" />
      <stop offset="0.43190491" stop-color="#c04070" stop-opacity=".25" />
      <stop offset="1" stop-color="#c04070" stop-opacity=".028" />
    </linearGradient>
    <linearGradient id="linearGradient5881">
      <stop offset="0" stop-color="#c04070" stop-opacity=".6" />
      <stop offset="1" stop-color="#c04070" stop-opacity="0" />
    </linearGradient>
    <linearGradient id="linearGradient4663">
      <stop offset="0" stop-color="#0e6183" />
      <stop offset="1" stop-color="#06a79f" />
    </linearGradient>
    <filter color-interpolation-filters="sRGB" height="1.3553137" id="filter14482" width="1.5508988" x="-0.2754494" y="-0.17765686">
      <feGaussianBlur stdDeviation="17.318242" />
    </filter>
    <filter color-interpolation-filters="sRGB" height="1.1429116" id="filter4760" width="1.4421006" x="-0.22105037" y="-0.071455814">
      <feGaussianBlur stdDeviation="9.0527339" />
    </filter>
    <filter color-interpolation-filters="sRGB" height="1.1528591" id="filter4099" width="1.3680143" x="-0.18400715" y="-0.076429538">
      <feGaussianBlur stdDeviation="10.875683" />
    </filter>
    <filter color-interpolation-filters="sRGB" id="filter4093">
      <feGaussianBlur stdDeviation="2.1370712" />
    </filter>
    <filter color-interpolation-filters="sRGB" id="filter4345">
      <feGaussianBlur stdDeviation="5.2499055" />
    </filter>
    <clipPath id="clipPath4383">
      <path d="m 1307.6646,1102.7315 111.9509,67.741 c 30.1459,18.2412 57.377,-23.5907 35.1946,-37.5591 l -115.4212,-72.6818 c -16.5492,9.39 -26.8852,22.7838 -31.7243,42.4999 z" />
    </clipPath>
    <linearGradient gradientUnits="userSpaceOnUse" id="linearGradient5879" x1="1226.485" x2="1337.1954" y1="1057.6499" y2="1118.7544" xlink:href="#linearGradient5881" />
    <filter color-interpolation-filters="sRGB" height="1.3067166" id="filter6555" width="1.2714363" x="-0.13571814" y="-0.1533583">
      <feGaussianBlur stdDeviation="9.7403211" />
    </filter>
    <clipPath id="clipPath6570">
      <path d="m 536.75,424.46875 c -12.69175,0.75385 -23.90162,9.64797 -35.53125,20.09375 -11.62963,10.44578 -23.55615,23.03228 -35.5,32.96875 -30.01449,24.97001 -39.16318,54.77918 -38.125,78.9375 0.51909,12.07916 3.46147,22.76484 7.53125,31.0625 4.06978,8.29766 8.81956,14.52715 15.65625,17 6.63725,2.40071 14.39459,1.56207 23.96875,-0.40625 9.57416,-1.96832 20.80911,-5.46325 33,-10.03125 24.38179,-9.13601 52.51507,-22.62679 77.40625,-37.21875 l 3.3125,-1.9375 -0.375,-3.84375 c -4.84258,-47.64344 -11.15714,-78.59151 -19.1875,-98.25 -4.01518,-9.82924 -8.48793,-16.91551 -13.875,-21.71875 -5.38707,-4.80324 -11.93537,-7.03318 -18.28125,-6.65625 z" />
    </clipPath>
    <filter color-interpolation-filters="sRGB" height="1.2164038" id="filter6702" width="1.2155976" x="-0.10779882" y="-0.10820193">
      <feGaussianBlur stdDeviation="9.7574148" />
    </filter>
    <clipPath id="clipPath6706">
      <path d="m 549.90625,362.53125 c -4.43167,-0.2365 -8.00476,1.78446 -11.34375,4.4375 -3.33899,2.65304 -6.6064,6.25553 -10,10.71875 -6.7872,8.92644 -14.02813,21.39189 -21.1875,36.625 -14.31873,30.46621 -28.2083,71.85779 -35.40625,116.1875 l -1.03125,6.5 6.5625,0.4375 158.78125,10.875 7.28125,0.5 -0.90625,-7.21875 c -8.1306,-65.65941 -20.07646,-109.20142 -35.5625,-137.25 -15.48604,-28.04858 -35.49448,-40.65485 -57.1875,-41.8125 z" />
    </clipPath>
    <clipPath id="clipPath6729">
      <path d="m 590.71875,523.875 c -7.57879,-0.0421 -14.93399,0.27085 -21.59375,1 -6.65976,0.72915 -12.61914,1.84387 -17.59375,3.5625 -4.97461,1.71863 -9.43026,3.83646 -11.875,8.65625 -14.2404,28.0749 -25.64774,57.03114 -30.5,92.3125 -0.88029,6.40069 2.69078,10.96533 6.875,15.75 4.18422,4.78467 9.8339,9.73369 16.28125,14.6875 12.8947,9.90762 28.94151,19.76824 41.96875,26.4375 l 6.78125,3.46875 1.78125,-7.40625 36.03125,-149.90625 1.625,-6.6875 -6.875,-0.6875 c -7.5418,-0.74738 -15.32746,-1.14538 -22.90625,-1.1875 z" />
    </clipPath>
    <filter color-interpolation-filters="sRGB" height="1.4446744" id="filter6813" width="1.3024145" x="-0.15120727" y="-0.22233722">
      <feGaussianBlur stdDeviation="11.58135" />
    </filter>
    <filter color-interpolation-filters="sRGB" height="1.2234544" id="filter4050" width="1.3225211" x="-0.16126055" y="-0.11172722">
      <feGaussianBlur stdDeviation="1.2175717" />
    </filter>
    <linearGradient gradientUnits="userSpaceOnUse" id="linearGradient4065" x1="1045.2728" x2="1045.4467" y1="1280.2581" y2="1319.0477" xlink:href="#linearGradient3932" />
    <filter color-interpolation-filters="sRGB" height="1.2124395" id="filter4450" width="1.34861" x="-0.17430501" y="-0.10621975">
      <feGaussianBlur stdDeviation="3.0295378" />
    </filter>
    <filter color-interpolation-filters="sRGB" height="1.5714169" id="filter4640" width="1.379373" x="-0.18968645" y="-0.2857084">
      <feGaussianBlur stdDeviation="2.0129827" />
    </filter>
    <filter color-interpolation-filters="sRGB" id="filter4791">
      <feGaussianBlur stdDeviation="2.2508438" />
    </filter>
    <clipPath id="clipPath4809">
      <path d="m 1029.0938,1032.9688 c -0.4458,5.8136 -0.666,11.2633 -0.625,15.6562 0.041,4.3929 0.2122,7.5729 1.1562,9.625 1.1128,2.4191 3.5285,4.4284 6.5625,6.3438 3.034,1.9153 6.7126,3.6728 10.4375,5.0937 3.7249,1.4209 7.4896,2.5201 10.6875,3.0937 3.1979,0.5737 5.7404,0.861 7.7187,-0.2812 2.4604,-1.4205 3.9182,-4.2111 4.7188,-7.9688 0.8006,-3.7576 1.0071,-8.6407 0.7812,-14.7812 z" />
    </clipPath>
    <clipPath id="clipPath4947">
      <path d="m 1133,913.21875 -1.5938,1.40625 -78.75,70.25 -3.0937,2.78125 3.625,2.09375 159.8125,90.6875 c 4.4301,19.0421 13.5732,29.9005 21.875,32.5625 2.4045,0.771 4.7824,0.8098 6.875,0.031 2.0926,-0.7781 3.8374,-2.3858 4.9688,-4.625 1.0622,-2.1025 1.6358,-4.7427 1.6562,-7.9062 l 33.0938,18.7812 c 5.8097,3.2969 12.8375,4.0166 19.2187,2.9063 6.3812,-1.1103 12.287,-4.0471 15.5313,-9.0625 l 33.1562,-51.25 c 3.3763,-5.2196 4.5556,-11.9877 3.4688,-18.4375 -1.087,-6.4498 -4.5991,-12.7191 -10.9688,-16.125 v 0.031 l -207.0312,-113.12505 -1.8438,-1 z" />
    </clipPath>
    <filter color-interpolation-filters="sRGB" height="1.5000128" id="filter4666" width="1.1578935" x="-0.078946739" y="-0.25000635">
      <feGaussianBlur stdDeviation="11.806994" />
    </filter>
    <clipPath id="clipPath4788">
      <path d="m 1204.4688,937.46875 c -2.7699,3.52107 -5.8041,6.80634 -9,9.875 l -20.4063,-11.15625 c -15.8849,10.90277 -32.7489,16.94514 -55.4063,19.9375 -1.8787,16.33646 -12.2258,27.27966 -26,32.28125 0.8155,9.15489 2.2556,17.78975 4.8438,27.06255 l 19.0312,10.8124 c -0.1648,0.1876 -0.3331,0.3777 -0.5,0.5626 -10.9337,12.0126 -24.8463,19.9984 -38.4687,26.625 -1.9353,0.8591 -3.7093,1.1697 -5.1563,1.0937 -1.8278,-0.039 -3.3847,-0.2974 -4.6874,-0.6563 -3.7673,-0.989 -7.0546,-2.4133 -10,-3.7812 -9.8178,-4.4685 -19.166,-9.4116 -28.5626,-13.7188 -14.0206,-6.4285 -28.3962,-12.0491 -43.06245,-16.625 L 935.5,951 l 231,-97 z" />
    </clipPath>
    <filter color-interpolation-filters="sRGB" height="1.1146092" id="filter5093" width="1.2221127" x="-0.11105628" y="-0.057304677">
      <feGaussianBlur stdDeviation="6.2252208" />
    </filter>
    <linearGradient gradientUnits="userSpaceOnUse" id="linearGradient5103" x1="656.98352" x2="672.66113" y1="695.83215" y2="467.48993" xlink:href="#linearGradient5097" />
    <clipPath id="clipPath5107">
      <path d="m 671.61903,456.97645 c 132.74398,-17.87674 148.26633,198.2382 -15.2417,244.5836 -85.27655,-95.34025 13.12302,-124.87863 15.2417,-244.5836 z" />
    </clipPath>
    <filter color-interpolation-filters="sRGB" id="filter5255">
      <feGaussianBlur stdDeviation="11.663408" />
    </filter>
    <filter color-interpolation-filters="sRGB" height="1.3844079" id="filter5365" width="1.2010311" x="-0.10051556" y="-0.19220395">
      <feGaussianBlur stdDeviation="9.3365005" />
    </filter>
    <clipPath id="clipPath5375">
      <path d="m 1000.3745,874.90262 c 9.3633,-67.0412 -53.18348,-223.96629 -234.08236,-105.2397 24.5915,66.85614 69.90598,105.25216 110.2666,100.05649 74.25515,-9.55895 77.42284,8.42114 123.81576,5.18321 z" />
    </clipPath>
    <filter color-interpolation-filters="sRGB" id="filter5581">
      <feGaussianBlur stdDeviation="7.9678852" />
    </filter>
    <filter color-interpolation-filters="sRGB" id="filter4451">
      <feGaussianBlur stdDeviation="1.4224169" />
    </filter>
    <filter color-interpolation-filters="sRGB" id="filter5436">
      <feGaussianBlur stdDeviation="13.780057" />
    </filter>
    <filter color-interpolation-filters="sRGB" id="filter5855">
      <feGaussianBlur stdDeviation="12.574555" />
    </filter>
    <filter color-interpolation-filters="sRGB" height="1.1605109" id="filter5958" width="1.2245347" x="-0.1122674" y="-0.080255426">
      <feGaussianBlur stdDeviation="17.641123" />
    </filter>
    <linearGradient gradientUnits="userSpaceOnUse" id="linearGradient5989" x1="797.15808" x2="786.91595" y1="974.37091" y2="969.03986" xlink:href="#linearGradient5983" />
    <filter color-interpolation-filters="sRGB" id="filter6072">
      <feGaussianBlur stdDeviation="4.8171948" />
    </filter>
    <filter color-interpolation-filters="sRGB" id="filter6511">
      <feGaussianBlur stdDeviation="4.4026806" />
    </filter>
    <linearGradient gradientUnits="userSpaceOnUse" id="linearGradient6527" x1="503.03177" x2="339.9007" y1="1435.155" y2="1323.3362" xlink:href="#linearGradient6404" />
    <linearGradient gradientUnits="userSpaceOnUse" id="linearGradient6578" x1="428.9758" x2="561.44806" y1="1461.7145" y2="1496.6725" xlink:href="#linearGradient6620" />
    <filter color-interpolation-filters="sRGB" height="1.2648584" id="filter6666" width="1.1823601" x="-0.091180027" y="-0.1324292">
      <feGaussianBlur stdDeviation="5.3145646" />
    </filter>
    <filter color-interpolation-filters="sRGB" id="filter6752">
      <feGaussianBlur stdDeviation="11.008868" />
    </filter>
    <filter color-interpolation-filters="sRGB" id="filter6995">
      <feGaussianBlur stdDeviation="9.1885391" />
    </filter>
    <filter color-interpolation-filters="sRGB" id="filter7207">
      <feGaussianBlur stdDeviation="8.4423497" />
    </filter>
    <filter color-interpolation-filters="sRGB" id="filter7222">
      <feGaussianBlur stdDeviation="7.4859948" />
    </filter>
    <clipPath id="clipPath7265">
      <path d="m 1166.8125,60 c -2.1086,0.0038 -4.0387,0.799108 -5.5,1.65625 -2.2268,1.306121 -4.1644,3.049031 -6.3125,5.3125 -4.2963,4.526938 -9.2885,11.20221 -15.4062,20.25 -12.2362,18.09558 -28.7158,45.65912 -49.75,82.84375 -42.0688,74.36927 -102.34805,187.1199 -182.4063,337.96875 l -3.09375,5.84375 6.09375,2.5 107.5,44.625 5.9375,2.46875 2.0625,-6.09375 c 54.1154,-160.47107 94.4669,-281.2076 119.5937,-362.75 12.5635,-40.7712 21.332,-71.71163 26.125,-93.125 2.3968,-10.706687 3.8159,-18.96802 4.1876,-25.25 0.1856,-3.14099 0.1364,-5.79512 -0.4063,-8.3125 -0.5427,-2.51738 -1.7964,-5.640515 -5.1875,-7.1875 -0.8478,-0.386746 -1.71,-0.598951 -2.5312,-0.6875 -0.3081,-0.03321 -0.6051,-0.06305 -0.9063,-0.0625 z" />
    </clipPath>
    <filter color-interpolation-filters="sRGB" id="filter7309">
      <feGaussianBlur stdDeviation="8.3719409" />
    </filter>
    <filter color-interpolation-filters="sRGB" height="1.2323253" id="filter7454" width="1.181831" x="-0.090915501" y="-0.11616265">
      <feGaussianBlur stdDeviation="8.8345582" />
    </filter>
    <filter color-interpolation-filters="sRGB" height="1.4241829" id="filter7712" width="1.3507714" x="-0.17538568" y="-0.21209145">
      <feGaussianBlur stdDeviation="8.0136952" />
    </filter>
    <filter color-interpolation-filters="sRGB" height="1.2474474" id="filter8130" width="1.2829258" x="-0.14146291" y="-0.12372372">
      <feGaussianBlur stdDeviation="5.7625888" />
    </filter>
    <linearGradient gradientUnits="userSpaceOnUse" id="linearGradient8260" x1="1131.1552" x2="1142.8944" y1="533.50964" y2="539.70557" xlink:href="#linearGradient8134" />
    <linearGradient gradientUnits="userSpaceOnUse" id="linearGradient8344" x1="811.94305" x2="850.76105" y1="463.96616" y2="457.61011" xlink:href="#linearGradient8338" />
    <filter color-interpolation-filters="sRGB" id="filter8446">
      <feGaussianBlur stdDeviation="5.3981936" />
    </filter>
    <linearGradient gradientUnits="userSpaceOnUse" id="linearGradient8466" x1="723.5235" x2="862.79083" y1="441.51392" y2="386.14676" xlink:href="#linearGradient8460" />
    <filter color-interpolation-filters="sRGB" id="filter8512">
      <feGaussianBlur stdDeviation="8.7675754" />
    </filter>
    <filter color-interpolation-filters="sRGB" id="filter4340">
      <feGaussianBlur stdDeviation="8.7399735" />
    </filter>
    <linearGradient gradientUnits="userSpaceOnUse" id="linearGradient4350" x1="365.14377" x2="300.17322" y1="696.27716" y2="688.75488" xlink:href="#linearGradient4344" />
    <linearGradient gradientUnits="userSpaceOnUse" id="linearGradient4364" x1="517.91278" x2="352.51553" y1="444.73563" y2="397.38977" xlink:href="#linearGradient8460" />
    <filter color-interpolation-filters="sRGB" id="filter4437">
      <feGaussianBlur stdDeviation="9.027294" />
    </filter>
    <clipPath id="clipPath4494">
      <path d="m 585.59375,647.71875 -4,5.78125 c -42.53165,61.16278 -65.05186,105.41996 -74.90625,140.3125 -9.85439,34.89254 -6.71517,60.62181 1.78125,82.65625 16.99285,44.06888 52.34591,72.57582 49.0625,147.00005 -3.01216,68.2757 19.18471,123.2875 60.21875,164.2187 41.03404,40.9312 100.49875,67.8591 172.09375,81.875 l 6.5625,1.2813 0.59375,-6.625 C 817.87291,1030.6293 754.40531,809.77303 590.6875,652.59375 Z" />
    </clipPath>
    <filter color-interpolation-filters="sRGB" id="filter4550">
      <feGaussianBlur stdDeviation="9.2249762" />
    </filter>
    <clipPath id="clipPath4567">
      <path d="m 729.59375,1059.6562 -9.75,2.6563 -33.875,9.25 -2.78125,0.7813 -1.125,2.625 c -40.42171,92.8845 -27.47224,157.8562 5.3125,187.2812 16.39237,14.7125 37.77281,20.0656 58.28125,14.9375 20.50844,-5.1281 39.93923,-20.5297 53.59375,-45.875 l 4.5625,-8.4063 -9.59375,-0.4062 c -20.11134,-0.8505 -36.36171,-2.7807 -48.53125,-6.9375 -12.16954,-4.1568 -20.14422,-10.1406 -25.40625,-20 C 709.7572,1175.8436 711.09063,1137.618 727.25,1069.5 Z" />
    </clipPath>
    <filter color-interpolation-filters="sRGB" height="1.2084869" id="filter4797" width="1.2240748" x="-0.11203744" y="-0.10424343">
      <feGaussianBlur stdDeviation="7.3523168" />
    </filter>
    <linearGradient gradientUnits="userSpaceOnUse" id="linearGradient4810" x1="284.69931" x2="185.00934" y1="1187.101" y2="1103.46" xlink:href="#linearGradient8460" />
    <linearGradient gradientUnits="userSpaceOnUse" id="linearGradient4844" x1="502.48956" x2="398.42947" y1="1242.9399" y2="1208.8896" xlink:href="#linearGradient4846" />
    <linearGradient gradientUnits="userSpaceOnUse" id="linearGradient4860" x1="971.32202" x2="1083.9233" y1="539.88947" y2="575.16217" xlink:href="#linearGradient4854" />
    <linearGradient gradientUnits="userSpaceOnUse" id="linearGradient4900" x1="1102.911" x2="1146.7738" y1="525.82446" y2="619.27899" xlink:href="#linearGradient4902" />
    <linearGradient gradientUnits="userSpaceOnUse" id="linearGradient4920" x1="807.41266" x2="822.00244" y1="571.6275" y2="628.09271" xlink:href="#linearGradient4930" />
    <linearGradient gradientUnits="userSpaceOnUse" id="linearGradient4948" x1="331.01819" x2="345.39841" y1="593.69336" y2="474.73941" xlink:href="#linearGradient4950" />
    <clipPath id="clipPath4817">
      <use xlink:href="#path4218" />
    </clipPath>
    <clipPath id="clipPath4806">
      <use xlink:href="#path4201" />
    </clipPath>
    <clipPath id="clipPath4996">
      <path d="m 805.2327,554.03977 c 0,0 6.9142,2.2494 19.1605,12.94661 5.8913,5.14603 13.3063,12.86355 19.3808,23.1752 5.9284,10.06348 11.4255,24.20286 10.1222,39.60738 -0.3167,3.7426 -1.0442,7.58505 -2.3057,11.41984 -3.9147,11.90024 -12.1405,21.82451 -24.3626,28.84832 -12.1645,6.99071 -28.0296,10.98426 -47.3452,11.69857 -9.6271,0.35602 -17.2556,2.0906 -22.7339,4.2454 -5.9678,2.34733 -8.9307,4.98605 -9.9879,6.66032 -0.4986,0.78963 -0.4263,1.11065 -0.4333,1.04675 -0.011,-0.10141 -0.055,0.13719 0.5396,0.68712 0.6869,0.63491 2.0425,1.48955 4.41,2.26907 2.3307,0.76743 5.4052,1.38434 9.2595,1.72863 5.5676,0.49734 11.1758,0.28488 16.6899,-0.63226 -4.3618,3.97567 -8.8878,7.76726 -13.5662,11.36483 -12.3325,9.48323 -22.8936,15.44286 -31.9135,18.67851 -9.0378,3.24209 -16.9001,3.87831 -23.5401,2.14871 -7.1846,-1.87146 -12.3089,-6.34779 -15.6036,-11.90524 -3.3757,-5.69401 -4.845,-12.49279 -5.0888,-19.18498 -0.5278,-14.48822 4.5007,-30.05323 12.4027,-41.35724 4.4991,-6.43594 10.0805,-11.76753 16.5472,-15.22957 6.5247,-3.49311 13.763,-4.98316 21.3683,-4.11296 9.8752,1.1299 17.2281,1.33311 22.5946,1.02176 5.4524,-0.31634 8.65,-1.15276 10.3617,-1.93244 0.9703,-0.44196 1.2209,-0.75282 1.2408,-0.76912 0.01,-0.004 -0.1899,0.37696 -0.2117,0.63225 -0.026,0.30193 0.076,0.29095 -0.1377,-0.14778 -0.2182,-0.44662 -0.6511,-1.09646 -1.4225,-1.9247 -1.9993,-2.14638 -5.3218,-4.49766 -9.4777,-6.73806 -4.0998,-2.21016 -8.6966,-4.15117 -13.3435,-5.7857 -11.9604,-4.20693 -23.441,-6.14228 -30.7476,-7.05789 -7.5252,-0.943 -11.2623,-1.02799 -11.2623,-1.02799 -59.4373,-108.99134 28.3418,-152.74782 99.406,-60.37334 z" />
    </clipPath>
    <clipPath id="clipPath5021">
      <path d="m 1023.9062,548.08309 119.3789,-4.72918 42.9177,21.95193 c -38.9716,-42.55063 -107.5745,-68.9819 -174.0696,-50.88978 z" />
    </clipPath>
    <clipPath id="clipPath5035">
      <path d="m 843.0567,646.82422 c 40.8385,0.0933 75.9972,1.61757 104.3398,10.44922 28.3426,8.83165 49.9444,24.46941 65.5586,54.26172 94.6237,-29.09952 88.7511,-136.95021 -65.8156,-165.06789 C 791.884,518.22425 762.7181,604.77993 843.0567,646.82422 Z" />
    </clipPath>
    <clipPath id="clipPath5091">
      <path d="m 929.373,132.44727 c -0.3257,-0.01 -0.6544,-0.006 -0.9863,0.0137 -2.7519,0.16059 -5.0988,1.29295 -6.9355,2.80468 -1.7695,1.45635 -3.1865,3.35632 -4.3047,5.24219 -2.4143,4.07183 -4.264,9.5132 -5.7832,15.26367 -3.4713,13.13946 -6.2382,32.2134 -8.5606,49.45313 -5.9059,43.84252 -11.435,86.12069 -15.9277,112.01953 -0.5207,3.00177 -1.0111,5.76227 -1.4824,8.38477 -26.2531,160.85555 130.6697,217.61797 176.041,132.43141 -7.0802,-66.69983 -18.9845,-110.11717 -28.0039,-133.3086 -6.8997,-17.74134 -13.4299,-27.51914 -19.168,-32.66601 -4.3664,-3.91642 -8.6997,-5.54673 -12.8027,-5.47852 -1.2852,0.0214 -2.4638,0.21378 -3.5313,0.49805 -1.8445,-15.17078 -4.954,-32.21535 -9.9609,-50.44336 -2.7772,-10.11085 -5.7772,-19.56494 -8.8555,-28.25195 -8.2419,-23.25922 -17.1934,-41.48718 -24.9843,-53.77735 -4.2651,-6.72815 -8.3723,-11.99381 -12.1934,-15.65429 -2.0467,-1.96066 -4.1354,-3.5808 -6.2832,-4.72461 -1.8719,-0.99689 -3.9968,-1.74014 -6.2774,-1.80664 z" />
    </clipPath>
    <clipPath id="clipPath5209">
      <path d="m 917.81641,414.61719 c -49.74734,13.02509 -92.65662,35.78855 -115.77149,49.25976 4.57226,-15.01781 8.71766,-29.22728 12.51953,-42.64257 -35.72742,13.5078 -71.2648,31.27328 -105.38672,53.92187 -90.30642,136.86317 175.62953,86.18619 208.63868,-60.53906 z" />
    </clipPath>
    <clipPath id="clipPath1387">
      <path d="m 1029.2622,988.28203 c 0,0 -1.2343,-0.33835 -4.1432,-0.14616 -2.5507,0.16851 -7.8239,0.98632 -12.2602,4.5128 -0.9809,0.77973 -1.9329,1.70947 -2.7522,2.79779 -1.3963,1.85504 -3.4011,5.44714 -2.1802,10.15434 0.4227,1.6297 1.506,3.0492 2.8883,4.2393 1.3894,1.1961 3.1242,2.1997 4.9915,3.0012 4.5546,1.9549 9.3735,2.5503 12.9372,2.3981 1.2084,-0.052 2.2461,-0.183 3.1135,-0.3421 3.7999,-0.6972 6.4231,-2.3823 7.9726,-4.5087 1.3249,-1.818 1.7703,-3.8098 1.8113,-5.5684 0.041,-1.7468 -0.3123,-3.3672 -0.6886,-4.6025 -0.7888,-2.58926 -1.581,-3.7494 -1.581,-3.7494 z" />
    </clipPath>
    <filter color-interpolation-filters="sRGB" height="1.0945328" id="filter4651-9" width="1.2474301" x="-0.12371505" y="-0.047266405">
      <feGaussianBlur stdDeviation="1.4404834" />
    </filter>
    <clipPath id="clipPath5053">
      <path d="m 581.58984,653.50391 c -42.53165,61.16277 -65.05381,105.42777 -74.9082,140.32031 -9.85439,34.89254 -6.70345,60.614 1.79297,82.64844 l 168.95686,37.20811 c -17.92421,-20.92909 -29.55873,-39.35845 -37.07949,-59.62712 -7.27247,-19.59956 -9.57653,-38.34922 -9.72105,-54.89684 -0.14123,-16.17059 1.82157,-30.38738 3.33384,-39.32014 1.57428,-9.29911 2.72863,-13.95662 2.72863,-13.95662 z" />
    </clipPath>
    <clipPath id="clipPath4836">
      <path d="m 1101.3301,1024.5938 c -4.4721,-12.9455 -6.6253,-24.12 -7.7012,-36.20513 13.7791,-4.99907 24.1623,-15.92078 26.043,-32.25976 26.477,-3.49936 45.0637,-11.16231 63.4004,-25.89453 l 323.3024,174.40982 -95.5868,141.394 z" />
    </clipPath>
    <clipPath id="clipPath4868">
      <path d="m 878.09766,469.96875 c -57.33407,0.47507 -115.81852,18.21039 -163.41797,55.19922 -52.59807,40.87318 -91.50107,104.96361 -100.88477,194.14453 -4.89783,46.54806 1.12147,85.70948 12.82422,122.98047 11.62734,37.03086 29.00558,72.52417 46.54492,111.01367 35.45854,77.81266 72.52409,169.90286 72.69336,321.43746 -0.58588,0.5083 -1.67442,1.2377 -3.52148,2.1153 -3.918,1.8615 -9.95613,3.7934 -17.85938,5.5625 -15.85134,3.5483 -38.08195,6.1949 -63.17968,6.7383 -51.57848,1.1168 -112.59939,-6.6455 -157.39844,-31.3282 -57.10745,-31.4643 -112.86929,-43.029 -164.0293,-38.0566 -51.19475,4.9759 -97.46277,26.4614 -136.03125,60.7207 -80.90128,71.8623 -126.742754,198.0284 -121.30664,350.0625 1.698587,47.5159 15.603718,89.0317 38.49219,124.5039 22.8742,35.45 54.66987,64.7964 92.1914,88.2227 77.64644,48.4778 180.15833,71.9703 284.16016,72.7089 111.41283,0.7912 224.77935,-24.3099 319.25195,-72.8808 94.82515,-48.7521 169.86515,-120.5614 210.16405,-213.6348 44.9895,-103.9063 60.6976,-186.7707 61.7852,-253.7715 1.0854,-66.8685 -12.4229,-120.1307 -28.6992,-162.83 -17.595,-46.1588 -42.1839,-88.0853 -56.6934,-116.4961 -8.95438,-17.5332 -15.71112,-32.598 -19.78712,-46.8321 -3.29558,-11.5087 -4.69047,-22.0325 -4.08203,-32.084 18.92621,5.4191 35.66895,12.0034 50.82615,18.9551 11.3817,5.2201 20.8879,10.2079 28.5684,13.7012 3.5582,1.6183 6.9836,3.0226 10.0039,3.7891 1.4872,0.3774 3.076,0.6553 4.666,0.666 1.6076,0.011 3.4201,-0.2495 5.1719,-1.1153 18.1971,-8.9943 30.2425,-17.6019 38.0019,-26.0488 7.9121,-8.6132 10.9915,-16.6329 12.4942,-24.0059 0.6692,-3.2833 1.0244,-6.45391 1.3906,-8.98042 0.384,-2.65034 0.7865,-4.68118 1.4785,-6.43945 0.6308,-1.60275 1.539,-3.06926 3.0879,-4.50391 1.5944,-1.47676 4.0578,-3.09505 8.0352,-4.72851 26.6677,-10.95192 47.3483,-23.30411 61.4238,-41.28125 13.6298,-17.40787 20.614,-39.39804 22.5723,-69.69141 0.1,-1.54565 -0.1899,-3.02123 -0.7735,-4.35156 -0.5682,-1.29503 -1.3713,-2.36012 -2.1972,-3.2168 -1.5887,-1.64798 -3.6425,-2.91426 -5.6348,-3.93359 -3.98,-2.03631 -9.4693,-3.94478 -15.4258,-5.97071 -12.0636,-4.10308 -27.6113,-9.18558 -42.4824,-17.64648 -14.587,-8.29936 -28.4651,-19.81762 -37.5059,-36.71289 -9.0249,-16.86573 -13.6363,-39.84267 -8.7129,-71.66406 11.9634,-77.32122 -10.5936,-139.26131 -52.5957,-182.71289 -41.8798,-43.32503 -102.61208,-67.7849 -165.8652,-71.19922 -5.89316,-0.31811 -11.81303,-0.45344 -17.74414,-0.4043 z" />
    </clipPath>
    <clipPath id="clipPath1514">
      <path d="m 1143.0391,978.75391 c -3.9774,1.63346 -6.4408,3.25175 -8.0352,4.72851 -1.5489,1.43465 -2.4571,2.90116 -3.0879,4.50391 -0.692,1.75827 -1.0945,3.78911 -1.4785,6.43945 -0.3662,2.52651 -0.7214,5.69712 -1.3906,8.98042 -1.5027,7.373 -4.5821,15.3927 -12.4942,24.0059 -7.7594,8.4469 -19.8048,17.0545 -38.0019,26.0488 -1.7518,0.8658 -3.5643,1.1263 -5.1719,1.1153 -1.59,-0.011 -3.1788,-0.2886 -4.666,-0.666 -3.0203,-0.7665 -6.4457,-2.1708 -10.0039,-3.7891 -7.6805,-3.4933 -17.1867,-8.4811 -28.5684,-13.7012 -15.1572,-6.9517 -31.89994,-13.536 -50.82615,-18.9551 -0.60844,10.0515 0.78645,20.5753 4.08203,32.084 4.076,14.2341 10.83274,29.2989 19.78712,46.8321 14.5095,28.4108 39.0984,70.3373 56.6934,116.4961 81.2931,656.96 -646.51307,546.093 -720.00786,6.8984 51.16001,-4.9724 106.92185,6.5923 164.0293,38.0566 44.79905,24.6827 105.81996,32.445 157.39844,31.3282 25.09773,-0.5434 47.32834,-3.19 63.17968,-6.7383 7.90325,-1.7691 13.94138,-3.701 17.85938,-5.5625 1.84706,-0.8776 2.9356,-1.607 3.52148,-2.1153 -0.0801,-71.7186 -8.43147,-130.108 -20.95898,-179.9843 4.96908,-2.9853 9.4019,-6.8101 13.14063,-11.3262 10.21665,-12.3411 14.97651,-29.1725 14.25979,-48.2852 -1.05173,-28.0458 -13.2488,-49.30007 -26.18945,-66.34762 -16.03396,-21.12255 -34.17408,-38.18404 -48.67774,-55.11914 -17.92421,-20.92909 -29.55932,-39.36024 -37.08008,-59.62891 -7.27247,-19.59956 -9.57618,-38.34886 -9.7207,-54.89648 -0.009,-0.96566 0.0135,-1.8986 0.0195,-2.84961 -3.38964,-3.18677 -7.33743,-7.0389 -11.86719,-11.68164 -8.55465,-8.76803 -19.84443,-21.26616 -30.89453,-36.55859 -10.98532,-15.20278 -23.14157,-35.1028 -31.33594,-58.15235 -0.9058,-2.54788 -1.79348,-5.20733 -2.64453,-7.96875 -4.98467,-16.174 -8.82168,-36.21358 -7.29492,-58.66211 1.53606,-22.58521 8.47705,-47.48947 24.9336,-73.71289 14.35954,-22.88188 25.83046,-46.43405 35.5625,-69.72461 9.81589,-23.49127 16.93383,-44.38325 23.60742,-62.6875 3.10213,-8.5085 6.02638,-16.20539 8.88867,-22.63281 2.83426,-6.36445 5.77576,-11.8805 9.04297,-15.88867 1.66536,-2.04305 3.57163,-3.89039 5.7539,-5.22852 2.23677,-1.37156 4.78071,-2.21512 7.54493,-2.23632 2.79552,-0.0215 5.43141,0.80061 7.82617,2.13085 2.35685,1.30918 4.58659,3.16635 6.69726,5.35743 32.67369,33.91837 59.22846,75.42363 70.82618,117.33789 z" />
    </clipPath>
    <clipPath id="clipPath1543">
      <path d="m 1026.7901,1629.4787 c 44.9895,-103.9063 60.6978,-186.771 61.7854,-253.7718 1.0854,-66.8685 -12.4225,-120.1304 -28.6988,-162.8297 -17.595,-46.1588 -42.1844,-88.0857 -56.6939,-116.4965 -8.95437,-17.5332 -15.71023,-32.5968 -19.78628,-46.8314 -3.29562,-11.5092 -4.69051,-22.033 -4.08207,-32.0845 -15.57295,-4.4589 -32.61986,-8.1317 -51.51518,-10.5448 -3.36023,-0.4287 -6.15589,-0.7787 -9.51657,-1.2075 -26.52955,-3.3845 -48.91767,-7.36788 -70.89647,-14.451 -20.8232,-6.71072 -36.13084,-14.68905 -47.5414,-22.31224 -11.08312,-7.40443 -18.34015,-14.40166 -22.42795,-18.72694 -4.25272,-4.49979 -5.85728,-6.78932 -5.85728,-6.78932 -148.9145,-125.52971 -283.56414,69.8827 -142.58098,234.7142 z" />
    </clipPath>
    <clipPath id="clipPath1408">
      <path d="m 719.8418,1234.5195 c -8.02207,7.2084 -13.78601,18.7048 -16.91211,34.9043 -1.90625,9.8779 -12.13342,20.0191 -18.10742,32.7696 -2.987,6.3752 -4.61638,14.0268 -2.07032,21.9589 2.54606,7.9322 8.75145,15.5679 19.50586,23.6387 140.99673,105.814 174.95282,195.6209 191.37305,260.1016 8.21011,32.2403 11.63629,58.3271 22.67578,77.7304 l 72.98093,-300.9752 c -13.02932,-2.5826 -33.68978,-7.9082 -62.31262,-20.3587 -28.4249,-12.3644 -54.20597,-27.1942 -70.94732,-37.3547 -34.55023,-20.9689 -77.16292,-49.6385 -90.32285,-58.3201 -19.49861,-12.8632 -27.96808,-17.8849 -27.96808,-17.8849 0,0 -11.87835,-21.6162 -17.8949,-16.2099 z" />
    </clipPath>
    <clipPath id="clipPath1451">
      <path d="m 742.17076,1195.9565 c 1.81869,18.9332 3.01607,38.9331 3.47577,60.1362 107.69222,84.3089 254.44987,177.0621 342.92967,119.6143 1.0854,-66.8685 -12.4229,-120.1307 -28.6992,-162.83 l 130.0012,17.8505 c 37.1933,197.2503 -12.6668,446.8485 -218.16101,556.4106 L 606.4476,1311.7873 Z" />
    </clipPath>
    <clipPath id="clipPath1496">
      <path d="m 1007.084,1460.4736 c 0,0 -1.2162,3.4593 -4.0567,10.4476 -2.7741,6.8248 -7.62593,16.2945 -11.29921,25.9937 -0.73278,1.9349 -1.4022,3.9594 -1.85336,5.9948 -1.04507,4.7148 -1.39939,10.5636 3.54859,18.1355 0.50707,0.776 0.71926,1.8319 0.89497,3.6787 0.14467,1.5206 0.27232,3.6863 0.8947,5.8639 1.24767,4.3654 4.47221,9.0605 13.76051,12.9316 5.4955,2.2903 9.9834,1.5354 13.7978,-1.1269 4.0415,-2.8206 7.3158,-7.8234 10.017,-12.502 5.9114,-10.2389 6.4952,-18.9524 6.1613,-25.0205 -0.1843,-3.35 -0.7215,-6.5106 -1.3838,-9.3697 -2.2717,-9.8062 -8.3159,-23.2925 -9.6199,-26.3419 -2.3743,-5.5527 -3.4141,-7.9224 -3.4141,-7.9224 z" />
    </clipPath>
    <clipPath id="clipPath1375">
      <path d="m 483.17773,1450.4258 c -13.11663,-0.041 -27.75876,1.7017 -48.3125,5.5566 l -6.08984,1.1426 2.40234,5.7109 c 6.31433,15.0127 14.01123,30.092 27.06641,42.2871 12.54172,11.7156 29.9728,20.5062 54.84375,24.1426 7.40696,16.3619 41.47475,24.0254 85.83203,3.7364 5.57212,-40.437 -21.74287,-61.9491 -76.58398,-77.4395 -14.45188,-3.2736 -26.04157,-5.0962 -39.15821,-5.1367 z" />
    </clipPath>
    <clipPath id="clipPath1385">
      <path d="m 440.92383,1482.895 c -3.1047,-0.186 -6.69692,-0.3803 -11.33985,-0.5781 -7.21309,-0.3073 -17.49929,-0.598 -29.12695,-0.2676 -11.71375,0.3329 -26.6684,1.3253 -44.51953,4.2617 -2.18747,0.3598 -4.37264,0.7404 -6.55273,1.1426 0.94036,2.0059 1.89945,4.0032 2.875,5.9922 10.82049,22.0614 25.68764,47.3229 49.14453,67.2031 -7.4857,-1.1017 -15.14775,-1.6483 -23.21875,-1.6796 l -7.9336,-0.031 3.39453,7.1719 c 27.38693,57.8336 99.82636,106.5103 179.89649,137.9883 l -24.52928,8.4767 c 32.77977,-6.3203 66.40326,-25.2402 91.97337,-55.9242 22.4331,-26.9196 39.02744,-63.6789 39.25357,-106.8055 0.11224,-21.4072 -4.21702,-40.2877 -9.74619,-55.6182 -5.5111,-15.2803 -12.43925,-27.6793 -18.27996,-36.6845 -12.04261,-18.5674 -19.62869,-24.957 -19.62869,-24.957 z" />
    </clipPath>
    <clipPath id="clipPath1414">
      <path d="m 516.36719,1367.5469 c 0,0 -3.04682,-2.956 -10.48633,-9.2813 -6.87327,-5.8438 -20.07691,-16.6619 -39.06055,-29.2754 -18.80353,-12.4938 -48.01576,-29.9164 -86.72851,-46.0996 -37.92968,-15.8557 -92.87983,-33.7583 -156.97657,-38.9844 -3.49652,-0.285 -6.99592,-0.529 -10.49804,-0.7343 1.51575,3.1662 3.06977,6.312 4.66406,9.4394 3.24251,6.3605 6.71611,12.7753 10.43359,19.2129 -32.32507,-9.2871 -65.63883,-14.3456 -99.27539,-14.1504 -5.6294,0.033 -11.26794,0.2122 -16.91211,0.543 l -9.47851,0.5566 4.57031,8.3223 c 4.10527,7.4739 8.2813,14.7656 12.5293,21.8984 0.30231,2.5201 1.15561,8.5134 3.4375,18.8086 2.95613,13.3372 9.32736,37.3548 24.40429,70.0137 15.01142,32.5169 41.28475,79.2163 86.11719,134.3438 43.65393,53.6784 112.48856,124.0771 203.21485,182.875 27.2594,17.6663 59.49329,23.942 92.6914,17.541 32.77977,-6.3203 66.40255,-25.2418 91.97266,-55.9258 22.4331,-26.9196 39.02777,-63.6781 39.2539,-106.8047 0.11224,-21.4072 -4.21692,-40.2886 -9.74609,-55.6191 -5.5111,-15.2803 -12.43859,-27.6784 -18.2793,-36.6836 -12.04261,-18.5674 -19.6289,-24.9571 -19.6289,-24.9571 z" />
    </clipPath>
    <linearGradient gradientTransform="matrix(1.0549499,0,0,1.0549499,-138.21764,49.453188)" gradientUnits="userSpaceOnUse" id="linearGradient589" x1="878.47028" x2="884.00732" y1="762.82227" y2="806.73602" xlink:href="#linearGradient4663" />
    <clipPath id="clipPath601">
      <use xlink:href="#path4651" />
    </clipPath>
  </defs>
  <g inkscape:groupmode="layer" inkscape:label="Drawing">
    <g>
      <rect fill="#4e1e39" height="1600" width="1600" />
      <circle cx="616.72729" cy="756.36359" fill="#5e264b" r="552.72729" />
      <circle cx="1020.8591" cy="1459.6577" fill="#5e264b" r="316.67746" />
      <circle cx="1084.6864" cy="292.1535" fill="#5e264b" r="479.28986" />
      <circle cx="1461.6329" cy="1037.3799" fill="#5e264b" r="200.33978" />
    </g>
    <g>
      <path d="m 747.75501,1406.5909 c -119.52186,-182.0854 -342.1478,-241.3402 -557.10826,-215.8844 62.2254,309.7128 319.52038,402.5605 557.10826,215.8844 z" fill="#38407c" stroke="#151730" stroke-width="12" />
      <path d="m 285.3125,1179.0938 c -31.73807,-0.031 -63.6581,1.9003 -95.375,5.6562 l -6.46875,0.75 1.28125,6.375 c 31.40447,156.3086 112.50186,259.0829 216.5625,298.5312 104.06064,39.4484 230.15496,15.193 350.15625,-79.0937 l 4.3125,-3.4063 -3,-4.5937 c -102.1526,-155.6242 -278.46222,-222.4976 -461.125,-224.1875 -2.11415,-0.02 -4.22788,-0.029 -6.34375,-0.031 z" fill="url(#linearGradient4844)" />
    </g>
    <g>
      <g>
        <path d="m 599.71923,730.34758 c 80.71152,-37.35222 224.17448,122.36311 -38.58448,346.77422 -177.85671,151.8998 -340.2467,-164.26839 -159.30159,-113.38085 -100.30263,25.11382 29.30233,59.30695 44.58023,22.27102 8.3991,-20.36069 -5.02912,-53.91764 -52.63147,-78.17824 -78.88131,33.52032 -214.87738,-22.91672 -170.45469,-199.88747 18.96669,-75.55932 -75.49596,13.33582 -75.49596,-33.44683 0,-404.30266 335.56608,-240.06844 263.21718,-296.51133 -103.71609,-80.91396 114.53347,-61.54111 194.38826,188.71198 32.55367,102.01838 6.7955,160.58819 -99.54334,172.90357 25.01563,7.32693 53.66711,9.32887 93.82586,-9.25607 z" fill="#473cc7" opacity=".5" />
        <path d="M 161.53307,550.21139 C 223.82113,307.07335 474.5476,427.52687 411.04845,377.9881 307.33236,297.07414 525.58192,316.44699 605.43671,566.70008 Z" fill="url(#linearGradient4364)" />
        <path d="m 568.92807,935.86126 c -10.855,127.08524 -136.09945,144.12744 -200.75746,75.40574 95.67862,11.0163 106.99192,3.4414 112.68722,-29.3955 14.55951,-83.94448 -45.07105,-88.52926 -106.85907,-135.13782 -39.20481,-29.57338 -78.96245,-45.10241 -55.58118,3.20178 -134.50139,-73.55147 50.14749,-165.61446 -48.17537,-209.5088 -137.23383,-61.26539 66.08595,-288.05855 294.029,-138.56349 40.5364,132.51298 44.55549,301.81415 4.65686,433.99809 z" fill="#1c4fc2" id="path4218" />
        <path fill="#8952e1" inkscape:original-d="m 332.99695,887.90727 c 96.94631,20.23296 124.62813,70.92587 113.41644,98.1047 -15.2779,37.03593 -144.88268,2.84285 -44.64776,-22.28992 -180.79691,-50.71161 -18.44341,265.26175 159.36912,113.39975 262.75896,-224.41111 119.296,-384.12645 38.58448,-346.77422 -105.23486,48.7013 -131.45079,-43.9648 -202.89019,1.49686" inkscape:path-effect="#path-effect4812" />
        <path d="m 394.20372,907.63452 c -79.30311,33.71953 -215.29918,-22.71751 -170.87649,-199.68826 18.96669,-75.55932 -75.49596,13.33582 -75.49596,-33.44683 0,-404.30266 335.56608,-240.06844 263.21718,-296.51133 -103.71609,-80.91396 114.53347,-61.54111 194.38826,188.71198 32.55367,102.01838 6.7955,160.58819 -100.51027,172.63315" fill="none" stroke="#8952e1" stroke-width="12" />
        <path clip-path="url(#clipPath4817)" d="M 655.10513,461.0429 C 565.87139,614.60968 477.0961,659.26202 228.00551,680.41716 c 287.73789,61.21937 352.88752,291.30483 194.81092,431.66474 448,-17.4545 517.3796,-477.94809 232.2887,-651.039 z" fill="url(#linearGradient4350)" filter="url(#filter4340)" />
        <path d="m 256.8779,584.709 c 13.18716,-51.65435 65.43905,-108.64072 128.02142,-107.62832 -12.06835,9.2157 -23.71889,19.14311 -35.35086,30.53499 37.08836,-7.95031 51.25864,-9.1844 64.21176,1.26223 -24.67585,18.63802 -56.78431,46.96509 -88.52928,74.63388 4.90465,-21.278 13.87657,-36.77452 29.35588,-51.67497 -33.15244,12.02497 -67.00061,26.42418 -97.70892,52.87219 z" fill="url(#linearGradient4948)" />
        <g>
          <use transform="translate(-670.70818 61.292265)scale(.84328642)" xlink:href="#path4209" />
          <use transform="translate(190.44568 398.05776)scale(.14260128)" xlink:href="#path4209" />
          <use transform="translate(96.661093 361.93234)scale(.218351)" xlink:href="#path4209" />
          <use transform="translate(165.9916 370.38646)scale(.18047614)" xlink:href="#path4209" />
          <use transform="translate(110.59227 366.75303)scale(.19941357)" xlink:href="#path4209" />
          <use transform="translate(-18.268026 338.69173)scale(.30749151)" xlink:href="#path4209" />
          <use transform="translate(130.20959 339.62988)scale(.23174179)" xlink:href="#path4209" />
          <use transform="translate(-248.49952 237.76549)scale(.51580324)" xlink:href="#path4209" />
          <use transform="translate(-33.326532 334.11063)scale(.30155063)" xlink:href="#path4209" />
          <use transform="translate(-287.34467 247.9934)scale(.50986236)" xlink:href="#path4209" />
          <use transform="translate(-1102.5718-2.3186772)scale(1.1916095)" xlink:href="#path4209" />
          <use transform="translate(-6.162811 374.75968)scale(.24473835)" xlink:href="#path4209" />
          <use transform="translate(91.591843 424.79143)scale(.16898864)" xlink:href="#path4209" />
          <use transform="translate(-168.42113 324.98341)scale(.39623774)" xlink:href="#path4209" />
          <use transform="translate(47.72432 422.94717)scale(.18792607)" xlink:href="#path4209" />
          <use transform="translate(-93.360816 381.96324)scale(.30155062)" xlink:href="#path4209" />
          <use transform="translate(-224.64446 330.37187)scale(.42206769)" xlink:href="#path4209" />
          <use transform="translate(-1429.6435-92.978348)scale(1.4278852)" xlink:href="#path4209" />
          <use transform="translate(-1229.1509 92.611005)scale(1.2136328)" xlink:href="#path4209" />
          <use transform="translate(-1070.0864 228.605)scale(1.0529435)" xlink:href="#path4209" />
          <use transform="translate(-370.64099 433.05426)scale(.4905307)" xlink:href="#path4209" />
          <use transform="translate(-185.40156 530.62406)scale(.38340445)" xlink:href="#path4209" />
          <use transform="translate(-72.311519 556.1076)scale(.32984132)" xlink:href="#path4209" />
          <use transform="translate(-503.15897 501.94107)scale(.59765697)" xlink:href="#path4209" />
          <use transform="translate(-229.59334 667.66285)scale(.38340445)" xlink:href="#path4209" />
          <use transform="translate(-325.93455 650.96775)scale(.47809157)" xlink:href="#path4209" />
          <use transform="translate(-81.54552 691.225)scale(.2772298)" xlink:href="#path4209" />
          <use transform="translate(104.55482 742.98514)scale(.12993115)" xlink:href="#path4209" />
          <use transform="translate(-143.81949 725.92175)scale(.36446702)" xlink:href="#path4209" />
          <use transform="translate(-294.49121 688.46173)scale(.49702899)" xlink:href="#path4209" />
          <use transform="translate(132.23748 847.75018)scale(.17509278)" xlink:href="#path4209" />
          <use transform="translate(-189.72251 751.1031)scale(.45915416)" xlink:href="#path4209" />
          <use transform="translate(-937.27475 545.09923)scale(1.0483486)" xlink:href="#path4209" />
          <use transform="translate(-148.57164 754.33725)scale(.46699828)" xlink:href="#path4209" />
          <use transform="translate(186.99932 847.74016)scale(.21526511)" xlink:href="#path4209" />
          <use transform="translate(-12.33855 783.97543)scale(.40463936)" xlink:href="#path4209" />
          <use transform="translate(159.58415 852.31189)scale(.27207739)" xlink:href="#path4209" />
          <use transform="translate(319.97498 841.30376)scale(.13951541)" xlink:href="#path4209" />
          <use transform="translate(22.537899 753.75824)scale(.40463936)" xlink:href="#path4209" />
          <use transform="translate(-881.71479 460.03213)scale(1.1810738)" xlink:href="#path4209" />
          <use transform="translate(-532.39766 722.92747)scale(.70747483)" xlink:href="#path4209" />
          <use transform="translate(-1097.7428 532.62732)scale(1.3502322)" xlink:href="#path4209" />
          <use transform="translate(318.77907 1020.6887)scale(.14181282)" xlink:href="#path4209" />
          <use transform="translate(303.07415 1007.2984)scale(.17968757)" xlink:href="#path4209" />
          <use transform="translate(199.13231 981.23692)scale(.25543723)" xlink:href="#path4209" />
          <use transform="translate(110.47017 962.88325)scale(.32564026)" xlink:href="#path4209" />
          <use transform="translate(64.380163 926.26045)scale(.37920338)" xlink:href="#path4209" />
          <use transform="translate(249.61285 961.49768)scale(.23190482)" xlink:href="#path4209" />
          <use transform="translate(212.55512 1008.4085)scale(.20512326)" xlink:href="#path4209" />
        </g>
      </g>
      <g>
        <path d="m 682.49499,440.85625 c 236.71467,-215.23758 659.52081,-139.39693 659.52081,62.33586 0,82.15361 -79.0452,130.92486 -79.0452,197.16177 0,54.85177 103.3412,77.20306 54.944,4.57977 70.809,8.46173 53.5953,58.91135 17.7303,76.26081 189.8642,241.37744 -230.268,221.48874 -150.4861,313.08724 46.2758,53.1297 -16.6695,118.8675 -80.4517,76.4505 94.0313,-21.8809 -51.6546,-102.3496 -89.7028,70.3058 C 784.0086,1020.076 694,756 682.49499,440.85625 Z" fill="#473cc7" opacity=".5" />
        <path d="m 682.49499,440.85625 c 92.77108,-84.35397 214.12474,-124.00001 327.40821,-128.88153 62.1006,106.87659 -6.4193,256.69521 -313.62814,291.07845 -7.26999,-52.5028 -11.7487,-106.55384 -13.78007,-162.19692 z" fill="url(#linearGradient8466)" />
        <g clip-path="url(#clipPath4806)">
          <path d="m 982.87868,1117.7929 c 209.32532,-58.3655 101.08772,-76.7693 200.78442,-150.75988 116.5423,-86.49264 103.9112,-120.19162 22.1089,-223.70064 -76.634,-96.9693 94.1961,-176.3182 -3.571,-293.59436 -62.6292,-75.12664 -300.37135,-102.45559 -493.02315,25.41803 19.79899,233.34524 123.08734,468.52121 273.70083,642.63685 z" fill="#1c4fc2" id="path4201" />
          <path d="m 944.70587,467.96054 c 210.01423,-124.66273 295.40323,39.4597 250.41883,190.3586 -73.3423,246.02493 84.182,55.34278 -78.8452,545.36886 C 817.05885,1160.1247 730.32317,719.97709 944.70587,467.96054 Z" fill="#203760" filter="url(#filter8512)" opacity=".4" />
        </g>
        <path fill="#8952e1" inkscape:original-d="m 1261.1924,752 c 49.6335,96.37637 174.0592,-33.04128 56.7143,-47.06324 48.3967,72.61837 -54.9361,50.26667 -54.9361,-4.58288 0,-66.23691 79.0452,-115.00816 79.0452,-197.16177 0,-201.73279 -422.80614,-277.57344 -659.52081,-62.33586 L 1015.0043,1241.038 c 38.0482,-172.6554 183.7341,-92.1867 89.7028,-70.3058 63.7822,42.417 126.7275,-23.3208 80.4517,-76.4505 -79.7819,-91.5985 340.3503,-71.7098 150.3074,-313.28389" inkscape:path-effect="#path-effect4809" />
        <g>
          <circle cx="1177.8632" cy="375.00183" fill="#fff" id="path4209" opacity=".5" r="4.9194174" />
          <use transform="translate(989.50328 328.52814)scale(.18799794)" xlink:href="#path4209" />
          <use transform="translate(721.48623 262.33749)scale(.428172)" xlink:href="#path4209" />
          <use transform="translate(918.1412 329.04499)scale(.28515837)" xlink:href="#path4209" />
          <use transform="translate(922.1412 353.69143)scale(.28515837)" xlink:href="#path4209" />
          <use transform="translate(1080.9022 406.33828)scale(.16002145)" xlink:href="#path4209" />
          <use transform="translate(971.32191 373.40144)scale(.27032294)" xlink:href="#path4209" />
          <use transform="translate(807.8742 310.2978)scale(.41867729)" xlink:href="#path4209" />
          <use transform="translate(980.54196 419.64104)scale(.27032294)" xlink:href="#path4209" />
          <use transform="translate(868.0178 393.78828)scale(.3721521)" xlink:href="#path4209" />
          <use transform="translate(509.95617 419.63504)scale(.63434375)" xlink:href="#path4209" />
          <use transform="translate(863.08118 546.95967)scale(.29725736)" xlink:href="#path4209" />
          <use transform="translate(1076.9351 638.24688)scale(.12871415)" xlink:href="#path4209" />
          <use transform="translate(995.27683 629.13194)scale(.19613145)" xlink:href="#path4209" />
          <use transform="translate(656.79033 534.70703)scale(.48766561)" xlink:href="#path4209" />
          <use transform="translate(57.243751 395.11594)scale(1.0387134)" xlink:href="#path4209" />
          <use transform="translate(666.73221 613.67864)scale(.49758068)" xlink:href="#path4209" />
          <use transform="translate(-381.85789 277.32247)scale(1.4804357)" xlink:href="#path4209" />
          <use transform="translate(1104.2636 764.73081)scale(.1513531)" xlink:href="#path4209" />
          <use transform="translate(894.68467 699.5755)scale(.33522769)" xlink:href="#path4209" />
          <use transform="translate(729.85665 660.49594)scale(.49867177)" xlink:href="#path4209" />
          <use transform="translate(916.28666 756.8436)scale(.3556582)" xlink:href="#path4209" />
          <use transform="translate(847.36001 765.31861)scale(.39651922)" xlink:href="#path4209" />
          <use transform="translate(-402.83155 401.09392)scale(1.4997668)" xlink:href="#path4209" />
          <use transform="translate(-206.19886 650.49904)scale(1.1458264)" xlink:href="#path4209" />
        </g>
      </g>
      <g>
        <path d="m 1030.5956,1033.0919 c -0.8868,11.5661 -0.9452,21.6485 0.3808,24.5311 3.4937,7.595 28.579,16.2996 33.3068,13.5701 3.8766,-2.2381 5.1833,-9.2241 4.7364,-21.3766" fill="#f4dae4" stroke="#e09ab4" stroke-width="3" />
        <path d="m 1060.6742,1020.9738 c -30.7116,23.4082 -15.9177,37.8277 10.6741,60.6742 20.412,-25.2809 -37.2659,-30.3371 -54.3071,-53.7454 1.934,-20.6516 28.9039,-20.0731 43.633,-6.9288 z" style="fill:#c04070;clip-path:url(#clipPath4809);opacity:.3;filter:url(#filter4791)" />
      </g>
      <g>
        <path d="m 586.51686,656.92883 c -169.2884,243.44571 -16.23597,213.98503 -22.97754,366.79407 -5.89896,133.7099 85.89888,212.2322 227.47191,239.9475 20.74735,-232.1843 -42.24158,-450.9688 -204.49437,-606.74157 z" fill="#1c4fc2" stroke="#8952e1" stroke-width="12" />
        <path d="m 654.13197,891.16753 c -105.57195,29.00781 -47.39639,121.84457 -45.6027,166.77487 2.62085,65.65 15.49686,109.2547 83.17411,140.6961 182.68194,333.2628 304.94069,-335.22815 -37.57141,-307.47097 z" style="fill:#203660;clip-path:url(#clipPath4494);opacity:.55;filter:url(#filter4550)" />
        <path d="m 687.55043,1077.3623 c -79.65433,183.0366 54.37616,247.73 106.42388,151.1198 -81.37363,-3.4411 -105.05382,-23.3772 -72.55382,-160.3772 z" fill="#1c4fc2" stroke="#8952e1" stroke-width="12" />
        <path d="m 775.82354,1156.3636 c -95.92836,-18.6729 -151.35852,149.1572 -53.09092,166.5455 98.2676,17.3883 149.01927,-147.8725 53.09092,-166.5455 z" style="fill:#203660;clip-path:url(#clipPath4567);opacity:.55;filter:url(#filter4797)" />
      </g>
    </g>
    <path d="m 1021.2841,1627.0947 c -166.3816,384.2703 -919.67681,369.0467 -932.75623,3.249 -11.07174,-309.6481 191.69843,-488.8973 412.47523,-367.2568 93.3192,51.4157 250.8587,29.8799 250.8587,12.6934 0,-307.6409 -151.2699,-373.6457 -132.0993,-555.8396 36.8563,-350.27552 535.6202,-300.40493 488.6106,3.4266 -20.1945,130.5205 113.7867,126.8297 112.675,144.0264 -3.7561,58.1044 -26.3078,83.6412 -80.2887,105.8101 -35.0432,14.3917 9.7535,37.995 -64.8679,74.8779 -8.9668,4.432 -40.2279,-22.035 -101.74513,-38.2356 -17.28187,112.3798 215.25073,228.9795 47.13773,617.2486 z" fill="#38407c" />
    <g>
      <path d="m 87.46853,1632.4624 c -4.944527,-138.2857 32.76011,-250.5643 95.67106,-321.6504 372.83749,78.9818 229.87588,495.9326 -95.67106,321.6504 z" />
      <path d="m 265.36014,1520.135 c -26.14731,39.4088 -64.40704,56.3602 -79.22192,13.5515 -14.81488,-42.8087 7.65811,-100.283 53.66216,-121.3095 -61.69379,-43.7196 -120.81578,55.2178 -93.35191,156.5328 27.46387,101.315 107.30545,33.4456 118.91167,-48.7748 z" fill="#fff" />
      <path d="m 1031.8352,1244.8984 c 6.1509,22.2658 37.3016,29.9455 19.4016,59.2035 -8.9301,14.5964 -24.0832,-4.1019 -25.2069,-25.6374 -0.4551,-8.7221 -13.483,-29.0718 5.8053,-33.5661 z" fill="#f4dae4" />
      <ellipse cx="1045.5646" cy="1298.4865" fill="url(#linearGradient4065)" filter="url(#filter4050)" rx="6.7389169" ry="11.478943" transform="rotate(331.60688 1024.4884 1305.6575)" />
      <path d="m 1040.0749,1005.2435 c -0.344,26.1019 -32.2495,7.6856 -31.1498,-2.4345 0.9684,-8.91121 12.652,-12.54683 24.5955,-8.80151" fill="#f4dae4" />
      <path fill="#e09ab4" inkscape:original-d="m 1031.8352,1244.8984 c 6.1509,22.2658 37.3017,29.9455 19.4016,59.2035 -7.1571,11.6983 -18.3114,2.0105 -23.037,-13.384" inkscape:path-effect="#path-effect1390" />
      <path fill="#e09ab4" inkscape:original-d="m 1040.0749,1005.2435 c -0.344,26.1019 -32.2495,7.6856 -31.1498,-2.4345 0.9684,-8.91121 12.652,-12.54683 24.5955,-8.80151" inkscape:path-effect="#path-effect1372" />
      <ellipse cx="1017.8895" cy="1004.2559" rx="13.314666" ry="7.5026608" style="fill:#c04070;clip-path:url(#clipPath1387);opacity:.45;filter:url(#filter4640)" transform="rotate(20.743123 1015.7499 1002.7783)" />
      <g opacity=".25">
        <path d="m 692.48157,788.6673 c 0.26484,32.04491 -21.27657,30.36631 -15.03619,62.38214 3.37604,17.32058 30.04283,13.18246 26.4834,-8.47468 -2.5573,-15.55975 -9.60235,-33.40495 -11.44721,-53.90746 z" fill="#fff" fill-opacity=".2" filter="url(#filter4651-9)" />
        <ellipse cx="777.51959" cy="753.7207" fill="#fff" rx="3.5571232" ry="4.9260111" transform="rotate(6.6332408)" />
        <path fill="#fff" inkscape:original-d="m 692.48157,788.6673 c 0.26484,32.04491 -21.27657,30.36631 -15.03619,62.38214 3.37604,17.32058 30.04283,13.18246 26.4834,-8.47468" inkscape:path-effect="#path-effect1406" />
      </g>
      <path d="m 750.23919,863.24645 c 35.93331,-40.39719 191.93761,71.85046 267.22451,-3.43645 22.1176,-22.11757 87.8708,-22.88588 85.5291,3.77019 -12.2331,139.25191 -411.83258,66.08443 -352.75361,-0.33374 z" fill="#9656a6" filter="url(#filter4666)" transform="translate(-22.1409-21.227256)scale(1.023973)" />
      <g>
        <path d="m 1000.3745,874.90262 c 9.3633,-67.0412 -53.18348,-223.96629 -234.08236,-105.2397 24.5915,66.85614 69.90598,105.25216 110.2666,100.05649 74.25515,-9.55895 77.42284,8.42114 123.81576,5.18321 z" fill="#fff" />
        <g clip-path="url(#clipPath601)">
          <ellipse cx="782.50085" cy="880.35461" fill="url(#linearGradient589)" id="path4651" rx="31.672401" ry="32.637772" transform="rotate(353.67507)" />
          <path d="m 848.9254,818.47487 21.38534,-25.68891 -30.38971,9.26919 z" fill="#9afcfd" />
          <path d="m 836.4782,798.08265 33.83254,-5.29669 -30.78696,16.81696 z" fill="#61e9d1" />
        </g>
        <ellipse cx="790.94263" cy="868.6861" rx="18.385365" ry="20.524635" transform="rotate(354.33037)" />
        <ellipse cx="107.88387" cy="1155.7733" fill="#fff" rx="9.0005045" ry="9.533143" transform="rotate(317.33786)" />
        <ellipse cx="881.97565" cy="787.07861" fill="#fff" fill-opacity=".564" rx="2.6685393" ry="2.7153559" />
        <ellipse cx="874.49103" cy="803.53699" fill="#fff" fill-opacity=".752" rx="5.0980549" ry="6.2557287" />
        <g clip-path="url(#clipPath5375)">
          <path d="m 817.76976,780.47508 c -14.85828,5.93721 8.43704,146.01764 219.32014,109.24013 l -11.5884,-83.45902 C 857.84543,915.30276 857.80645,764.47685 817.76976,780.47508 Z" fill="#101930" filter="url(#filter5365)" opacity=".4" />
          <path d="M 754.08772,819.55094 C 835.57596,730.96409 975.85923,733.96491 1000.2883,896.73112 1107.674,868.86911 1096.1391,659.34557 930.31273,643.53193 633.13037,615.19183 619.88807,795.26839 754.08772,819.55094 Z" fill="#101930" filter="url(#filter5255)" opacity=".6" />
        </g>
        <path d="m 731.57006,739.75971 c 71.07931,-23.37288 113.91635,-43.17003 166.67289,-82.04873 -44.17271,43.48468 -97.47592,68.45911 -166.67289,82.04873 z m 20.24809,23.92703 C 850.45579,679.01971 969.99394,684.94852 1009.6905,815.10653 958.8443,691.23382 856.7255,690.43096 751.81815,763.68674 Z m 34.71131,47.47706 4.6149,7.61071 c -13.08294,3.33265 -23.80342,8.95454 -35.36389,18.73923 8.61903,-12.72236 18.20087,-19.76652 30.74899,-26.34994 z m -5.15161,-8.16869 4.41194,7.94068 c -12.48318,2.63199 -23.82482,8.12358 -36.79849,17.78096 9.43687,-12.95584 20.194,-19.95144 32.38655,-25.72164 z m -4.6834,-8.55183 4.39914,8.14559 c -12.45318,2.41839 -25.21668,8.04817 -37.76303,17.11712 9.1835,-12.35794 20.37715,-19.81203 33.36389,-25.26271 z m -66.42677,2.55874 c 24.60902,-2.37048 45.20143,-9.11795 59.55013,-20.17884 l 4.51025,8.22872 c -10.64337,7.61272 -42.04575,16.8314 -64.06038,11.95012 z m -6.38751,-11.80562 c 22.33719,-2.27246 38.37858,-5.60387 60.71606,-20.0762 179.7207,-116.44005 251.40307,34.05542 239.14907,112.77867 -53.41493,4.11 -50.50038,-14.06354 -127.18656,-4.63331 -43.95993,5.40583 -88.93439,-35.39095 -113.3489,-101.7556 l 6.85921,-4.29979 c 21.17051,65.112 66.87899,103.82259 106.48969,98.9686 75.84416,-9.29413 76.62834,7.98927 120.63775,5.01617 7.00631,-69.59867 -58.64746,-213.30195 -229.25478,-97.90896 -9.68232,6.54879 -45.44121,17.00389 -64.06154,11.91042 z" />
      </g>
    </g>
    <path fill="#151730" inkscape:original-d="m 771.5596,943.433 c 44.6147,44.6978 113.3531,51.9613 157.0002,57.5354 92.076,11.7589 136.3682,52.5322 147.3317,47.1133 74.6213,-36.883 29.8247,-60.4862 64.8679,-74.8779 53.9809,-22.1689 76.5326,-47.7057 80.2887,-105.8101 1.1117,-17.1967 -132.8695,-13.5059 -112.675,-144.0264 47.0096,-303.83153 -451.7543,-353.70212 -488.6106,-3.4266 -19.1706,182.1939 132.0993,248.1987 132.0993,555.8396 0,17.1865 -157.5395,38.7223 -250.8587,-12.6934 -220.7768,-121.6405 -423.54697,57.6087 -412.47523,367.2568 13.07942,365.7977 766.37463,381.0213 932.75623,-3.249 168.113,-388.2691 -64.4196,-504.8688 -47.1911,-617.2284" inkscape:path-effect="#path-effect4795" />
    <g clip-path="url(#clipPath4868)">
      <path d="m 1084.7601,985.95965 8.5068,-2.15081 c 0.927,13.90379 3.0313,26.21856 8.0631,40.78436 -10.0637,-12.3147 -14.5837,-24.59739 -16.5699,-38.63355 z m 98.3128,-55.72483 c -19.2131,15.43641 -38.6791,23.12099 -67.2324,26.37661 l 0.7535,-8.75925 c 24.9191,-2.30301 43.915,-7.44239 66.4789,-17.61736 z m -155.8594,40.25414 c 47.6862,25.12025 95.1455,15.52484 85.8951,-48.7473 30.3182,68.92166 -47.0912,90.00234 -85.8951,48.7473 z m 97.2616,-86.1253 c 7.6472,6.27219 15.0821,6.25668 22.6666,-0.7176 -3.386,15.86865 -18.5922,15.86991 -22.6666,0.7176 z" fill="#151730" />
      <g clip-path="url(#clipPath4788)" opacity=".25">
        <path d="m 1047.3395,1043.4296 c -6.4112,-17.6689 0.1999,-25.5694 12.958,-31.2208 -6.0596,-6.2373 -11.2432,-12.25679 -16.2939,-21.00479 -6.4737,-11.21283 -23.5348,-18.37162 -15.3884,-25.08419 16.5522,-13.63896 61.5161,15.76539 57.0719,-17.87629 -2.423,-18.34193 15.155,-21.9969 32.0448,-7.68019 1.4251,1.20797 2.2743,-1.89189 4.1221,-2.23375 41.4242,-7.66374 63.9894,-41.66148 62.876,8.08967 -1.3799,61.65804 -84.7267,23.83386 -86.5814,59.66104 -1.2359,23.8744 -17.0576,34.6796 -37.7086,39.5947 -4.7023,1.1192 -12.4837,-0.5455 -13.1005,-2.2454 z" fill="#fff" fill-opacity=".2" filter="url(#filter4451)" />
        <path d="m 979.30712,987.26592 c 1.31348,-3.28638 12.45318,-0.54574 10.76779,3.18351 -1.68539,3.72926 -12.08127,0.10287 -10.76779,-3.18351 z m 77.14778,-58.9398 c 6.9909,-6.39696 9.6167,4.06224 6.6823,7.13446 -2.9343,3.07221 -13.6732,-0.73749 -6.6823,-7.13446 z" style="fill-opacity:.2;fill:#fff;stroke:#fff;stroke-width:3" />
        <path d="m 1100.9294,1007.8017 c 0.6054,23.3723 -21.511,38.0254 -40.4894,37.8733 21.4087,-7.4351 35.8146,-23.0191 35.7174,-49.67031 -0.087,-23.79206 83.0688,6.14961 85.4609,-52.20047 1.6368,-39.92631 -24.1,-5.76695 -59.7643,-5.47463 31.3667,-9.95493 67.5501,-50.14674 66.2468,8.08967 -1.3798,61.65804 -87.9493,31.35358 -87.1714,61.38244 z m -72.3142,-41.68188 c 7.8127,-19.73014 56.0601,14.95694 51.7752,-17.47904 -2.4231,-18.34192 15.6252,-34.95809 37.3415,-8.07744 -22.1136,-8.73952 -25.4541,-5.18552 -26.4834,12.97686 -1.4627,25.80892 -44.1881,4.67745 -62.6333,12.57962 z m 28.7797,44.96538 c -6.9023,-6.1437 -10.1319,-11.41824 -13.3913,-19.88119 6.9383,8.55004 13.5175,15.05049 21.0459,21.86799 -11.739,6.2496 -21.5302,12.6588 -17.71,30.3576 -10.068,-16.1454 -5.0435,-26.9739 10.0554,-32.3444 z" fill="#fff" />
      </g>
      <path d="m 593.43197,1463.2171 c 118.09124,148.8872 212.94858,160.9218 298.68864,-17.7425 110.19299,498.5243 -359.40602,515.4654 -298.68864,17.7425 z" fill="#101930" filter="url(#filter7207)" opacity=".55" />
      <path d="m 739.41652,1055.5013 c 226.69795,-15.8901 314.11228,224.7325 247.88463,461.8705 210.80785,-52.9668 253.18135,-183.2651 104.87435,-430.0904 -116.52684,-2.1186 -198.09592,-13.7714 -352.75898,-31.7801 z" fill="#101930" filter="url(#filter5855)" opacity=".2" />
      <path d="M 73.094184,1265.2498 C 239.40994,1530.0838 41.314106,1442.1589 257.41865,1694.2809 677.03744,1942.2641 766.08348,1331.7196 73.094184,1265.2498 Z" fill="#101930" filter="url(#filter7222)" opacity=".45" />
      <path d="m 755.45529,684.06577 c 118.53059,-13.81573 212.52078,7.18448 235.39035,92.53485 26.00656,97.05781 83.87686,94.57748 240.65866,-6.13824 C 1189.1523,441.13797 909.36975,335.871 759.39317,496.54001 c 66.12102,65.64492 58.37226,128.75679 -3.93788,187.52576 z" fill="#101930" filter="url(#filter5581)" opacity=".55" />
      <path d="m 1000.8316,1044.9072 c 120.5542,-59.14941 193.5213,-150.22513 193.3797,-266.47947 167.5459,73.55717 46.1384,332.66837 -133.7824,324.44987 z" fill="#101930" filter="url(#filter6072)" opacity=".1" />
    </g>
    <g>
      <g>
        <path d="m 630.83459,744.58618 c -38.13609,172.67177 111.7528,191.72576 115.46763,290.78782 3.04348,81.1594 -99.10045,86.2878 -116.90242,-18.3388 64.67206,70.8556 66.68133,-4.6949 28.9467,-30.9999 -84.3612,-58.80872 -99.59917,-69.47961 -90.05412,-127.76702 0.54932,-104.01692 33.41651,-137.27642 62.54221,-113.6821 z" fill="#1c4fc2" />
        <path fill="#8952e1" inkscape:original-d="m 568.29238,858.26828 c -9.54505,58.28741 5.69292,68.9583 90.05412,127.76702 37.73305,26.3039 35.72553,101.8492 -28.93801,31.0315 17.82858,104.5932 119.93668,99.4526 116.89373,18.3072 C 742.58739,936.31194 592.6985,917.25795 630.83459,744.58618" inkscape:path-effect="#path-effect4791" />
        <path d="m 562,845.25 c -0.75,-34.5 6.5,-60.75 27.25,-88.25 -15.5,29.5 -23.5,52.25 -27.25,88.25 z m -22.89174,37.79398 c -10.6066,-82.73149 4.3033,-130.09724 43.19418,-179.94827 l 5.57107,8.63173 c -39.95154,45.60839 -51.59368,88.58504 -48.76525,171.31654 z M 734,1006 C 650,919 579,888 615,755 l -5.5,-11 c -43.5,147 36,181 124.5,262 z" fill="#8952e1" />
        <path d="M 458.88705,742.24179 C 605.26827,758.84797 580.37339,881.83901 746.91518,884.20249 827.57328,612.1373 528.83141,301.05387 458.88705,742.24179 Z" style="fill:#203660;clip-path:url(#clipPath5053);opacity:.65;filter:url(#filter4437)" />
      </g>
      <g>
        <g>
          <path d="m 928.73664,138.45094 c -18.7823,1.096 -19.56447,100.94608 -41.34417,209.30478 -35.8625,-107.86238 -31.67534,-27.19744 -91.99785,157.13689 -21.93512,67.02963 268.65188,34.61862 260.07318,-46.19849 -11.9099,-112.199 -41.0551,-185.30487 -61.89666,-161.91884 -10.73876,-87.57723 -49.09242,-159.24294 -64.8345,-158.32434 z" />
          <path fill="#9f9dce" inkscape:original-d="m 995.64441,370.81439 c 9.97489,-116.74717 -46.83972,-233.53448 -66.90777,-232.36345 -19.29777,1.12609 -19.59385,106.50118 -43.22708,217.71812" inkscape:path-effect="#path-effect5070" />
          <path d="m 881.9477,333.25415 10.2138,28.97863 -17.1021,-3.44418 z" fill="#020016" />
          <path fill="#9f9dce" inkscape:original-d="M 903.78592,400.56917 C 849.3351,220.58716 863.59737,296.47774 795.39462,504.89261 c -21.93512,67.02963 268.65188,34.61862 260.07318,-46.19849 -11.9099,-112.199 -41.0551,-185.30487 -62.14699,-161.63456" inkscape:path-effect="#path-effect5064" />
          <path d="M 847.6741,77.091881 C 924.96293,183.61876 955.87388,265.49069 961.90439,389.2835 992.05022,267.1503 989.7862,164.61052 961.12132,50.77103 Z" style="fill:#4c40c0;clip-path:url(#clipPath5091);opacity:.1;filter:url(#filter4099)" />
        </g>
        <path d="m 706.17427,608.42146 c 50.49608,2.33652 95.88655,12.71657 139.24294,32.32649 80.75249,0.37485 140.58237,6.42943 172.82979,68.37662 137.4224,-8.09523 163.6696,-195.52357 -255.96478,-219.45258 -57.78784,-0.53342 -91.13218,49.64284 -56.10795,118.74947 z" fill="#1c4fc2" />
        <path d="m 843.07116,640.82397 c 81.94238,0.18725 142.61731,5.75981 175.19904,67.92658" fill="none" stroke="#8952e1" stroke-width="12" />
        <path d="M 820.97378,586.37275 C 946.945,581.65898 1014.1037,589.30473 1047.1911,698.8764 955.80525,871.91011 788.76404,784.12556 820.97378,586.37275 Z" style="fill:#203660;clip-path:url(#clipPath5035);opacity:.57;filter:url(#filter7454)" />
        <path d="m 805.23273,554.03977 c 57.83748,41.52595 64.67424,118.36265 -25.5718,121.70002 -39.89394,1.47531 -53.88216,25.51656 -19.25803,28.6094 -92.66881,71.25888 -77.02704,-66.44393 -22.85237,-60.24531 74.96321,8.57722 35.4894,-31.8047 -31.37626,-35.68242 z m -42.95051,-64.36778 c 155.57723,-90.99327 295.84878,-120.42071 405.02628,-2.76962 -23.9544,-9.13468 -50.0984,-15.36459 -76.6718,-17.61398 94.5652,62.65818 132.3015,142.51819 89.4546,245.25391 -49.1622,117.87823 -229.30265,95.61134 -209.31759,-29.00399 29.06733,49.12056 94.11179,22.35089 66.17759,-45.71435 C 965.55,538.71381 828.02632,585.23519 762.28222,489.67199 Z" fill="#1c4fc2" />
        <path fill="#8952e1" inkscape:original-d="m 805.23273,554.03977 c 57.83748,41.52595 64.67424,118.36265 -25.5718,121.70002 -39.89394,1.47531 -53.88216,25.51656 -19.25803,28.6094 -92.66881,71.25888 -77.02704,-66.44393 -22.85237,-60.24531 74.96321,8.57722 35.4894,-31.8047 -31.37626,-35.68242" inkscape:path-effect="#path-effect4955" />
        <path fill="#8952e1" inkscape:original-d="m 762.28222,489.67199 c 155.57723,-90.99327 295.84878,-120.42071 405.02628,-2.76962 -23.9544,-9.13468 -50.0984,-15.36459 -76.6718,-17.61398 94.5652,62.65818 132.3015,142.51819 89.4546,245.25391 -49.1622,117.87823 -229.30265,95.61134 -209.31759,-29.00399 29.06733,49.12056 94.11179,22.35089 66.17759,-45.71435" inkscape:path-effect="#path-effect4911" />
        <g>
          <path d="m 1019.0824,476.64045 c 131.1044,52.68503 156.3353,259.97547 5.2622,261.56179 140.4008,-19.74561 115.1645,-195.37156 -5.2622,-261.56179 z" fill="#8952e1" />
          <path clip-path="url(#clipPath5021)" d="m 1157.6123,544.40858 c -18.6753,64.83953 -146.844,42.72748 -135.6792,-26.76179 11.1648,-69.48927 154.3545,-38.07774 135.6792,26.76179 z" fill="url(#linearGradient8260)" filter="url(#filter8130)" transform="rotate(37.1137 1071.8719 505.87863)" />
          <g>
            <path d="m 912.75084,510.84802 107.49616,44.6155 c 216.4511,-641.853546 212.7199,-647.979007 -107.49616,-44.6155 z" fill="#38407c" stroke="#151730" stroke-width="12" />
            <path d="m 1120.633,128.80942 c 8.8593,10.11012 18.8759,17.71456 30.6763,23.62817 m -62.9061,32.8206 c 11.5659,17.31133 25.0219,28.86748 42.2048,37.05659 m -71.6371,14.65629 c 7.9959,40.42877 19.7434,60.92516 46.1034,66.13219 m -80.2693,-3.9054 c 9.3552,81.17179 19.2741,91.50341 54.4236,80.76317 m -88.96593,-16.66521 c 12.30033,98.4362 22.62493,108.14806 63.18173,94.05488" fill="none" stroke="#151730" stroke-width="7" />
            <path d="M 934.83146,585.76778 1195.5057,5.9925086 C 977.34495,-119.12148 668.14895,494.04734 934.83146,585.76778 Z" style="fill:#101930;clip-path:url(#clipPath7265);opacity:.45;filter:url(#filter7309)" />
          </g>
          <path d="M 1106.2071,578.85355 C 1022.9168,495.64229 967.5232,464.49221 870.56066,488.5 c 36.3277,78.24584 151.82974,113.86268 235.64644,90.35355 z" fill="#1c4fc2" />
          <path d="m 937.86753,511.34923 c 81.24227,-10.55616 129.95257,35.66297 155.87407,106.72712 -19.465,-17.76649 -33.7867,-28.3894 -61.6567,-37.52313 22.9748,17.5151 37.999,33.85282 35.7566,62.82965 -21.9142,-38.01238 -49.1994,-63.6674 -109.92671,-86.21285 20.72727,-6.90909 55.03211,-3.15173 77.21391,4.84827 -26.5454,-22.54545 -62.71571,-39.03269 -97.26117,-50.66906 z" fill="url(#linearGradient4860)" />
          <path d="m 1097.0928,525.5963 c 25.4545,26.18182 35.7913,59.00176 42.7004,98.27449 18.1818,-51.27273 1.2995,-88.45631 -42.7004,-98.27449 z" fill="url(#linearGradient4900)" />
          <path d="m 804.32709,571.39751 c 14.56687,19.17249 17.5976,37.50179 16.4443,59.08556 21.84716,-22.99419 14.85113,-49.96124 -16.4443,-59.08556 z" fill="url(#linearGradient4920)" />
          <path d="m 870.56066,488.5 c 93.27208,-30.52082 156.57364,2.21142 235.64644,90.35355 C 1020.2409,498.50862 965.09619,471.07538 870.56066,488.5 Z m -107.26478,50.34161 c 60.19962,-15.1364 114.44417,-15.02671 179.19407,-6.14764 -64.33315,-3.33315 -117.92008,-2.80348 -179.19407,6.14764 z m 13.46224,119.67352 c -61.44149,-23.83506 -79.89304,55.14481 -29.57458,43.49211 l -2.49821,-2.95067 c -37.79712,7.50679 -28.70169,-54.68379 32.07279,-40.54144 z" fill="#8952e1" />
        </g>
        <path d="m 709.05302,551.88919 c 141.72943,50.45819 101.23555,131.41496 -23.40271,86.31306 z" style="fill:#203660;clip-path:url(#clipPath4996);opacity:.55;filter:url(#filter7712)" />
        <path clip-path="url(#clipPath5209)" d="M 668.05186,587.7203 C 768.25756,501.6909 827.82828,466.65107 957.24368,451.48805 860.01483,279.72022 594.35697,325.98493 668.05186,587.7203 Z" fill="url(#linearGradient8344)" filter="url(#filter8446)" />
      </g>
      <g>
        <path d="m 477.90262,531.46068 c 14.19283,-87.40872 55.02073,-163.83543 71.67457,-162.9467 39.3927,2.1022 70.96392,43.28222 87.12693,173.80811 z" stroke="#9f9dce" stroke-width="12" />
        <path d="m 554.51092,404.5132 c 30.29943,22.66469 40.80715,55.85478 32.99845,94.24335 2.26278,-38.80397 -7.45822,-68.35522 -32.99845,-94.24335 z" fill="#9f9dce" />
        <path d="m 486.23523,563.96939 c 58.26348,-216.10454 98.51824,-224.04956 144.59936,4.23735 z" style="fill:#4c40c0;clip-path:url(#clipPath6706);opacity:.1;filter:url(#filter6702)" />
        <path d="m 469.54061,482.13033 c -57.38467,47.74014 -32.9222,110.88991 -16.73162,116.74608 17.60299,6.36704 80.14981,-18.35206 129.30798,-47.17007 C 562.85653,362.21345 518.87364,441.08861 469.54061,482.13033 Z" stroke="#9f9dce" stroke-width="12" />
        <path d="m 511.31352,468.44096 c 3.74532,28.65169 15.03333,50.67603 36.56891,69.77717 l 3.41654,-3.09688 c -21.89206,-18.31979 -31.39879,-39.25783 -39.98545,-66.68029 z m -44.64686,51.97102 c 16.47941,17.79027 31.36657,26.83778 53.08942,33.39208 -22.47191,-2.24719 -40.5426,-12.4183 -53.08942,-33.39208 z" fill="#9f9dce" />
        <path d="m 477.9689,620.64386 c -31.25041,-99.04791 43.12251,-174.32503 129.4584,-144.66361 76.80186,93.75123 24.675,180.68104 -129.4584,144.66361 z" style="fill:#4c40c0;clip-path:url(#clipPath6570);opacity:.1;filter:url(#filter6555)" />
        <path d="m 577.00622,680.94431 36.03814,-149.9114 c -29.39658,-2.91317 -63.31665,-0.52755 -68.03628,8.77717 -14.07384,27.74653 -25.15907,55.93171 -29.89946,90.39966 -1.59747,11.61536 36.58001,37.7733 61.8976,50.73457 z" stroke="#9f9dce" stroke-width="12" />
        <path d="m 485.70556,601.04615 c 69.3865,-27.01307 115.46762,-23.83506 182.73546,8.47468 28.0724,-178.5774 -187.50247,-193.16154 -182.73546,-8.47468 z" style="fill:#4c40c0;clip-path:url(#clipPath6729);opacity:.1;filter:url(#filter6813)" />
      </g>
      <g>
        <path d="M 645.62391,809.15496 C 560.87703,723.34875 524.08387,636.49033 576.62938,552.75927 c 61.8105,-98.49477 65.6142,-200.98067 95.51932,-169.93634 55.10529,57.20448 117.00164,163.07842 38.61077,257.35932 -38.95131,37.45319 -62.51383,98.93526 -65.13556,168.97271 z" fill="#38407c" />
        <path fill="#151730" inkscape:original-d="M 645.62391,809.15496 C 560.87703,723.34875 524.08387,636.49033 576.62938,552.75927 c 61.8105,-98.49477 65.6142,-200.98067 95.51932,-169.93634 55.10529,57.20448 117.00164,163.07842 38.61077,257.35932" inkscape:path-effect="#path-effect4823" />
        <path d="m 671.61903,456.97645 c 15.14098,122.19817 -88.43779,133.81872 -15.2417,244.5836 -85.27655,-95.34025 13.12302,-124.87863 15.2417,-244.5836 z" fill="#151730" />
        <path clip-path="url(#clipPath5107)" d="m 671.61903,456.97645 c 73.83796,133.73615 13.51558,164.15938 -15.2417,244.5836 -125.32529,70.20282 -123.86418,-309.14829 15.2417,-244.5836 z" fill="url(#linearGradient5103)" filter="url(#filter5093)" />
      </g>
    </g>
    <path d="m 440.6312,1207.2336 c 41.04565,193.4314 296.5615,134.5057 445.11369,293.0329 -22.05166,-148.524 -41.74144,-296.5222 -91.78816,-433.6578 164.28529,20.6285 328.78347,59.1411 459.58307,147.6554 l 45.4872,-75.8508 C 916.77117,883.76094 741.74846,1038.7838 683.25045,777.92773 665.02008,696.63432 501.11657,741.23495 654.89459,335.28695 307.20431,263.23383 319.26462,1035.4813 440.6312,1207.2336 Z" style="fill:#101930;clip-path:url(#clipPath1514);opacity:.55;filter:url(#filter5436)" />
    <path clip-path="url(#clipPath1543)" d="M 787.08798,911.78515 C 811.00566,1124.0361 910.6976,878.5065 1126.0742,1438.9809 l 37.0768,-475.64184 z" fill="url(#linearGradient5989)" filter="url(#filter5958)" />
    <g>
      <path d="M 385.19915,1254.1868 C 234.61374,1015.4727 67.87798,959.27099 -72.03485,983.46644 c -103.59842,17.91556 -116.58019,358.31266 -66.7914,379.49936 68.43758,29.1223 211.76987,-138.8392 340.95562,-3.8739 42.69663,0.3745 47.16105,-16.5473 40.41948,-34.1503 17.97753,0.7491 32.00459,-14.1058 26.76114,-29.8362 16.85393,4.4944 35.77992,-8.0684 32.78366,-24.1733 21.45155,9.0044 35.73178,4.35 42.35263,-7.3027 36.28226,10.0637 54.2594,5.9178 40.75287,-9.4426 z" fill="#473cc7" opacity=".5" />
      <path d="M 385.19915,1254.1868 C 234.61374,1015.4727 67.87798,959.27099 -72.03485,983.46644 c -103.59842,17.91556 -116.58019,358.31266 -66.7914,379.49936 68.43758,29.1223 211.76987,-138.8392 340.95562,-3.8739 42.69663,0.3745 47.16105,-16.5473 40.41948,-34.1503 17.97753,0.7491 32.00459,-14.1058 26.76114,-29.8362 16.85393,4.4944 35.77992,-8.0684 32.78366,-24.1733 21.45155,9.0044 35.73178,4.35 42.35263,-7.3027 36.28226,10.0637 54.2594,5.9178 40.75287,-9.4426 z" fill="url(#linearGradient4810)" />
      <path d="m -70.6875,1029.5321 c -128.20555,-6.1044 -32.25815,230.5035 14.90625,222.4054 148.790239,-25.5473 214.58808,-10.2763 325.59375,54.8437 0.93158,-3.6704 0.84465,-7.6535 -0.5,-11.6874 16.85393,4.4944 35.77751,-8.0514 32.78125,-24.1563 18.47713,7.7559 31.63197,5.38 39.15625,-2.875 -98.6884,-120.037 -224.8224,-229.621 -411.9375,-238.5304 z" fill="#1c4fc2" />
      <path fill="#8952e1" inkscape:original-d="M 385.19915,1254.1868 C 234.61374,1015.4727 67.87798,959.27099 -72.03485,983.46644 c -103.59842,17.91556 -116.58019,358.31266 -66.7914,379.49936 68.43758,29.1223 211.76987,-138.8392 340.95562,-3.8739" inkscape:path-effect="#path-effect4815" />
      <g>
        <use transform="translate(-987.2912 920.17995)scale(.88765916)" xlink:href="#path4209" />
        <use transform="translate(-593.81009 908.86696)scale(.66041003)" xlink:href="#path4209" />
        <use transform="translate(-295.08249 939.6006)scale(.38609609)" xlink:href="#path4209" />
        <use transform="translate(-176.03625 963.21795)scale(.25353412)" xlink:href="#path4209" />
        <use transform="translate(-230.33944 940.79921)scale(.27247154)" xlink:href="#path4209" />
        <use transform="translate(-207.75707 935.8639)scale(.23229919)" xlink:href="#path4209" />
        <use transform="translate(-685.88154 762.909)scale(.6608043)" xlink:href="#path4209" />
        <use transform="translate(-423.57574 872.67555)scale(.39568037)" xlink:href="#path4209" />
        <use transform="translate(-148.04779 954.10839)scale(.14164976)" xlink:href="#path4209" />
        <use transform="translate(-172.94587 939.55715)scale(.15504055)" xlink:href="#path4209" />
        <use transform="translate(-601.71902 772.15126)scale(.53378905)" xlink:href="#path4209" />
      </g>
    </g>
    <g>
      <path d="m 612.58579,1432.5858 c 123.53553,168.0624 -55.75699,333.3971 -173,257.4142 -165.39436,-107.1889 -298.65133,-281.3981 -314.55016,-402.9557 -4.39932,-7.2314 -8.81577,-14.9338 -13.15695,-22.8372 44.30151,-2.5962 88.31192,4.3076 129.98061,18.4549 -7.17864,-10.5889 -13.39499,-21.5464 -19.12219,-32.8218 111.01095,9.1683 216.01688,58.68 280.68768,114.1721 19.36536,4.4927 38.05725,13.2474 55.13588,26.3413 z" fill="#38407c" />
      <path d="m 250.25,1267 c 49,38.25 124.91421,84.6464 187.66421,121.1464 C 373.41421,1356.6464 297,1313.25 250.25,1267 Z m -101.48834,15.5944 c 58.49181,53.3076 123.5435,108.864 190.89089,164.7076 -67.11646,-50.5091 -137.82841,-105.6052 -190.89089,-164.7076 z m 25.09189,108.4411 c 60.65254,95.3199 127.72436,159.6846 236.08579,244.2323 -111.4099,-77.5564 -182.55278,-145.7244 -236.08579,-244.2323 z" fill="#151730" />
      <path d="m 399.37437,1547.6317 c -133.46447,-85.5 -219.66726,-159.9393 -287.49569,-283.4246 44.30151,-2.5962 88.31192,4.3076 130.47487,18.4393" fill="none" stroke="#151730" stroke-width="12" />
      <path fill="#151730" inkscape:original-d="M 612.58579,1432.5858 C 736.12132,1600.6482 556.8288,1765.9829 439.58579,1690 274.19143,1582.8111 140.93446,1408.6019 124.93566,1286.7584" inkscape:path-effect="#path-effect1384" />
      <path fill="#151730" inkscape:original-d="m 446.18359,1442.3145 c -98.94629,-31.0306 -177.11491,-101.3276 -223.55664,-192.4278 116.24507,9.478 226.09486,63.4089 289.67188,122.0703" inkscape:path-effect="#path-effect1348" />
      <g clip-path="url(#clipPath1414)">
        <path d="M 47.332447,1190.536 C 216.4961,1383.2749 351.70934,1479.7755 506.73812,1550.2865 947.9715,2099.2832 -224.75247,2152.6682 47.332447,1190.536 Z" fill="#101930" filter="url(#filter6752)" opacity=".55" />
        <path d="m 204.44114,1214.3607 c 59.9251,101.1236 196.80943,198.7963 305.42367,221.2682 -76.82769,60.1288 -270.43707,-75.3668 -305.42367,-221.2682 z" fill="url(#linearGradient6527)" filter="url(#filter6511)" />
      </g>
      <g>
        <path d="m 558.56055,1390.3535 c -30.31191,-23.2397 -65.70485,-32.8015 -100.33594,-28.8906 11.89181,26.5266 43.18559,45.3737 74.79962,55.6779 -22.74233,6.891 -22.02752,15.2046 4.06238,25.5497 -9.13389,4.3751 -14.16125,10.6181 -15.85438,17.7488 -28.58896,-6.4758 -44.62768,-7.1984 -85.44589,0.4572 4.06594,9.667 8.63588,19.1495 15.01035,27.7551 -32.96733,-2.5897 -61.58774,-2.7467 -94.04812,2.5928 16.27748,33.1875 36.60577,62.1296 69.39595,80.5554 -15.69152,-5.3562 -30.76569,-7.7635 -47.97817,-7.8305 26.37311,55.6927 97.82943,104.2701 177.2061,135.4754 72.45447,-78.3675 67.8134,-250.6345 3.1881,-309.0912 z" fill="#38407c" />
        <path fill="#151730" inkscape:original-d="m 542.15927,1592.2892 c -111.29912,7.2412 -155.29017,-39.6332 -185.4107,-101.0448 32.46038,-5.3395 61.08079,-5.1825 94.31209,-2.598" inkscape:path-effect="#path-effect1392" />
        <path fill="#151730" inkscape:original-d="m 558.56055,1390.3535 c -30.31191,-23.2397 -65.70485,-32.8015 -100.33594,-28.8906 11.89181,26.5266 43.18559,45.3737 74.79962,55.6779 -33.14814,10.044 -16.46255,23.1102 55.99572,41.0843" inkscape:path-effect="#path-effect538" />
        <path d="m 598.91945,1533.0016 c -64.49702,12.0768 -97.41848,2.232 -71.12401,-35.4312 -41.69291,31.1739 2.36541,66.8814 71.12397,35.4312 z m -54.03744,-86.3601 c -20.81089,4.4298 -26.11143,13.0817 -16.10904,30.3282 -19.32837,-12.2928 -11.44042,-30.9574 5.85436,-35.2102 m -62.05808,-72.8557 c 18.66623,6.4429 36.81449,12.5435 54.10007,18.7139 -17.70556,-5.1571 -35.88366,-10.2925 -54.10007,-18.7139 z m -77.35375,149.3 c 33.10157,16.7806 60.81519,28.771 83.25725,29.7849 -26.51971,-7.6036 -49.28778,-15.8474 -83.25725,-29.7849 z m 117.80958,75.2746 c 7.15946,-9.7227 14.91852,-17.962 26.23223,-26.1821 -14.4073,5.6568 -25.19655,13.0472 -35.4496,25.3332" fill="#151730" />
        <path d="m 555.37245,1699.4447 c -79.37667,-31.2053 -150.83299,-79.7827 -177.2061,-135.4754 17.21248,0.067 32.28665,2.4743 47.95551,7.8062 m 95.11037,-111.3362 c -28.58896,-6.4758 -44.62768,-7.1984 -85.44589,0.4572 12.42675,29.5453 29.56134,57.3673 80.99631,63.8442" fill="none" stroke="#151730" stroke-width="10" />
        <path clip-path="url(#clipPath1375)" d="m 418.43772,1437.3919 c 41.3141,47.6702 82.05035,68.3316 139.83235,63.0305 -49.25912,65.1492 -142.48069,29.6615 -139.83235,-63.0305 z" fill="url(#linearGradient6578)" filter="url(#filter6666)" />
        <path d="m 313.10861,1474.1573 c 137.16953,100.2836 299.39049,113.2151 414.23222,20.9738 26.67468,398.9631 -434.47278,402.9132 -414.23222,-20.9738 z" style="fill:#101930;clip-path:url(#clipPath1385);opacity:.55;filter:url(#filter6995)" />
      </g>
    </g>
    <g>
      <path fill="#96778a" inkscape:original-d="m 1227.2286,222.37656 c 41.0148,-98.61671 86.9457,-64.91001 12.4625,-20.06239" inkscape:path-effect="#path-effect4865" />
      <path d="m 1025.2869,180.6548 c -1.3792,8.62967 -14.4071,1.1073 -12.2641,-6.46196 2.1431,-7.56925 13.6433,-2.1677 12.2641,6.46196 z" fill="none" stroke="#96778a" stroke-width="4" />
      <path fill="#96778a" inkscape:original-d="m 1006.5454,79.454542 c 20.2905,-44.245507 79.7021,-12.841273 18.5228,38.905958 -33.35643,28.21382 1.1653,33.18763 17.1706,15.68896" inkscape:path-effect="#path-effect4843" />
      <path fill="#96778a" inkscape:original-d="m 816.13096,183.00452 c -57.11518,-20.04909 -18.35806,-110.076616 4.99282,6.96742" inkscape:path-effect="#path-effect4871" />
      <path fill="#96778a" inkscape:original-d="m 635.39054,274.20048 c -90.38791,-17.50364 -33.8126,-61.71298 9.72009,9.69469" inkscape:path-effect="#path-effect4877" />
      <path fill="#96778a" inkscape:original-d="m 1388.4261,297.7353 c 20.4276,-29.60457 122.1574,-27.01124 19.9923,-4.69386" inkscape:path-effect="#path-effect4883" />
    </g>
    <g>
      <g clip-path="url(#clipPath1451)">
        <path d="m 748.1652,1232.4291 c -16.6398,-2.6403 -32.1643,7.4073 -38.0934,38.132 -4.8478,25.1206 -43.6729,41.8784 -2.9625,72.4303 283.881,213.0446 140.2329,367.0582 276.3409,367.0582 84.8959,0 170.1282,-203.3551 156.2016,-339.0281 -4.3615,-42.4898 -112.5939,-94.3391 -391.4866,-138.5924 z" />
        <path d="m 1056.5571,1445.2275 c 41.7777,7.3757 42.7058,64.7548 20.8573,114.1922 -20.4558,46.286 -67.5722,34.809 -63.9285,-31.7043 -26.9154,109.6148 6.0433,151.98 44.4013,133.5705 31.9265,-45.6229 57.2423,-99.0512 68.4969,-151.2601 -4.0261,-57.1123 -38.9752,-96.2027 -69.827,-64.7983 z" fill="#fff" />
        <path d="m 748.1652,1232.4291 c -16.6398,-2.6403 -32.1643,7.4073 -38.0934,38.132 -4.8478,25.1206 -43.6729,41.8784 -2.9625,72.4303 283.881,213.0446 140.2329,367.0582 276.3409,367.0582 84.8959,0 170.1282,-203.3551 156.2016,-339.0281 -4.3615,-42.4898 -112.5939,-94.3391 -391.4866,-138.5924 z" fill="none" stroke="#9f9dce" stroke-width="12" />
        <path d="m 958.334,1460.4736 c -10.2331,34.9333 -22.91365,43.6697 -12.405,59.7511 3.0443,4.6587 -2.7315,14.5737 14.8716,21.9101 9.8503,4.1053 15.8028,-2.3667 21.9387,-12.9943 13.5402,-23.4524 1.196,-42.782 -6.9575,-67.9045 -8.2397,4.4944 -12.2044,4.1065 -17.4478,-0.7624 z" fill="#f4dae4" />
        <path fill="#e09ab4" inkscape:original-d="m 958.334,1460.4736 c -10.2331,34.9333 -22.91365,43.6697 -12.40501,59.7511 3.04427,4.6587 -2.73146,14.5737 14.87161,21.9101 9.8503,4.1053 15.8028,-2.3667 21.9387,-12.9943 13.5402,-23.4524 1.196,-42.782 -6.9575,-67.9045" inkscape:path-effect="#path-effect1489" />
        <path d="m 982.04129,1534.1145 c 5.55443,-18.5061 12.63394,-28.8554 20.43401,-48.4124 -2.0682,22.4608 3.0389,32.4754 22.3389,36.575 -3.9154,11.4732 -9.048,21.0433 -16.752,31.8764 z" style="fill:#c04070;clip-path:url(#clipPath1496);opacity:.6;filter:url(#filter4450)" transform="translate(-48.75)" />
      </g>
      <path fill="#9f9dce" inkscape:original-d="m 738.9867,1250.7294 c 95.7504,75.9449 182.5914,126.3666 250.3843,139.8039 66.0605,13.0939 145.8426,-18.7024 103.1127,-44.6519" inkscape:path-effect="#path-effect1376" />
      <g clip-path="url(#clipPath1408)" transform="translate(1.25)">
        <path d="m 958.12968,1311.5005 -98.28783,304.0559" style="fill:none;stroke:#fff;stroke-width:18;stroke-opacity:.94;filter:url(#filter4760)" />
        <path d="M 846.78653,1227.965 695.185,1460.5061" style="fill:none;stroke:#fff;stroke-width:53;stroke-opacity:.312;filter:url(#filter14482)" />
      </g>
    </g>
    <g clip-path="url(#clipPath4836)">
      <path d="m 1212.7341,1070.5992 c 6.367,49.4383 43.2584,53.9327 32.0225,17.603 z" fill="#f4dae4" stroke="#e09ab4" stroke-width="3" />
      <path d="m 1054.6667,987.12585 228.2921,129.54085 c 10.1029,5.7328 25.5622,2.8584 30.7527,-5.1659 l 33.1458,-51.2411 c 5.7764,-8.93 4.4565,-24.4879 -6.4079,-30.2972 L 1133.4086,916.86495 Z" fill="#f4dae4" />
      <path d="m 1297.0339,1107.8609 c -0.8565,-28.5103 23.2273,-61.4415 41.6748,-65.7565 -18.9074,7.4897 -39.3234,37.6142 -41.6748,65.7565 z" fill="#e09ab4" />
      <path d="m 1054.6667,987.12585 228.2921,129.54085 c 10.1029,5.7328 25.5622,2.8584 30.7527,-5.1659 l 33.1458,-51.2411 c 5.7764,-8.93 4.4565,-24.4879 -6.4079,-30.2972 L 1133.4086,916.86495 Z" fill="none" stroke="#e09ab4" stroke-width="6" />
      <path d="m 1307.6646,1102.7315 111.9509,67.741 c 30.1459,18.2412 57.377,-23.5907 35.1946,-37.5591 l -115.4212,-72.6818 c -16.5492,9.39 -26.8852,22.7838 -31.7243,42.4999 z" fill="#bf8e83" />
      <path clip-path="url(#clipPath4383)" d="m 1303.7778,1075.3364 c 43.6976,40.2547 106.4633,79.2129 167.1103,101.4589 -52.7587,40.6039 -198.6341,-29.4185 -167.1103,-101.4589 z" fill="#935160" filter="url(#filter4093)" />
      <path d="m 1319.403,1089.9297 c 34.8795,25.8808 68.0811,46.1604 106.7556,66.414 -36.6169,-24.327 -68.5699,-44.7022 -106.7556,-66.414 z" fill="#884b59" />
      <path clip-path="url(#clipPath4947)" d="m 1155.7356,866.93949 190.3921,127.72019 C 1240.906,931.24656 1181.7538,935.58552 1126.5843,980.21965 l 171.8323,94.91585 c -15.2429,19.7262 -19.9265,36.3509 -7.5028,63.118 -56.8426,-42.1273 -96.4057,-61.784 -128.308,-33.9935 l -141.632,-108.75438 z" fill="url(#linearGradient5879)" filter="url(#filter4345)" />
    </g>
  </g>
</svg>