<svg xmlns="http://www.w3.org/2000/svg" xmlns:inkscape="http://www.inkscape.org/namespaces/inkscape" xmlns:xlink="http://www.w3.org/1999/xlink" height="432" viewBox="0 0 482 432" width="482">
  <defs>
    <inkscape:path-effect effect="powerstroke" id="path-effect1515" interpolator_type="CubicBezierSmooth" offset_points="0.35,2 | 3,2" start_linecap_type="zerowidth" />
    <inkscape:path-effect effect="powerstroke" end_linecap_type="zerowidth" id="path-effect1512" interpolator_type="CubicBezierSmooth" offset_points="0.35,2 | 0.66,2" start_linecap_type="zerowidth" />
    <inkscape:path-effect effect="powerstroke" end_linecap_type="zerowidth" id="path-effect999" interpolator_type="CubicBezierSmooth" offset_points="0.37,2 | 3.38,2" start_linecap_type="zerowidth" />
    <inkscape:path-effect effect="powerstroke" end_linecap_type="zerowidth" id="path-effect995" interpolator_type="CubicBezierSmooth" offset_points="0.5,2 | 3.65,2" start_linecap_type="zerowidth" />
    <inkscape:path-effect effect="powerstroke" id="path-effect948" interpolator_type="CubicBezierSmooth" offset_points="0.24,2" start_linecap_type="zerowidth" />
    <inkscape:path-effect effect="powerstroke" end_linecap_type="zerowidth" id="path-effect861" interpolator_type="CubicBezierSmooth" offset_points="0.21,2 | 1.62,2" start_linecap_type="zerowidth" />
    <linearGradient id="linearGradient828">
      <stop offset="0" stop-color="#580d36" />
      <stop offset="1" stop-color="#bc1d75" />
    </linearGradient>
    <clipPath id="clipPath842">
      <use xlink:href="#ellipse13" />
    </clipPath>
    <clipPath id="clipPath933">
      <use xlink:href="#ellipse13-5" />
    </clipPath>
    <clipPath id="clipPath1077">
      <use xlink:href="#path846" />
    </clipPath>
    <clipPath id="clipPath1107">
      <use xlink:href="#path937" />
    </clipPath>
    <linearGradient gradientUnits="userSpaceOnUse" id="linearGradient1190" x1="139.35007" x2="139.16512" y1="109.03575" y2="139.48639" xlink:href="#linearGradient828" />
    <linearGradient gradientUnits="userSpaceOnUse" id="linearGradient1192" x1="58.858917" x2="58.612007" y1="119.71586" y2="147.737" xlink:href="#linearGradient828" />
  </defs>
  <g inkscape:groupmode="layer" inkscape:label="Drawing">
    <g>
      <path d="m 248.52112,220.50306 c 28.42189,-33.94827 83.15022,-8.87292 87.14771,94.24375 3.267,-8.65409 5.13556,-16.49798 6.51129,-27.99739 4.5211,48.9164 13.73601,75.33402 33.95179,98.83053 -5.61634,-19.15688 -6.9982,-30.54664 -7.86421,-49.69182 15.41208,28.8449 33.47299,48.9742 58.98135,60.91362 -7.78925,-6.9873 -11.91937,-11.88948 -16.81693,-22.68617 20.1314,15.43648 34.34361,21.49543 52.19143,21.36392 -30.23567,-10.878 -53.49888,-37.70448 -59.0222,-96.28197 8.29852,18.15173 16.04284,30.94792 28.74189,43.24523 -22.54465,-47.29074 -19.28378,-120.49955 -54.23563,-156.82299 12.14873,1.94664 23.07976,10.0422 32.53402,18.77207 -20.81196,-65.48361 -124.99313,-78.63532 -169.8923,9.80961 z" fill="#5fbb4e" />
      <path d="m 256.416,189.97591 c -5.75064,7.02584 -11.02539,15.08288 -15.66667,24.22554 l 7.77179,6.30161 c 28.42189,-33.94827 83.15022,-8.87292 87.14771,94.24375 3.267,-8.65409 5.13556,-16.49798 6.51129,-27.99739 4.5211,48.9164 13.73601,75.33402 33.95179,98.83053 -5.61634,-19.15688 -6.9982,-30.54664 -7.86421,-49.69182 10.93837,20.47201 23.21099,36.55386 38.53336,48.4335 C 371.11324,350.52478 386.71951,272.35864 363.65771,217.63786 339.38704,160.04868 292.95232,166.63122 256.416,189.97591 Z" fill="#faf5ab" />
      <path d="m 410.43212,374.11558 c 20.1314,15.43648 34.34361,21.49543 52.19143,21.36392 -30.23567,-10.878 -53.49888,-37.70448 -59.0222,-96.28197 8.29852,18.15173 16.04284,30.94792 28.74189,43.24523 -22.54465,-47.29074 -19.28378,-120.49955 -54.23563,-156.82299 12.14873,1.94664 23.07976,10.0422 32.53402,18.77207 -16.05467,-50.51509 -81.72089,-69.88839 -131.51377,-35.50464 54.16797,-14.72896 82.43123,11.45441 95.80474,41.06112 26.54236,58.76036 12.39718,136.63168 35.49952,164.16726 z" fill="#1b98d1" />
      <path d="m 244.31232,217.32391 4.2088,3.17915 c 28.42189,-33.94827 83.15022,-8.87292 87.14771,94.24375 3.267,-8.65409 5.13556,-16.49798 6.51129,-27.99739 4.5211,48.9164 13.73601,75.33402 33.95179,98.83053 -5.61634,-19.15688 -6.9982,-30.54664 -7.86421,-49.69182 6.59828,12.34918 13.68205,23.10089 21.62789,32.29636 -28.33314,-38.72735 -19.92171,-117.04937 -50.33146,-158.78145 -24.24749,-33.27546 -67.66589,-33.80123 -95.25181,7.92087 z" fill="#ef7135" />
      <path d="m 248.52112,220.50306 c 28.42189,-33.94827 83.15022,-8.87292 87.14771,94.24375 3.267,-8.65409 5.13556,-16.49798 6.51129,-27.99739 4.5211,48.9164 13.73601,75.33402 33.95179,98.83053 -4.48497,-13.70573 -6.71816,-27.33487 -7.48132,-39.48612 -9.55701,-57.83377 -21.31786,-98.33635 -36.10559,-119.61786 -28.20667,-40.59314 -73.19937,-32.09638 -84.02388,-5.97291 z" fill="#ec4141" />
      <path d="m 406.00725,304.33638 c 7.44274,15.49235 14.8696,27.00273 26.33599,38.10638 -22.54465,-47.29074 -19.28378,-120.49955 -54.23563,-156.82299 12.14873,1.94664 23.07976,10.0422 32.53402,18.77207 -14.38346,-45.25671 -68.58738,-65.51761 -115.52202,-44.5202 100.36579,-18.19398 106.68055,114.95064 110.88764,144.46474 z" fill="#632e86" />
      <path d="m 248.52112,220.50306 c 28.42189,-33.94827 83.15022,-8.87292 87.14771,94.24375 3.267,-8.65409 5.13556,-16.49798 6.51129,-27.99739 4.5211,48.9164 13.73601,75.33402 33.95179,98.83053 -5.61634,-19.15688 -6.9982,-30.54664 -7.86421,-49.69182 15.41208,28.8449 33.47299,48.9742 58.98135,60.91362 -7.78925,-6.9873 -11.91937,-11.88948 -16.81693,-22.68617 20.1314,15.43648 34.34361,21.49543 52.19143,21.36392 -30.23567,-10.878 -53.49888,-37.70448 -59.0222,-96.28197 8.29852,18.15173 16.04284,30.94792 28.74189,43.24523 -22.54465,-47.29074 -19.28378,-120.49955 -54.23563,-156.82299 12.14873,1.94664 23.07976,10.0422 32.53402,18.77207 -20.81196,-65.48361 -124.99313,-78.63532 -169.8923,9.80961 z" style="fill:none;stroke:#1b98d1;stroke-width:4;stroke-miterlimit:20" />
    </g>
    <path d="m 124.75,277.75 c 12.1005,35.52512 13.25093,84.76079 -2.35355,128.70711 -4.26496,12.01124 59.53962,12.25993 60.98743,0.32322 4.09099,-33.72882 -1.71015,-96.78769 -30.41421,-131.12132 z m 57.5,20.75 c 50.6005,31.02512 54.66514,86.26079 36.56066,117.95711 -6.32174,11.06776 55.57075,12.07763 58.10355,0.32322 7.43863,-34.52173 -3.77338,-76.08219 -29.58983,-103.92772 -3.90526,-4.2122 -21.33299,3.77407 -16.02718,-7.84893 C 219.77998,287.76042 199.92633,288.14683 182.25,298.5 Z" fill="#8cc7e7" stroke="#5c96c9" stroke-width="4" />
    <path d="m 231.53033,399.79289 c -2.35324,20.33672 58.4852,6.3515 55.67677,-13.77296 -4.04455,-28.98221 -8.59655,-57.96798 -13.96598,-87.04138 -2.31052,-12.51057 -27.4234,-0.21865 -22.2583,-9.80354 35.87991,-66.58237 -14.20946,-102.163 -58.8379,-75.95013 -15.2114,8.93454 -24.83401,10.94221 -40.33191,8.97849 -8.4625,-12.12503 -15.27377,-29.76388 -17.35917,-47.43491 l -61.91473,7.62285 c 9.5,100.25 49.2878,135.88061 146.45672,119.00458 5.20601,3.23252 11.24354,5.62971 17.87209,7.21746 -0.34076,32.02833 -1.876,61.26449 -5.33759,91.17954 z" fill="#9bdbf5" />
    <g transform="rotate(-6.2725901 2413.1954-1962.6692)scale(.8051016)">
      <path d="M 5.4,-14.7 C 1.2,-12 -2,-8.7 -5.1,-4.1 L 3,-8.2 c -8.4,12.9 -9.5,30.5 -7.1,54.5 -22.6,-75.8 13.6,-77.2 9.5,-61 z" fill="#1b98d1" />
      <path d="M 3.9,-26.6 C -4,-19.3 -8.1,-10 -11.3,1 l 8.2,-4.3 c -5.9,14 -5,29.6 -1,49.6 C -20.5,7.1 0.7,-3.7 -21.2,10.8 -11.8,-39.7 3,-35.5 3.9,-26.6 Z" fill="#fde85f" />
      <path d="m -8.4,-36.9 c -10.5,15 -15.3,31.5 -15.1,51.5 l 11.7,-8 c -1.9,12.2 0.7,24.8 7.7,39.7 -6,-17.9 -7.4,-31.8 -3.9,-45.5 l -10.5,6.8 c 2.6,-16.4 7.6,-29.3 17,-40.7 z" fill="#ec4141" />
      <path d="m -3.1,-27.4 c -10.5,9.8 -1.1,18.9 7,8.4 -2,14.5 8.6,16.2 15,10.8 6.4,-5.4 5.8,-15.8 -2.2,-19.9 8.8,-8.6 -2.5,-19.8 -10.6,-14.6 -10.1,-10 -26,8.3 -9.2,15.3 z" fill="#fff" />
      <path d="m 5.9,-42.4 c -9.8,-9.4 -25.3,8.3 -8.1,14.8 -11.2,10 -1.6,19.3 6.9,6.6 C 1.5,-5.4 12.2,-3.1 18.6,-8.5 25,-13.9 24,-24.1 16,-28 c 8,-8 0.3,-15.6 -5.4,-15.6 -5.7,0 -9.9,6.8 -3.5,9 -12.5,12.4 8.3,18 3.7,7.7 6.4,11.5 -17.1,6.3 -5.3,-7.4 -5.1,-2.3 -2.3,-10.2 5.1,-10.2 7.4,0 13.8,9.3 6.8,16.2 7.6,4.3 8.6,14.8 1.8,20.5 -6.8,5.7 -17.3,3.4 -15.9,-9.8 -8.6,9.5 -17.1,-0.5 -7.2,-9.7 -16.5,-7.2 -0.6,-26.1 10.5,-15.7 z" fill="#1b98d1" />
    </g>
    <path fill="#6babda" inkscape:original-d="M 242.05178,309.55178 C 217.97979,305.74816 201.1771,291.82307 195.46447,266.05914" inkscape:path-effect="#path-effect1512" />
    <path d="m 236.82322,308.66697 c -0.29606,31.97471 -1.8313,61.21087 -5.29289,91.12592 -2.35324,20.33672 58.4852,6.3515 55.67677,-13.77296 -4.04455,-28.98221 -8.59655,-57.96798 -13.96598,-87.04138 -2.31052,-12.51057 -27.4234,-0.21865 -22.2583,-9.80354 35.87991,-66.58237 -14.20946,-102.16299 -58.8379,-75.95013 -15.79381,9.27662 -25.56267,11.08579 -42.21983,8.58808" fill="none" stroke="#6babda" stroke-width="4" />
    <path d="m 149.9375,219.75 4.15625,5.6875 -5.4375,-1 z" fill="#9bdbf5" />
    <path fill="#6babda" inkscape:original-d="m 155.53316,227.11581 c -10.19975,-12.13909 -18.70432,-32.22235 -21.07932,-52.34735 l -61.91473,7.62285 c 9.5,100.25 49.2878,135.88061 146.55914,119.07427" inkscape:path-effect="#path-effect1515" />
    <g>
      <path d="m 137.88583,272.37064 c 14.29285,11.09576 14.96962,33.90741 -0.88343,38.8041 -10.96027,3.3854 -20.61556,5.31951 -31.21671,12.0595 l -5.73008,-21.60705 c 8.57367,-6.98268 13.16986,-14.93764 15.82152,-28.10751" fill="#9bdbf5" />
      <path fill="#6babda" inkscape:original-d="m 137.88583,272.37064 c 14.29285,11.09576 14.96962,33.90741 -0.88343,38.8041 -10.96027,3.3854 -20.61556,5.31951 -31.21671,12.0595 l -5.73008,-21.60705 c 8.57367,-6.98268 13.16986,-14.93764 15.82152,-28.10751" inkscape:path-effect="#path-effect999" />
      <path d="m 109.88188,314.24527 c 3.81371,10.82044 11.13808,16.55423 20.7561,24.10597 17.64284,13.85257 5.2527,69.88384 -15.02602,59.35408 C 86.057464,382.3591 78.372741,338.25289 81.908271,302.72078 82.922135,292.53144 100.05561,282.97725 120.38493,289.87154" fill="#9bdbf5" />
      <path fill="#6babda" inkscape:original-d="m 109.88188,314.24527 c 3.81371,10.82044 11.13808,16.55423 20.7561,24.10597 17.64284,13.85257 5.2527,69.88384 -15.02602,59.35408 C 86.057464,382.3591 78.372741,338.25289 81.908271,302.72078 82.922135,292.53144 100.05561,282.97725 120.38493,289.87154" inkscape:path-effect="#path-effect995" />
    </g>
    <g>
      <path d="m 167.40753,236.07076 c -29.87526,25.63263 -6.24446,63.7588 30.54576,54.97127 39.18903,-9.3605 58.93349,-54.20073 51.4054,-64.66886 -4.17112,-5.80013 -32.26636,-6.09517 -61.91474,8.16726 z" fill="#9bdbf5" />
      <path fill="#6babda" inkscape:original-d="m 167.40753,236.07076 c -29.87526,25.63263 -6.24446,63.7588 30.54576,54.97127 39.18903,-9.3605 58.93349,-54.20073 51.4054,-64.66886 -4.17112,-5.80013 -32.26636,-6.09517 -61.91474,8.16726 6.26086,2.33624 9.79335,5.60293 11.79595,11.74049 16.81424,-1.33923 22.84839,12.64361 13.10812,22.77386 2.20972,8.92722 -3.52297,16.77233 -14.39473,21.98725" inkscape:path-effect="#path-effect948" />
      <path d="m 212.92753,272.90097 33.58757,-23.06935 m -32.08497,1.5026 36.68117,-21.12482 m -53.56334,12.28598 43.39868,-19.62221" fill="none" stroke="#6babda" stroke-width="2" />
    </g>
    <g>
      <g>
        <path d="m 46.669047,157.64257 c -9.928435,54.36854 15.630918,68.76151 24.395184,103.59114 9.465181,-17.78433 9.661424,-35.00716 2.846195,-56.40953 8.352513,5.49543 13.359671,10.71676 19.272339,19.28642 -0.78033,-16.1599 -8.519291,-27.79683 -29.189601,-45.25483 z" fill="#1b98d1" />
        <path d="m 47.02805,202.56396 c 5.521575,21.99822 18.333813,36.00826 24.036181,58.66975 4.326231,-8.12865 6.716078,-16.13999 7.385098,-24.48674 C 65.804386,228.27382 56.48456,215.97555 47.02805,202.56396 Z" fill="#632e86" />
        <path d="m 46.669047,157.64257 c -9.928435,54.36854 15.630918,68.76151 24.395184,103.59114 9.465181,-17.78433 9.661424,-35.00716 2.846195,-56.40953 8.352513,5.49543 13.359671,10.71676 19.272339,19.28642 -0.78033,-16.1599 -8.519291,-27.79683 -29.189601,-45.25483 z" fill="none" stroke="#1b98d1" stroke-width="4" />
      </g>
      <path d="m 34.70372,66.390076 c -11.695208,25.971739 -8.753398,77.401254 7.25505,97.041464 17.993555,22.07567 45.647185,33.08488 62.99113,31.74834 29.97682,-2.31004 63.66229,-42.3148 54.60624,-92.99405 C 143.57003,12.724802 54.761387,21.847689 34.70372,66.390076 Z" style="fill:#9bdbf5;stroke:#6babda;stroke-width:4;stroke-miterlimit:20" />
      <g clip-path="url(#clipPath1107)">
        <ellipse cx="131.70692" cy="127.62949" fill="#fff" id="path937" rx="18.280945" ry="39.685143" transform="rotate(-3.4386733)" />
        <g clip-path="url(#clipPath933)">
          <ellipse cx="133.46904" cy="124.05733" fill="url(#linearGradient1190)" id="ellipse13-5" rx="13.919314" ry="19.837069" transform="rotate(-.26702933)" />
          <path d="m 133.55581,127.40233 13.87806,11.35812 3.71735,-8.19584 z" fill="#fcb6df" />
          <path d="m 133.55581,127.40233 19.40233,-1.19303 -2.07209,7.09535 z" fill="#d9539d" />
          <ellipse cx="136.70615" cy="120.95002" rx="9.7020636" ry="15.880461" transform="rotate(1.1628795)" />
          <ellipse cx="167.91632" cy="40.327717" fill="#fff" rx="5.0246601" ry="8.49681" transform="rotate(27.924666)" />
          <ellipse cx="182.87943" cy="1.1960945" fill="#fff" rx="1.4857857" ry="2.3643053" transform="rotate(42.467144)" />
        </g>
      </g>
      <path d="m 125.59464,93.677133 c -5.05144,16.809207 -4.70428,36.114817 1.12604,52.222757 -8.92392,-14.51694 -9.35426,-36.50194 -3.94927,-53.57631 z" />
      <g clip-path="url(#clipPath1077)">
        <ellipse cx="26.854864" cy="140.77371" fill="#fff" id="path846" rx="25.844471" ry="39.535358" transform="rotate(-14.736807)" />
        <g clip-path="url(#clipPath842)">
          <ellipse cx="64.502266" cy="134.05634" fill="url(#linearGradient1192)" id="ellipse13" rx="14.08682" ry="19.0327" transform="rotate(-5.4768768)" />
          <path d="M 65.993023,144.16744 78.613954,131.6093 61.597675,136.82093 Z" fill="#fcb6df" />
          <path d="m 59.148837,133.6186 19.465117,-2.0093 -16.702326,7.72326 z" fill="#d9539d" />
          <ellipse cx="67.623627" cy="132.91815" rx="9.8933268" ry="15.00346" transform="rotate(-4.3716625)" />
          <ellipse cx="107.5648" cy="88.492065" fill="#fff" rx="4.7530084" ry="8.1821394" transform="rotate(19.743955)" />
          <ellipse cx="133.96719" cy="66.400032" fill="#fff" rx="1.4857857" ry="2.3643053" transform="rotate(32.483421)" />
        </g>
      </g>
      <path d="m 94.5,182.34419 c 4.919518,-16.31486 26.59307,-19.66808 33.0907,-1.82093 -10.99927,-1.60865 -22.84405,-1.4427 -33.0907,1.82093 z" fill="#bb1c76" />
      <path d="m 104.36056,180.12034 c 3.01918,-4.66197 11.72353,-4.92837 14.87592,-0.44399 z" fill="#ef6f2f" />
      <path d="m 123.64089,151.14082 c 2.16545,2.8115 0.42287,5.79915 -3.1535,4.88911 1.86703,-1.04814 2.98258,-2.58796 3.1535,-4.88911 z m -20.74294,1.98988 c -1.83058,3.04452 0.48078,5.5406 3.7502,3.94618 -2.0267,-0.64192 -3.09978,-1.82434 -3.7502,-3.94618 z m 0.3238,-6.67297 c 4.74257,-3.49707 11.51029,-3.77006 16.93153,-1.10237 -5.77608,-0.31167 -10.96293,-0.0646 -16.93153,1.10237 z" fill="#6babda" />
      <path d="m 94.5,182.34419 c 4.919518,-16.31486 26.59307,-19.66808 33.0907,-1.82093 -10.99927,-1.60865 -22.84405,-1.4427 -33.0907,1.82093 z" fill="none" stroke="#6babda" stroke-width="2.29999995" />
      <g>
        <path d="M 32.289475,44.80358 C 50.580399,73.090238 75.961202,96.934441 103.85371,96.956385 92.446471,89.161561 83.277462,81.519091 76.721086,71.729095 118.69681,82.487041 153.70361,107.55133 177.07847,147.22531 c 2.22589,-23.10335 -1.77903,-45.04023 -11.43871,-66.834157 6.84299,4.262447 12.23931,9.212835 18.73833,16.617009 -5.58215,-34.932633 -29.86704,-61.672739 -59.66473,-79.528066 12.625,1.375 23.71473,4.599873 37.56765,10.408378 C 131.75898,-4.3233572 71.609575,-0.24299013 32.289475,44.80358 Z" fill="#ef7135" />
        <path d="M 176.50117,71.515674 C 165.84066,48.814546 146.79003,30.708845 124.71336,17.480096 c 12.625,1.375 23.71473,4.599873 37.56765,10.408378 C 142.96462,7.5026632 111.78184,1.6526352 81.522274,11.52314 114.78408,29.117385 146.05647,49.695769 176.50117,71.515674 Z" fill="#ec4141" />
        <path d="M 65.624175,18.242165 C 53.715126,24.479724 42.324018,33.307634 32.289475,44.80358 50.580399,73.090238 75.961202,96.934441 103.85371,96.956385 92.446471,89.161561 83.277462,81.519091 76.721086,71.729095 91.77914,75.588319 105.94037,81.288612 118.98951,88.843977 103.30547,61.985109 85.609151,38.797253 65.624175,18.242165 Z" fill="#faf5ab" />
        <path d="M 32.289475,44.80358 C 50.580399,73.090238 75.961202,96.934441 103.85371,96.956385 92.446471,89.161561 83.277462,81.519091 76.721086,71.729095 118.69681,82.487041 153.70361,107.55133 177.07847,147.22531 c 2.22589,-23.10335 -1.77903,-45.04023 -11.43871,-66.834157 6.84299,4.262447 12.23931,9.212835 18.73833,16.617009 -5.58215,-34.932633 -29.86704,-61.672739 -59.66473,-79.528066 12.625,1.375 23.71473,4.599873 37.56765,10.408378 C 131.75898,-4.3233572 71.609575,-0.24299013 32.289475,44.80358 Z" style="fill:none;stroke:#1b98d1;stroke-width:4;stroke-miterlimit:20" />
        <path d="M 32.023256,120.8093 C -11.310879,95.235057 11.256171,31.768396 24.362791,30.265116 27.911428,29.858101 41.242715,46.84186 41.996204,69.697674 Z" fill="#9bdbf5" />
        <path fill="#6babda" inkscape:original-d="M 32.023256,120.8093 C -11.310879,95.235057 11.256171,31.768396 24.362791,30.265116 27.911428,29.858101 41.242715,46.84186 41.996204,69.697674" inkscape:path-effect="#path-effect861" />
        <path d="M 23.102825,53.772212 C 16.146757,68.266435 17.44074,84.272041 25.632652,97.516231 20.49318,82.981508 19.333524,68.935874 23.102825,53.772212 Z" fill="#6babda" />
      </g>
      <path d="M 43.265242,95.157333 C 26.50096,81.184997 24.94986,83.117946 40.926306,97.800936 M 38.5625,102.4375 C 11.9375,98.124999 11.375,101 37.1875,105.875 m -2.215984,11.55506 C 39.723984,91.508626 55.847684,86.509517 69.910844,97.272055 82.751637,107.09912 89.133344,127.9113 87.150414,149.77587 93.609557,128.98507 84.402136,103.50085 71.719182,94.379865 53.81756,81.505862 34.244743,91.021957 34.971516,117.43006 Z m 0.590984,-5.1832 c -22.724874,5.86964 -22.213927,8.59467 -0.40625,3.39331" />
    </g>
  </g>
</svg>