<?xml version="1.0" encoding="UTF-8" standalone="no"?>
<!-- Created with Inkscape (http://www.inkscape.org/) -->

<svg xmlns:dc="http://purl.org/dc/elements/1.1/" xmlns:cc="http://creativecommons.org/ns#" xmlns:rdf="http://www.w3.org/1999/02/22-rdf-syntax-ns#" xmlns:svg="http://www.w3.org/2000/svg" xmlns="http://www.w3.org/2000/svg" xmlns:xlink="http://www.w3.org/1999/xlink" xmlns:sodipodi="http://sodipodi.sourceforge.net/DTD/sodipodi-0.dtd" xmlns:inkscape="http://www.inkscape.org/namespaces/inkscape" id="svg3390" version="1.1" inkscape:version="0.91+devel r" width="402.6911" height="430.02573" viewBox="0 0 402.6911 430.02573" sodipodi:docname="Alicorn Seven.svg">
  <title id="title6459">Cerium Flints and the Countess of Heerenveen</title>
  <sodipodi:namedview pagecolor="#ffffff" bordercolor="#666666" borderopacity="1" objecttolerance="10" gridtolerance="10" guidetolerance="10" inkscape:pageopacity="0" inkscape:pageshadow="2" inkscape:window-width="1364" inkscape:window-height="698" id="namedview3392" showgrid="false" inkscape:zoom="1.2510879" inkscape:cx="201.34555" inkscape:cy="215.01286" inkscape:window-x="0" inkscape:window-y="0" inkscape:window-maximized="1" inkscape:current-layer="layer2" showguides="true" inkscape:object-nodes="false" inkscape:object-paths="false" inkscape:snap-nodes="true" inkscape:snap-object-midpoints="false" inkscape:snap-center="false" fit-margin-top="0" fit-margin-left="0" fit-margin-right="0" fit-margin-bottom="0" />
  <metadata id="metadata3396">
    <rdf:RDF>
      <cc:Work rdf:about="">
        <dc:format>image/svg+xml</dc:format>
        <dc:type rdf:resource="http://purl.org/dc/dcmitype/StillImage" />
        <dc:title>Cerium Flints and the Countess of Heerenveen</dc:title>
        <dc:date>28 January 2015</dc:date>
        <dc:creator>
          <cc:Agent>
            <dc:title>Parcly Taxel / Jeremy Tan</dc:title>
          </cc:Agent>
        </dc:creator>
        <dc:rights>
          <cc:Agent>
            <dc:title>CC BY-SA 4.0 / FAL 1.3</dc:title>
          </cc:Agent>
        </dc:rights>
        <dc:subject>
          <rdf:Bag>
            <rdf:li>White Flare (Countess of Heerenveen) flying</rdf:li>
          </rdf:Bag>
        </dc:subject>
      </cc:Work>
    </rdf:RDF>
  </metadata>
  <defs id="defs3394">
    <linearGradient inkscape:collect="always" id="linearGradient4243">
      <stop style="stop-color:#00a1e3;stop-opacity:1" offset="0" id="stop4245" />
      <stop style="stop-color:#0080e6;stop-opacity:1" offset="1" id="stop4247" />
    </linearGradient>
    <linearGradient inkscape:collect="always" id="linearGradient4235">
      <stop style="stop-color:#8dcbff;stop-opacity:1" offset="0" id="stop4237" />
      <stop style="stop-color:#5ab3ff;stop-opacity:1" offset="1" id="stop4239" />
    </linearGradient>
    <inkscape:path-effect effect="envelope" id="path-effect3423" is_visible="true" yy="false" xx="true" bendpath1="m -248.1123,249.20861 29.78461,0" bendpath2="m -223.33832,249.88261 c 5.45271,8.38525 4.99609,19.69247 0.74492,29.5986" bendpath3="m -248.1123,278.99321 29.78461,0" bendpath4="m -249.5328,252.58505 c 3.40504,8.21637 2.96211,17.37047 0.66379,26.09142" bendpath2-nodetypes="cc" bendpath4-nodetypes="cc" />
    <inkscape:path-effect effect="powerstroke" id="path-effect5041" is_visible="true" offset_points="0.22,2.5 | 5.78,2.5" sort_points="true" interpolator_type="CubicBezierSmooth" interpolator_beta="0.2" start_linecap_type="zerowidth" linejoin_type="extrp_arc" miter_limit="20" end_linecap_type="zerowidth" />
    <inkscape:path-effect effect="powerstroke" id="path-effect4333" is_visible="true" offset_points="0.92,2.5 | 2.82,2.5" sort_points="true" interpolator_type="CubicBezierSmooth" interpolator_beta="0.2" start_linecap_type="zerowidth" linejoin_type="extrp_arc" miter_limit="4" end_linecap_type="zerowidth" />
    <inkscape:path-effect effect="powerstroke" id="path-effect4329" is_visible="true" offset_points="0.48,2.5" sort_points="true" interpolator_type="CubicBezierSmooth" interpolator_beta="0.2" start_linecap_type="zerowidth" linejoin_type="extrp_arc" miter_limit="4" end_linecap_type="zerowidth" />
    <inkscape:path-effect effect="powerstroke" id="path-effect4323" is_visible="true" offset_points="0.5,2.5" sort_points="true" interpolator_type="CubicBezierSmooth" interpolator_beta="0.2" start_linecap_type="zerowidth" linejoin_type="extrp_arc" miter_limit="4" end_linecap_type="butt" />
    <inkscape:path-effect effect="powerstroke" id="path-effect4321" is_visible="true" offset_points="1.74,2.5" sort_points="true" interpolator_type="CubicBezierSmooth" interpolator_beta="0.2" start_linecap_type="butt" linejoin_type="extrp_arc" miter_limit="4" end_linecap_type="zerowidth" />
    <inkscape:path-effect effect="powerstroke" id="path-effect3489" is_visible="true" offset_points="0.92,2.5 | 2.82,2.5" sort_points="true" interpolator_type="CubicBezierSmooth" interpolator_beta="0.2" start_linecap_type="zerowidth" linejoin_type="extrp_arc" miter_limit="4" end_linecap_type="zerowidth" />
    <inkscape:path-effect effect="powerstroke" id="path-effect3487" is_visible="true" offset_points="0.16,2.5" sort_points="true" interpolator_type="CubicBezierSmooth" interpolator_beta="0.2" start_linecap_type="zerowidth" linejoin_type="extrp_arc" miter_limit="4" end_linecap_type="butt" />
    <inkscape:path-effect effect="powerstroke" id="path-effect3396" is_visible="true" offset_points="0.83,2.5 | 1.77,2.5" sort_points="true" interpolator_type="CubicBezierSmooth" interpolator_beta="0.2" start_linecap_type="zerowidth" linejoin_type="extrp_arc" miter_limit="4" end_linecap_type="zerowidth" />
    <inkscape:path-effect effect="powerstroke" id="path-effect8652" is_visible="true" offset_points="0.15,2.5 | 1.7,2.5" sort_points="true" interpolator_type="CubicBezierSmooth" interpolator_beta="0.2" start_linecap_type="zerowidth" linejoin_type="extrp_arc" miter_limit="4" end_linecap_type="zerowidth" />
    <linearGradient inkscape:collect="always" id="linearGradient4212">
      <stop style="stop-color:#3da5ff;stop-opacity:1" offset="0" id="stop4214" />
      <stop style="stop-color:#7ac2ff;stop-opacity:1" offset="1" id="stop4216" />
    </linearGradient>
    <clipPath clipPathUnits="userSpaceOnUse" id="clipPath4230">
      <use x="0" y="0" xlink:href="#ellipse4175" id="use4232" width="100%" height="100%" />
    </clipPath>
    <clipPath clipPathUnits="userSpaceOnUse" id="clipPath7014">
      <use x="0" y="0" xlink:href="#path4162" id="use7016" width="100%" height="100%" />
    </clipPath>
    <clipPath clipPathUnits="userSpaceOnUse" id="clipPath7866">
      <use x="0" y="0" xlink:href="#path7616" id="use7868" width="100%" height="100%" />
    </clipPath>
    <clipPath clipPathUnits="userSpaceOnUse" id="clipPath8635">
      <use x="0" y="0" xlink:href="#path8541" id="use8637" width="100%" height="100%" />
    </clipPath>
    <linearGradient inkscape:collect="always" xlink:href="#linearGradient4235" id="linearGradient4241" x1="203.60909" y1="121.34315" x2="322.89816" y2="31.926785" gradientUnits="userSpaceOnUse" />
    <linearGradient inkscape:collect="always" xlink:href="#linearGradient4243" id="linearGradient4249" x1="203.60909" y1="121.34315" x2="322.89816" y2="31.926785" gradientUnits="userSpaceOnUse" />
    <linearGradient inkscape:collect="always" xlink:href="#linearGradient4243" id="linearGradient4257" x1="203.60909" y1="121.34315" x2="322.89816" y2="31.926785" gradientUnits="userSpaceOnUse" />
    <clipPath clipPathUnits="userSpaceOnUse" id="clipPath4261">
      <path sodipodi:nodetypes="ccc" inkscape:connector-curvature="0" id="path4263" d="m 221.9783,51.200573 c 12.8227,-2.921258 22.47492,-8.842582 28.28755,-18.184276 -44.17591,-77.75141 -64.33702,-65.205758 -28.28755,18.184276 z" style="opacity:1;fill:none;fill-opacity:1;fill-rule:nonzero;stroke:black;stroke-width:1;stroke-linecap:butt;stroke-linejoin:miter;stroke-miterlimit:20;stroke-dasharray:none;stroke-dashoffset:7.80000019;stroke-opacity:1" />
    </clipPath>
    <linearGradient inkscape:collect="always" xlink:href="#linearGradient4243" id="linearGradient4278" x1="399.66431" y1="139.59624" x2="357.61053" y2="50.179874" gradientUnits="userSpaceOnUse" />
    <linearGradient inkscape:collect="always" xlink:href="#linearGradient4235" id="linearGradient4286" x1="399.66431" y1="139.59624" x2="357.61053" y2="50.179874" gradientUnits="userSpaceOnUse" />
    <linearGradient inkscape:collect="always" xlink:href="#linearGradient4235" id="linearGradient4294" x1="510.64813" y1="357.32111" x2="490.12299" y2="183.28416" gradientUnits="userSpaceOnUse" />
    <linearGradient inkscape:collect="always" xlink:href="#linearGradient4243" id="linearGradient4302" x1="510.64813" y1="357.32111" x2="490.12299" y2="183.28416" gradientUnits="userSpaceOnUse" />
    <linearGradient inkscape:collect="always" xlink:href="#linearGradient4243" id="linearGradient4304" gradientUnits="userSpaceOnUse" x1="201.30453" y1="122.26497" x2="294.32178" y2="48.519512" />
    <linearGradient inkscape:collect="always" xlink:href="#linearGradient4235" id="linearGradient4306" gradientUnits="userSpaceOnUse" x1="201.30453" y1="122.26497" x2="294.32178" y2="48.519512" />
    <linearGradient inkscape:collect="always" xlink:href="#linearGradient4243" id="linearGradient4308" gradientUnits="userSpaceOnUse" x1="201.30453" y1="122.26497" x2="294.32178" y2="48.519512" />
    <linearGradient inkscape:collect="always" xlink:href="#linearGradient4235" id="linearGradient6447" gradientUnits="userSpaceOnUse" x1="399.66431" y1="139.59624" x2="357.61053" y2="50.179874" />
    <linearGradient inkscape:collect="always" xlink:href="#linearGradient4243" id="linearGradient6449" gradientUnits="userSpaceOnUse" x1="399.66431" y1="139.59624" x2="357.61053" y2="50.179874" />
    <linearGradient inkscape:collect="always" xlink:href="#linearGradient4235" id="linearGradient6451" gradientUnits="userSpaceOnUse" x1="510.64813" y1="357.32111" x2="490.12299" y2="183.28416" />
    <linearGradient inkscape:collect="always" xlink:href="#linearGradient4243" id="linearGradient6453" gradientUnits="userSpaceOnUse" x1="510.64813" y1="357.32111" x2="490.12299" y2="183.28416" />
    <linearGradient inkscape:collect="always" xlink:href="#linearGradient4212" id="linearGradient6455" gradientUnits="userSpaceOnUse" x1="290.77905" y1="-9.6754732" x2="295.37918" y2="33.064964" />
    <linearGradient inkscape:collect="always" xlink:href="#linearGradient4212" id="linearGradient6457" gradientUnits="userSpaceOnUse" x1="103.96705" y1="-212.58157" x2="139.39993" y2="-211.90544" />
  </defs>
  <g inkscape:label="Drawing" id="layer2" inkscape:groupmode="layer" transform="translate(-181.94636,13.178407)">
    <g id="g6328">
      <path inkscape:transform-center-y="-85.636407" inkscape:transform-center-x="-57.552763" id="path5054" style="fill:#e4eaf0;fill-opacity:1;stroke:#c9d2db;stroke-width:5;stroke-miterlimit:20;stroke-dasharray:none;stroke-opacity:1" d="m 357.71684,194.15684 c 81.44683,-13.27477 91.68851,-54.88827 52.90698,-46.63491 87.74716,-56.60012 65.69363,-81.499521 12.54276,-48.311856 80.21473,-93.2172451 32.38044,-111.42357 -18.20583,-30.951201 10.92815,-27.927772 22.29715,-52.52318 11.16911,-57.969305 -5.9692,-2.9213262 -21.29521,6.51099 -29.98778,21.678043 -30.07529,52.47634 -9.79509,112.234359 -41.23575,151.801199 z" inkscape:connector-curvature="0" sodipodi:nodetypes="ccccsscc" clip-path="none" />
      <g id="g4343">
        <path style="opacity:1;fill:#e4eaf0;fill-opacity:1;fill-rule:nonzero;stroke:none;stroke-width:5;stroke-linecap:butt;stroke-linejoin:miter;stroke-miterlimit:4;stroke-dasharray:none;stroke-dashoffset:7.80000019;stroke-opacity:1" d="m 300.24215,319.44411 c 3.81826,23.41819 -49.44125,72.90535 -51.53962,44.45012 -7.49833,-101.68225 42.69702,-135.17816 68.78333,-96.53853 3.14211,-4.36757 6.18478,-9.01986 9.4659,-14.06414 l 22.21453,6.90198 c 9.0099,57.88975 -24.75284,72.30187 -49.62595,42.07205 -0.34244,6.0205 -0.10045,12.25839 0.70181,17.17852 z" id="path4335" inkscape:connector-curvature="0" sodipodi:nodetypes="ssccccs" />
        <path sodipodi:nodetypes="cccc" inkscape:connector-curvature="0" id="path4165-8" d="m 317.23769,267.60469 c 3.26185,-4.4202 6.36364,-9.1623 9.71407,-14.31313 l 22.21453,6.90198 c 9.24909,59.42657 -26.57561,73.03644 -51.50172,39.55338" style="opacity:1;fill:none;fill-opacity:1;fill-rule:nonzero;stroke:#c9d2db;stroke-width:5;stroke-linecap:butt;stroke-linejoin:miter;stroke-miterlimit:4;stroke-dasharray:none;stroke-dashoffset:7.80000019;stroke-opacity:1" />
        <path style="opacity:1;fill:#e4eaf0;fill-opacity:1;fill-rule:nonzero;stroke:none;stroke-width:5;stroke-linecap:butt;stroke-linejoin:miter;stroke-miterlimit:4;stroke-dasharray:none;stroke-dashoffset:7.80000019;stroke-opacity:1" d="m 299.5625,297.5 -0.375,10.25 -5.875,-6.6875 z" id="path4341" inkscape:connector-curvature="0" />
        <path sodipodi:nodetypes="cssc" inkscape:connector-curvature="0" id="path4167-2" d="m 300.94171,289.54327 c 0,0 -1.01272,1.20272 -2.13991,5.3737 -0.98762,3.65446 -2.58666,12.56168 -1.34822,22.6673 0.0845,0.6897 0.18987,1.45694 0.32115,2.26214 0.68175,4.18142 -0.70579,10.60099 -5.82398,19.13867 -4.06699,6.78416 -10.10814,14.16167 -16.92836,20.27502 -3.09436,2.77365 -6.25778,5.19822 -9.2693,7.04445 -3.03688,1.86177 -5.78762,3.05321 -8.04668,3.48692 -2.19782,0.42196 -3.59568,0.0716 -4.46516,-0.62644 -0.89414,-0.71782 -1.81024,-2.26452 -2.04549,-5.45466 -4.31313,-58.48896 10.58502,-89.95196 24.2811,-102.10269 8.88848,-7.88557 17.44898,-8.36397 23.81146,-6.28022 2.39485,0.78433 4.56078,1.94279 6.48247,3.27821 5.88018,4.08629 10.521,9.94434 13.00098,13.14169 2.76419,3.56377 4.05288,5.22675 4.05288,5.22675 0,0 -0.13185,-2.12242 -1.88158,-6.46591 -1.57509,-3.91 -5.242,-11.0914 -12.31874,-16.00858 -2.25092,-1.56402 -4.84961,-2.96416 -7.77981,-3.92382 -8.07176,-2.64355 -18.48382,-1.7593 -28.68587,7.29163 -7.79556,6.91597 -15.28206,18.55556 -20.37035,36.01525 -5.09008,17.46583 -7.75104,40.74101 -5.579,70.19537 0.28772,3.90173 1.48506,7.04583 3.90183,8.986 2.43859,1.95768 5.52293,2.21661 8.53801,1.63774 3.08236,-0.59177 6.41409,-2.11057 9.7142,-4.13338 3.32818,-2.04001 6.73152,-4.65863 9.99637,-7.5851 7.176,-6.43225 13.54309,-14.19384 17.87948,-21.42737 5.365,-8.94938 7.42764,-16.64293 6.47038,-22.51412 -0.11869,-0.72795 -0.215,-1.42835 -0.29307,-2.06562 -0.55245,-4.50977 -0.78216,-9.48678 -0.90341,-13.02422 -0.0961,-2.8028 -0.19683,-7.55922 -0.22907,-8.73456 -0.11434,-4.16903 -0.34231,-5.67415 -0.34231,-5.67415 z" style="opacity:1;fill:#c9d2db;fill-opacity:1;fill-rule:nonzero;stroke:none;stroke-width:5;stroke-linecap:butt;stroke-linejoin:miter;stroke-miterlimit:4;stroke-dasharray:none;stroke-dashoffset:7.80000019;stroke-opacity:1" inkscape:path-effect="#path-effect4333" inkscape:original-d="m 300.94171,289.54327 c -1.78473,8.36738 -2.1188,21.19634 -0.69956,29.90084 3.81819,23.4182 -49.44125,72.90535 -51.53962,44.45012 -8.04417,-109.08423 50.31071,-139.69352 74.12212,-86.92012" />
      </g>
      <path sodipodi:nodetypes="csscc" inkscape:connector-curvature="0" id="path7031" d="m 385.05311,258.39893 c -25.09025,37.65412 -38.19531,83.3682 -38.19531,133.94989 0,25.12872 65.21613,-7.17575 59.88,-34.0109 -7.1683,-36.04904 4.13668,-76.17115 12.40104,-106.64804 z" style="opacity:1;fill:#e4eaf0;fill-opacity:1;fill-rule:nonzero;stroke:#c9d2db;stroke-width:5;stroke-linecap:butt;stroke-linejoin:miter;stroke-miterlimit:4;stroke-dasharray:none;stroke-dashoffset:7.80000019;stroke-opacity:1" />
      <g id="g6058">
        <path style="opacity:1;fill:url(#linearGradient6447);fill-opacity:1;fill-rule:nonzero;stroke:url(#linearGradient6449);stroke-width:5;stroke-linecap:butt;stroke-linejoin:miter;stroke-miterlimit:20;stroke-dasharray:none;stroke-dashoffset:7.80000019;stroke-opacity:1" d="m 293.0811,6.2120729 c 42.79146,-33.1154899 97.20476,-7.655223 88.78266,52.9046781 -6.19765,44.564819 2.01697,74.227539 30.05197,85.940959 -64.92681,22.58453 -122.19411,-18.28367 -114.9292,-106.5398 z" id="path4231" inkscape:connector-curvature="0" sodipodi:nodetypes="csccc" />
        <use x="0" y="0" xlink:href="#path5854" id="use5858-5" transform="matrix(0.4547163,-0.53361849,0.53361849,0.4547163,239.12101,269.86475)" width="100%" height="100%" />
        <use height="100%" width="100%" transform="matrix(0.39333271,-0.15565226,0.15565226,0.39333271,291.92576,170.35899)" id="use5860-6" xlink:href="#path5854" y="0" x="0" />
        <use x="0" y="0" xlink:href="#path5854" id="use5862-2" transform="matrix(0.89142517,-0.62188742,0.62188742,0.89142517,85.258141,131.33935)" width="100%" height="100%" />
        <use height="100%" width="100%" transform="matrix(0.46271871,0.15894814,-0.15894814,0.46271871,238.7196,-40.614803)" id="use5864-1" xlink:href="#path5854" y="0" x="0" />
        <use x="0" y="0" xlink:href="#path5854" id="use5866-9" transform="matrix(0.18174749,0.20876783,-0.20876783,0.18174749,341.38219,59.682751)" width="100%" height="100%" />
        <use height="100%" width="100%" transform="matrix(0.27459761,0.61205049,-0.61205049,0.27459761,325.60504,-139.78234)" id="use5868-9" xlink:href="#path5854" y="0" x="0" />
        <use x="0" y="0" xlink:href="#path5854" id="use5870-0" transform="matrix(0.31192965,0.13003752,-0.13003752,0.31192965,297.36813,16.773379)" width="100%" height="100%" />
        <use height="100%" width="100%" transform="matrix(0.58851661,-0.44946159,0.44946159,0.58851661,173.43165,182.25791)" id="use5872-7" xlink:href="#path5854" y="0" x="0" />
        <use height="100%" width="100%" transform="matrix(0.47762099,0.07165619,-0.07165619,0.47762099,254.27067,74.00519)" id="use5874-0" xlink:href="#path5854" y="0" x="0" />
        <use height="100%" width="100%" transform="matrix(0.12806304,0.21140047,-0.21140047,0.12806304,305.51823,-22.594453)" id="use6028" xlink:href="#path5854" y="0" x="0" />
        <use x="0" y="0" xlink:href="#path5854" id="use6030" transform="matrix(0.76627721,0.42114575,-0.42114575,0.76627721,169.05149,-18.812366)" width="100%" height="100%" />
        <use height="100%" width="100%" transform="matrix(0.32979837,-0.05795406,0.05795406,0.32979837,274.65438,135.504)" id="use6032" xlink:href="#path5854" y="0" x="0" />
        <use height="100%" width="100%" transform="matrix(0.34306966,0.02356325,-0.02356325,0.34306966,263.56315,-17.762424)" id="use6043" xlink:href="#path5854" y="0" x="0" />
        <use x="0" y="0" xlink:href="#path5854" id="use6076" transform="matrix(0.34578463,0.28899992,-0.28899992,0.34578463,280.70001,-5.1841782)" width="100%" height="100%" />
      </g>
      <g id="g6290">
        <path style="opacity:1;fill:url(#linearGradient6451);fill-opacity:1;fill-rule:nonzero;stroke:url(#linearGradient6453);stroke-width:5;stroke-linecap:butt;stroke-linejoin:miter;stroke-miterlimit:20;stroke-dasharray:none;stroke-dashoffset:7.80000019;stroke-opacity:1" d="m 404.78263,174.56982 c 59.67066,-93.81631 187.82624,-51.58223 147.57132,30.19849 -23.52793,47.79866 57.83779,44.07117 19.23008,82.67887 -28.94695,28.94694 -22.01115,64.85108 -72.47719,81.68336 21.13398,-61.9312 -50.99507,-59.70486 -37.19916,-113.7027 11.6946,-45.77321 -14.65825,-76.34157 -46.66311,-65.3724 z" id="path4229" inkscape:connector-curvature="0" sodipodi:nodetypes="csscscc" />
        <use x="0" y="0" xlink:href="#path5854" id="use5858-55" transform="matrix(-0.59008229,0.20970622,-0.20970622,-0.59008229,690.34346,264.3805)" width="100%" height="100%" />
        <use height="100%" width="100%" transform="matrix(-0.16302862,-0.41197291,0.41197291,-0.16302862,506.4503,408.73216)" id="use5860-0" xlink:href="#path5854" y="0" x="0" />
        <use x="0" y="0" xlink:href="#path5854" id="use5862-7" transform="matrix(-0.39410632,0.7237755,-0.7237755,-0.39410632,656.9866,-9.7746385)" width="100%" height="100%" />
        <use height="100%" width="100%" transform="matrix(-0.46707,0.22822863,-0.22822863,-0.46707,635.0087,150.3446)" id="use5864-7" xlink:href="#path5854" y="0" x="0" />
        <use x="0" y="0" xlink:href="#path5854" id="use5866-5" transform="matrix(-0.1833725,-0.21063431,0.21063431,-0.1833725,491.97924,248.17706)" width="100%" height="100%" />
        <use height="100%" width="100%" transform="matrix(-0.70367499,0.11351028,-0.11351028,-0.70367499,713.37664,129.21843)" id="use5868-1" xlink:href="#path5854" y="0" x="0" />
        <use x="0" y="0" xlink:href="#path5854" id="use5870-4" transform="matrix(-0.3320583,0.13665896,-0.13665896,-0.3320583,569.44416,140.41852)" width="100%" height="100%" />
        <use height="100%" width="100%" transform="matrix(-0.97549454,5.6521668e-4,-5.6521668e-4,-0.97549454,690.57035,216.87434)" id="use5872-3" xlink:href="#path5854" y="0" x="0" />
        <use height="100%" width="100%" transform="matrix(-0.07001647,-0.54134034,0.54134034,-0.07001647,489.98631,421.83757)" id="use5874-4" xlink:href="#path5854" y="0" x="0" />
        <use x="0" y="0" xlink:href="#path5854" id="use5880-8" transform="matrix(0.1041106,0.60815777,-0.60815777,0.1041106,483.98684,-31.153137)" width="100%" height="100%" />
        <use height="100%" width="100%" transform="matrix(-0.06303961,-0.78963928,0.78963928,-0.06303961,530.56404,440.979)" id="use5858-5-5" xlink:href="#path5854" y="0" x="0" />
        <use x="0" y="0" xlink:href="#path5854" id="use5864-1-3" transform="matrix(-0.34133848,-0.39208512,0.39208512,-0.34133848,548.54687,359.17794)" width="100%" height="100%" />
        <use height="100%" width="100%" transform="matrix(0.37238477,0.02576579,-0.02576579,0.37238477,431.17914,188.13043)" id="use5866-9-3" xlink:href="#path5854" y="0" x="0" />
        <use x="0" y="0" xlink:href="#path5854" id="use5868-9-1" transform="matrix(0.56922106,0.05818594,-0.05818594,0.56922106,417.22727,231.68194)" width="100%" height="100%" />
        <use height="100%" width="100%" transform="matrix(0.29919867,0.04008278,-0.04008278,0.29919867,490.58523,264.9468)" id="use5870-0-2" xlink:href="#path5854" y="0" x="0" />
        <use x="0" y="0" xlink:href="#path5854" id="use5872-7-6" transform="matrix(0.62531389,-0.47756438,0.47756438,0.62531389,332.94091,436.25471)" width="100%" height="100%" />
        <use x="0" y="0" xlink:href="#path5854" id="use5874-0-1" transform="matrix(0.43885014,-0.32434933,0.32434933,0.43885014,334.27008,253.97706)" width="100%" height="100%" />
        <use x="0" y="0" xlink:href="#path5854" id="use6028-5" transform="matrix(-0.17844068,-0.17107765,0.17107765,-0.17844068,539.16526,336.37946)" width="100%" height="100%" />
        <use height="100%" width="100%" transform="matrix(0.94870266,-0.27574599,0.27574599,0.94870266,230.44008,287.32038)" id="use6030-0" xlink:href="#path5854" y="0" x="0" />
        <use x="0" y="0" xlink:href="#path5854" id="use6032-2" transform="matrix(0.30356658,-0.22582076,0.22582076,0.30356658,428.43195,280.20057)" width="100%" height="100%" />
        <use x="0" y="0" xlink:href="#path5854" id="use6043-1" transform="matrix(0.49712409,-0.36479936,0.36479936,0.49712409,412.43759,254.65388)" width="100%" height="100%" />
        <use height="100%" width="100%" transform="matrix(0.33548346,0.34165636,-0.34165636,0.33548346,371.62654,40.897003)" id="use6076-9" xlink:href="#path5854" y="0" x="0" />
        <use height="100%" width="100%" transform="matrix(0.02014886,-0.3126449,0.3126449,0.02014886,520.28516,417.28425)" id="use6265" xlink:href="#path5854" y="0" x="0" />
      </g>
      <path style="opacity:1;fill:#eef2f6;fill-opacity:1;fill-rule:nonzero;stroke:none;stroke-width:5;stroke-linecap:butt;stroke-linejoin:miter;stroke-miterlimit:4;stroke-dasharray:none;stroke-dashoffset:7.80000019;stroke-opacity:1" d="m 399.35227,272.71283 c -18.22177,40.9016 -21.94032,89.5529 -10.83903,132.92783 6.47279,25.29047 69.42885,-10.22055 59.88,-34.0109 -14.33837,-35.72313 -17.39971,-68.58381 -14.34997,-106.88259 0.27053,-3.39728 -5.46281,-5.38476 -12.89893,-4.81393 2.4575,-11.86379 7.88486,-25.06862 7.82896,-39.70405 -0.21139,-55.29373 -41.28932,-63.54711 -81.70103,-41.35936 -1.88794,-31.91612 9.11756,-54.04401 1.64956,-91.304893 -19.49458,-97.2664195 -168.85355,-59.873451 -135.01729,46.581483 -3.92764,1.25869 -6.59027,2.59225 -6.15905,5.8391 3.75381,28.26422 39.58027,46.23305 75.41699,40.91906 -16.92143,73.61352 52.44964,123.58098 111.31921,82.35074 1.46465,3.29739 3.09592,6.48894 4.87058,9.45751 z" id="path4361" inkscape:connector-curvature="0" sodipodi:nodetypes="cssscscscsccc" />
      <g inkscape:path-effect="#path-effect3423" transform="matrix(1.008082,-0.11278208,0.25332318,2.5092762,577.16386,-478.60334)" id="g3479">
        <path inkscape:original-d="m -235.01423,278.99321 c 5.29423,-8.83012 -8.66987,-25.01666 3.58846,-29.7846 -5.29423,8.83012 8.66987,25.01666 -3.58846,29.7846 z m 7.68653,-1.09807 c 0.16988,-10.29423 -20.01666,-17.33013 -11.7846,-27.58846 -0.16988,10.29423 20.01666,17.33013 11.7846,27.58846 z m 6.1077,-4.79423 c -5,-9 -26,-5 -24,-18 5,9 26,5 24,18 z m 2.89231,-7.20578 c -8.83013,-5.29423 -25.01666,8.66987 -29.78461,-3.58846 8.83013,5.29423 25.01666,-8.66987 29.78461,3.58846 z m -1.09808,-7.68652 c -10.29423,-0.16988 -17.33013,20.01666 -27.58846,11.7846 10.29423,0.16988 17.33013,-20.01666 27.58846,-11.7846 z m -4.79423,-6.1077 c -9,5 -5,26 -18,24 9,-5 5,-26 18,-24 z" inkscape:connector-curvature="0" d="m -236.67945,277.79838 c 3.56197,-3.83853 2.65181,-9.28688 1.23281,-14.38346 -1.44009,-5.17232 -2.98897,-8.89412 1.33308,-11.36866 -0.49173,3.38659 2.54167,8.78481 3.52262,13.88251 1.04093,5.40941 -0.0851,9.93272 -6.08851,11.86961 z m 7.0603,-0.60718 c 1.61064,-4.78607 -2.47703,-8.80154 -6.18956,-12.43794 -1.87287,-1.83445 -3.60758,-3.57437 -4.61747,-5.46966 -1.01025,-1.89593 -1.21419,-3.80362 -0.14592,-5.85545 1.70917,4.29225 6.45509,7.10746 10.39431,11.11576 1.86137,1.89401 3.31273,3.91187 3.62903,6.09834 0.31602,2.18453 -0.52829,4.41088 -3.07039,6.54895 z m 6.70238,-3.99926 c -1.19465,-4.67242 -7.52525,-5.81167 -12.54656,-7.12162 -5.42773,-1.41599 -9.22935,-3.00276 -9.57517,-8.70024 3.35343,3.90796 8.91813,4.45882 14.46694,5.82427 2.6335,0.64805 5.09291,1.47358 6.65416,3.00535 1.54738,1.51816 2.23972,3.80862 1.00063,6.99224 z m 3.75998,-7.2188 c -1.97994,-1.35607 -4.53767,-1.34272 -7.15207,-0.9126 -2.52924,0.41611 -5.58791,1.32887 -8.1783,1.95924 -2.69265,0.65526 -5.29456,1.13014 -7.40656,0.80192 -2.17301,-0.3377 -3.75438,-1.47137 -5.00822,-4.16262 4.11476,2.1383 10.03963,0.0433 15.25535,-1.39988 2.59692,-0.71856 5.1631,-1.32831 7.32493,-1.02915 2.13113,0.29492 4.20912,1.55437 5.16487,4.74309 z m -1.59494,-7.76456 c -2.30638,0.26385 -4.28186,1.70545 -6.22214,3.43313 -2.51897,2.24294 -3.42616,3.37527 -6.13509,5.70612 -2.14013,1.84143 -4.36074,3.41067 -6.53758,4.12996 -2.18193,0.72096 -4.30341,0.60017 -6.45469,-1.04026 4.76715,-0.26549 9.28109,-4.7471 13.02606,-8.45981 1.85739,-1.84139 3.61787,-3.56888 5.47493,-4.43799 1.82886,-0.8559 4.12136,-1.03505 6.84851,0.66885 z m -6.03423,-4.89203 c -2.58362,2.52981 -2.98202,8.64057 -4.89185,13.63836 -2.01689,5.27795 -5.21243,9.05105 -10.88748,8.52973 4.73056,-2.4538 6.73521,-7.90312 8.10676,-13.08181 0.65458,-2.47157 1.16352,-4.77411 2.14333,-6.34728 0.98895,-1.58784 2.55783,-2.62303 5.52924,-2.739 z" style="fill:#63b7ff" id="use3436" />
        <path inkscape:connector-curvature="0" inkscape:original-d="m -226.42,264.10092 a 6.8000002,6.8000002 0 0 1 -6.8,6.8 6.8000002,6.8000002 0 0 1 -6.8,-6.8 6.8000002,6.8000002 0 0 1 6.8,-6.8 6.8000002,6.8000002 0 0 1 6.8,6.8 z" id="circle3438" d="m -226.65932,264.39138 c -0.003,3.63515 -3.4109,6.32329 -6.81729,6.34064 -3.44851,0.0176 -5.8465,-2.54512 -5.84782,-5.81573 -0.001,-3.28355 2.3801,-5.93156 5.81745,-6.19301 3.4206,-0.26017 6.85033,2.02862 6.84766,5.6681 z" style="fill:#deefff;stroke:#a5d4ff" />
      </g>
      <path inkscape:original-d="m 420.12593,270.33779 c -0.36621,-14.30817 8.92046,-30.98742 8.84737,-50.1086 -0.21137,-55.29373 -41.28932,-63.54711 -81.8393,-41.3464" inkscape:path-effect="#path-effect4323" sodipodi:nodetypes="csc" inkscape:connector-curvature="0" id="path4160" d="m 420.12593,270.33779 c 0,0 0.48814,-1.37313 1.44477,-4.65281 -1.35829,4.65675 4.90226,-16.57358 5.27524,-17.9465 2.6793,-9.86217 4.66282,-18.23846 4.62734,-27.51885 -0.0645,-16.86446 -3.84041,-28.55982 -8.9627,-36.60405 -5.14923,-8.08654 -11.84331,-12.79485 -18.39444,-15.43837 -8.76294,-3.53604 -17.87771,-3.65249 -25.20605,-2.76358 -7.39858,0.89743 -13.98127,2.93506 -18.76845,4.72586 -9.98338,3.7346 -14.20821,6.55044 -14.20821,6.55044 l 2.40114,4.38572 c 0,0 4.06459,-2.70148 13.55944,-6.2533 4.56381,-1.70723 10.74472,-3.61182 17.62072,-4.44563 6.84304,-0.82981 15.0268,-0.67134 22.73039,2.43722 5.69893,2.29964 11.52079,6.37783 16.05144,13.49715 4.51339,7.09221 8.11513,17.80794 8.17676,33.92764 0.0326,8.52611 -1.7845,16.41405 -4.43987,26.19953 -2.68147,9.88162 -3.24339,14.81919 -2.94951,18.99223 0.25502,3.62116 1.04199,4.9073 1.04199,4.9073 z" style="opacity:1;fill:#c9d2db;fill-opacity:1;fill-rule:nonzero;stroke:none;stroke-width:5;stroke-linecap:butt;stroke-linejoin:miter;stroke-miterlimit:4;stroke-dasharray:none;stroke-dashoffset:7.80000019;stroke-opacity:1" />
      <path inkscape:original-d="M 214.45545,135.3513 C 178.84882,27.998482 329.34781,-10.097851 348.92183,87.564937 c 8.6655,43.235733 -7.54201,66.096153 0.59858,107.495853" inkscape:path-effect="#path-effect4321" style="opacity:1;fill:#c9d2db;fill-opacity:1;fill-rule:nonzero;stroke:none;stroke-width:5;stroke-linecap:butt;stroke-linejoin:miter;stroke-miterlimit:4;stroke-dasharray:none;stroke-dashoffset:7.80000019;stroke-opacity:1" d="m 216.82833,134.56427 c 0,0 -1.04949,-2.77793 -2.46959,-8.51802 -1.35578,-5.48014 -3.1334,-14.44406 -2.78818,-24.81816 0.34904,-10.488899 2.89139,-23.025844 10.61698,-35.053118 7.62012,-11.863084 20.73079,-23.538429 39.52976,-29.204051 13.72121,-4.135291 30.88123,-4.949966 47.04982,1.774372 15.74084,6.546446 32.05702,21.1386 37.70345,49.310895 3.97539,19.834852 2.74512,34.606792 0.46512,53.647962 -0.87049,7.26985 -1.8943,15.50887 -2.19074,24.05418 -0.35567,10.25295 1.07922,17.83114 2.37582,22.58507 1.31121,4.80749 2.39964,6.71739 2.39964,6.71739 0,0 0.12483,-2.17979 0.0761,-7.06475 -0.0481,-4.82598 -0.19577,-12.23156 0.1454,-22.06472 0.28775,-8.29368 1.28189,-16.31335 2.15831,-23.63272 2.29854,-19.196 3.60615,-34.60223 -0.52715,-55.224954 -5.99127,-29.892843 -23.48072,-45.781441 -40.65209,-52.930653 -17.47603,-7.276057 -35.87002,-6.35243 -50.44649,-1.959382 -20.03274,6.037454 -34.07684,18.510557 -42.29566,31.318499 -8.31793,12.962387 -11.02985,26.420272 -11.4029,37.56623 -0.36846,11.00858 1.51618,20.46725 2.92916,26.17873 1.48509,6.00298 2.57747,8.89126 2.57747,8.89126 l 4.74576,-1.57406 z" id="path4210" inkscape:connector-curvature="0" sodipodi:nodetypes="csc" />
      <g id="g7018">
        <path id="path3894" style="fill:black;fill-opacity:1;fill-rule:nonzero;stroke:none;stroke-width:0.90561539" d="m 295.01424,137.68019 c 0.85419,-4.83151 -1.55637,-8.22312 -5.66454,-9.53752 l -1.7231,1.89942 c 4.21733,1.21342 6.52344,3.2745 7.38764,7.6381 z m 5.45471,-4.05302 c -0.40595,-5.48557 -3.69104,-7.93677 -8.46499,-8.6402 l -1.72429,2.06044 c 5.41554,0.44508 8.25418,2.49448 10.18928,6.57976 z m 3.42516,-6.27055 c -1.73398,-4.24972 -5.52652,-5.94454 -10.2533,-5.67849 l -1.13191,2.6673 c 4.60015,-1.10694 8.53808,0.007 11.38521,3.01119 z" inkscape:connector-curvature="0" sodipodi:nodetypes="cccccccccccc" />
        <g id="g7004" clip-path="url(#clipPath7014)">
          <ellipse transform="rotate(22.3236)" ry="34.81889" rx="28.23172" cy="-4.4695897" cx="292.41766" id="path4162" style="opacity:1;fill:white;fill-opacity:1;fill-rule:nonzero;stroke:none;stroke-width:0.5;stroke-linecap:butt;stroke-linejoin:miter;stroke-miterlimit:4;stroke-dasharray:none;stroke-dashoffset:7.80000019;stroke-opacity:1" />
          <g clip-path="url(#clipPath4230)" id="g4222">
            <ellipse transform="rotate(19.609447)" ry="28.249561" rx="22.905193" cy="9.9944887" cx="301.01193" id="ellipse4175" style="opacity:1;fill:url(#linearGradient6455);fill-opacity:1;fill-rule:nonzero;stroke:none;stroke-width:0.79907924;stroke-linecap:butt;stroke-linejoin:miter;stroke-miterlimit:4;stroke-dasharray:none;stroke-dashoffset:7.80000019;stroke-opacity:1" />
            <path sodipodi:nodetypes="cccc" inkscape:connector-curvature="0" id="path4207" d="m 286,114.875 -40.17678,25.32322 -9.375,-18.47855 z" style="opacity:1;fill:#a8d7ff;fill-opacity:1;fill-rule:nonzero;stroke:none;stroke-width:1;stroke-linecap:butt;stroke-linejoin:miter;stroke-miterlimit:4;stroke-dasharray:none;stroke-dashoffset:7.80000019;stroke-opacity:1" />
            <path style="opacity:1;fill:#c2e3ff;fill-opacity:1;fill-rule:nonzero;stroke:none;stroke-width:1;stroke-linecap:butt;stroke-linejoin:miter;stroke-miterlimit:4;stroke-dasharray:none;stroke-dashoffset:7.80000019;stroke-opacity:1" d="m 286,114.875 -50.17678,-1.67678 2.75,14.39645 z" id="path4186" inkscape:connector-curvature="0" sodipodi:nodetypes="cccc" />
            <ellipse style="opacity:1;fill:black;fill-opacity:1;fill-rule:nonzero;stroke:none;stroke-width:0.63561058;stroke-linecap:butt;stroke-linejoin:miter;stroke-miterlimit:4;stroke-dasharray:none;stroke-dashoffset:7.80000019;stroke-opacity:1" id="ellipse4177" cx="303.45215" cy="9.9212904" rx="18.219456" ry="21.936573" transform="rotate(19.609449)" />
            <ellipse style="opacity:1;fill:white;fill-opacity:1;fill-rule:nonzero;stroke:none;stroke-width:1.08195698;stroke-linecap:butt;stroke-linejoin:miter;stroke-miterlimit:4;stroke-dasharray:none;stroke-dashoffset:7.80000019;stroke-opacity:1" id="path4179" cx="283.09128" cy="-66.023651" rx="8.580246" ry="12.355887" transform="rotate(32.995099)" />
            <ellipse transform="rotate(34.651601)" ry="4.032805" rx="2.9700792" cy="-64.587784" cx="294.22806" id="ellipse4181" style="opacity:1;fill:white;fill-opacity:1;fill-rule:nonzero;stroke:none;stroke-width:0.36844215;stroke-linecap:butt;stroke-linejoin:miter;stroke-miterlimit:4;stroke-dasharray:none;stroke-dashoffset:7.80000019;stroke-opacity:1" />
          </g>
        </g>
        <path id="path4240" style="opacity:1;fill:black;fill-opacity:1;fill-rule:nonzero;stroke:none;stroke-width:0.5;stroke-linecap:butt;stroke-linejoin:miter;stroke-miterlimit:4;stroke-dasharray:none;stroke-dashoffset:7.80000019;stroke-opacity:1" d="m 300.71787,89.430581 c 6.23734,-1.427828 10.42348,-4.987653 11.06928,-10.374504 -2.45878,3.858228 -6.40936,6.281168 -12.17038,7.211859 z m -54.79033,36.791389 c -4.98909,-21.86108 3.86736,-37.782075 15.3021,-46.233646 13.80983,-10.207028 33.9455,-5.103501 39.54179,14.773105 8.48325,-1.335154 12.4928,-3.830732 13.56419,-9.423023 -2.46568,3.124461 -6.03024,4.930142 -11.34848,5.596195 -5.59094,-18.508495 -27.79647,-25.675732 -43.90937,-13.660778 -12.43031,9.268946 -23.2879,28.640197 -13.15023,48.948147 z m 52.13421,-40.766369 c 6.1882,-2.82077 9.05406,-6.759907 9.05178,-12.065974 -1.82197,4.011273 -4.98633,7.027806 -10.6326,9.057297 z" inkscape:connector-curvature="0" />
      </g>
      <g id="g8639">
        <path id="path8583" style="fill:black;fill-opacity:1;fill-rule:nonzero;stroke:none;stroke-width:0.90561539" d="m 204.53551,124.62325 c 1.85516,-2.80345 5.32866,-4.19531 8.99883,-4.42102 l 0.53497,2.36095 c -3.35826,-0.26974 -6.80637,0.34721 -9.5338,2.06007 z m 0.90562,4.69169 c 1.31649,-2.84209 3.66934,-4.65951 7.71945,-5.73592 l 1.01675,2.19692 c -3.69394,0.3724 -6.626,1.36005 -8.7362,3.539 z m 1.61536,4.74398 c 0.66549,-3.12642 3.12563,-5.86577 6.51741,-6.98947 l 1.34282,2.01426 c -3.71925,0.79294 -6.27783,2.33498 -7.86023,4.97521 z m 5.23031,-52.360629 c -4.04441,-0.629852 -7.65994,-2.018957 -10.96707,-4.664764 2.12013,4.180137 5.84715,6.621776 10.3864,7.436305 z m -0.48331,4.982203 c -4.02854,0.110675 -7.79519,-0.761012 -11.48359,-2.56652 2.62668,3.618763 6.46663,5.237951 11.25639,5.389111 z" inkscape:connector-curvature="0" />
        <g id="g8625" clip-path="url(#clipPath8635)">
          <path style="opacity:1;fill:white;fill-opacity:1;fill-rule:nonzero;stroke:none;stroke-width:0.5;stroke-linecap:butt;stroke-linejoin:miter;stroke-miterlimit:4;stroke-dasharray:none;stroke-dashoffset:7.80000019;stroke-opacity:1" d="m 212.56951,77.561584 c -6.55392,18.653608 -5.4982,38.909656 0.65665,56.714366 5.70671,-1.43272 10.02154,-3.06435 13.5435,-4.80922 4.61831,-24.68749 1.12308,-45.685584 -14.20015,-51.905146 z" id="path8541" inkscape:connector-curvature="0" sodipodi:nodetypes="cccc" />
          <g clip-path="url(#clipPath7866)" id="g7858">
            <ellipse ry="9.2858343" rx="23.620626" cy="-215.16203" cx="122.10014" style="opacity:1;fill:url(#linearGradient6457);fill-opacity:1;fill-rule:nonzero;stroke:none;stroke-width:0.5;stroke-linecap:butt;stroke-linejoin:miter;stroke-miterlimit:4;stroke-dasharray:none;stroke-dashoffset:7.80000019;stroke-opacity:1" id="path7616" inkscape:connector-curvature="0" transform="rotate(86.739933)" />
            <path sodipodi:nodetypes="cccc" inkscape:connector-curvature="0" id="path4207-0" d="m 224.50171,113.26018 -12.74652,24.3894 -5.29633,-15.54289 z" style="opacity:1;fill:#a8d7ff;fill-opacity:1;fill-rule:nonzero;stroke:none;stroke-width:0.57498896;stroke-linecap:butt;stroke-linejoin:miter;stroke-miterlimit:4;stroke-dasharray:none;stroke-dashoffset:7.80000019;stroke-opacity:1" />
            <path style="opacity:1;fill:#c2e3ff;fill-opacity:1;fill-rule:nonzero;stroke:none;stroke-width:0.57498896;stroke-linecap:butt;stroke-linejoin:miter;stroke-miterlimit:4;stroke-dasharray:none;stroke-dashoffset:7.80000019;stroke-opacity:1" d="m 224.50171,113.26018 -19.08127,1.53313 2.39749,12.28874 z" id="path4186-7" inkscape:connector-curvature="0" sodipodi:nodetypes="cccc" />
            <ellipse ry="6.7597413" rx="18.746988" cy="-216.18066" cx="122.19897" style="opacity:1;fill:black;fill-opacity:1;fill-rule:nonzero;stroke:none;stroke-width:0.5;stroke-linecap:butt;stroke-linejoin:miter;stroke-miterlimit:4;stroke-dasharray:none;stroke-dashoffset:7.80000019;stroke-opacity:1" id="path7618" inkscape:connector-curvature="0" transform="rotate(86.711263)" />
            <ellipse transform="rotate(-77.005538)" inkscape:connector-curvature="0" id="path7734" style="opacity:1;fill:white;fill-opacity:1;fill-rule:nonzero;stroke:none;stroke-width:0.5;stroke-linecap:butt;stroke-linejoin:miter;stroke-miterlimit:4;stroke-dasharray:none;stroke-dashoffset:7.80000019;stroke-opacity:1" cx="-48.393429" cy="234.59021" rx="9.1433573" ry="3.3590913" />
            <ellipse transform="rotate(-73.688868)" inkscape:connector-curvature="0" id="path7736" style="opacity:1;fill:white;fill-opacity:1;fill-rule:nonzero;stroke:none;stroke-width:0.5;stroke-linecap:butt;stroke-linejoin:miter;stroke-miterlimit:4;stroke-dasharray:none;stroke-dashoffset:7.80000019;stroke-opacity:1" cx="-44.851528" cy="242.15558" rx="2.7576578" ry="1.1605308" />
          </g>
        </g>
        <path style="fill:black;stroke:none;stroke-width:0.5;stroke-miterlimit:4;stroke-dasharray:none" d="m 226.76966,129.46673 c 6.95818,-20.93249 3.02105,-47.078603 -13.52192,-53.024548 -3.61561,-1.299537 -6.8729,-3.056321 -9.46921,-5.622972 1.38222,4.010874 4.47636,6.739913 8.36808,8.231824 14.84265,5.690002 17.43636,28.327256 14.62305,50.415696 z" id="path3861" inkscape:connector-curvature="0" sodipodi:nodetypes="cscsc" />
      </g>
      <path inkscape:original-d="m 226.76966,129.46673 c -8.25362,5.1968 -19.89114,3.99134 -19.02417,10.51879 5.1967,39.12853 71.86125,58.52575 114.96373,24.28834" inkscape:path-effect="#path-effect3396" sodipodi:nodetypes="csc" inkscape:connector-curvature="0" id="path4191" d="m 226.76966,129.46673 c 0,0 -1.01629,0.25764 -3.23203,0.72586 7.93203,-1.67618 -15.86123,3.16217 -10.34895,1.89894 -1.62754,0.37298 -3.90346,0.99724 -5.55818,2.29296 -0.49846,0.39031 -0.98239,0.87035 -1.38767,1.4701 -0.64084,0.94834 -1.24773,2.41101 -0.97558,4.46009 1.25009,9.41248 5.95072,18.49802 14.34187,26.14991 8.32199,7.58881 19.25467,12.82655 30.81894,15.60801 16.33871,3.92981 30.83337,2.35931 40.39535,0.16254 12.99617,-2.98575 21.54987,-8.67632 25.8851,-12.1433 4.63774,-3.70891 6.00071,-5.81798 6.00071,-5.81798 0,0 -2.189,1.15917 -7.34706,3.71147 -4.62392,2.28801 -13.75937,6.64269 -25.65804,9.37625 -9.02125,2.07252 -22.70647,3.55377 -38.1068,-0.15034 -10.92433,-2.62754 -21.02923,-7.52982 -28.61773,-14.45134 -7.59665,-6.92895 -11.67288,-14.94923 -12.75586,-23.10352 -0.0866,-0.65207 0.0762,-0.88693 0.15227,-0.99593 0.076,-0.1089 0.19454,-0.248 0.3767,-0.40696 0.74608,-0.65107 2.07253,-1.24447 3.73333,-1.89076 4.9471,-1.92512 7.11744,-2.68336 9.76524,-4.57446 1.96938,-1.40657 2.51839,-2.32154 2.51839,-2.32154 z" style="opacity:1;fill:#c9d2db;fill-opacity:1;fill-rule:nonzero;stroke:none;stroke-width:5;stroke-linecap:butt;stroke-linejoin:miter;stroke-miterlimit:4;stroke-dasharray:none;stroke-dashoffset:7.80000019;stroke-opacity:1" />
      <path inkscape:connector-curvature="0" d="m 214.21913,156.50992 c 8.22752,-1.4443 14.42031,-4.48073 18.56316,-10.48925 -1.45833,6.96215 -7.30318,11.6636 -16.18394,14.2612 z m 3.17977,-14.95872 c 2.01749,1.36044 3.69117,0.77627 4.38253,-1.40699 1.05014,4.05918 -2.39641,5.41758 -4.38253,1.40699 z" style="opacity:1;fill:#c9d2db;fill-opacity:1;fill-rule:nonzero;stroke:none;stroke-width:0.93795693;stroke-linecap:butt;stroke-linejoin:miter;stroke-miterlimit:4;stroke-dasharray:none;stroke-dashoffset:7.80000019;stroke-opacity:1" id="path4965" />
      <path style="opacity:1;fill:none;fill-opacity:1;fill-rule:nonzero;stroke:#c9d2db;stroke-width:5;stroke-linecap:butt;stroke-linejoin:miter;stroke-miterlimit:4;stroke-dasharray:none;stroke-dashoffset:7.80000019;stroke-opacity:1" d="M 394.42339,263.35483 C 335.61212,304.48556 266.24105,254.5181 283.14818,180.69545" id="path4171" inkscape:connector-curvature="0" sodipodi:nodetypes="cc" />
      <g id="g4369">
        <path sodipodi:nodetypes="csssc" inkscape:connector-curvature="0" id="path4169" d="m 400.15015,270.83025 c -18.89793,41.23915 -22.91432,90.74734 -11.63691,134.81041 6.47279,25.29047 69.42885,-10.22055 59.88,-34.0109 -14.33837,-35.72313 -17.39976,-68.58381 -14.34997,-106.88259 0.27374,-3.43764 -5.59988,-5.43178 -13.2394,-4.73265" style="opacity:1;fill:none;fill-opacity:1;fill-rule:nonzero;stroke:#c9d2db;stroke-width:5;stroke-linecap:butt;stroke-linejoin:miter;stroke-miterlimit:4;stroke-dasharray:none;stroke-dashoffset:7.80000019;stroke-opacity:1" />
        <path style="opacity:1;fill:#eef2f6;fill-opacity:1;fill-rule:nonzero;stroke:none;stroke-width:5;stroke-linecap:butt;stroke-linejoin:miter;stroke-miterlimit:4;stroke-dasharray:none;stroke-dashoffset:7.80000019;stroke-opacity:1" d="m 396.55432,268.0863 4.94975,7.91075 3.0052,-5.96621 z" id="path4331" inkscape:connector-curvature="0" />
        <path style="opacity:1;fill:#c9d2db;fill-opacity:1;fill-rule:nonzero;stroke:none;stroke-width:5;stroke-linecap:butt;stroke-linejoin:miter;stroke-miterlimit:4;stroke-dasharray:none;stroke-dashoffset:7.80000019;stroke-opacity:1" d="m 389.25676,213.82263 c 0,0 -1.11606,2.0462 -2.158,7.72328 -0.94284,5.13707 -2.08753,15.74894 0.87142,28.93438 3.24576,14.46353 9.19166,22.46543 12.67248,26.13411 3.71343,3.91385 5.75628,4.61275 5.75628,4.61275 0,0 -1.21359,-1.6927 -3.75675,-6.11309 -2.24809,-3.90751 -6.82658,-12.45343 -9.80268,-25.72723 -2.65729,-11.85186 -3.07475,-23.11695 -3.24752,-27.65811 -0.21355,-5.61317 -0.33523,-7.90609 -0.33523,-7.90609 z" id="path4217" inkscape:connector-curvature="0" sodipodi:nodetypes="cc" inkscape:path-effect="#path-effect4329" inkscape:original-d="m 389.25676,213.82263 c -3.94839,24.41049 2.19714,53.28435 17.14218,67.40452" />
      </g>
      <g id="g5900">
        <path style="opacity:1;fill:url(#linearGradient4306);fill-opacity:1;fill-rule:nonzero;stroke:url(#linearGradient4304);stroke-width:5;stroke-linecap:butt;stroke-linejoin:miter;stroke-miterlimit:20;stroke-dasharray:none;stroke-dashoffset:7.80000019;stroke-opacity:1" d="M 323.38004,37.895311 C 286.23345,85.834384 212.75986,32.97296 198.74726,130.44913 139.13025,9.600632 280.56454,-55.993037 335.37572,25.217641 Z" id="path5080" inkscape:connector-curvature="0" sodipodi:nodetypes="cccc" />
        <g id="g5882">
          <path transform="matrix(0.7394133,0.37349712,-0.37349712,0.7394133,147.36354,-90.631446)" d="m 189.15106,87.332123 1.40035,-12.517151 -12.23358,2.996593 11.54034,-5.045842 -8.71191,-9.096293 10.14,7.471308 3.52166,-12.092886 -1.40034,12.51715 12.23357,-2.996593 -11.54034,5.045842 8.71192,9.096294 -10.14,-7.471308 z" inkscape:randomized="0" inkscape:rounded="0" inkscape:flatsided="false" sodipodi:arg2="2.2917907" sodipodi:arg1="1.7681919" sodipodi:r2="2.1633308" sodipodi:r1="14.422205" sodipodi:cy="73.189987" sodipodi:cx="191.97949" sodipodi:sides="6" id="path5854" style="opacity:1;fill:white;fill-opacity:1;fill-rule:nonzero;stroke:none;stroke-width:1;stroke-linecap:butt;stroke-linejoin:miter;stroke-miterlimit:20;stroke-dasharray:none;stroke-dashoffset:7.80000019;stroke-opacity:1" sodipodi:type="star" />
          <use height="100%" width="100%" transform="matrix(0.05579227,0.69885823,-0.69885823,0.05579227,203.95589,-80.85985)" id="use5858" xlink:href="#path5854" y="0" x="0" />
          <use x="0" y="0" xlink:href="#path5854" id="use5860" transform="matrix(-0.16806546,0.388191,-0.388191,-0.16806546,288.66965,-28.593849)" width="100%" height="100%" />
          <use height="100%" width="100%" transform="matrix(0.2063116,0.6995862,-0.6995862,0.2063116,272.90204,-141.64023)" id="use5862" xlink:href="#path5854" y="0" x="0" />
          <use x="0" y="0" xlink:href="#path5854" id="use5864" transform="matrix(-0.43958484,0.21479823,-0.21479823,-0.43958484,429.05401,-14.613704)" width="100%" height="100%" />
          <use height="100%" width="100%" transform="matrix(-0.24657499,-0.01706089,0.01706089,-0.24657499,302.33031,74.043713)" id="use5866" xlink:href="#path5854" y="0" x="0" />
          <use x="0" y="0" xlink:href="#path5854" id="use5868" transform="matrix(-0.66226647,0.1068306,-0.1068306,-0.66226647,460.65327,-7.4315715)" width="100%" height="100%" />
          <use height="100%" width="100%" transform="matrix(-0.31251798,0.12861716,-0.12861716,-0.31251798,328.81739,-7.4382296)" id="use5870" xlink:href="#path5854" y="0" x="0" />
          <use x="0" y="0" xlink:href="#path5854" id="use5872" transform="matrix(-0.56055351,0.7270972,-0.7270972,-0.56055351,380.83374,-147.15442)" width="100%" height="100%" />
          <use x="0" y="0" xlink:href="#path5854" id="use5874" transform="matrix(-0.31819685,0.41273498,-0.41273498,-0.31819685,308.63242,-26.326502)" width="100%" height="100%" />
          <use height="100%" width="100%" transform="matrix(0.09798412,0.57237004,-0.57237004,0.09798412,249.33008,-158.56081)" id="use5880" xlink:href="#path5854" y="0" x="0" />
        </g>
        <g id="g4254" clip-path="url(#clipPath4261)">
          <path sodipodi:nodetypes="ccc" inkscape:connector-curvature="0" id="path4243" d="M 234.63813,69.543542 C 195.31395,-32.491686 200.31694,-34.901764 256.14423,52.280086 Z" style="opacity:1;fill:#eef2f6;fill-opacity:1;fill-rule:nonzero;stroke:#c9d2db;stroke-width:5;stroke-linecap:butt;stroke-linejoin:miter;stroke-miterlimit:4;stroke-dasharray:none;stroke-dashoffset:7.80000019;stroke-opacity:1" />
          <path sodipodi:nodetypes="cccccc" inkscape:connector-curvature="0" d="m 222.68821,2.1112819 c -1.27279,5.7333695 -3.46327,11.4671151 -6.3847,16.8048321 m 17.93228,-0.786563 C 232.20413,25.747784 228.413,33.32427 223.42478,39.912686 M 245.90831,36.3656 c -3.31157,8.115957 -8.79564,15.906877 -15.50584,22.181152" style="opacity:1;fill:none;fill-opacity:1;fill-rule:nonzero;stroke:#c9d2db;stroke-width:2.5;stroke-linecap:butt;stroke-linejoin:miter;stroke-miterlimit:4;stroke-dasharray:none;stroke-dashoffset:7.80000019;stroke-opacity:1" id="path4251" />
        </g>
        <path style="opacity:1;fill:url(#linearGradient4308);fill-opacity:1;fill-rule:nonzero;stroke:none;stroke-width:5;stroke-linecap:butt;stroke-linejoin:miter;stroke-miterlimit:20;stroke-dasharray:none;stroke-dashoffset:7.80000019;stroke-opacity:1" d="m 221.9783,51.200573 c 11.75441,-3.854032 21.58799,-9.687404 28.28755,-18.184276 -4.78842,10.546808 -15.24528,16.557115 -28.28755,18.184276 z" id="path4233" inkscape:connector-curvature="0" sodipodi:nodetypes="ccc" />
      </g>
      <g id="g5047">
        <path id="path5043" style="fill:#eef2f6;fill-opacity:1;stroke:none;stroke-width:5;stroke-miterlimit:20;stroke-dasharray:none" d="m 370.02173,197.38546 c 81.79993,-10.88957 93.25304,-52.18608 54.24689,-45.06929 89.36339,-54.012286 68.04669,-79.545387 13.94896,-47.92476 C 521.1215,13.557543 473.83952,-6.0385498 420.92375,72.921516 432.6632,45.324945 444.74595,21.072204 433.78174,15.303282 427.90049,12.208804 412.30542,21.18932 403.17344,36.095935 371.57781,87.671186 390.10338,147.99622 357.5202,186.62761 Z" inkscape:connector-curvature="0" sodipodi:nodetypes="ccccsscc" clip-path="none" />
        <path clip-path="none" sodipodi:nodetypes="ccccssc" inkscape:connector-curvature="0" d="m 370.02173,197.38546 c 0,0 3.54594,0.26454 11.54669,-0.54478 7.5735,-0.7661 20.3452,-2.75465 33.36194,-7.89271 13.02722,-5.1422 23.84113,-11.88811 29.50681,-19.33593 2.14468,-2.81928 3.5979,-5.82929 3.86698,-8.80964 0.25982,-2.87773 -0.61111,-5.63632 -2.81167,-7.77193 -1.97813,-1.91975 -4.84358,-3.15522 -8.40534,-3.70362 -0.87777,-0.13515 -1.80691,-0.23006 -2.78769,-0.28201 17.32856,-11.005 30.34705,-21.01295 39.20305,-29.6614 4.88658,-4.77205 8.512,-9.13789 10.85398,-13.01063 2.24441,-3.71139 3.48501,-7.260685 3.17206,-10.380851 -0.15823,-1.577577 -0.7139,-3.020796 -1.70116,-4.241688 -0.98003,-1.211954 -2.28325,-2.080304 -3.78166,-2.662665 -2.87479,-1.117282 -6.64593,-1.255354 -10.98269,-0.616707 -5.86954,0.86437 -13.27779,3.230791 -21.85896,7.275465 15.3623,-17.948723 25.3948,-32.935486 30.98298,-44.617615 3.25301,-6.800452 5.05086,-12.587735 5.43491,-17.225015 0.19102,-2.30652 0.0408,-4.427665 -0.52342,-6.265606 -0.57161,-1.861888 -1.5779,-3.455335 -3.04478,-4.615335 -1.45476,-1.150398 -3.21953,-1.761507 -5.12553,-1.923967 -1.88587,-0.160744 -3.94954,0.112011 -6.10433,0.726097 -4.28367,1.220797 -9.27075,3.889729 -14.70524,7.921112 -7.30709,5.420498 -15.61487,13.448051 -24.33815,24.194428 2.61808,-6.263406 4.89885,-12.10245 6.4776,-17.284895 1.59624,-5.239854 2.53936,-10.00593 2.28582,-13.956553 -0.13066,-2.035939 -0.5843,-3.953551 -1.50976,-5.62802 -0.93844,-1.69794 -2.30699,-3.042882 -4.08833,-3.98015 -2.30825,-1.214505 -5.15015,-1.049864 -7.7796,-0.358187 -2.80804,0.738654 -5.84584,2.19608 -8.8238,4.115064 -6.50917,4.194466 -12.8001,10.595568 -17.30078,17.942258 -16.90146,27.589186 -20.02766,59.52634 -22.80407,81.10673 -2.2177,17.23763 -4.10315,29.70147 -7.93756,41.6448 -3.5261,10.98304 -7.25471,18.4068 -9.45009,22.65402 -2.31874,4.48588 -3.32974,6.43208 -3.32974,6.43208 0,0 1.93799,-1.09458 5.39101,-5.0174 3.36345,-3.82109 8.38001,-10.79141 12.15277,-22.54145 3.98821,-12.42108 5.917,-25.31171 8.13273,-42.53403 2.81512,-21.881173 5.87923,-52.640893 22.10848,-79.132801 4.12226,-6.728981 9.89025,-12.578101 15.7456,-16.351255 2.68408,-1.729604 5.23522,-2.916379 7.38742,-3.482515 2.15867,-0.567835 3.50486,-0.407373 4.17943,-0.05244 0.92984,0.489245 1.58205,1.143304 2.04315,1.979569 0.47406,0.859766 0.79605,2.006896 0.89341,3.523953 0.19483,3.035867 -0.53261,7.102811 -2.07908,12.179264 -3.06273,10.053797 -8.87249,22.688324 -14.85187,36.74439 -4.49889,10.575789 -8.77837,21.243576 -12.83569,31.996506 5.09873,-10.233021 10.84817,-20.128683 17.21296,-29.626117 13.13834,-19.604812 25.83093,-32.93597 36.09705,-40.551524 5.16238,-3.829523 9.60123,-6.132124 13.09668,-7.128285 1.75152,-0.49916 3.17876,-0.645115 4.31017,-0.548182 1.11138,0.09522 1.88991,0.418125 2.44792,0.85939 0.55758,0.44093 1.03851,1.113289 1.36114,2.162809 0.33001,1.073556 0.48082,2.508527 0.32554,4.383538 -0.31392,3.790535 -1.84145,8.955565 -4.96248,15.480107 -6.33329,13.239801 -18.86258,31.336625 -39.30549,53.734944 -5.29379,5.80015 -10.73248,11.46638 -16.31091,16.99332 6.17529,-4.80757 12.66254,-9.20043 19.41906,-13.14968 13.56193,-7.927063 24.6797,-12.008167 32.31229,-13.132171 3.94658,-0.581187 6.72149,-0.338592 8.44295,0.33045 0.84491,0.328377 1.37889,0.736048 1.70658,1.140397 0.32062,0.395615 0.54285,0.908318 0.61248,1.602538 0.15325,1.527977 -0.4426,3.932856 -2.47552,7.294516 -2.04719,3.38526 -5.3578,7.42016 -10.06884,12.02079 -9.90709,9.67489 -25.45631,21.32875 -47.03368,34.37036 l -11.65227,7.04277 13.39415,-2.4438 c 4.8892,-0.89205 8.74618,-0.9541 11.61748,-0.51151 2.88487,0.44468 4.66844,1.37718 5.67547,2.35449 1.02472,0.99448 1.45079,2.22049 1.31412,3.73426 -0.15477,1.71423 -1.04983,3.84368 -2.86667,6.23201 -4.84719,6.37186 -14.66361,12.69369 -27.37393,17.71228 -12.19257,4.81416 -24.95883,8.22567 -31.96215,10.08381 -7.68957,2.04022 -11.09993,3.00455 -11.09993,3.00455 z" style="fill:#c9d2db;fill-opacity:1;stroke:none;stroke-width:5;stroke-miterlimit:20;stroke-dasharray:none" id="path5024" inkscape:path-effect="#path-effect5041" inkscape:original-d="m 370.02173,197.38546 c 81.79993,-10.88957 93.25304,-52.18608 54.24689,-45.06929 89.36339,-54.012286 68.04669,-79.545387 13.94896,-47.92476 C 521.1215,13.557543 473.83952,-6.0385498 420.92375,72.921516 432.6632,45.324945 444.74595,21.072204 433.78174,15.303282 427.90049,12.208804 412.30542,21.18932 403.17344,36.095935 371.57781,87.671186 390.10338,147.99622 357.5202,186.62761" />
        <path clip-path="none" sodipodi:nodetypes="cccc" inkscape:connector-curvature="0" id="path6294" d="m 407.46579,189.02839 c 18.01488,-12.08923 13.75478,-24.45388 -7.13471,-19.71328 51.45419,-38.03999 25.46213,-67.56031 -0.47313,-32.82554 12.2536,-48.910475 -5.41278,-57.533742 -18.50765,-25.5419" style="fill:none;stroke:#c9d2db;stroke-width:5;stroke-linecap:butt;stroke-linejoin:miter;stroke-miterlimit:20;stroke-dasharray:none;stroke-opacity:1" />
      </g>
      <g id="g4308">
        <path sodipodi:nodetypes="ccssccc" inkscape:connector-curvature="0" id="path3497" d="m 364.49525,261.2189 c 18.23776,57.43114 -15.13557,76.35351 -42.73021,49.71519 0.6597,5.74087 1.81391,11.63992 3.30153,16.23623 7.30634,22.57449 -37.88048,79.52793 -44.24634,51.71462 -22.72742,-99.29922 21.74184,-139.9983 53.40146,-105.86723 2.49166,-4.75098 4.794,-9.8003 7.27218,-15.27155 z" style="opacity:1;fill:#eef2f6;fill-opacity:1;fill-rule:nonzero;stroke:none;stroke-width:5;stroke-linecap:butt;stroke-linejoin:miter;stroke-miterlimit:4;stroke-dasharray:none;stroke-dashoffset:7.80000019;stroke-opacity:1" />
        <path style="opacity:1;fill:#c9d2db;fill-opacity:1;fill-rule:nonzero;stroke:none;stroke-width:5;stroke-linecap:butt;stroke-linejoin:miter;stroke-miterlimit:4;stroke-dasharray:none;stroke-dashoffset:7.80000019;stroke-opacity:1" d="m 364.49525,261.2189 c 0,0 1.49393,8.46502 2.56553,25.28255 1.08987,17.10429 -4.2496,25.84745 -9.05862,29.80404 -5.21267,4.2887 -11.35565,4.5555 -16.3508,3.46939 -6.7923,-1.47687 -12.36682,-5.54858 -15.46092,-8.15376 -3.32173,-2.79684 -4.67523,-4.43128 -4.67523,-4.43128 l -3.63454,3.43368 c 0,0 1.454,1.76148 5.08936,4.82238 3.30183,2.78007 9.63227,7.47825 17.61899,9.21482 5.93582,1.29064 13.81752,1.07783 20.58987,-4.49408 6.34894,-5.22356 12.04651,-15.71097 10.87447,-33.99076 -0.53891,-8.40526 -2.934,-15.37132 -4.58416,-19.24727 -1.75575,-4.12398 -2.97395,-5.70971 -2.97395,-5.70971 z" id="path4209-0" inkscape:connector-curvature="0" sodipodi:nodetypes="cc" inkscape:path-effect="#path-effect3487" inkscape:original-d="m 364.49525,261.2189 c 18.69514,58.87145 -16.84196,77.27839 -44.79731,47.68778" />
        <path style="opacity:1;fill:#eef2f6;fill-opacity:1;fill-rule:nonzero;stroke:none;stroke-width:0.5;stroke-linecap:butt;stroke-linejoin:miter;stroke-miterlimit:4;stroke-dasharray:none;stroke-dashoffset:7.80000019;stroke-opacity:1" d="m 321.3898,305.37614 0.43852,12.27869 -6.77276,-6.87022 z" id="path4306" inkscape:connector-curvature="0" />
        <path style="opacity:1;fill:#c9d2db;fill-opacity:1;fill-rule:nonzero;stroke:none;stroke-width:5;stroke-linecap:butt;stroke-linejoin:miter;stroke-miterlimit:4;stroke-dasharray:none;stroke-dashoffset:7.80000019;stroke-opacity:1" d="m 321.24865,297.50597 c 0,0 -0.81976,1.34169 -1.30503,5.63496 -0.42518,3.76166 -0.66257,12.80807 2.08579,22.61138 0.18757,0.66905 0.40742,1.41163 0.65863,2.18783 1.30458,4.03078 0.90108,10.58618 -2.87095,19.7981 -2.99732,7.31993 -7.85672,15.52415 -13.67695,22.59616 -2.64065,3.2086 -5.40223,6.08253 -8.10086,8.36182 -2.72136,2.29848 -5.26095,3.89115 -7.42875,4.6606 -2.10905,0.74859 -3.54377,0.61303 -4.50858,0.0541 -0.99217,-0.57476 -2.13105,-1.96561 -2.84474,-5.08378 -13.08483,-57.16949 -3.10218,-90.51947 8.60473,-104.5968 7.59755,-9.13589 15.988,-10.89987 22.59197,-9.79951 2.48574,0.41418 4.80162,1.23273 6.90273,2.26307 6.4292,3.15272 11.90042,8.24386 14.83425,11.03062 3.27005,3.10612 4.7948,4.55572 4.7948,4.55572 0,0 -0.45043,-2.07826 -2.83522,-6.10818 -2.14677,-3.62772 -6.8548,-10.17395 -14.59218,-13.96761 -2.46106,-1.20666 -5.24118,-2.19886 -8.2826,-2.70562 -8.37813,-1.39598 -18.53775,1.04845 -27.25809,11.53448 -6.66336,8.01255 -12.30881,20.64809 -14.70571,38.67546 -2.39775,18.03371 -1.51802,41.44399 5.07135,70.23388 0.87287,3.81371 2.53069,6.74126 5.21242,8.29476 2.70595,1.56752 5.79407,1.35832 8.68736,0.33136 2.95785,-1.04988 6.02242,-3.05378 8.97971,-5.55115 2.98244,-2.51861 5.95193,-5.62056 8.73808,-9.00595 6.12383,-7.44092 11.24753,-16.07398 14.44339,-23.87877 3.95393,-9.65613 4.83267,-17.57276 3.0009,-23.23242 -0.22712,-0.70173 -0.42796,-1.37959 -0.60125,-1.9978 -1.22627,-4.3749 -2.20397,-9.26031 -2.85733,-12.73901 -0.51776,-2.7567 -1.33455,-7.44262 -1.54375,-8.6001 -0.74178,-4.1041 -1.19412,-5.55763 -1.19412,-5.55763 z" id="path5016-5" inkscape:connector-curvature="0" sodipodi:nodetypes="cssc" inkscape:path-effect="#path-effect3489" inkscape:original-d="m 321.24865,297.50597 c -0.50245,8.54085 1.10216,21.27343 3.81792,29.66435 7.30634,22.57449 -37.88048,79.52793 -44.24634,51.71462 -24.40375,-106.62336 28.66736,-145.68329 60.16546,-97.10467" />
        <path style="opacity:1;fill:#c9d2db;fill-opacity:1;fill-rule:nonzero;stroke:none;stroke-width:0.5;stroke-linecap:butt;stroke-linejoin:miter;stroke-miterlimit:4;stroke-dasharray:none;stroke-dashoffset:7.80000019;stroke-opacity:1" d="m 331.95221,271.00734 3.03393,3.11664 c 3.08393,-4.8669 5.48544,-10.60092 6.50773,-16.37782 -3.00132,4.89645 -5.96273,9.09952 -9.54166,13.26118 z" id="path3491" inkscape:connector-curvature="0" sodipodi:nodetypes="cccc" />
      </g>
      <g id="g8658">
        <path sodipodi:nodetypes="cscc" inkscape:connector-curvature="0" id="path8654" d="M 343.2037,106.0232 C 382.4772,48.649787 342.44642,1.4659403 334.27357,1.776259 c -4.27371,0.1622704 -27.15976,22.878309 -28.1157,57.650834 z" style="opacity:1;fill:#eef2f6;fill-opacity:1;fill-rule:nonzero;stroke:none;stroke-width:5;stroke-linecap:butt;stroke-linejoin:miter;stroke-miterlimit:4;stroke-dasharray:none;stroke-dashoffset:7.80000019;stroke-opacity:1" />
        <path style="opacity:1;fill:#c9d2db;fill-opacity:1;fill-rule:nonzero;stroke:none;stroke-width:5;stroke-linecap:butt;stroke-linejoin:miter;stroke-miterlimit:4;stroke-dasharray:none;stroke-dashoffset:7.80000019;stroke-opacity:1" d="m 343.2037,106.0232 c 0,0 1.69475,-1.23259 4.68404,-4.96771 2.82742,-3.532865 7.29481,-10.063226 10.38044,-19.239603 4.90799,-14.595899 6.54676,-32.052621 0.64159,-50.316661 -3.01816,-9.334839 -7.56457,-17.347095 -12.3301,-23.2102581 -2.21754,-2.7282896 -4.43709,-4.9294274 -6.4492,-6.4636576 -1.00221,-0.7641868 -1.97484,-1.37968694 -2.92484,-1.82295896 -0.90451,-0.42204963 -1.94941,-0.76520448 -3.02692,-0.72429219 -0.74307,0.028215 -1.42883,0.2772299 -1.95845,0.51943047 -0.57192,0.26154531 -1.15824,0.60791539 -1.7479,1.00868923 -1.21805,0.82786875 -2.58516,1.97989915 -4.00676,3.36766565 -3.23552,3.1585164 -6.59768,7.3708035 -9.60487,12.1094305 -3.24486,5.113139 -5.62423,10.105571 -7.34242,14.471754 -3.65736,9.293947 -4.23898,17.167897 -4.14281,21.847775 0.0994,4.836032 0.78237,6.824289 0.78237,6.824289 0,0 0.56701,-1.998951 1.70253,-6.549921 1.06273,-4.259261 2.95525,-11.764384 6.31068,-20.291204 1.61934,-4.115043 3.86059,-8.816374 6.9113,-13.623582 2.83688,-4.47025 5.96319,-8.367283 8.87592,-11.2106861 1.28394,-1.2533765 2.42204,-2.1967612 3.32466,-2.8102476 0.43531,-0.295865 0.77673,-0.4881276 1.01247,-0.5964359 0.27756,-0.1275226 0.27725,-0.078313 0.073,-0.070558 -0.0582,0.00221 0.16643,-0.010184 0.72829,0.253336 0.51667,0.2423212 1.20455,0.6654438 2.00204,1.2735308 1.62128,1.2362291 3.56392,3.13515 5.60089,5.6412894 4.36746,5.373402 8.62071,12.836049 11.45261,21.594819 5.51999,17.072714 4.00829,33.414426 -0.62262,47.184405 -2.72309,8.097075 -6.23217,15.954382 -7.78246,19.542137 -1.85664,4.296754 -2.54348,6.259224 -2.54348,6.259224 z" id="path4185" inkscape:connector-curvature="0" sodipodi:nodetypes="csc" inkscape:path-effect="#path-effect8652" inkscape:original-d="M 343.2037,106.0232 C 382.4772,48.649787 342.44642,1.4659403 334.27357,1.776259 c -4.27371,0.1622704 -27.15976,22.878309 -28.1157,57.650834" />
        <path style="opacity:1;fill:#c9d2db;fill-opacity:1;fill-rule:nonzero;stroke:none;stroke-width:0.93795693;stroke-linecap:butt;stroke-linejoin:miter;stroke-miterlimit:4;stroke-dasharray:none;stroke-dashoffset:7.80000019;stroke-opacity:1" d="m 335.7034,30.460169 c 6.29101,14.017345 6.14558,30.84915 0.30691,45.959901 8.57894,-13.414456 8.73418,-33.828826 -0.30691,-45.959901 z" id="path4168" inkscape:connector-curvature="0" sodipodi:nodetypes="ccc" />
      </g>
    </g>
  </g>
</svg>
