<svg xmlns="http://www.w3.org/2000/svg" xmlns:inkscape="http://www.inkscape.org/namespaces/inkscape" xmlns:sodipodi="http://sodipodi.sourceforge.net/DTD/sodipodi-0.dtd" xmlns:xlink="http://www.w3.org/1999/xlink" height="1024" viewBox="0 0 1792 1024" width="1792">
  <defs>
    <linearGradient id="linearGradient12345">
      <stop offset="0" stop-color="#baeae4" />
      <stop offset="1" stop-color="#e8f8f6" />
    </linearGradient>
    <inkscape:path-effect effect="powerstroke" id="path-effect4916" interpolator_type="CubicBezierSmooth" offset_points="0.49,1" start_linecap_type="zerowidth" />
    <inkscape:path-effect effect="powerstroke" id="path-effect4903" interpolator_type="CubicBezierSmooth" offset_points="0.47,4 | 4,4" start_linecap_type="zerowidth" />
    <inkscape:path-effect effect="powerstroke" id="path-effect4901" interpolator_type="CubicBezierSmooth" offset_points="0.6,4 | 10,4" start_linecap_type="zerowidth" />
    <inkscape:path-effect effect="powerstroke" id="path-effect4899" interpolator_type="CubicBezierSmooth" offset_points="0.5,4 | 2,4" start_linecap_type="zerowidth" />
    <inkscape:path-effect effect="powerstroke" id="path-effect4711" interpolator_type="CubicBezierSmooth" miter_limit="20" offset_points="0.69,4 | 13,4 | 12,4" start_linecap_type="zerowidth" />
    <inkscape:path-effect effect="powerstroke" end_linecap_type="zerowidth" id="path-effect4702" interpolator_type="CubicBezierSmooth" offset_points="0.31,4 | 1.8,4" start_linecap_type="zerowidth" />
    <inkscape:path-effect effect="powerstroke" end_linecap_type="zerowidth" id="path-effect4696" interpolator_type="CubicBezierSmooth" offset_points="0.25,4 | 9.73,4" start_linecap_type="zerowidth" />
    <inkscape:path-effect effect="powerstroke" end_linecap_type="zerowidth" id="path-effect12231" interpolator_type="CubicBezierSmooth" offset_points="0.3,3 | 1.63,3" start_linecap_type="zerowidth" />
    <linearGradient id="linearGradient12046">
      <stop offset="0" stop-color="#ff8c40" />
      <stop offset="1" stop-color="#ee692a" />
    </linearGradient>
    <inkscape:path-effect effect="powerstroke" end_linecap_type="zerowidth" id="path-effect12008" interpolator_type="CubicBezierSmooth" miter_limit="20" offset_points="0.27,4 | 2,4 | 3.72,4" start_linecap_type="zerowidth" />
    <inkscape:path-effect effect="powerstroke" id="path-effect6477" interpolator_type="CubicBezierSmooth" offset_points="0.22,4" start_linecap_type="zerowidth" />
    <inkscape:path-effect effect="powerstroke" end_linecap_type="zerowidth" id="path-effect6475" interpolator_type="CubicBezierSmooth" offset_points="0.2,4 | 3.85,4" start_linecap_type="zerowidth" />
    <inkscape:path-effect effect="powerstroke" id="path-effect11423" interpolator_type="CubicBezierSmooth" offset_points="0.34,4 | 6,4" start_linecap_type="zerowidth" />
    <inkscape:path-effect effect="powerstroke" id="path-effect9589" interpolator_type="CubicBezierSmooth" offset_points="0.38,4 | 4,4" start_linecap_type="zerowidth" />
    <linearGradient id="linearGradient33678">
      <stop offset="0" stop-color="#26bf95" stop-opacity=".4" />
      <stop offset="0.361561" stop-color="#26bf95" stop-opacity=".7" />
      <stop offset="0.69750541" stop-color="#26bf95" stop-opacity=".7" />
      <stop offset="1" stop-color="#26bf95" stop-opacity=".4" />
    </linearGradient>
    <inkscape:path-effect effect="powerstroke" end_linecap_type="zerowidth" id="path-effect11037" interpolator_type="CubicBezierSmooth" offset_points="0.34,4 | 5.82,4" start_linecap_type="zerowidth" />
    <inkscape:path-effect effect="powerstroke" id="path-effect11035" interpolator_type="CubicBezierSmooth" offset_points="0.28,4" start_linecap_type="zerowidth" />
    <inkscape:path-effect effect="powerstroke" id="path-effect11033" interpolator_type="CubicBezierSmooth" offset_points="0.49,4" start_linecap_type="zerowidth" />
    <linearGradient id="linearGradient14428">
      <stop offset="0" stop-color="#c79835" />
      <stop offset="1" stop-color="#fcf89a" />
    </linearGradient>
    <inkscape:path-effect effect="powerstroke" end_linecap_type="zerowidth" id="path-effect4593" interpolator_type="CubicBezierSmooth" offset_points="0.2,4 | 1.62,4" start_linecap_type="zerowidth" />
    <inkscape:path-effect effect="powerstroke" end_linecap_type="zerowidth" id="path-effect4579" interpolator_type="CubicBezierSmooth" offset_points="0.28,4 | 2.69,4" start_linecap_type="zerowidth" />
    <linearGradient id="linearGradient8465">
      <stop offset="0" stop-color="#d1973d" />
      <stop offset="0.53176862" stop-color="#ede54f" />
      <stop offset="1" stop-color="#ebfc82" />
    </linearGradient>
    <inkscape:path-effect effect="powerstroke" end_linecap_type="zerowidth" id="path-effect8376" interpolator_type="CubicBezierSmooth" offset_points="0.37,4 | 1.83,4" start_linecap_type="zerowidth" />
    <clipPath id="clipPath8783">
      <use xlink:href="#ellipse2712" />
    </clipPath>
    <clipPath id="clipPath9421">
      <use xlink:href="#path9269" />
    </clipPath>
    <clipPath id="clipPath9717">
      <use xlink:href="#path9427" />
    </clipPath>
    <clipPath id="clipPath9733">
      <use xlink:href="#path9425" />
    </clipPath>
    <clipPath id="clipPath14443">
      <use xlink:href="#ellipse4608" />
    </clipPath>
    <clipPath id="clipPath14705">
      <use xlink:href="#path14480" />
    </clipPath>
    <inkscape:path-effect effect="powerstroke" id="path-effect14980" interpolator_type="CubicBezierSmooth" offset_points="0.33,4 | 6,4" start_linecap_type="zerowidth" />
    <inkscape:path-effect effect="powerstroke" id="path-effect14982" interpolator_type="CubicBezierSmooth" offset_points="0.28,4 | 2,4" start_linecap_type="zerowidth" />
    <linearGradient gradientUnits="userSpaceOnUse" id="linearGradient10986" x1="553.6192" x2="557.5752" y1="565.6507" y2="654.1347" xlink:href="#linearGradient14428" />
    <clipPath id="clipPath33670">
      <path d="m 524.41588,405.95315 c -1.09758,17.19122 56.26252,39.12039 70.50358,26.12743 14.24105,-12.99297 0.49277,-25.28692 18.87681,-44.58038 18.38405,-19.29345 21.63446,-49.06819 -8.08823,-64.15722 -29.72269,-15.08903 -48.23394,13.93211 -51.89271,35.34626 -3.65876,21.41414 -28.30187,30.07269 -29.39945,47.26391 z" style="opacity:1;fill:none;fill-opacity:1;stroke:#a985d3;stroke-width:0.75;stroke-linecap:butt;stroke-linejoin:miter;stroke-miterlimit:20;stroke-dasharray:none;stroke-dashoffset:0;stroke-opacity:1" />
    </clipPath>
    <linearGradient gradientUnits="userSpaceOnUse" id="linearGradient33680" x1="554.01868" x2="609.71625" y1="424.60342" y2="330.35342" xlink:href="#linearGradient33678" />
    <filter color-interpolation-filters="sRGB" height="1.084311" id="filter33782" width="1.0937939" x="-0.046896932" y="-0.042155515">
      <feGaussianBlur stdDeviation="2.3340527" />
    </filter>
    <mask id="mask33786">
      <path d="m 590.31055,311.16602 c -13.23606,-0.19075 -24.00743,7.09741 -31.19336,16.15234 -7.18593,9.05493 -11.47672,20.01053 -13.1875,30.02344 -1.35738,7.9445 -6.82436,14.06755 -13.52735,21.0039 -6.70298,6.93636 -15.18479,14.7881 -15.9707,27.09766 -0.56359,8.82748 5.22421,14.96898 11.59766,19.9668 6.37345,4.99781 14.4658,9.17946 23.07226,12.41406 8.60646,3.23459 17.66796,5.48509 26.10156,6.05469 8.43361,0.56959 16.74605,-0.083 23.10938,-5.88868 8.99549,-8.20712 9.84775,-18.3411 10.45898,-25.11914 0.61124,-6.77803 0.89682,-11.54021 8.81641,-19.85156 10.44734,-10.96413 16.9407,-25.11177 16.19531,-39.58594 -0.74538,-14.47416 -9.59299,-28.66343 -26.45312,-37.22265 -6.48876,-3.29408 -12.90898,-4.95687 -19.01953,-5.04492 z" style="fill:none;stroke:#fff;stroke-width:24;stroke-miterlimit:20;filter:url(#filter33782)" sodipodi:type="inkscape:offset" inkscape:original="M 590.19531 319.16602 C 569.56562 318.86872 556.7872 341.29046 553.81445 358.68945 C 550.15569 380.10359 525.5136 388.76191 524.41602 405.95312 C 523.31844 423.14434 580.67886 445.07304 594.91992 432.08008 C 609.16097 419.08711 595.41283 406.79346 613.79688 387.5 C 632.18093 368.20655 635.43167 338.43278 605.70898 323.34375 C 600.13598 320.51456 594.95601 319.23462 590.19531 319.16602 z " inkscape:radius="8" />
    </mask>
    <filter color-interpolation-filters="sRGB" height="1.3167172" id="filter4836" width="1.3577831" x="-0.17889153" y="-0.15835859">
      <feGaussianBlur stdDeviation="7.7100565" />
    </filter>
    <inkscape:path-effect effect="powerstroke" end_linecap_type="zerowidth" id="path-effect2268" interpolator_type="CubicBezierSmooth" offset_points="0.26,4 | 2.63,4" start_linecap_type="zerowidth" />
    <inkscape:path-effect effect="powerstroke" end_linecap_type="zerowidth" id="path-effect2266" interpolator_type="CubicBezierSmooth" offset_points="0.6,4 | 3.5,4" start_linecap_type="zerowidth" />
    <inkscape:path-effect effect="powerstroke" end_linecap_type="zerowidth" id="path-effect13067" interpolator_type="CubicBezierSmooth" offset_points="0.36,4 | 2.66,4" start_linecap_type="zerowidth" />
    <clipPath id="clipPath12180">
      <use xlink:href="#ellipse12036" />
    </clipPath>
    <clipPath id="clipPath12227">
      <use xlink:href="#path12004" />
    </clipPath>
    <linearGradient gradientTransform="translate(-5.0151298,0.31380455)" gradientUnits="userSpaceOnUse" id="linearGradient4874" x1="1288.7883" x2="1275.4777" y1="276.92932" y2="360.82739" xlink:href="#linearGradient12046" />
    <clipPath id="clipPath4805">
      <path d="m 1086.664,896.03231 c -70.9798,14.44258 -202.66442,16.05797 -277.07268,8.05173 -39.45953,-55.91025 248.76488,-52.64795 277.07268,-8.05173 z" style="opacity:1;fill:none;fill-opacity:1;fill-rule:nonzero;stroke:#986928;stroke-width:2;stroke-linecap:butt;stroke-linejoin:miter;stroke-miterlimit:4;stroke-dasharray:none;stroke-dashoffset:0;stroke-opacity:1" />
    </clipPath>
    <clipPath id="clipPath9819">
      <path d="m 736.07241,740.59163 c -6.57732,17.80839 16.86431,16.05903 -0.0641,55.8254 -16.9284,39.76636 40.79664,50.21811 33.60755,26.62708 -7.18908,-23.59104 28.3037,-20.8307 19.04525,-42.97201 -9.25847,-22.1413 16.19945,-29.25574 3.39011,-47.39106 -12.80933,-18.13529 -49.40152,-9.8978 -55.97881,7.91059 z" style="opacity:1;fill:none;fill-opacity:1;stroke:#000000;stroke-width:1.0841769;stroke-linecap:butt;stroke-linejoin:miter;stroke-miterlimit:4;stroke-dasharray:none;stroke-dashoffset:0;stroke-opacity:1" />
    </clipPath>
    <filter color-interpolation-filters="sRGB" height="1.224085" id="filter12120" width="1.402925" x="-0.20146251" y="-0.11204248">
      <feGaussianBlur stdDeviation="5.2757975" />
    </filter>
    <linearGradient gradientTransform="translate(-1157.6246,703.44616)" gradientUnits="userSpaceOnUse" id="linearGradient7177" x1="993.71448" x2="916.57343" y1="280.0838" y2="278.14151" xlink:href="#linearGradient8465" />
    <linearGradient gradientTransform="matrix(1.039301,0,0,1.039301,306.91654,-93.099627)" gradientUnits="userSpaceOnUse" id="linearGradient7179" x1="480.62195" x2="479.72144" y1="356.47031" y2="430.38019" xlink:href="#linearGradient8465" />
    <filter color-interpolation-filters="sRGB" height="1.24" id="filter23940" width="1.24" x="-0.12" y="-0.12">
      <feGaussianBlur stdDeviation="22.348167" />
    </filter>
    <linearGradient gradientUnits="userSpaceOnUse" id="linearGradient12347" x1="1036.5106" x2="1036.5106" y1="764.2655" y2="132.94824" xlink:href="#linearGradient12345" />
  </defs>
  <rect fill="url(#linearGradient12347)" height="1024" width="1792" />
  <circle cx="2947.8298" cy="293.41879" r="223.48167" style="fill:#fff;fill-rule:evenodd;stroke:#fdfdc1;stroke-width:65.60018921;filter:url(#filter23940)" transform="matrix(0.62112848,0,0,0.62112848,-1548.3459,-130.56499)" />
  <g>
    <path d="M 1279.6265,493.3275 977.6922,766.5062 1095.329,779.57695 1454.7746,510.31947 Z M 1108.3997,482.8709 763.33187,767.81327 811.69365,770.42743 1173.7535,488.0992 Z" fill="#fff" opacity=".3" />
    <path d="M -42.87867,555.06096 C 592.57227,450.41303 1192.4728,455.64356 1840.241,563.60641" fill="none" stroke="#3c6278" stroke-width="24" />
    <path d="M 1620.7381,529.69731 V 810.71846 M 1178.0452,488.39023 V 769.41138 M 721.3523,482.08315 V 763.1043 m -490,-241.02115 V 803.1043" fill="none" stroke="#3c6278" stroke-width="8" />
    <path d="m -34.450385,803.89105 c 683.726995,-103.64726 1135.597085,-105.6163 1861.055285,0 V 1048.1431 H -34.450385 Z" fill="#39b0cb" />
  </g>
  <g>
    <g>
      <ellipse cx="885.99121" cy="842.16046" opacity=".25" rx="179.86612" ry="26.155287" />
      <g>
        <path d="m 841.9353,452.74413 c 51.75728,37.75709 17.34868,137.14607 -56.90283,100.19123 -65.81776,-32.75797 -96.10764,-120.56529 -85.53957,-136.78521 12.48051,-19.15515 63.72557,-3.50094 111.66793,26.17454 z" fill="#adb2c0" stroke="#727b93" stroke-width="8" />
        <path d="m 702.10089,452.48989 61.90231,64.80824 m -48.55441,-110.49688 76.32353,48.55741 m -93.8225,-34.72727 64.46276,50.2807" fill="none" stroke="#727b93" stroke-width="4" />
      </g>
      <path d="m 946.78131,603.43254 c -2.40726,20.89304 -8.36281,38.41776 -20.11836,51.34631 -34.24348,37.66045 27.33087,145.68213 59.34766,110.96317 61.87079,-67.09258 19.08139,-213.07257 -13.3674,-221.44143 -25.93608,-6.68916 -57.26331,13.15994 -68.1643,39.89838 z" fill="#adb2c0" stroke="#727b93" stroke-width="8" />
      <path d="m 330.64955,761.78268 c -143.20335,-36.79364 78.5539,-95.74221 29.14751,-181.3166 -40.53424,-70.20737 26.03255,-164.54743 245.64296,-166.74616 118.32264,-1.18464 158.78663,39.62185 224.60382,25.5982 3.34148,-38.84602 0.72165,-63.59692 1.60199,-102.8322 l 125.90386,4.69438 c -14.90255,79.28735 34.40272,190.76397 -58.42995,244.36094 -105.52869,60.92702 -136.01084,-41.70157 -303.27262,-67.52692 -182.92955,-28.24447 -220.8789,22.23801 -184.91687,85.40099 39.79344,69.89238 -156.14868,113.05421 -37.1617,134.14775 z" fill="#c2c5d5" />
      <path fill="#808aa7" inkscape:original-d="m 828.7014,454.26407 c 5.60755,-47.97896 1.95617,-73.73305 2.94443,-117.77815 l 125.90386,4.69438 C 942.64714,420.46765 991.95241,531.94427 899.11974,585.54124 793.59105,646.46826 763.1089,543.83967 595.84712,518.01432" inkscape:path-effect="#path-effect6475" />
      <path fill="#808aa7" inkscape:original-d="m 605.44002,413.71992 c 118.32264,-1.18464 158.78663,39.62185 224.60382,25.5982" inkscape:path-effect="#path-effect6477" />
      <g>
        <path d="m 811.49973,457.7184 c 51.75858,37.75531 17.3534,137.14548 -56.89938,100.1932 -65.81889,-32.75571 -96.11158,-120.56184 -85.54428,-136.78227 12.48006,-19.15544 63.72545,-3.50313 111.66883,26.1707 z" fill="#c2c5d5" />
        <path fill="#808aa7" inkscape:original-d="m 811.49973,457.7184 c 51.75858,37.75531 17.3534,137.14548 -56.89938,100.1932 -65.81889,-32.75571 -96.11179,-120.56198 -85.54428,-136.78227 12.47985,-19.15558 63.72545,-3.50313 111.66883,26.1707 -10.768,3.29839 -17.80272,9.12421 -23.40126,20.68167 -21.40239,-5.7193 -41.84101,16.95243 -23.33906,43.06433 -4.06794,15.5067 5.42897,35.65713 20.61577,46.86557" inkscape:path-effect="#path-effect11423" />
        <path d="m 671.66531,457.46898 61.90454,64.80611 m -48.55822,-110.49521 76.32521,48.55478 m -93.8237,-34.72403 64.46449,50.27847" fill="none" stroke="#808aa7" stroke-width="4" />
      </g>
      <g>
        <path d="m 778.56625,202.6126 c -9.13119,82.83079 21.27809,171.06181 29.7086,253.2438 8.84921,-18.63506 12.115,-36.77774 12.11255,-61.41759 22.50345,25.63849 31.31946,53.09907 36.73787,97.36857 20.18608,-42.66603 18.97734,-106.77315 -9,-154.8921 z" style="fill:#fffaad;stroke:#e8dc64;stroke-width:8;stroke-miterlimit:20" />
        <path d="M 770.23455,250.09268 C 772.23806,41.024242 1024.0266,49.394519 1028.1231,246.73334 1029.2825,302.58319 993.27341,382.70565 900.98028,383.7232 807.2699,384.75638 769.69766,306.11805 770.23455,250.09268 Z" fill="#c2c5d5" stroke="#808aa7" stroke-width="8" />
        <use transform="matrix(-1,0,0,1,1798.4437,0)" xlink:href="#g8383" />
        <path d="m 915.6788,307.47083 c 1.60701,5.32601 -0.4197,8.79959 -5.92146,9.83955 7.96505,2.45909 11.87205,-2.98425 5.92146,-9.83955 z m -29.2562,10.12156 c -5.45492,-1.09146 -7.56404,-4.5158 -5.89216,-9.85558 -5.9226,5.8657 -2.96198,11.8776 5.89216,9.85558 z m 29.05208,-22.20402 c -7.94563,-6.28749 -26.53233,-6.62949 -34.36522,-0.16977 11.96843,-1.8528 22.72749,-1.90977 34.36522,0.16977 z m 22.26006,46.14201 c -24.36193,17.08306 -53.49368,16.64787 -77.85387,1.63624 19.7243,22.39417 58.95747,21.91069 77.85387,-1.63624 z" fill="#808aa7" />
        <g>
          <g clip-path="url(#clipPath9717)">
            <ellipse cx="-131.97005" cy="998.71985" fill="#fff" id="path9427" rx="76.578461" ry="42.078049" transform="rotate(-82.922056)" />
            <g clip-path="url(#clipPath9421)">
              <ellipse cx="-202.32863" cy="971.28241" fill="url(#linearGradient7177)" id="path9269" rx="51.853485" ry="30.163034" transform="rotate(-86.105151)" />
              <path d="m 945.09138,274.35502 32.58352,42.44858 13.59457,-21.28796 z" fill="#f4ffb9" />
              <path d="m 945.09138,274.35502 49.67839,6.3911 -6.40512,19.4495 z" fill="#ebfc82" />
              <ellipse cx="-203.12251" cy="967.87561" rx="40.754936" ry="23.707035" transform="rotate(-86.105118)" />
              <ellipse cx="990.58899" cy="-29.045767" fill="#fff" rx="12.296697" ry="19.043591" transform="rotate(16.139332)" />
              <ellipse cx="1005.4081" cy="-69.629944" fill="#fff" rx="4.3230195" ry="5.3950701" transform="rotate(19.800708)" />
            </g>
          </g>
          <path d="m 1016.8241,227.77666 c 33.238,-4.03692 31.3928,-8.75434 4.2494,-6.26134 -11.7398,-52.51423 -51.3861,-61.36864 -75.14222,-19.92577 -14.44101,25.19255 -22.38487,65.09127 -8.74942,98.49821 -7.40928,-38.15163 -1.41249,-70.07458 13.21894,-95.52291 22.21449,-38.6375 57.7302,-28.75759 66.4233,23.21181 z m -1.9318,-18.24678 c 30.7398,-13.93307 29.5364,-18.96408 -1.6649,-5.3388 z m -8.4515,-16.55614 c 27.2043,-21.85959 23.6492,-25.70086 -3.1993,-4.68693 z" />
        </g>
        <path d="m 791.17074,125.30163 c 30.24136,43.24834 63.33005,62.98836 122.17571,77.34276 -18.11329,-16.34211 -30.73448,-27.60155 -41.80414,-47.06344 71.49047,7.67818 128.23464,34.09021 179.35209,93.63653 -4.4974,-37.90757 -18.6612,-64.45831 -46.3216,-93.34169 25.7283,5.58197 48.8851,16.62246 72.291,39.29555 C 1041.1541,49.582327 890.82425,15.106176 784.19828,100.75469 Z" style="fill:#fffaad;stroke:#e8dc64;stroke-width:8;stroke-miterlimit:20" />
        <g id="g8383">
          <path d="m 804.73611,155.65831 c -4.61474,-50.00909 -15.50344,-86.255704 -28.04705,-86.255704 -18.47643,0 -75.68863,123.479084 1.00763,177.105304 z" fill="#c2c5d5" />
          <path d="m 771.93718,117.05768 c -8.26367,29.37773 -8.69654,55.66954 -2.23187,81.99059 -12.31628,-24.29092 -10.32311,-58.00489 2.23187,-81.99059 z" fill="#808aa7" />
          <path fill="#808aa7" inkscape:original-d="m 804.73611,155.65831 c -4.61474,-50.00909 -15.50344,-86.255704 -28.04705,-86.255704 -18.47643,0 -75.68863,123.479084 1.00763,177.105304" inkscape:path-effect="#path-effect8376" />
        </g>
        <g>
          <g clip-path="url(#clipPath9733)">
            <ellipse cx="335.44589" cy="-793.98083" fill="#fff" id="path9425" rx="76.576294" ry="42.077293" transform="rotate(84.17731)" />
            <g clip-path="url(#clipPath8783)">
              <ellipse cx="816.62823" cy="316.16971" fill="url(#linearGradient7179)" id="ellipse2712" rx="30.163031" ry="51.853489" transform="rotate(-4.8554785)" />
              <path d="m 848.10552,254.92627 -28.68076,41.5534 -13.94959,-21.05705 z" fill="#f4ffb9" />
              <path d="m 848.10552,254.92627 -46.37773,5.78758 6.7303,19.33939 z" fill="#ebfc82" />
              <ellipse cx="316.96445" cy="-820.0351" rx="40.754936" ry="23.707024" transform="rotate(85.144496)" />
              <ellipse cx="859.92963" cy="-7.0480132" fill="#fff" rx="12.296697" ry="19.043591" transform="rotate(15.559567)" />
              <ellipse cx="878.17499" cy="8.4917593" fill="#fff" rx="4.3230195" ry="5.3950701" transform="rotate(15.99995)" />
            </g>
          </g>
          <path d="m 782.51618,226.06723 c -33.14007,-4.77427 -31.19053,-9.44952 -4.10918,-6.3542 12.90337,-52.2405 52.73241,-60.18565 75.56207,-18.22529 13.87782,25.5071 20.90063,65.64211 6.52642,98.73791 8.25492,-37.97763 3.00159,-70.09559 -11.06094,-95.86266 -21.35073,-39.12141 -57.073,-30.05923 -66.91837,21.70424 z m 2.33666,-18.19938 c -30.42272,-14.61247 -29.1078,-19.61549 1.78313,-5.30048 z m 8.81723,-16.36432 c -26.71199,-22.45849 -23.07246,-26.21986 3.30259,-4.61471 z" />
        </g>
      </g>
    </g>
    <g>
      <path d="m 1351.7318,684.15004 c -5.9223,-92.26818 33.9958,-133.95489 52.159,-133.87402 7.481,0.0333 8.066,24.80333 -0.7142,63.28711 54.4861,-107.57821 88.3318,-60.52691 21.6577,33.67724 25.0504,-7.14263 52.9743,23.71714 -28.0401,51.72313 z" fill="#a5a0ba" stroke="#897f9f" stroke-width="8" />
      <g>
        <path d="m 1541.3176,717.50265 c 29.8204,-61.93456 -17.2684,-93.55407 -63.1459,-52.72313 l -16.1664,-16.61973 c 27.4237,-38.75191 36.6639,-67.23099 40.0226,-109.54329 7.9485,14.24931 11.2035,26.54848 8.8838,46.28057 28.242,-40.87857 70.0234,-54.90164 124.1608,-34.8112 -27.6851,2.11732 -44.4552,5.64689 -62.5223,13.44402 63.0346,1.93401 92.9021,34.59482 101.6937,96.48639 -11.5721,-14.75175 -25.4709,-25.50324 -41.9238,-31.93365 25.1385,40.77811 31.1004,88.986 8.7166,126.6167 0.8022,-16.60175 -1.9349,-30.93994 -9.6343,-46.79501 -7.8258,44.27163 -22.0152,73.33555 -69.2497,104.93041 20.3896,-40.82643 20.6507,-85.59127 4.8411,-119.81047 -5.5936,10.47368 -13.7388,17.59442 -25.6762,24.47839 z" fill="#ffca44" />
        <path fill="#ff9241" inkscape:original-d="m 1575.231,669.54275 c -5.214,25.06638 -14.601,36.82299 -33.9134,47.9599 29.8204,-61.93456 -17.2684,-93.55407 -63.1459,-52.72313 l -16.1664,-16.61973 c 27.4237,-38.75191 36.6639,-67.23099 40.0226,-109.54329 7.9485,14.24931 11.2035,26.54848 8.8838,46.28057 28.242,-40.87857 70.0234,-54.90164 124.1608,-34.8112 -27.6851,2.11732 -44.4552,5.64689 -62.5223,13.44402 63.0346,1.93401 92.9021,34.59482 101.6937,96.48639 -11.5721,-14.75175 -25.4709,-25.50324 -41.9238,-31.93365 25.1385,40.77811 31.1004,88.986 8.7166,126.6167 0.8022,-16.60175 -1.9349,-30.93994 -9.6343,-46.79501 -7.8258,44.27163 -22.0152,73.33555 -69.2497,104.93041 20.3896,-40.82643 20.6507,-85.59127 4.7233,-119.92965" inkscape:path-effect="#path-effect4711" />
      </g>
      <ellipse cx="1383.2964" cy="948.78168" opacity=".25" rx="200.97787" ry="33.644913" />
      <path d="m 1380.8618,775.44579 c 29.6118,38.87202 43.2168,91.98899 13.073,158.6253 -9.1293,20.18126 87.1252,22.99144 90.8967,1.50971 7.5166,-42.81343 1.3059,-90.4227 -10.6441,-127.19236 z m -48.068,-12.2167 c 9.5163,53.44729 12.7196,112.52044 4.5034,172.45349 -3.2206,23.49406 -104.1447,16.63825 -95.9952,-1.05162 28.3341,-61.50068 39.298,-108.91411 36.5604,-177.0801 z" fill="#a5a0ba" stroke="#897f9f" stroke-width="8" />
      <path d="m 1415.0442,385.57567 c 34.4619,45.17027 47.5012,92.3778 42.1723,158.30847 -6.0616,-21.02453 -13.0926,-40.83727 -24.0058,-55.79725 6.4457,34.06343 5.689,67.55225 -3.3227,103.80884 -3.7598,-11.81155 -7.2025,-21.66933 -12.9761,-33.73787 -8.7589,38.60391 -21.2667,60.49631 -57.5997,85.15091 z" style="fill:#ffca44;stroke:#ff9241;stroke-width:8;stroke-miterlimit:20" />
      <path d="m 1429.7675,794.30121 c 17.429,36.18052 37.9159,77.8799 6.2766,157.32868 -8.8855,22.31208 93.0787,21.99143 95.8052,0.5097 5.434,-42.81466 -2.8652,-100.29886 -13.323,-130.03851 -4.331,-12.31654 -18.6961,-12.30597 -23.9985,-10.98016 49.0714,-149.04156 -49.5086,-211.91962 -123.3379,-162.21819 11.0844,-51.46485 35.2154,-74.92832 34.0832,-159.43594 -2.3439,-174.9493 -282.0733,-153.62752 -267.0069,-3.12941 2.6665,26.63539 -12.2579,44.53707 -37.9493,52.33624 l 23.1556,64.50631 c 58.5933,1.07109 102.4707,37.19724 147.4535,23.92916 -72.8629,159.85868 19.5881,203.11376 158.8415,167.19212 z" fill="#b9b4ce" />
      <path d="m 1468.9071,728.89625 19.5031,18.86613 m -22.5308,-28.26732 21.5112,-1.4339 m -27.5024,12.39658 1.3065,19.59898 m -11.7274,-39.07058 -19.5031,-18.86617 m 22.5304,28.2673 -21.5109,1.43394 m 27.5024,-12.39655 -1.3065,-19.59899" style="fill:none;stroke:#fff;stroke-width:4.79051971;stroke-linecap:round" />
      <path fill="#897f9f" inkscape:original-d="m 1412.5286,730.60336 c -6.564,64.23268 73.4843,95.55094 23.5155,221.02653 -8.8854,22.3121 93.0787,21.99143 95.8052,0.5097 5.434,-42.81466 -2.8652,-100.29886 -13.323,-130.03851 -4.331,-12.31654 -18.6961,-12.30597 -23.9985,-10.98016 49.0714,-149.04156 -49.5086,-211.91962 -123.3379,-162.21819 11.0844,-51.46485 35.2154,-74.92832 34.0832,-159.43594 -2.3439,-174.9493 -282.0733,-153.62752 -267.0069,-3.12941 2.6665,26.63539 -12.2579,44.53707 -37.9493,52.33624 l 23.1556,64.50631 c 66.6797,1.21891 114.3013,47.83635 166.1428,15.72212" inkscape:path-effect="#path-effect4696" />
      <path d="m 1270.9528,626.88476 c -72.8897,160.08301 19.5613,203.33809 159.0067,167.44357" style="fill:none;stroke:#897f9f;stroke-width:8;stroke-miterlimit:2.4000001" />
      <g>
        <path d="m 1116.4123,585.43783 c 18.3153,0.51595 30.9273,-5.15041 35.7339,-20.13874 -9.4925,11.14811 -21.4719,15.26496 -37.0106,14.07115 m 2.1346,-32.18195 c 4.0786,2.86084 6.8853,2.23205 8.6162,-2.13226 0.753,8.17709 -4.6147,9.59451 -8.6162,2.13226 z" fill="#897f9f" />
        <g clip-path="url(#clipPath12227)" transform="translate(9)">
          <ellipse cx="1279.5811" cy="-345.86603" fill="#fff" id="path12004" rx="59.182243" ry="69.821007" transform="rotate(37.836965)" />
          <g clip-path="url(#clipPath12180)">
            <ellipse cx="1266.7109" cy="315.19492" fill="url(#linearGradient4874)" id="ellipse12036" rx="45.474365" ry="58.490643" transform="rotate(9.2910122)" />
            <path d="m 1183.25,525 27.75,58 23.25,-24 z" fill="#ff8b44" />
            <path d="m 1183.25,525 58.75,20.75 -13.75,19.75 z" fill="#f0652c" />
            <ellipse cx="1250.177" cy="338.44669" rx="35.34824" ry="44.348274" transform="rotate(8.3577137)" />
            <ellipse cx="1210.9712" cy="-489.17844" fill="#fff" rx="14.506939" ry="26.060497" transform="rotate(44.344361)" />
            <ellipse cx="1203.2814" cy="-546.42322" fill="#fff" rx="4.7197351" ry="8.3231573" transform="rotate(48.004072)" />
          </g>
        </g>
        <path inkscape:original-d="m 1172.6639,497.79041 c 21.8936,-54.08814 75.1906,-62.4986 101.8867,-41.16674 25.8231,20.63426 27.5643,60.99119 3.9103,91.44514" inkscape:path-effect="#path-effect12231" />
      </g>
      <g>
        <path d="m 1370.3427,784.55878 c 5.3715,53.12288 12.0968,121.79371 4.2172,171.9947 -3.7127,23.65338 -109.7391,17.89447 -101.3933,-0.21277 29.0282,-62.97984 41.0062,-107.29541 38.1749,-176.83772 z" fill="#b9b4ce" />
        <path fill="#897f9f" inkscape:original-d="m 1370.3427,784.55878 c 5.3715,53.12288 12.0968,121.79371 4.2172,171.9947 -3.7127,23.65338 -109.7391,17.89447 -101.3933,-0.21277 29.0282,-62.97984 41.0062,-107.29541 38.1749,-176.83772" inkscape:path-effect="#path-effect13067" />
      </g>
      <g>
        <path d="m 1093.0487,419.16648 c 15.6887,2.20586 30.7612,1.31404 43.7159,-2.58686 -8.2574,13.00984 -12.0125,24.67093 -14.9787,41.11247 28.5702,-32.6592 48.2784,-41.12665 80.2269,-45.89671 -8.7443,15.03271 -10.8932,31.15438 -9.7163,51.47804 25.1803,-32.11159 51.1811,-46.95421 81.4684,-51.08897 -4.6394,6.70761 -8.1202,14.5147 -10.6364,23.33605 45.0098,-21.16011 77.9933,-22.81457 119.9879,-9.55689 l 16.8868,-46.06696 c -10.915,-29.83783 0.082,-69.65775 31.3766,-88.52043 -28.8579,-0.45574 -49.4896,9.16867 -64.3247,33.23626 0.8438,-34.18747 -11.3204,-62.02373 -38.4674,-86.79093 12.4177,32.2527 14.8828,56.21756 6.768,85.05878 -70.5966,-72.35971 -163.8906,-39.42777 -199.4224,16.97452 -11.8075,18.74288 -31.0439,34.50901 -59.1133,42.1219 31.1344,12.73224 47.1193,11.04213 63.4917,-1.92035 -9.3576,13.09611 -21.3025,27.14138 -47.263,39.11008 z" fill="#ffca44" />
        <path fill="#ff9241" inkscape:original-d="m 1222.504,387.23206 c -25.7632,22.78017 -32.0468,44.27937 -30.2075,76.04136 25.1803,-32.11159 51.1811,-46.95421 81.1019,-50.99143" inkscape:path-effect="#path-effect4899" />
        <path fill="#ff9241" inkscape:original-d="m 1312.0058,387.11857 c -29.3201,9.44634 -42.3472,25.50849 -48.8773,48.40193 45.0098,-21.16011 77.9933,-22.81457 119.9879,-9.55689 l 16.8868,-46.06696 c -10.915,-29.83783 0.082,-69.65775 31.3766,-88.52043 -28.8579,-0.45574 -49.4896,9.16867 -64.3247,33.23626 0.8438,-34.18747 -11.3204,-62.02373 -38.4674,-86.79093 12.4177,32.2527 14.8828,56.21756 6.768,85.05878 -70.5966,-72.35971 -163.8906,-39.42777 -199.4224,16.97452 -11.8075,18.74288 -31.0439,34.50901 -59.1133,42.1219 31.1344,12.73224 47.1193,11.04213 63.1107,-1.3423" inkscape:path-effect="#path-effect4901" />
        <path fill="#ff9241" inkscape:original-d="m 1175.3169,341.88385 c -34.5064,20.96508 -30.2373,53.29457 -82.2682,77.28263 15.6887,2.20586 30.7612,1.31404 43.7159,-2.58686 -8.2574,13.00984 -12.0125,24.67093 -14.9787,41.11247 28.5702,-32.6592 48.2784,-41.12665 80.5212,-45.98538" inkscape:path-effect="#path-effect4903" />
      </g>
      <g>
        <path d="m 1356.6637,441.43845 c 11.6784,-62.2853 50.7852,-93.88417 67.4638,-91.19587 20.6809,3.33341 54.214,117.98117 -31.726,183.46886 z" fill="#b9b4ce" />
        <path d="m 1416.4562,398.27116 c 6.9718,30.6519 -2.0789,65.69705 -23.8701,86.4386 16.5887,-26.05907 23.8191,-52.87764 23.8701,-86.4386 z" fill="#897f9f" />
        <path fill="#897f9f" inkscape:original-d="m 1356.6637,441.43845 c 11.6784,-62.2853 50.7852,-93.88417 67.4638,-91.19587 20.6809,3.33341 54.214,117.98117 -31.726,183.46886" inkscape:path-effect="#path-effect4702" />
      </g>
      <g>
        <path d="m 1363.349,682.15563 c -1.2188,-92.45001 40.7692,-132.05114 58.9047,-131.04599 7.4696,0.414 6.7932,25.18169 -3.9342,63.16874 59.8905,-104.66582 91.2978,-55.95298 19.9157,34.73583 25.3815,-5.85847 51.6986,26.38244 -30.6361,50.22906 z" fill="#b9b4ce" />
        <path d="m 1360.0192,666.12728 c 30.1909,-56.05597 73.5268,-42.82752 44.2718,11.03915 17.5557,-3.53226 22.297,9.16981 12.1575,22.59833" fill="none" stroke="#897f9f" stroke-width="8" />
        <path d="m 1411.8813,697.97538 17.5988,-5.51485 -9.3266,12.73281 z m -48.4982,-28.95293 1.622,-23.60029 -12.4084,20.27516 z" fill="#b9b4ce" />
        <path fill="#897f9f" inkscape:original-d="m 1363.349,682.15563 c -1.2188,-92.45001 40.7692,-132.05114 58.9047,-131.04599 7.4696,0.414 6.7932,25.18169 -3.9342,63.16874 59.8905,-104.66582 91.2978,-55.95298 19.9157,34.73583 25.3815,-5.85847 51.6986,26.38244 -30.6361,50.22906" inkscape:path-effect="#path-effect12008" />
        <path d="m 1380.7105,639.08158 c 19.7882,-16.9361 37.4498,-9.53738 32.4275,15.32756" fill="#b9b4ce" stroke="#897f9f" stroke-width="8" />
      </g>
    </g>
    <g>
      <ellipse cx="424.02161" cy="946.16833" opacity=".25" rx="211.35873" ry="35.382736" />
      <path d="m 215.78016,949.38245 c -2.5288,-1.8786 -5.07802,-3.91143 -7.64812,-6.10785 3.63231,14.98875 9.4749,27.85619 17.72792,41.78428 C 136.1238,951.47957 172.59903,826.1106 288.57063,863.52229 L 302.5,928.5" fill="#f8f8d5" stroke="#d3b76a" stroke-width="8" />
      <path d="m 459.73641,774.13251 c 1.02937,56.75948 5.83688,137.32981 17.22853,167.01376 6.42834,16.7507 106.95199,14.55209 99.28283,0.62201 -30.3618,-55.14844 -54.39493,-108.27009 -58.81936,-173.15061 z" fill="#bfa3df" stroke="#a985d3" stroke-width="8" />
      <path d="M 282.19627,871.08296 C 176.13025,850.2233 198.94849,978.29732 295.6191,939.14719 Z" fill="#f7f0a6" />
      <path d="m 292.70876,944.91902 c -11.91985,2.35086 -13.49802,-24.7355 -0.36477,-48.42622 -22.61166,-23.01588 -20.60205,-63.98665 -2.32433,-90.12438 28.51128,-40.77205 66.4038,-39.04118 94.73946,-72.33651 -6.12158,-49.28878 -14.75216,-97.70485 -20.57457,-186.34749 -13.13416,-199.95977 334.98564,-181.4423 259.99622,65.71235 -7.40315,24.39973 28.52522,13.13556 21.39749,33.40809 -11.61434,33.03323 -64.67218,73.37862 -151.61009,51.37267 62.92373,128.15589 14.62691,205.62413 -113.78778,207.45863" fill="#cdb8e6" />
      <path fill="#a985d3" inkscape:original-d="m 305.87366,906.71862 c -36.35693,-19.02798 -37.20845,-69.81264 -15.854,-100.3502 28.51128,-40.77205 66.4038,-39.04118 94.73946,-72.33651 -6.12158,-49.28878 -14.75216,-97.70485 -20.57457,-186.34749 -13.13416,-199.95977 334.98564,-181.4423 259.99622,65.71235 -7.40315,24.39973 28.52522,13.13556 21.39749,33.40809 -12.46155,35.44284 -72.63332,79.30352 -170.81108,45.81297" inkscape:path-effect="#path-effect11037" />
      <path d="M 493.67511,697.95219 C 556.8919,826.33342 508.59508,903.80166 380.18039,905.63616" style="fill:none;stroke:#a985d3;stroke-width:8;stroke-miterlimit:20" />
      <g>
        <path d="m 361.36742,805.62331 c 19.25972,19.99933 27.859,43.06725 21.07508,77.20113 29.02353,1.90835 51.43985,29.49238 51.43985,64.08888 0,22.2806 -84.63577,21.79559 -89.86269,2.28846 -2.38317,-8.89412 -18.59872,-10.73432 -51.3109,-4.28276 z" fill="#cdb8e6" />
        <path fill="#a985d3" inkscape:original-d="m 361.36742,805.62331 c 19.25972,19.99933 27.859,43.06725 20.93873,77.5329" inkscape:path-effect="#path-effect11033" />
        <path fill="#a985d3" inkscape:original-d="m 344.67781,893.92318 c 44.50113,-30.73789 89.20454,4.13386 89.20454,52.99014 0,22.2806 -84.63577,21.79559 -89.86269,2.28846 -2.38317,-8.89412 -18.59872,-10.73432 -51.3109,-4.28276 -11.91985,2.35086 -13.49802,-24.7355 -0.35098,-48.60528" inkscape:path-effect="#path-effect11035" />
      </g>
      <g>
        <path d="m 431.45546,789.78132 c -2.84127,56.75948 -3.52815,137.32981 5.83925,167.01376 5.28604,16.7507 105.95962,14.55209 99.2404,0.62201 C 509.93409,902.26865 489.52353,849.147 489.52353,784.26648 Z" fill="#cdb8e6" />
        <path fill="#a985d3" inkscape:original-d="m 431.45546,789.78132 c -2.84127,56.75948 -3.52815,137.32981 5.83925,167.01376 5.28604,16.7507 105.95962,14.55209 99.2404,0.62201 C 509.93409,902.26865 489.52353,849.147 489.52353,784.26648" inkscape:path-effect="#path-effect4579" />
      </g>
      <g>
        <path d="m 481.15879,633.086 c -9.23357,1.44533 -14.35814,6.02328 -14.44298,16.08101 3.35561,-7.6289 9.27147,-11.28737 17.76632,-11.97797 m -9.83564,-14.03467 c -8.58851,0.21798 -14.36993,3.51088 -16.0363,11.26091 4.66903,-5.20415 10.54901,-7.40083 18.69221,-6.65587" />
        <g clip-path="url(#clipPath14705)">
          <ellipse cx="701.95099" cy="-383.51715" fill="#fff" id="path14480" rx="68.831902" ry="63.508572" transform="rotate(77.19486)" />
          <g clip-path="url(#clipPath14443)">
            <ellipse cx="562.867" cy="607.37885" fill="url(#linearGradient10986)" id="ellipse4608" rx="23.986519" ry="58.028469" transform="rotate(-0.98116025)" />
            <path d="m 558.55803,665.69706 19.26853,-56.19988 -39.22522,22.70935 z" fill="#ffffdb" />
            <path d="m 531.26094,619.59022 46.56562,-10.09304 -31.19667,31.65545 z" fill="#fafab4" />
            <ellipse cx="567.53204" cy="608.77081" rx="17.566807" ry="47.510571" transform="rotate(-0.98115966)" />
            <ellipse cx="630.05554" cy="511.06018" fill="#fff" rx="13.757196" ry="33.646843" transform="rotate(6.1378682)" />
            <ellipse cx="486.18222" cy="695.18256" fill="#fff" rx="4.2981691" ry="9.9369831" transform="rotate(-8.862132)" />
            <ellipse cx="494.28952" cy="689.15607" fill="#fff" rx="2.4171562" ry="5.5882487" transform="rotate(-7.3103756)" />
          </g>
        </g>
        <path d="m 499.225,538.25338 c -8.23844,-5.11578 -13.44523,-12.54874 -14.99183,-23.20871 -3.02837,10.22427 -0.003,19.29167 8.37965,26.97175 z m -17.39111,12.2242 c -9.4551,-2.12236 -16.80896,-7.58762 -21.73805,-17.14328 0.46019,10.65138 6.27004,18.21794 16.69502,22.70941 z m -37.53233,13.39404 c 5.4512,8.81635 14.89228,11.78807 25.01827,10.83772 33.12533,-74.51219 140.24942,-38.49012 119.96642,51.05415 32.08668,-91.17946 -86.12022,-134.40378 -123.18706,-57.28837 -6.05855,1.74235 -14.16669,0.1933 -21.79763,-4.6035 z" />
        <path d="m 596.3874,659.56047 c 4.05502,13.30865 13.97818,18.8072 27.54743,17.35554 l -5.94787,5.62345 c -12.6517,-0.4866 -22.6481,-7.65674 -21.59956,-22.97899 z m 28.16873,-17.22013 c 1.2165,4.21723 3.89283,5.43374 7.38016,2.83852 -3.40623,6.81246 -9.08328,4.78495 -7.38016,-2.83852 z" fill="#a985d3" />
      </g>
      <g>
        <path d="m 357.77622,425.06404 c -73.49142,49.3339 -104.18364,147.09289 -59.15038,235.36616 -1.22137,-21.36775 2.79087,-38.32704 10.51825,-58.67262 -1.09716,78.43748 57.07091,104.69252 41.04924,194.32656 76.83264,-51.81646 86.72741,-110.10544 40.48978,-163.96628 16.57419,3.29231 30.4317,13.89589 42.82532,31.67886 -5.19829,-68.39855 -69.00856,-87.38412 -76.91577,-138.40076 z" style="fill:#f7f0a6;stroke:#d3b76a;stroke-width:8;stroke-miterlimit:20" />
        <path d="m 510.65548,487.01886 c -20.09073,-1.75223 -50.88924,-35.78094 -117.3373,-35.28526 l -25.65587,-46.42284 c 110.52646,-116.68049 137.30776,-80.18455 92.15874,-33.83428 81.40388,-23.52596 144.99484,-10.59991 188.41381,49.67461 27.26256,37.84607 23.73819,56.26041 -20.4866,38.44132 21.31089,25.5361 25.47396,54.80425 7.88276,50.26177 -20.32187,-5.2476 -66.34615,-65.2538 -145.51026,-64.1418 25.77725,17.40945 40.57591,43.05439 20.53472,41.30648 z" fill="#f8f8d5" />
        <path d="m 380.00177,427.5095 c 82.57733,-50.87108 169.21177,-31.24966 230.86367,15.75002 35.17728,26.81703 46.35522,72.16963 24.76558,66.59466 -20.32186,-5.24762 -66.34615,-65.2538 -145.85537,-64.37438 25.85198,17.17617 41.10217,43.30277 20.87983,41.53906 -20.09073,-1.75223 -50.88924,-35.78094 -117.3373,-35.28526 z" fill="#f7f0a6" />
        <path fill="#d3b76a" inkscape:original-d="m 610.86544,443.25952 c 35.17728,26.81703 46.35522,72.16963 24.76558,66.59466 -20.32186,-5.24762 -66.34615,-65.2538 -145.92882,-64.32079" inkscape:path-effect="#path-effect14982" />
        <path fill="#d3b76a" inkscape:original-d="m 469.56998,434.97713 c 36.56257,13.34976 66.21716,54.23361 41.0855,52.04173 -20.09073,-1.75223 -50.88924,-35.78094 -117.3373,-35.28526 l -25.65587,-46.42284 c 110.52646,-116.68049 137.30776,-80.18455 92.15874,-33.83428 81.40388,-23.52596 144.99484,-10.59991 188.41381,49.67461 27.26256,37.84607 23.73819,56.26041 -20.62326,38.40848" inkscape:path-effect="#path-effect14980" />
        <path d="m 531.93566,410.90475 c 79.25222,-102.98049 99.00485,-95.98091 47.65363,19.81583" style="fill:#cdb8e6;stroke:#a985d3;stroke-width:8;stroke-miterlimit:20" />
        <path d="m 547.87052,390.70797 c 17.82717,2.8299 36.26306,-0.34415 50.99092,-7.71314" style="fill:none;stroke:#a985d3;stroke-width:4;stroke-miterlimit:20" />
        <path d="m 519.82938,401.25327 c 27.29612,5.44071 53.05195,16.53807 76.01152,31.42738 l -9.75639,11.88708 -65.37538,-28.21464 z" fill="#f7f0a6" />
        <path d="M 378.94779,557.26137 C 293.61572,502.6672 338.41073,391.72621 354.46783,388.51479 c 11.11087,-2.22217 39.58859,27.61868 53.17134,71.56882 z" fill="#cdb8e6" />
        <path fill="#a985d3" inkscape:original-d="M 378.94779,557.26137 C 293.61572,502.6672 338.41073,391.72621 354.46783,388.51479 c 11.11087,-2.22217 39.58859,27.61868 53.17134,71.56882" inkscape:path-effect="#path-effect4593" />
        <path d="m 356.60551,437.80987 c -7.09078,26.56606 -1.42796,52.90597 13.93511,72.65405 -10.54301,-23.70191 -15.2231,-46.20683 -13.93511,-72.65405 z" fill="#a985d3" />
      </g>
      <g>
        <path d="m 590.42578,303.16797 c -16.15726,-0.23285 -29.34922,8.81103 -37.57617,19.17773 -8.22695,10.36671 -12.87145,22.32212 -14.80664,33.64844 -0.88537,5.18193 -4.74363,9.91051 -11.39453,16.79297 -6.65091,6.88246 -17.17619,16.12297 -18.19922,32.14648 -0.85279,13.35716 7.34334,21.04618 14.64453,26.77149 7.30119,5.72531 15.97196,10.14171 25.19336,13.60742 9.2214,3.46571 18.87279,5.90497 28.37695,6.54688 9.50416,0.6419 19.87267,0.40405 29.03906,-7.95899 10.87046,-9.91777 12.45574,-23.86369 13.03711,-30.31055 0.58138,-6.44685 -0.007,-8.07677 6.64063,-15.05273 11.70265,-12.28155 19.27675,-28.30855 18.39062,-45.51563 -0.88612,-17.20707 -11.96138,-34.37138 -30.82031,-43.94531 -7.40451,-3.75897 -15.06498,-5.8007 -22.52539,-5.9082 z" fill="url(#linearGradient33680)" mask="url(#mask33786)" sodipodi:type="inkscape:offset" inkscape:original="M 590.19531 319.16602 C 569.56562 318.86872 556.7872 341.29046 553.81445 358.68945 C 550.15569 380.10359 525.5136 388.76191 524.41602 405.95312 C 523.31844 423.14434 580.67886 445.07304 594.91992 432.08008 C 609.16097 419.08711 595.41283 406.79346 613.79688 387.5 C 632.18093 368.20655 635.43167 338.43278 605.70898 323.34375 C 600.13598 320.51456 594.95601 319.23462 590.19531 319.16602 z " inkscape:radius="8" />
        <path d="m 524.41588,405.95315 c -1.09758,17.19122 56.26252,39.12039 70.50358,26.12743 14.24105,-12.99297 0.49277,-25.28692 18.87681,-44.58038 18.38405,-19.29345 21.63446,-49.06819 -8.08823,-64.15722 -29.72269,-15.08903 -48.23394,13.93211 -51.89271,35.34626 -3.65876,21.41414 -28.30187,30.07269 -29.39945,47.26391 z" style="clip-path:url(#clipPath33670);fill:#26bf95;fill-opacity:.1;stroke:#26bf95;stroke-width:32;filter:url(#filter4836)" />
        <path fill="#fff" id="path4840" transform="matrix(0.53810359,0.75536292,-0.75536292,0.53810359,498.43634,-262.91763)" sodipodi:arg1="1.7156088" sodipodi:arg2="2.501007" sodipodi:cx="575.89001" sodipodi:cy="325.54568" sodipodi:r1="9.3205576" sodipodi:r2="1.1650697" sodipodi:sides="4" sodipodi:type="star" />
        <use transform="matrix(0.6749224,0,0,0.6749224,241.82999,111.38827)" xlink:href="#path4840" />
        <use transform="matrix(0.31733704,0,0,0.31733704,412.19299,265.81536)" xlink:href="#path4840" />
        <use transform="matrix(0.80495344,0,0,0.80495344,107.948,126.48297)" xlink:href="#path4840" />
        <use transform="matrix(0.54489136,0,0,0.54489136,276.21198,218.79358)" xlink:href="#path4840" />
        <use transform="matrix(0.57739912,0,0,0.57739912,210.92898,212.50475)" xlink:href="#path4840" />
        <use transform="matrix(0.41486032,0,0,0.41486032,388.09396,217.69889)" xlink:href="#path4840" />
        <use transform="matrix(0.31733704,0,0,0.31733704,395.69297,218.56536)" xlink:href="#path4840" />
        <use transform="matrix(0.38235256,0,0,0.38235256,339.62697,256.23771)" xlink:href="#path4840" />
      </g>
      <path d="m 249.75819,878.37889 c 45.51174,13.71356 65.87026,2.51231 119.75508,1.08263 71.41256,-1.89473 98.3064,74.13822 30.40766,104.30446 4.83275,-19.68091 -3.89722,-36.36296 -25.75594,-36.46853 -46.66833,-0.22539 -99.31687,52.99315 -166.03295,-4.02285 28.78265,-12.00707 39.52966,-37.76449 41.62615,-64.89571 z" fill="#f7f0a6" />
      <path d="m 224.14001,932.88364 c 13.49915,13.35566 38.08189,19.78891 71.47909,6.26355 41.24087,-16.70193 66.98219,-10.58761 79.0358,8.00237 -46.66833,-0.22539 -99.80678,53.14104 -166.52286,-3.87496 z" fill="#f8f8d5" />
      <path fill="#d3b76a" inkscape:original-d="m 249.75819,878.37889 c 45.51174,13.71356 65.87026,2.51231 119.75508,1.08263 71.41256,-1.89473 98.3064,74.13822 30.40766,104.30446 4.83275,-19.68091 -3.89722,-36.36296 -25.75594,-36.46853 -46.66833,-0.22539 -99.31687,52.99315 -166.03295,-4.02285" inkscape:path-effect="#path-effect9589" />
    </g>
    <path d="m 1141.3459,654.69355 c 28.8897,-0.97758 47.141,38.18198 9.9389,65.45408 -119.7516,87.78739 -249.3867,90.26605 -368.26018,21.63441 -166.43181,-96.08945 -270.04986,20.45895 -409.25607,-4.21898 -24.2183,-4.29332 -35.38988,-9.50088 -38.15798,-15.66198 l -4.96102,39.8816 c 181.11556,46.53453 259.78137,-48.28136 438.98809,25.75591 134.71315,55.65525 285.69526,42.68892 389.44066,-38.24762 69.9622,-54.58075 26.8557,-118.46159 -18.481,-116.3278 z" fill="#c2c5d5" />
    <g>
      <path d="m 1065.5595,763.11946 23.186,106.83004 c 33.3706,11.83381 78.1236,11.45484 109.4538,0 l 22.9776,-107.18005" fill="#39bf6d" id="path7270" opacity=".1" />
      <path d="m 1076.9906,772.38804 c 7.8424,43.13348 7.5747,85.6528 19.0116,94.47556 11.4369,8.82276 23.4683,-2.28737 48.6295,4.90154 24.5997,7.0285 56.182,-1.70156 54.9955,-27.50767 -1.3071,-28.42886 20.2006,-63.24361 12.685,-87.75127 z" fill="#c2c5d5" />
      <use xlink:href="#path7270" />
      <path d="m 1161.5852,796.95583 c -18.3884,20.34995 -47.8712,16.25149 -58.6354,-7.55088 -19.4699,15.50107 -40.9391,13.76791 -44.8164,-11.79977 -23.5488,1.8931 -24.3702,-30.95695 0.8512,-38.20626 -16.728,-29.9356 15.8052,-49.51041 30.607,-33.05912 6.2871,-20.09232 26.5016,-25.6929 39.8788,-4.17277 11.3564,-31.12964 45.339,-22.43254 57.6787,0.9214 25.4902,-12.96367 43.443,2.92984 31.7118,29.56668 30.8357,3.45791 18.5903,50.53118 -10.0748,43.12511 -2.7778,32.22176 -32.6254,41.2086 -47.2009,21.17561 z" fill="#91b4e2" />
      <circle cx="1089.1193" cy="727.9765" fill="#dedeff" id="path8071" r="7.1300311" />
      <use transform="translate(-8.8147337,40.594457)" xlink:href="#path8071" />
      <use transform="translate(68.566739,17.377827)" xlink:href="#path8071" />
      <use transform="translate(116.32677,23.653538)" xlink:href="#path8071" />
      <use transform="translate(82.208607,48.228301)" xlink:href="#path8071" />
      <use transform="translate(66.674197,-17.790171)" xlink:href="#path8071" />
      <use transform="translate(30.295405,30.283734)" xlink:href="#path8071" />
      <path d="m 1140.5973,632.96317 c -44.7093,2.10426 -69.2229,45.3265 -55.4009,96.04465 1.2846,4.71401 8.8147,3.5657 7.7322,-2.3702 -8.1137,-44.49181 15.6224,-70.83435 48.4173,-71.94407 6.508,-7.80868 6.4173,-16.0059 -0.7486,-21.73038 z" fill="#c2c5d5" />
    </g>
    <g>
      <ellipse cx="902.0874" cy="944.65533" opacity=".25" rx="228.22763" ry="33.187836" />
      <path d="m 662.4705,916.04425 26.15438,31.33082 c 105.05514,27.72213 321.86992,27.72213 426.92502,0 l 26.1544,-31.33082" fill="#94b1b4" />
      <ellipse cx="902.0874" cy="908.28021" fill="#adcdd2" rx="264.97867" ry="41.964275" />
      <ellipse cx="902.0874" cy="907.63141" fill="#92bac1" rx="230.77054" ry="33.5933" />
      <path d="m 1086.664,896.03231 c -70.9798,14.44257 -202.66442,16.05797 -277.07268,8.05173 -16.47037,-1.77219 -18.12915,20.43506 -9.88037,29.03702 99.28919,8.10624 205.44195,8.0853 295.10475,-11.37337 32.8975,-7.13945 42.4321,-52.83824 1.5194,-59.65054 -113.25254,-18.8575 -238.84638,-19.56338 -350.00634,-5.51845 9.49494,-1.19982 16.54061,10.44654 13.46348,22.52735 105.26346,-14.50496 309.93386,-6.1936 336.63126,11.01488 -1.9488,2.7954 -5.2615,4.99615 -9.7595,5.91138 z" fill="#c9933f" />
      <path d="m 907.35409,888.80449 c -48.39677,-1.61821 -99.05629,-4.65492 -147.56185,-9.69844 3.07713,-12.08081 -3.96853,-23.72708 -13.46348,-22.52735 -14.16831,1.79024 -17.72072,24.38397 -3.74785,32.65553 43.46819,2.65682 90.19899,6.82232 135.35182,9.30745 9.46429,-2.67878 19.11619,-5.73364 29.42136,-9.73719 z" fill="#d5af6c" />
      <path d="m 1086.664,896.03231 c 4.5068,-0.91701 7.8235,-3.12453 9.7652,-5.91955 -26.7031,-17.20031 -231.3735,-25.51167 -336.63696,-11.00671 48.50556,5.04352 99.16508,8.08023 147.56185,9.69844 -21.99116,8.54355 -41.00737,12.76681 -61.45152,18.18551 75.60828,4.3451 180.24683,1.35549 240.76143,-10.95769 z" fill="#b74020" />
      <path d="m 1086.664,896.03231 c 2.6943,-0.54821 4.9632,-1.55763 6.7673,-2.87806 -5.2706,-4.98514 -47.5086,-12.07297 -104.06816,-14.44674 -35.45996,-1.48823 -48.32357,-4.38791 -109.87939,-2.74588 -41.51794,1.10751 -63.86432,0.56066 -93.04971,5.69969 40.20866,3.54551 81.32176,5.81915 120.92005,7.14317 -21.99116,8.54355 -41.00737,12.76681 -61.45152,18.18551 75.60828,4.3451 180.24683,1.35537 240.76143,-10.95769 z" fill="#f1eb6a" />
      <path d="m 1096.4193,890.12695 c -26.6932,-17.2145 -231.3636,-25.52586 -336.62706,-11.0209 m 118.12356,19.44042 c -45.1359,-2.48992 -91.8667,-6.65542 -135.33489,-9.31224 -13.97287,-8.27156 -10.42047,-30.86538 3.74785,-32.65553 9.90903,-1.25199 16.48588,10.89835 13.46348,22.52735 48.50556,5.04352 99.16508,8.08023 147.56185,9.69844 -21.99116,8.54355 -41.00737,12.76681 -61.40941,18.18793" style="fill:none;stroke:#986928;stroke-width:2;stroke-miterlimit:20" />
      <g clip-path="url(#clipPath4805)">
        <path d="m 942.92868,889.00557 c 18.23628,-2.52325 32.99952,-1.26163 26.46198,4.01428 12.96039,-4.93183 22.48019,-3.03857 22.23936,0.0126 -0.19038,2.41196 -9.96714,10.88334 -28.08873,4.57519 0.68816,4.70244 -7.92777,7.09132 -18.70898,-4.49274 2.86734,7.91386 -11.78526,2.23111 -17.40524,-6.02684 10.32242,-6.07876 31.32933,-3.01427 15.50161,1.91755 z" fill="#7c8a38" />
        <path d="m 909.66752,885.13247 c 26.73026,-1.3003 45.70134,15.43032 81.0884,7.65799 -33.52175,10.85415 -58.4097,-9.30929 -81.0073,-5.65799 -1.42754,0.23066 -1.41745,-1.93499 -0.0811,-2 z" fill="#a4b47b" />
        <path d="m 1020.544,896.91944 c -10.6123,-5.09154 29.3616,-16.28647 41.2897,-7.34039 6.6495,4.98716 -28.6305,13.41402 -41.2897,7.34039 z m -144.8285,2.10929 c 25.60974,-3.08251 41.19988,1.75265 54.27495,-3.75265 13.07508,-5.50529 21.86875,13.46777 6.42285,13.07508 -27.0677,-0.68816 -28.67001,8.11101 -37.75908,8.11101 -30.73789,0 -44.50586,-14.83752 -22.93872,-17.43344 z m 93.17121,5.4773 c -4.129,3.21144 24.5444,10.32244 33.94919,1.14692 9.405,-9.17548 6.6524,-12.15749 -4.35819,-16.74525 -5.76,-2.39999 -30.027,-8.00213 -24.6591,-3.6702 20.8498,16.82617 -0.8029,16.05712 -4.9319,19.26853 z M 821.89464,884.99131 c 15.99255,-19.67106 47.71255,-9.40488 80.51493,-9.86366 32.80238,-0.45877 55.05296,-10.09304 59.41131,2.29388 4.35836,12.38691 -6.19346,5.50529 -33.03177,5.04652 -26.83831,-0.45877 -31.88483,9.63427 -48.85949,5.50529 -24.52175,-5.96476 -71.41202,13.47192 -58.03498,-2.98203 z" fill="#db9e83" />
        <path d="m 1018.8278,895.34632 c -1.5696,-5.20875 29.3581,-13.15553 41.4916,-6.72118 -6.12,3.53616 -29.9145,-0.48181 -41.4916,6.72118 z m -143.1123,3.68241 c 25.60974,-3.08251 41.19987,1.75264 54.27495,-3.75265 5.30307,-2.23287 9.90185,-0.43905 12.46475,2.45623 -23.22634,7.70972 -44.82388,4.36339 -77.13374,6.32052 0.52436,-2.30136 3.81529,-4.23225 10.39404,-5.0241 z m 52.72419,-25.89479 c 18.31828,-2.2283 30.30538,-4.45422 33.38119,4.28759 3.84371,10.92426 -3.90943,6.8618 -24.20351,5.4354 2.69885,-4.56979 -4.40619,-6.87713 -9.17768,-9.72299 z m -30.22072,14.15686 c -5.69809,1.56936 -10.84737,2.49276 -18.28935,0.68254 -24.52175,-5.96476 -71.41202,13.47192 -58.03498,-2.98203 1.84784,-2.27286 3.90564,-4.14606 6.15082,-5.6823 29.42197,0.54853 41.24574,5.7544 70.17351,7.98179 z m 87.11411,3.77926 c -11.18575,-6.86433 9.16216,-4.79774 22.98782,7.22288 1.192,-3.96616 -2.4781,-6.31643 -9.84319,-9.38524 -5.75999,-2.4 -30.027,-8.00213 -24.6591,-3.6702 20.8498,16.82617 -0.80291,16.0571 -4.9319,19.26853 -1.04763,0.81482 0.0164,1.88069 2.34169,2.86787 14.89183,-4.63891 19.05275,-13.26737 14.10468,-16.30384 z" fill="#e5bba8" />
        <path d="m 1020.544,896.91944 c -10.6123,-5.09154 29.3616,-16.28647 41.2897,-7.34039 6.6495,4.98716 -28.6305,13.41402 -41.2897,7.34039 z M 821.89464,884.99131 c 15.99255,-19.67106 47.71255,-9.40488 80.51493,-9.86366 32.80238,-0.45877 55.05296,-10.09304 59.41131,2.29388 4.35836,12.38691 -6.19346,5.50529 -33.03177,5.04652 -26.83831,-0.45877 -31.88483,9.63427 -48.85949,5.50529 -24.52175,-5.96476 -71.41202,13.47192 -58.03498,-2.98203 z m 53.82086,14.03742 c 25.60974,-3.08251 41.19988,1.75265 54.27495,-3.75265 13.07508,-5.50529 21.86875,13.46777 6.42285,13.07508 -27.0677,-0.68816 -28.67001,8.11101 -37.75908,8.11101 -30.73789,0 -44.50586,-14.83752 -22.93872,-17.43344 z m 93.17121,5.4773 c -4.129,3.21144 24.5444,10.32244 33.94919,1.14692 9.405,-9.17548 6.6524,-12.15749 -4.35819,-16.74525 -5.76,-2.39999 -30.027,-8.00213 -24.6591,-3.6702 20.8498,16.82617 -0.8029,16.05712 -4.9319,19.26853 z" fill="none" stroke="#d7794f" />
        <path d="m 876.03468,899.52952 c -3.48058,-2.39604 5.77625,-4.64381 17.93476,-2.61967 -2.28193,-3.63392 6.35748,-1.87277 12.30355,0.10893 4.46071,-2.55251 11.58194,-2.16313 14.84142,2.95153 -18.41264,5.98654 -19.80515,2.15781 -14.84142,0.4866 -8.04331,1.28231 -24.64707,5.86161 -12.0029,-0.1622 -7.97121,0.51612 -17.15062,7.1918 -13.2194,1.37871 -8.16235,0.57726 -14.31126,4.12152 -14.38379,1.59319 -0.0363,-1.26632 2.21968,-2.24509 9.36778,-3.73709 z M 1001.0699,883.0276 c -0.5676,2.20837 12.7337,1.4296 17.6563,3.6366 -17.6998,1.53853 -16.9919,6.69974 -12.1748,5.09403 4.8171,-1.60571 11.4507,-2.89278 18.6951,-3.44081 -6.9963,3.09673 0.5063,4.81538 15.2542,4.01428 -1.9271,2.74135 2.6013,5.76731 9.6088,5.88297 2.8568,-6.08077 -1.3969,-9.84176 -9.4259,-9.76065 1.0543,-1.94642 -1.3787,-5.24476 -10.8675,-3.21724 0.4055,-3.16292 6.2296,-3.85488 3.4873,-4.62273 -2.0275,-0.56771 -4.4606,0.4866 -7.9479,3.64953 -8.5966,-1.62202 -23.718,-3.44435 -24.2856,-1.23598 z" fill="#7c8a38" />
        <path d="m 867.3425,903.18552 c 24.16198,-5.57487 41.85309,-4.80218 65.49007,-0.29389 2.91202,0.55542 3.2863,-1.19193 0.26298,-1.754 -21.8884,-4.06932 -45.22289,-5.6366 -65.75305,2.04788 z m 135.0634,-19.97778 c 46.465,1.76556 57.7035,15.48337 42.2059,27.88073 l -2.9013,-0.1203 c 16.0064,-11.71385 7.8922,-23.81858 -39.3046,-27.76043 z" fill="#a4b47b" />
      </g>
      <path fill="#986928" inkscape:original-d="m 1098.4578,884.25324 c -0.2677,5.36587 -4.4515,10.2851 -11.7938,11.77907 -70.9798,14.44258 -202.66442,16.05797 -277.07268,8.05173 -16.47037,-1.77219 -18.12915,20.43506 -9.88037,29.03702 99.28919,8.10624 205.44195,8.0853 295.10475,-11.37337 32.8975,-7.13945 42.4321,-52.83824 1.5194,-59.65054 -113.25254,-18.8575 -238.84638,-19.56338 -350.00634,-5.51845" inkscape:path-effect="#path-effect4916" />
    </g>
    <g>
      <g>
        <path d="m 603.57241,797.9096 c 39.94036,-25.70063 88.532,-44.44275 138.20422,-53.79016 5.99456,8.78212 8.96994,17.25926 9.68126,26.32864 z" fill="#b74020" />
        <path d="m 779.03819,778.31882 c 1.42264,-14.22648 -0.0383,-24.99297 -4.97778,-35.71238 -8.1086,-11.21469 -25.11956,-10.22117 -32.28378,1.513 5.99456,8.78212 8.96994,17.25926 9.68126,26.32864 z" fill="#c9933f" />
        <path d="m 603.57241,797.9096 c 38.52575,-24.79036 85.10081,-43.1064 132.93074,-52.76171 7.27144,8.19432 9.09936,17.63551 6.36831,26.89464 z" fill="#f1eb6a" />
        <path d="m 603.57241,797.9096 c 39.94036,-25.70063 88.532,-44.44275 138.20422,-53.79016 m 37.26156,34.19938 c 1.42264,-14.22648 -0.0383,-24.99297 -4.97778,-35.71238 -8.1086,-11.21469 -25.11956,-10.22117 -32.28378,1.513 5.99456,8.78212 8.96994,17.25926 9.68126,26.32864" fill="none" stroke="#986928" stroke-width="2" />
        <path d="m 675.44514,793.25436 c -14.84414,-25.39984 29.93504,-43.81297 24.54444,-26.15015 -6.46872,21.19539 2.71116,11.16033 8.25794,20.87425 4.6372,8.12101 -18.19045,30.2784 -32.80238,5.2759 z" fill="#db9e83" />
        <path d="m 673.41319,788.82368 c -7.12171,-21.32912 26.11597,-36.04235 27.01113,-24.87759 -9.99381,-1.57994 -26.55046,7.50182 -27.01113,24.87759 z" fill="#e5bba8" />
        <path d="m 675.44514,793.25436 c -14.84414,-25.39984 29.93504,-43.81297 24.54444,-26.15015 -6.46872,21.19539 2.71116,11.16033 8.25794,20.87425 4.6372,8.12101 -18.19045,30.2784 -32.80238,5.2759 z" fill="none" stroke="#d7794f" />
        <path d="m 720.15224,766.78967 c -2.03328,-10.71163 -0.92779,-13.79709 1.91718,-14.16874 3.37702,-0.44116 5.34886,5.60468 3.46626,14.2892 8.71672,-12.73099 5.23893,3.30643 1.27793,10.15446 12.27222,-9.97835 -5.3095,15.47787 -5.3095,15.47787 0,0 -13.04148,-23.62112 -3.98069,-16.39542 -1.02071,-5.19719 -2.40816,-18.14465 2.62882,-9.35737 z" fill="#7c8a38" />
        <path d="m 721.88178,754.24055 c 1.26163,21.6771 1.09147,32.23949 -4.59351,49.58941 -0.84452,2.57739 1.66779,3.66284 2.64372,0.0729 4.72825,-17.39251 5.04652,-30.50851 1.94979,-49.66235 z" fill="#a4b47b" />
        <path d="m 749.18913,817.76309 c -45.42234,-4.32323 -84.83828,-15.26267 -145.81729,-16.22635 58.52547,-18.55587 114.78067,-24.34631 179.15598,-26.9345 -4.00648,21.21276 -14.34066,32.20037 -33.33869,43.16085 z" fill="#efca87" />
        <path d="m 751.74657,768.33198 c -55.33043,1.05872 -97.27431,8.7856 -151.33493,27.63568 l 2.9602,5.56908 c 58.52547,-18.55587 114.78067,-24.34631 179.15598,-26.9345 5.5662,-29.18843 -37.80608,-26.57337 -30.78125,-6.27026 z" fill="#d5af6c" />
        <path d="m 603.37184,801.53674 c 58.52547,-18.55587 114.78067,-24.34631 179.15598,-26.9345 m -30.78125,-6.27026 c -55.33043,1.05872 -97.27431,8.7856 -151.33493,27.63568 l 2.9602,5.56908 c 60.97901,0.96368 100.39495,11.90312 145.81729,16.22635 18.99803,-10.96048 29.33221,-21.94809 33.33869,-43.16085 5.5662,-29.18843 -37.80608,-26.57337 -30.78125,-6.27026 z" fill="none" stroke="#986928" stroke-width="2" />
      </g>
      <path d="m 770.69141,714.52344 c -8.66814,-0.26982 -17.37741,1.72927 -24.91993,5.55468 -7.54251,3.82542 -14.1905,9.58533 -17.20312,17.74219 -2.16467,5.86093 -1.93396,11.70506 -0.47461,15.99219 1.45935,4.28713 3.35046,7.00972 4.48437,9.63281 2.26784,5.24618 4.02788,11.14222 -3.93164,29.83985 -4.92335,11.56541 -4.69015,22.43555 -0.75781,30.79296 3.93235,8.35742 10.99013,13.87215 18.26172,16.82422 7.27159,2.95208 14.91764,3.82643 21.93164,0.91602 3.507,-1.4552 6.94814,-4.23794 8.74805,-8.21484 1.79991,-3.97691 1.74724,-8.59271 0.4375,-12.89063 -1.27489,-4.18355 -0.73145,-5.24352 0.33789,-6.91992 1.06934,-1.67641 3.64611,-3.8251 7.05664,-6.33985 3.41053,-2.51474 7.71027,-5.35977 10.79687,-10.56054 3.08661,-5.20077 3.57566,-12.74709 0.58204,-19.90625 -3.50476,-8.3815 -0.94049,-11.45942 2.71679,-18.36914 1.82864,-3.45486 4.13116,-7.56671 4.80469,-13.01172 0.67353,-5.44501 -0.9116,-11.78394 -4.97656,-17.53906 -6.60391,-9.34972 -17.49272,-13.21918 -27.89453,-13.54297 z" fill="#26bf95" opacity=".1" sodipodi:type="inkscape:offset" inkscape:original="M 770.44336 722.51953 C 756.01763 722.07049 740.18307 729.46155 736.07227 740.5918 C 729.49495 758.40019 752.93622 756.6516 736.00781 796.41797 C 719.07941 836.18433 776.80432 846.63595 769.61523 823.04492 C 762.42615 799.45388 797.91861 802.21358 788.66016 780.07227 C 779.40169 757.93097 804.86012 750.81696 792.05078 732.68164 C 787.24728 725.88091 779.0988 722.78896 770.44336 722.51953 z " inkscape:radius="8" />
      <path d="m 736.07241,740.59163 c -6.57732,17.80839 16.86431,16.05903 -0.0641,55.8254 -16.9284,39.76636 40.79664,50.21811 33.60755,26.62708 -7.18908,-23.59104 28.3037,-20.8307 19.04525,-42.97201 -9.25847,-22.1413 16.19945,-29.25574 3.39011,-47.39106 -12.80933,-18.13529 -49.40152,-9.8978 -55.97881,7.91059 z" style="clip-path:url(#clipPath9819);fill:none;stroke:#26bf95;stroke-width:22;filter:url(#filter12120)" />
      <use transform="matrix(0.5781759,0,0,0.5781759,433.5532,526.52762)" xlink:href="#path4840" />
      <use transform="matrix(0.20065397,0,0,0.20065397,665.87893,717.62797)" xlink:href="#path4840" />
      <use transform="matrix(0.63271325,0,0,0.63271325,402.88031,587.58867)" xlink:href="#path4840" />
      <use transform="matrix(0.39409349,0,0,0.39409349,520.08471,654.45307)" xlink:href="#path4840" />
      <use transform="matrix(0.25031672,0,0,0.25031672,639.94755,662.38177)" xlink:href="#path4840" />
      <use transform="matrix(0.28014419,0,0,0.28014419,613.172,692.02372)" xlink:href="#path4840" />
      <use transform="matrix(0.25031672,0,0,0.25031672,599.94755,732.38177)" xlink:href="#path4840" />
      <use transform="matrix(0.22048925,0,0,0.22048925,640.7231,747.73982)" xlink:href="#path4840" />
      <use transform="matrix(0.33979913,0,0,0.33979913,563.6209,646.30762)" xlink:href="#path4840" />
      <use transform="matrix(0.25031672,0,0,0.25031672,603.94755,696.38177)" xlink:href="#path4840" />
      <use transform="matrix(0.45910901,0,0,0.45910901,527.5187,591.87542)" xlink:href="#path4840" />
      <use transform="matrix(0.3696266,0,0,0.3696266,576.84535,604.94957)" xlink:href="#path4840" />
    </g>
    <g>
      <path d="m 819.497,577.72135 c -30.12315,47.50216 10.31077,83.43461 39.02641,72.13691 27.21089,-10.70567 42.78579,-17.45859 70.02941,-19.64687 0.64775,-47.94507 -57.69986,-26.07836 -67.76143,-63.56434" fill="#c2c5d5" />
      <path fill="#808aa7" inkscape:original-d="m 819.497,577.72135 c -30.12315,47.50216 10.31077,83.43461 39.02641,72.13691 27.21089,-10.70567 42.78579,-17.45859 70.02941,-19.64687 0.64775,-47.94507 -57.69986,-26.07836 -67.76143,-63.56434" inkscape:path-effect="#path-effect2268" />
      <path d="m 903.15708,618.45717 c -4.07926,20.63186 -11.42452,37.62102 -24.18146,49.56258 -37.16052,34.78536 15.52956,147.40791 50.2341,115.37549 67.06475,-61.90098 36.15067,-210.84864 4.47974,-221.79929 -25.31431,-8.75277 -58.13599,8.51337 -71.15145,34.28881" fill="#c2c5d5" />
      <path fill="#808aa7" inkscape:original-d="m 903.15708,618.45717 c -4.07926,20.63186 -11.42452,37.62102 -24.18146,49.56258 -37.16052,34.78536 15.52956,147.40791 50.2341,115.37549 67.06475,-61.90098 36.15067,-210.84864 4.47974,-221.79929 -25.31431,-8.75277 -58.13599,8.51337 -71.15145,34.28881" inkscape:path-effect="#path-effect2266" />
    </g>
  </g>
</svg>
