<svg xmlns="http://www.w3.org/2000/svg" xmlns:inkscape="http://www.inkscape.org/namespaces/inkscape" xmlns:xlink="http://www.w3.org/1999/xlink" height="854.00012" viewBox="0 0 931 854.00012" width="931">
  <defs>
    <inkscape:path-effect effect="powerstroke" id="path-effect7264" interpolator_type="CubicBezierSmooth" offset_points="0.3,3" start_linecap_type="zerowidth" />
    <inkscape:path-effect effect="powerstroke" id="path-effect7260" interpolator_type="CubicBezierSmooth" offset_points="0.4,3" start_linecap_type="zerowidth" />
    <inkscape:path-effect effect="powerstroke" end_linecap_type="zerowidth" id="path-effect7258" interpolator_type="CubicBezierSmooth" offset_points="0.29,3 | 0.78,3" start_linecap_type="zerowidth" />
    <inkscape:path-effect effect="powerstroke" end_linecap_type="zerowidth" id="path-effect7256" interpolator_type="CubicBezierSmooth" offset_points="0.33,3 | 4.77,3" start_linecap_type="zerowidth" />
    <inkscape:path-effect effect="powerstroke" end_linecap_type="zerowidth" id="path-effect7036" interpolator_type="CubicBezierSmooth" offset_points="0.23,3 | 2.76,3" start_linecap_type="zerowidth" />
    <inkscape:path-effect effect="powerstroke" end_linecap_type="zerowidth" id="path-effect7029" interpolator_beta="0.5754717" interpolator_type="CubicBezierSmooth" offset_points="0.3,3 | 1.8,3" start_linecap_type="zerowidth" />
    <linearGradient id="linearGradient4542">
      <stop offset="0" stop-color="#153470" />
      <stop offset="1" stop-color="#5c89e0" />
    </linearGradient>
    <clipPath id="clipPath7224">
      <use xlink:href="#ellipse821" />
    </clipPath>
    <clipPath id="clipPath7240">
      <use xlink:href="#path819" />
    </clipPath>
    <clipPath id="clipPath8146">
      <path clip-path="none" d="m 560.90964,849.16995 c -3.62447,16.83904 3.4743,31.26132 17.58763,39.6941 13.26498,7.92589 28.03868,6.52117 35.50379,-6.2669 13.35278,13.17461 30.82578,7.68271 30.97396,-9.20987 11.54291,8.1778 24.79783,7.63514 30.53549,-5.35642 4.42728,-10.02453 7.05859,-24.29716 4.97748,-39.24835 l 54.17873,110.02792 -197.61495,8.29714 z" />
    </clipPath>
    <clipPath id="clipPath8156">
      <path d="m 575.16142,886.66529 c 37.93035,46.71837 105.82243,31.50805 102.02414,-22.88183 l -20.88248,-198.73148 -92.19892,2.14702 -4.2351,173.15301 z" />
    </clipPath>
    <clipPath id="clipPath8179">
      <path clip-path="none" d="m 713.49237,821.50483 c 3.07221,12.27986 -1.12429,25.47368 -9.58939,26.57765 -7.24591,0.94497 -14.22769,-4.22729 -21.4249,-15.75715 -4.6001,27.70708 -18.9129,23.25924 -32.02581,12.76922 -0.14818,16.89258 -16.51384,20.53891 -29.86662,7.3643 -2.6618,7.63294 -9.19245,12.40552 -16.12608,13.09383 -8.58926,0.85267 -13.01697,-4.11297 -15.93727,-11.26736 l 2.75604,61.25611 149.24991,-5.44789 z" />
    </clipPath>
    <clipPath id="clipPath8191">
      <path d="m 601.4316,865.60701 c 32.56471,27.50623 88.21671,24.93926 105.3374,-18.426 l -19.36463,-190.43233 -88.43398,-4.56643 -17.62968,193.02241 z" />
    </clipPath>
    <clipPath id="clipPath8215">
      <path d="m 185.4964,501.96323 c -15.43724,-3.59953 -29.61944,2.65505 -32.90217,14.04624 -2.64369,9.17371 2.09558,17.83656 16.28282,24.93609 -21.85373,9.06662 -25.52916,32.13323 -0.97712,40.16091 -14.24263,10.5566 -13.38492,26.5839 4.09304,35.4681 16.92875,8.60503 42.15048,10.95701 45.72974,-5.46444 l 5.7118,22.10818 -102.1731,20.37143 -27.724561,-158.52621 87.737441,-8.54101 4.22211,15.44071" />
    </clipPath>
    <clipPath id="clipPath8225">
      <path d="m 175.78919,618.34061 c -42.84767,-0.7423 -54.84993,-82.67263 -22.58726,-105.53857 l 39.06201,-28.86154 189.52186,15.75582 -48.18994,85.41104 17.77604,11.27408 z" />
    </clipPath>
    <clipPath id="clipPath8241">
      <path clip-path="none" d="m 203.1752,538.60145 c -17.55282,8.73975 -33.25944,2.33039 -43.08773,-9.68731 -10.34851,-12.65381 -9.88248,-30.79189 7.50754,-41.27559 -19.0277,-6.01759 -17.90944,-29.81394 3.71923,-35.00348 -11.48354,-5.69891 -14.71296,-15.22771 -10.76014,-23.54268 5.90587,-12.42331 20.06299,-11.41218 31.54653,-5.71327 l 4.89353,-19.45903 -100.632828,-0.44158 17.929568,154.99945 87.12175,-5.68142 z" />
    </clipPath>
    <clipPath id="clipPath8247">
      <path d="m 162.56232,531.69124 c -37.83633,-15.95503 -37.12214,-87.64494 -0.31331,-105.50461 l 354.88063,16.33014 -24.67676,139.92731 z" />
    </clipPath>
    <linearGradient gradientTransform="matrix(0.93790572,0,0,0.93790572,429.09299,339.7884)" gradientUnits="userSpaceOnUse" id="linearGradient4349" x1="154.59834" x2="144.90314" y1="293.16266" y2="358.0228" xlink:href="#linearGradient4542" />
    <clipPath id="clipPath4367">
      <path d="m 863.68706,434.23038 c -5.92592,-11.57392 -10.10369,-24.15627 -12.94233,-37.96146 -7.08885,-34.47515 -22.06955,-60.21909 -40.71915,-77.77883 l -35.38513,-82.92446 -197.82676,1.33523 -7.74196,368.30666 c 0,0 271.68226,-5.609 279.52763,-5.609 7.84537,0 69.71378,-135.50749 69.71378,-135.50749 z" />
    </clipPath>
    <clipPath id="clipPath4400">
      <use xlink:href="#path8256" />
    </clipPath>
    <path d="m-30 10c-5-18-2-32 11-38s18 10 6 14-15 11-17 24z" stroke-miterlimit="9" id="Z"/>
  </defs>
  <g transform="translate(-10.849425-133.60814)" inkscape:groupmode="layer" inkscape:label="Drawing">
    <g clip-path="url(#clipPath4400)">
      <ellipse cx="138.78239" cy="525.14001" fill="#642530" id="path8256" rx="48.090164" ry="171.35878" />
      <path d="m 160.89378,705.56875 c -1.35701,-81.36047 -5.0475,-136.01677 -0.29039,-215.00111 1.87944,94.73625 6.61114,135.40858 6.56792,214.46788 z m -18.8998,-377.3001 c -1.43277,152.43351 -6.07503,236.00408 -4.71342,331.56751 6.33317,-119.72108 10.02325,-189.83442 10.70967,-329.40906 m -38.47425,1.31955 c -7.17482,151.91151 0.68088,379.02843 -1.40714,398.34261 l 5.22005,-0.522 c 2.25039,-112.44719 -4.81115,-254.52151 1.61732,-394.09615" fill="#af555c" />
    </g>
    <g transform="translate(1762e-8 207e-8)">
      <path d="m 494.82308,489.44048 c -20.09581,75.62395 -84.04966,75.69527 -157.82263,61.24544 -69.24339,-22.29277 -119.47833,-28.79705 -189.29378,-20.4238 -31.54905,3.78386 -33.97599,-103.35359 3.24235,-101.66099 72.62472,3.30304 145.69027,15.79711 211.83828,48.41261 7.14278,3.52202 6.73317,13.20948 6.3096,18.47533 36.69318,2.05024 74.54794,-23.01364 125.72618,-6.04859 z" fill="#3850a0" />
      <path clip-path="url(#clipPath8247)" fill="#223a86" inkscape:original-d="m 352.56046,492.534 c 42.11823,13.51804 83.36858,-22.61628 142.26262,-3.09352 -20.09581,75.62395 -84.04966,75.69527 -157.82263,61.24544 -69.24339,-22.29277 -119.47833,-28.79705 -189.29378,-20.4238 -31.54905,3.78386 -33.97599,-103.35359 3.24235,-101.66099 72.62472,3.30304 145.69027,15.79711 211.83828,48.41261 7.14278,3.52202 6.73317,13.20948 6.29516,18.43724" inkscape:path-effect="#path-effect7264" />
      <path d="m 147.70667,530.26212 c -31.54906,3.78382 -33.97598,-103.35373 3.24235,-101.66099 3.20104,0.14559 6.40295,0.30903 9.60508,0.49126 -3.95282,8.31497 -0.7234,17.84377 10.76014,23.54268 -21.62867,5.18954 -22.74693,28.98589 -3.71923,35.00348 -17.39002,10.4837 -17.85605,28.62178 -7.50754,41.27559 -4.06183,0.39548 -8.18597,0.84488 -12.3808,1.34798 z" style="clip-path:url(#clipPath8241);fill:#bedb8b;stroke:#9ab771;stroke-width:6" />
    </g>
    <g transform="translate(1762e-8 207e-8)">
      <path d="m 613.91498,668.66674 c -16.42591,70.80403 -20.11352,139.73046 -7.45089,208.65984 6.27731,34.17071 119.90258,25.24817 108.38253,-1.90963 -30.02846,-70.79024 -44.33838,-134.29433 -45.84318,-206.11791" style="clip-path:url(#clipPath8191);fill:#3850a0;stroke:#223a86;stroke-width:6" />
      <path d="m 714.84662,875.41695 c 11.52006,27.1578 -102.10524,36.08034 -108.38253,1.90963 -0.72095,-3.92453 -1.3889,-7.84905 -2.00452,-11.7739 6.93363,-0.68831 13.46428,-5.46089 16.12608,-13.09383 13.35278,13.17461 29.71844,9.52828 29.86662,-7.3643 13.11291,10.49002 27.42571,14.93786 32.02581,-12.76922 7.19721,11.52986 14.17899,16.70212 21.4249,15.75715 3.38532,9.01081 7.03105,18.11079 10.94364,27.33447 z" style="clip-path:url(#clipPath8179);fill:#bedb8b;stroke:#9ab771;stroke-width:6" />
    </g>
    <path d="m 495.58573,493.114 c 41.46649,-170.23335 -281.13321,-197.3711 -214.39382,45.8163 20.36471,74.20567 18.10828,124.15199 -13.81837,173.1435 80.38145,-50.21357 89.01352,-119.28377 73.70173,-185.52588 -31.48377,-136.20565 149.62217,-133.82163 143.36707,-34.38059 z" style="fill:#eef6cc;stroke:#dff199;stroke-width:6;stroke-miterlimit:20" />
    <path d="m 496.47051,487.92733 c -21.18239,-166.54874 -240.46738,-103.00771 -186.62383,60.55292 27.57997,83.77972 17.13214,132.75519 -37.1946,186.95466 89.68762,-28.88781 127.95097,-99.23362 101.19487,-164.41343 -50.08752,-122.01686 54.25861,-194.5987 108.40421,-81.62044 z" style="fill:#c6d0f2;stroke:#9aadec;stroke-width:6;stroke-miterlimit:20" />
    <path d="m 485.99406,489.45088 c -8.17832,-133.26551 -192.40081,-86.05732 -133.46826,62.69777 23.00529,58.069 24.88847,102.15902 -10.24438,155.62026 69.01728,-37.74653 65.54855,-96.01802 46.801,-163.93581 -23.69822,-85.85286 59.06927,-112.99147 82.69229,-52.90851 z" style="fill:#eeb0c3;stroke:#ea8cab;stroke-width:6;stroke-miterlimit:20" />
    <path d="m 660.64893,311.19571 c 112.24556,-66.55621 214.58548,-46.33253 209.9756,50.93587 85.00796,-95.04802 -87.65776,-195.10441 -217.96631,-82.65458 l -11.49923,1.2226 c -91.42911,63.83658 -83.35456,204.63981 -11.58048,276.5894 -14.02685,-93.18272 -3.73018,-170.68364 25.93346,-244.99412 z" style="fill:#eef6cc;stroke:#dff199;stroke-width:6;stroke-miterlimit:20" />
    <path d="m 847.0737,531.11446 37.66096,-63.085 c -19.81968,-19.86475 -31.11863,-42.90141 -36.92844,-71.15632 -27.6372,-134.40816 -177.53483,-135.87948 -205.56124,-24.79191 -12.55171,49.75189 -9.64197,128.36273 -27.39691,180.89717 -74.04407,-8.30597 -62.82604,-68.4676 -140.8537,-68.95699 -60.91341,-0.38205 -88.53458,34.57923 -117.81545,44.01863 -0.82159,-4.97621 -3.14378,-14.39011 -10.98767,-15.76831 -72.6391,-12.76288 -133.62498,-10.73215 -204.26331,6.45774 -36.2003,8.80937 -16.35998,117.70775 12.86313,105.23084 61.41952,-26.22328 114.67975,-36.35284 186.13373,-34.44233 32.49724,20.49004 68.39872,30.51912 104.56081,28.05494 103.32606,165.72519 338.3456,119.24785 286.26297,-98.74506 35.23182,7.66207 69.06695,3.92621 116.32512,12.2866 z" fill="#4862b9" />
    <g transform="rotate(80.844383-94.717543 541.71283)scale(1.2534458)">
      <use xlink:href="#Z" fill="#eeb0c3" stroke="#ea8cab"/>
      <path d="m-27 26c9-5 17-5 23-2 2 1 4 1 6 0 6-3 14-3 23 2v-36l-5-2h-42l-5 2z" fill="#4862b9"/>
      <path d="m-27 26c9-5 17-5 23-2 2 1 4 1 6 0 6-3 14-3 23 2v-36l-5-2h-42l-5 2zm0-2c9-5 17-5 23-2 2 1 4 1 6 0 6-3 14-3 23 2" fill="none" stroke="#223a86"/>
      <path d="m-1 18-6-2h-17v-30c12-5 18-4 23 2 5-6 11-7 23-2v30h-17z" fill="#fffcc8"/>
      <path d="m-24 20c10-5 18-4 23 1 5-5 13-6 23-1v-4c-11-5-18-4-23 2-5-6-12-7-23-2z" fill="#f5c491"/>
      <path d="m3-16v20l2-2 2 1v-20z" fill="#da251d"/>
      <path d="m-24 20c10-5 18-4 23 1 5-5 13-6 23-1v-34c-12-5-18-4-23 2-5-6-11-7-23-2zm0-4c11-5 18-4 23 2 5-6 12-7 23-2m-23 5v-33" fill="none" stroke="#ee9a69"/>
      <path d="m-21 1c7-3 13-3 17 1m-17-4c7-3 13-3 17 1m-17-4c7-3 13-3 17 1m-17-4c7-3 13-3 17 1m-17-4c7-3 13-3 17 1" fill="none" stroke="#b7673c" stroke-linecap="round"/>
      <use xlink:href="#Z" fill="#c6d0f2" stroke="#9aadec" transform="rotate(120)"/>
      <use xlink:href="#Z" fill="#eef6cc" stroke="#dff199" transform="rotate(240)"/>
    </g>
    <g transform="translate(-28.722893-15.612499)scale(1.0383572)">
      <g clip-path="url(#clipPath7240)">
        <ellipse cx="541.87897" cy="659.7536" fill="#fff" id="path819" rx="45.982674" ry="54.410976" transform="rotate(337.95702)" />
        <g clip-path="url(#clipPath7224)">
          <ellipse cx="580.46814" cy="647.42395" fill="url(#linearGradient4349)" id="ellipse821" rx="34.207371" ry="40.477348" transform="rotate(339.99552)" />
          <path d="m 774.1083,411.2106 -27.88438,43.80174 -24.00051,-18.9318 z" fill="#b7ccf6" />
          <path d="m 774.1083,411.2106 -54.42606,15.15426 8.53396,18.15616 z" fill="#83a6ed" />
          <ellipse cx="583.43146" cy="649.13538" rx="27.522884" ry="32.567635" transform="rotate(339.99552)" />
          <ellipse cx="871.41034" cy="-13.835471" fill="#fff" rx="4.2178307" ry="6.0368466" transform="rotate(29.553884)" />
          <ellipse cx="850.84589" cy="-14.007394" fill="#fff" rx="11.731835" ry="17.916636" transform="rotate(28.630289)" />
        </g>
      </g>
      <path d="m 785.65151,378.28131 c -13.92157,-27.9344 -55.80932,-37.22054 -76.47851,-6.78606 -13.5018,19.88081 -13.06728,57.49597 14.63849,77.3898 -21.88643,-23.16269 -24.09845,-55.2072 -10.89828,-74.64389 16.97781,-24.99909 51.5758,-21.47212 72.7383,4.04015 z" fill="#1a1a1a" />
    </g>
    <path d="m 856.43867,515.07938 c -23.26156,0.93594 -41.13953,-7.7994 -47.35872,-27.39305 10.28612,16.83999 28.75179,23.6085 51.1627,21.45461 z m 9.23516,-47.6507 c -4.11456,3.40813 -8.17298,1.83881 -8.97459,-3.34593 -2.37558,8.95789 4.44878,11.69775 8.97459,3.34593 z" fill="#223a86" />
    <path d="m 444.45924,617.66628 c 103.35243,165.63183 338.37197,119.15449 286.1527,-98.93937" fill="none" stroke="#223a86" stroke-width="6" />
    <path fill="#223a86" inkscape:original-d="m 339.72566,530.0367 c 36.91133,2.21468 62.4502,-46.46574 134.26871,-46.01529 78.02766,0.48939 66.80963,60.65102 140.94511,68.838" inkscape:path-effect="#path-effect7260" />
    <path d="m 356.40283,528.2047 c -1.04552,-5.14087 -3.36771,-14.55477 -11.2116,-15.93297 -72.6391,-12.76288 -133.62498,-10.73215 -204.26331,6.45774 -36.2003,8.80937 -16.35998,117.70775 12.86313,105.23084 63.12288,-26.95054 117.62763,-36.90231 192.17103,-33.87201" style="clip-path:url(#clipPath8225);fill:none;stroke:#223a86;stroke-width:6" transform="translate(1762e-8 207e-8)" />
    <path d="m 168.87705,540.94556 c -21.85373,9.06662 -25.52916,32.13323 -0.97712,40.16091 -14.24263,10.5566 -13.39297,26.59976 4.09304,35.4681 -6.00335,2.30354 -12.06187,4.76422 -18.20192,7.38574 -29.22311,12.47691 -49.06343,-96.42146 -12.86313,-105.23084 3.91724,-0.95327 7.8048,-1.85991 11.66631,-2.72 -2.64369,9.17371 2.09558,17.83656 16.28282,24.93609 z" style="clip-path:url(#clipPath8215);fill:#d2eca7;stroke:#a7c579;stroke-width:6" transform="translate(1762e-8 207e-8)" />
    <path fill="#223a86" inkscape:original-d="m 326.04053,579.55785 c 54.44754,41.02761 120.35834,51.23041 181.67236,20.07533" inkscape:path-effect="#path-effect7258" />
    <g transform="translate(1762e-8 207e-8)">
      <path d="m 594.26751,675.52241 c -20.97595,78.55543 -26.90399,154.58998 -12.93545,230.62813 6.27731,34.17071 119.90258,25.24817 108.38253,-1.90963 -33.17263,-78.20244 -47.16273,-147.51303 -45.89805,-228.97065 z" fill="#4862b9" />
      <path clip-path="url(#clipPath8156)" fill="#223a86" inkscape:original-d="m 594.26751,675.52241 c -20.97595,78.55543 -26.90399,154.58998 -12.93545,230.62813 6.27731,34.17071 119.90258,25.24817 108.38253,-1.90963 -33.17263,-78.20244 -47.16273,-147.51303 -45.89805,-228.97065" inkscape:path-effect="#path-effect7036" />
      <path d="m 581.33206,906.15054 c 6.2773,34.17071 119.90257,25.24817 108.38253,-1.90963 -5.20123,-12.26158 -9.93088,-24.30457 -14.20408,-36.21005 -5.73766,12.99156 -18.99258,13.53422 -30.53549,5.35642 -0.14818,16.89258 -17.62118,22.38448 -30.97396,9.20987 -7.46511,12.78807 -22.23881,14.19279 -35.50379,6.2669 0.83209,5.76287 1.77632,11.52467 2.83479,17.28649 z" style="clip-path:url(#clipPath8146);fill:#d2eca7;stroke:#a7c579;stroke-width:6" />
    </g>
    <g clip-path="url(#clipPath4367)">
      <path d="m 695.38443,376.81757 c 55.51262,-26.35701 112.68902,9.05101 102.66491,74.78057 -53.93028,14.50653 -99.6772,-15.01312 -102.66491,-74.78057 z" fill="#fff" opacity=".25" />
      <path fill="#223a86" inkscape:original-d="m 677.63989,497.51701 c 58.85329,35.38058 99.40701,21.20908 169.43381,33.59745 l 37.66096,-63.085 c -19.81968,-19.86475 -31.11863,-42.90141 -36.92844,-71.15632 -27.6372,-134.40816 -177.53483,-135.87948 -205.56124,-24.79191 -14.13056,56.01004 -8.66531,148.59583 -35.28018,199.54431" inkscape:path-effect="#path-effect7256" />
      <path d="m 793.68068,408.1316 c 18.03185,-13.22851 40.06733,-16.63936 59.11101,-12.87867 m -157.40726,-18.43536 c 55.51262,-26.35701 112.68902,9.05101 102.66491,74.78057 -53.93028,14.50653 -99.6772,-15.01312 -102.66491,-74.78057 z" style="fill:none;stroke:#a9e4e5;stroke-width:6;stroke-miterlimit:20" />
    </g>
    <g>
      <path d="m 819.14494,347.62354 c 97.51712,-165.61241 94.88864,-167.1702 -37.85525,-37.53907 z" style="fill:#4862b9;stroke:#223a86;stroke-width:6;stroke-miterlimit:20" />
      <path d="m 866.02374,267.30251 c -5.80437,-10.03167 -7.71413,-20.39458 -6.08531,-31.68099 m -11.84846,63.36305 c -10.82892,-12.31134 -14.50189,-25.94912 -12.07969,-42.27843 m -4.27016,71.55912 c -16.17612,-12.6204 -22.18612,-28.28287 -20.15132,-49.11128" style="fill:none;stroke:#223a86;stroke-width:3;stroke-miterlimit:20" />
      <path d="m 649.8877,314.26173 c 116.76154,-37.46067 181.78033,8.47789 141.51074,81.12238 121.36956,-64.55431 -10.32574,-189.37063 -154.96809,-103.45032 -55.71713,57.39746 -73.33468,165.21845 2.4367,243.2005 -19.05318,-71.86323 -20.6999,-118.80668 -0.0151,-168.21706 z" style="fill:#c6d0f2;stroke:#9aadec;stroke-width:6;stroke-miterlimit:20" />
      <path d="m 641.57741,301.29594 c 96.68515,-69.9224 146.76739,19.61651 89.31845,60.89522 5.33539,-47.62332 -47.92122,-65.95967 -85.12263,-12.44728 l 3.79771,36.25104 c -21.88774,38.63913 -21.35002,71.34012 -1.4143,116.31009 -60.41139,-55.78955 -53.31414,-133.63778 -22.18859,-186.87518 z" style="fill:#eeb0c3;stroke:#ea8cab;stroke-width:6;stroke-miterlimit:20" />
      <g transform="translate(1762e-8 207e-8)">
        <path d="m 672.76701,341.0386 c 16.53981,-50.47029 0.98884,-96.96883 -9.64236,-94.80587 -13.18015,2.68156 -87.47366,71.8659 -23.49945,180.02081 z" fill="#4862b9" />
        <path fill="#223a86" inkscape:original-d="m 672.76701,341.0386 c 16.53981,-50.47029 0.98884,-96.96883 -9.64236,-94.80587 -13.18015,2.68156 -87.47366,71.8659 -23.49945,180.02081" inkscape:path-effect="#path-effect7029" />
        <path d="m 642.10412,367.51876 c -10.7522,-23.91528 -7.94493,-46.88091 5.23327,-71.75591 -8.38775,25.6904 -11.33527,47.71868 -5.23327,71.75591 z" fill="#223a86" />
      </g>
    </g>
  </g>
</svg>
