<?xml version="1.0" encoding="UTF-8" standalone="no"?>
<!-- Created with Inkscape (http://www.inkscape.org/) -->

<svg
   xmlns:dc="http://purl.org/dc/elements/1.1/"
   xmlns:cc="http://creativecommons.org/ns#"
   xmlns:rdf="http://www.w3.org/1999/02/22-rdf-syntax-ns#"
   xmlns:svg="http://www.w3.org/2000/svg"
   xmlns="http://www.w3.org/2000/svg"
   xmlns:xlink="http://www.w3.org/1999/xlink"
   xmlns:sodipodi="http://sodipodi.sourceforge.net/DTD/sodipodi-0.dtd"
   xmlns:inkscape="http://www.inkscape.org/namespaces/inkscape"
   id="svg2"
   version="1.1"
   inkscape:version="0.48.3.1 r9886"
   width="525.93335"
   height="556.1402"
   sodipodi:docname="Crystal Feather Banner.svg"
   inkscape:export-filename="/home/parclytaxel/Pictures/Crystal Feather Banner.png"
   inkscape:export-xdpi="1095.283"
   inkscape:export-ydpi="1095.283">
  <metadata
     id="metadata8">
    <rdf:RDF>
      <cc:Work
         rdf:about="">
        <dc:format>image/svg+xml</dc:format>
        <dc:type
           rdf:resource="http://purl.org/dc/dcmitype/StillImage" />
        <dc:title></dc:title>
      </cc:Work>
    </rdf:RDF>
  </metadata>
  <defs
     id="defs6">
    <linearGradient
       inkscape:collect="always"
       id="linearGradient5085">
      <stop
         style="stop-color:#eef36a;stop-opacity:1;"
         offset="0"
         id="stop5087" />
      <stop
         style="stop-color:#f9fac9;stop-opacity:1"
         offset="1"
         id="stop5089" />
    </linearGradient>
    <linearGradient
       inkscape:collect="always"
       id="linearGradient5601">
      <stop
         style="stop-color:#d3d93b;stop-opacity:1;"
         offset="0"
         id="stop5603" />
      <stop
         style="stop-color:#e5e76b;stop-opacity:1"
         offset="1"
         id="stop5605" />
    </linearGradient>
    <inkscape:path-effect
       effect="skeletal"
       id="path-effect3605"
       is_visible="true"
       pattern="m 854.10078,708.14487 0,6 -695.43119,0 c -10.01363,0 -19.18673,-0.78081 -28,-3 9.03541,-2.07111 17.934,-3 28,-3 z"
       copytype="single_stretched"
       prop_scale="1"
       scale_y_rel="false"
       spacing="0"
       normal_offset="0"
       tang_offset="0"
       prop_units="false"
       vertical_pattern="false"
       fuse_tolerance="0"
       pattern-nodetypes="ccscsc" />
    <linearGradient
       inkscape:collect="always"
       id="linearGradient5707-2">
      <stop
         style="stop-color:#9ac91e;stop-opacity:1;"
         offset="0"
         id="stop5709-1" />
      <stop
         style="stop-color:#bfe656;stop-opacity:1"
         offset="1"
         id="stop5711-0" />
    </linearGradient>
    <clipPath
       clipPathUnits="userSpaceOnUse"
       id="clipPath5693">
      <path
         style="font-size:medium;font-style:normal;font-variant:normal;font-weight:normal;font-stretch:normal;text-indent:0;text-align:start;text-decoration:none;line-height:normal;letter-spacing:normal;word-spacing:normal;text-transform:none;direction:ltr;block-progression:tb;writing-mode:lr-tb;text-anchor:start;baseline-shift:baseline;color:#000000;fill:none;stroke:#ff00ff;stroke-width:1;stroke-miterlimit:4;stroke-dasharray:none;marker:none;visibility:visible;display:inline;overflow:visible;enable-background:accumulate;font-family:Sans;-inkscape-font-specification:Sans"
         d="m 508.40625,615.03125 -3.625,0.0625 -92.21875,1.03125 -2.96875,0.0312 0,2.96875 c 0.0243,24.90865 4.69637,53.72311 15.25,86.375 l 0.84375,2.625 2.6875,-0.625 80.21875,-19 2.78125,-0.6875 -0.5,-2.8125 c -5.3689,-28.54682 -5.93542,-50.40518 -3.09375,-66.40625 l 0.625,-3.5625 z"
         id="path5695"
         inkscape:connector-curvature="0" />
    </clipPath>
    <clipPath
       clipPathUnits="userSpaceOnUse"
       id="clipPath5697">
      <path
         style="font-size:medium;font-style:normal;font-variant:normal;font-weight:normal;font-stretch:normal;text-indent:0;text-align:start;text-decoration:none;line-height:normal;letter-spacing:normal;word-spacing:normal;text-transform:none;direction:ltr;block-progression:tb;writing-mode:lr-tb;text-anchor:start;baseline-shift:baseline;color:#000000;fill:none;stroke:#000000;stroke-width:1;stroke-miterlimit:4;stroke-dasharray:none;marker:none;visibility:visible;display:inline;overflow:visible;enable-background:accumulate;font-family:Sans;-inkscape-font-specification:Sans"
         d="M 523.34375,626.96875 520,627.84375 c -40.94036,10.71923 -80.33958,13.47856 -124.6875,7.6875 l -3.65625,-0.46875 0.28125,3.6875 1.8125,23.28125 0.1875,2.4375 2.4375,0.3125 c 44.41589,5.33016 85.89317,2.40216 127.75,-8.0625 l 2.5625,-0.625 -0.3125,-2.625 -2.625,-23.0625 -0.40625,-3.4375 z"
         id="path5699"
         inkscape:connector-curvature="0" />
    </clipPath>
    <inkscape:path-effect
       effect="skeletal"
       id="path-effect6270"
       is_visible="true"
       pattern="m 531.9685,736.50336 c -10.066,0 -18.96459,0.92889 -28,3 8.81327,2.21919 17.98637,3 28,3 l 252.29354,0 3.70646,-6 z"
       copytype="single_stretched"
       prop_scale="1"
       scale_y_rel="false"
       spacing="0"
       normal_offset="0"
       tang_offset="0"
       prop_units="false"
       vertical_pattern="false"
       fuse_tolerance="0"
       pattern-nodetypes="scsccs" />
    <clipPath
       clipPathUnits="userSpaceOnUse"
       id="clipPath6112">
      <path
         sodipodi:nodetypes="ccc"
         inkscape:connector-curvature="0"
         id="path6114"
         d="m 835.55007,515.3952 c -61.10917,14.75931 -80.0258,-10.292 -82.54404,-61.87359 60.85762,-16.19087 83.69188,4.22095 82.54404,61.87359 z"
         style="fill:none;stroke:#ffff00" />
    </clipPath>
    <linearGradient
       inkscape:collect="always"
       id="linearGradient3765">
      <stop
         style="stop-color:#386c76;stop-opacity:1"
         offset="0"
         id="stop3767" />
      <stop
         style="stop-color:#b8f1fc;stop-opacity:1"
         offset="1"
         id="stop3769" />
    </linearGradient>
    <clipPath
       clipPathUnits="userSpaceOnUse"
       id="clipPath3781">
      <path
         transform="matrix(2.2362633,-0.62570607,0.62570607,2.2362633,-1282.2082,-89.624291)"
         d="m 816.80077,482.57422 a 14.512618,20.203392 0 1 1 -29.02524,0 14.512618,20.203392 0 1 1 29.02524,0 z"
         sodipodi:ry="20.203392"
         sodipodi:rx="14.512618"
         sodipodi:cy="482.57422"
         sodipodi:cx="802.28815"
         id="path3783"
         style="fill:none;stroke:#000000"
         sodipodi:type="arc" />
    </clipPath>
    <inkscape:path-effect
       effect="skeletal"
       id="path-effect6188"
       is_visible="true"
       pattern="m 596.41574,643.14607 c -4.25139,0 -13.00953,0.92889 -18,3 5.27395,1.96639 13.29536,3 18,3 l 174,0 c 5.073,0 12.08209,-1.04444 16,-3 -3.85471,-2.01875 -11.33689,-3 -16,-3 z"
       copytype="single_stretched"
       prop_scale="1"
       scale_y_rel="false"
       spacing="0"
       normal_offset="0"
       tang_offset="0"
       prop_units="false"
       vertical_pattern="false"
       fuse_tolerance="0"
       pattern-nodetypes="scsscss" />
    <inkscape:path-effect
       effect="skeletal"
       id="path-effect6208"
       is_visible="true"
       pattern="m 622.93383,574.18661 c -10.066,0 -18.96459,0.92889 -28,3 8.81327,2.21919 17.98637,3 28,3 l 154.86236,0 1.13764,-6 z"
       copytype="single_stretched"
       prop_scale="1"
       scale_y_rel="false"
       spacing="0"
       normal_offset="0"
       tang_offset="0"
       prop_units="false"
       vertical_pattern="false"
       fuse_tolerance="0"
       pattern-nodetypes="scsccs" />
    <inkscape:path-effect
       effect="skeletal"
       id="path-effect6230"
       is_visible="true"
       pattern="m 533.92135,764.49439 c -10.04988,0 -30.63175,0.67608 -41,3 10.36825,1.96639 30.95012,3 41,3 l 253,0 c 10.04987,0 33.45298,-0.67608 44,-3 -10.54702,-2.14516 -33.95013,-3 -44,-3 z"
       copytype="single_stretched"
       prop_scale="1"
       scale_y_rel="false"
       spacing="0"
       normal_offset="0"
       tang_offset="0"
       prop_units="false"
       vertical_pattern="false"
       fuse_tolerance="0"
       pattern-nodetypes="scsscss" />
    <inkscape:path-effect
       effect="skeletal"
       id="path-effect3585"
       is_visible="true"
       pattern="m 1087.2731,598.55102 0,6 -435.43119,0 c -10.01363,0 -19.18673,-0.78081 -28,-3 9.03541,-2.07111 17.934,-3 28,-3 z"
       copytype="single_stretched"
       prop_scale="1"
       scale_y_rel="false"
       spacing="0"
       normal_offset="0"
       tang_offset="0"
       prop_units="false"
       vertical_pattern="false"
       fuse_tolerance="0"
       pattern-nodetypes="ccscsc" />
    <clipPath
       clipPathUnits="userSpaceOnUse"
       id="clipPath5757">
      <path
         style="font-size:medium;font-style:normal;font-variant:normal;font-weight:normal;font-stretch:normal;text-indent:0;text-align:start;text-decoration:none;line-height:normal;letter-spacing:normal;word-spacing:normal;text-transform:none;direction:ltr;block-progression:tb;writing-mode:lr-tb;text-anchor:start;baseline-shift:baseline;color:#000000;fill:none;stroke:#ffff00;stroke-width:1;stroke-miterlimit:4;stroke-dasharray:none;marker:none;visibility:visible;display:inline;overflow:visible;enable-background:accumulate;font-family:Sans;-inkscape-font-specification:Sans"
         d="m 705.34375,501.9375 -2.53125,0.125 -46.03125,2.15625 -2.65625,0.125 L 653.9375,507 c -1.19758,17.28015 -1.01946,34.93562 0.65625,52.9375 l 0.28125,2.96875 2.96875,-0.25 59.9375,-5.125 3.6875,-0.3125 -1.0625,-3.53125 c -4.87331,-16.22382 -10.87528,-33.19664 -14.5,-49.28125 l -0.5625,-2.46875 z"
         id="path5759"
         inkscape:connector-curvature="0" />
    </clipPath>
    <clipPath
       clipPathUnits="userSpaceOnUse"
       id="clipPath5761">
      <path
         style="font-size:medium;font-style:normal;font-variant:normal;font-weight:normal;font-stretch:normal;text-indent:0;text-align:start;text-decoration:none;line-height:normal;letter-spacing:normal;word-spacing:normal;text-transform:none;direction:ltr;block-progression:tb;writing-mode:lr-tb;text-anchor:start;baseline-shift:baseline;color:#000000;fill:none;stroke:#ffff00;stroke-width:1;stroke-miterlimit:4;stroke-dasharray:none;marker:none;visibility:visible;display:inline;overflow:visible;enable-background:accumulate;font-family:Sans;-inkscape-font-specification:Sans"
         d="m 723.40625,511.34375 -3.5,1 c -28.36602,8.22965 -51.84863,10.74647 -81.65625,9.34375 l -3.625,-0.15625 0.5,3.5625 2.75,19.6875 0.3125,2.4375 2.46875,0.15625 c 28.97027,1.78828 55.91427,-1.41803 82.75,-9.46875 L 725.75,537.1875 725.53125,534.75 723.75,514.96875 l -0.34375,-3.625 z"
         id="path5763"
         inkscape:connector-curvature="0" />
    </clipPath>
    <inkscape:path-effect
       effect="skeletal"
       id="path-effect6147"
       is_visible="true"
       pattern="m 669.91191,441.14425 c -10.04988,0 -30.63175,0.67608 -41,3 10.36825,1.96639 30.95012,3 41,3 l 123,0 c 10.04987,0 19.45298,-0.67608 30,-3 -10.54702,-2.14516 -19.95013,-3 -30,-3 z"
       copytype="single_stretched"
       prop_scale="1"
       scale_y_rel="false"
       spacing="0"
       normal_offset="0"
       tang_offset="0"
       prop_units="false"
       vertical_pattern="false"
       fuse_tolerance="0"
       pattern-nodetypes="scsscss" />
    <clipPath
       clipPathUnits="userSpaceOnUse"
       id="clipPath10748">
      <path
         inkscape:connector-curvature="0"
         id="path10750"
         d="m 817.40625,334.03125 c -0.94265,0.01 -1.88942,0.0308 -2.84375,0.0625 -31.78927,1.05417 -69.98181,14.30606 -110.40625,46.25 -2.3448,-1.94419 -4.80177,-3.78302 -7.4375,-5.40625 -1.53223,-0.95234 -3.23304,-1.88135 -5.125,-2.59375 -0.6492,-0.24966 -1.41355,-0.4777 -2.28125,-0.625 -0.57265,-0.14003 -1.40486,-0.13186 -2.46875,0.0937 -1.55245,0.46042 -2.77513,1.1892 -3.71875,2 -1.28177,1.05102 -2.35213,2.22989 -3.25,3.40625 -2.47145,3.21974 -4.29339,6.74594 -5.75,10.28125 -4.19423,10.10107 -6.12552,20.99424 -6.40625,31.78125 -0.12035,4.37682 0.0698,8.76925 0.53125,13.125 -12.715,40.31381 -17.45448,83.09176 -13.84375,125.21875 -0.94133,0.42192 -1.86979,0.88214 -2.78125,1.375 -4.96696,2.70055 -9.3413,6.42297 -12.78125,10.90625 -1.31112,1.71537 -2.47041,3.5183 -3.5,5.40625 -2.04714,3e-5 -4.1003,0.116 -6.15625,0.34375 -6.40055,0.73887 -12.62604,2.68205 -18.3125,5.6875 -0.46823,0.2486 -0.91487,0.5199 -1.375,0.78125 -13.66738,-28.25907 -34.97164,-53.50858 -63.25,-67.65625 -12.39819,-6.17697 -26.02154,-10.0623 -39.9375,-10.78125 -1.63376,-0.0838 -3.2697,-0.0999 -4.90625,-0.0937 -11.45588,0.0432 -22.92959,2.26634 -33.5,6.78125 -12.40432,5.31542 -23.35936,13.70472 -31.96875,24.03125 -9.90224,11.89913 -16.68848,26.1075 -20.78125,40.875 -5.15764,18.59801 -6.34892,38.041 -5.125,57.125 1.50155,23.54723 6.56587,46.71379 13.5625,69.125 -4.37671,0.35305 -8.69526,1.2869 -12.8125,2.75 -12.26862,4.33304 -22.78502,13.18762 -29.1875,24.5 -3.61201,6.40192 -5.89938,13.49525 -6.90625,20.71875 -1.18477,8.54362 -0.63527,17.20559 1.09375,25.53125 2.16473,10.53904 6.28541,20.76289 12.59375,29.625 5.54479,7.77394 12.77764,14.36185 21.15625,19.03125 16.13247,8.94336 36.07765,10.16132 53.25,3.53125 9.33911,-3.62164 17.74135,-9.37635 24.6875,-16.5 8.11335,-8.33093 14.24387,-18.39288 18.53125,-29.0625 5.36448,-13.34639 8.00947,-27.57713 8.875,-41.78125 1.12871,-18.4159 -0.60661,-36.87502 -4,-54.875 -2.42483,-12.91256 -4.22713,-25.90696 -4.6875,-38.9375 -0.33896,-9.77021 0.0233,-19.5397 1.875,-28.96875 1.38598,-6.99376 3.53392,-13.8053 7.125,-19.6875 2.82592,-4.63504 6.55485,-8.71322 11.0625,-11.46875 4.23442,-2.62955 9.2072,-4.10396 14.28125,-4.59375 5.61933,-0.5458 11.41058,0.12922 17.0625,1.5 11.7692,2.85329 22.7642,8.61064 32.96875,15.625 -8.12707,9.77164 -14.31732,21.15846 -17.9375,33.375 -2.17764,7.39513 -3.44973,14.98086 -4.0625,22.59375 -0.32759,4.06998 -0.44303,8.43597 -0.34375,12.9375 0.21755,10.10722 1.55433,20.74122 2.53125,30.40625 0.36381,3.62649 0.66856,7.07495 0.75,10.34375 -7.30784,-0.071 -13.46937,1.5703 -16.875,6.3125 -20.97786,29.21087 -34.26514,64.80713 -41.96875,94.25 -3.8518,14.72144 -6.3237,27.88592 -7.59375,38 -0.63502,5.05704 -0.9591,9.33989 -1.03125,12.71875 -0.0722,3.37886 -0.0958,5.62682 0.75,7.75 2.19046,5.49887 8.30576,8.29916 15.625,10.3125 7.31924,2.01334 16.26056,3.02832 25.15625,3.15625 8.89569,0.12793 17.73173,-0.63103 24.8125,-2.28125 3.54039,-0.82511 6.64243,-1.86101 9.1875,-3.25 2.54507,-1.38899 4.69691,-3.17923 5.59375,-5.84375 0.31348,-0.93135 0.19981,-1.39101 0.15625,-1.84375 -0.0436,-0.45274 -0.12159,-0.85106 -0.21875,-1.3125 -0.19432,-0.92288 -0.46366,-2.01288 -0.8125,-3.34375 -0.23112,-0.88174 -0.53464,-2.03436 -0.8125,-3.125 0.37623,0.0753 0.73631,0.14817 1.125,0.21875 6.4021,1.16252 14.44442,1.72338 22.65625,1.78125 8.21183,0.0579 16.56325,-0.40169 23.5625,-1.40625 6.99925,-1.00456 12.46993,-2.13001 15.9375,-5.15625 1.21999,-1.06471 1.68645,-2.70029 1.6875,-4 10e-4,-1.29971 -0.28353,-2.48291 -0.6875,-3.78125 -0.80794,-2.59667 -2.14891,-5.67055 -3.71875,-9.46875 -3.13968,-7.5964 -7.18053,-18.01469 -9.1875,-31.5 -3.37203,-22.65746 -1.12399,-53.94804 21.3125,-94.5625 1.04794,0.31828 2.1005,0.63557 3.15625,0.90625 3.28914,0.8488 6.60287,1.49808 9.9375,2 -2.37778,6.90227 -4.28757,14.34631 -5.625,20.96875 -0.97448,4.81008 -1.68579,9.21544 -2.125,12.6875 -1.50254,11.87799 -2.24441,23.83525 -2.40625,35.78125 -0.22479,16.36834 0.65328,32.75305 2.84375,49 1.95064,14.51375 4.9071,29.01364 9.78125,42.96875 1.23149,3.20314 3.5237,5.55308 6,7.0625 3.117,1.9853 6.47749,3.19395 9.75,4.0625 8.42667,2.27729 17.08059,2.9094 25.53125,2.96875 8.49114,0.08 17.02484,-0.4542 25.46875,-1.8125 3.16037,-0.50382 6.3921,-1.12646 9.59375,-2.125 1.83959,-0.45949 4.20366,-1.31067 6.375,-3.28125 0.82634,-0.79056 1.51929,-1.84032 1.9375,-3.15625 0.34529,-1.33473 0.34838,-2.56909 0.125,-3.625 -0.6051,-2.94496 -1.88772,-5.31367 -3,-7.28125 -1.85591,-3.45695 -3.79324,-6.80522 -5.5625,-10.15625 -2.63307,-4.98495 -5.05003,-10.06423 -7.25,-15.25 -7.13548,-16.80138 -12.03696,-34.55881 -15.75,-52.5625 -2.29905,-11.15685 -4.15362,-22.40873 -5.625,-33.71875 -0.43344,-3.33175 -1.0227,-7.77016 -1.65625,-12.78125 -0.63356,-5.01109 -1.31964,-10.57424 -2,-16.1875 -0.5728,-4.72584 -1.14382,-9.40561 -1.71875,-13.84375 2.93595,-0.46815 5.84862,-1.05688 8.75,-1.75 0.0484,0.12267 0.0757,0.25249 0.125,0.375 2.03722,5.16189 5.16651,10.23281 9.875,13.90625 5.28904,3.93127 11.72268,5.5284 17.875,5.6875 6.37727,0.20158 12.65174,-0.66062 18.71875,-2 -1.84455,1.93303 -3.8319,3.77133 -5.90625,5.625 -2.4213,2.15746 -4.95288,4.41286 -7.34375,7.0625 -2.31355,2.57557 -4.37342,5.44283 -6.15625,8.53125 -0.38419,0.66552 -0.76701,1.32119 -1.125,2 -1.60806,3.08557 -2.52932,6.39162 -3.03125,9.625 -0.58474,3.68267 -0.71117,7.37724 -0.53125,11 0.38018,7.80674 2.01471,15.50372 4.625,22.8125 2.21978,6.35688 5.26308,12.78811 10.125,18.0625 1.79943,1.98825 4.10779,3.8266 6.96875,4.96875 2.61003,0.99716 5.53479,1.03905 8.25,0.0312 4.90523,-1.90037 9.33589,-4.79155 13.15625,-8.25 4.11394,-3.72228 7.56184,-8.03345 10.46875,-12.625 6.57404,-10.3894 10.67011,-22.08836 13.1875,-33.90625 2.71391,-12.64448 3.69157,-25.65474 2.84375,-38.5625 -0.76742,-11.98108 -3.12488,-24.07369 -8.15625,-35.21875 -1.69597,-3.46923 -4.66314,-5.82734 -7.875,-7 -4.13076,-1.55459 -8.41312,-1.88297 -12.40625,-1.75 -6.4932,0.17334 -12.83205,1.27998 -19,2.90625 4.85655,-5.85728 8.8759,-12.40361 11.90625,-19.375 6.68828,-15.44132 9.13152,-32.28857 9.3125,-48.84375 0.20434,-16.92922 -1.85682,-33.77157 -5.28125,-50.25 0.74753,0.12588 1.48983,0.26246 2.25,0.375 6.42388,0.95103 13.28858,1.38654 20.0625,1.25 6.77391,-0.13655 13.45427,-0.86921 19.59375,-2.03125 6.13947,-1.16203 11.73827,-2.74826 16.375,-4.40625 2.78157,-0.99462 5.51203,-2.08066 8.21875,-3.28125 10.74592,-4.75432 20.90695,-11.31801 29,-20.125 7.08617,-7.69317 12.33787,-17.38644 13.78125,-28 0.22892,-1.66873 -0.0784,-3.41654 -0.9375,-5 -0.89608,-1.4959 -2.04621,-2.59365 -3.21875,-3.34375 -2.76273,-1.81105 -5.67664,-2.7505 -8.3125,-3.46875 -2.6591,-0.77062 -5.15261,-1.29077 -7.34375,-2.125 -0.51475,-0.22221 -0.92948,-0.38186 -1.21875,-0.53125 1.98806,-16.59605 1.83457,-33.62629 -1.90625,-50.09375 -1.56663,-6.89383 -3.80339,-13.66554 -6.75,-20.125 0.98589,-0.0688 1.99463,-0.15991 2.96875,-0.21875 l 2.125,-0.125 0.5625,-2.0625 c 3.03738,-10.93765 4.24632,-20.26771 3.375,-31.8125 7.47997,8.14777 11.64659,16.98794 14.78125,28.9375 l 1.78125,6.84375 3.65625,-6.03125 c 9.54746,-15.68033 9.99038,-32.8646 3.125,-47.625 -6.86538,-14.7604 -20.85495,-27.13062 -39.8125,-34.15625 -11.10794,-4.11658 -23.9228,-6.39814 -38.0625,-6.25 z"
         style="fill:none;stroke:#000000;display:inline" />
    </clipPath>
    <clipPath
       clipPathUnits="userSpaceOnUse"
       id="clipPath11785">
      <path
         style="font-size:medium;font-style:normal;font-variant:normal;font-weight:normal;font-stretch:normal;text-indent:0;text-align:start;text-decoration:none;line-height:normal;letter-spacing:normal;word-spacing:normal;text-transform:none;direction:ltr;block-progression:tb;writing-mode:lr-tb;text-anchor:start;baseline-shift:baseline;color:#000000;fill:none;stroke:#000000;stroke-width:1;stroke-miterlimit:4;stroke-dasharray:none;marker:none;visibility:visible;display:inline;overflow:visible;enable-background:accumulate;font-family:Sans;-inkscape-font-specification:Sans"
         d="m 720.02507,416.77441 c 9.08764,1.31295 14.06388,5.42006 16.40625,11.28125 2.34237,5.86119 1.85057,13.89852 -1.75,22.65625 l -2.65625,6.5 6.53125,-2.5625 c 39.95826,-15.6699 88.43496,-25.99545 127.3125,-28.34375 l -14.46619,119.53693 -150.23989,-6.26 z"
         id="path11787"
         inkscape:connector-curvature="0" />
    </clipPath>
    <linearGradient
       inkscape:collect="always"
       xlink:href="#linearGradient5085"
       id="linearGradient12077"
       gradientUnits="userSpaceOnUse"
       gradientTransform="translate(4e-6,-4e-6)"
       x1="857.63837"
       y1="371.80151"
       x2="716.57355"
       y2="395.90619" />
    <linearGradient
       inkscape:collect="always"
       xlink:href="#linearGradient5601"
       id="linearGradient12079"
       gradientUnits="userSpaceOnUse"
       gradientTransform="translate(4e-6,-4e-6)"
       x1="857.63837"
       y1="371.80151"
       x2="716.57355"
       y2="395.90619" />
    <linearGradient
       inkscape:collect="always"
       xlink:href="#linearGradient5085"
       id="linearGradient12137"
       gradientUnits="userSpaceOnUse"
       x1="460.767"
       y1="790.7879"
       x2="514.49878"
       y2="517.1767" />
    <linearGradient
       inkscape:collect="always"
       xlink:href="#linearGradient5601"
       id="linearGradient12139"
       gradientUnits="userSpaceOnUse"
       x1="460.767"
       y1="790.7879"
       x2="514.49878"
       y2="517.1767" />
    <linearGradient
       inkscape:collect="always"
       xlink:href="#linearGradient5085"
       id="linearGradient12141"
       gradientUnits="userSpaceOnUse"
       x1="681.92505"
       y1="598.55798"
       x2="681.92505"
       y2="454.35025" />
    <linearGradient
       inkscape:collect="always"
       xlink:href="#linearGradient5601"
       id="linearGradient12143"
       gradientUnits="userSpaceOnUse"
       x1="681.92505"
       y1="598.55798"
       x2="681.92505"
       y2="454.35025" />
    <linearGradient
       inkscape:collect="always"
       xlink:href="#linearGradient5707-2"
       id="linearGradient12145"
       gradientUnits="userSpaceOnUse"
       x1="490.52786"
       y1="648.32947"
       x2="430.48959"
       y2="652.46741" />
    <linearGradient
       inkscape:collect="always"
       xlink:href="#linearGradient5707-2"
       id="linearGradient12147"
       gradientUnits="userSpaceOnUse"
       x1="702.61047"
       y1="530.40088"
       x2="663.65375"
       y2="534.92389" />
    <linearGradient
       inkscape:collect="always"
       xlink:href="#linearGradient3765"
       id="linearGradient12149"
       gradientUnits="userSpaceOnUse"
       x1="795.90613"
       y1="468.17233"
       x2="797.59113"
       y2="497.38071" />
  </defs>
  <sodipodi:namedview
     pagecolor="#ffffff"
     bordercolor="#666666"
     borderopacity="1"
     objecttolerance="10"
     gridtolerance="10"
     guidetolerance="10"
     inkscape:pageopacity="0"
     inkscape:pageshadow="2"
     inkscape:window-width="1364"
     inkscape:window-height="698"
     id="namedview4"
     showgrid="true"
     fit-margin-top="0"
     fit-margin-left="0"
     fit-margin-right="0"
     fit-margin-bottom="0"
     inkscape:zoom="0.96018954"
     inkscape:cx="262.96667"
     inkscape:cy="278.0701"
     inkscape:window-x="0"
     inkscape:window-y="0"
     inkscape:window-maximized="1"
     inkscape:current-layer="layer2"
     showguides="true"
     inkscape:guide-bbox="true"
     inkscape:object-nodes="false">
    <inkscape:grid
       type="xygrid"
       id="grid6132"
       empspacing="5"
       visible="true"
       enabled="false"
       snapvisiblegridlinesonly="true"
       spacingx="6px"
       spacingy="6px"
       originx="-374.05508px"
       originy="-189.8358px" />
  </sodipodi:namedview>
  <g
     inkscape:groupmode="layer"
     id="layer2"
     inkscape:label="Feather Banner"
     style="display:inline"
     transform="translate(-374.05508,-334.02378)">
    <g
       id="g12000"
       style="opacity:0.85">
      <g
         transform="translate(4e-6,-4e-6)"
         id="g10784">
        <path
           sodipodi:nodetypes="sssscs"
           inkscape:connector-curvature="0"
           id="path4748"
           d="m 378.70736,774.42154 c 18.4509,89.36011 159.75451,73.58507 129.20378,-88.85543 -22.33758,-118.77058 37.14903,-125.1177 89.76992,-85.69109 11.39276,8.53612 18.09486,3.64567 11.9028,-10.41252 -62.80358,-142.58651 -251.18872,-99.2933 -181.42539,115.00857 -27.57374,-0.74026 -58.6822,25.24308 -49.45111,69.95047 z"
           style="fill:url(#linearGradient12137);fill-opacity:1;stroke:none" />
        <path
           style="fill:url(#linearGradient12139);fill-opacity:1;stroke:none"
           d="m 430.54776,703.64787 -5.7092,1.8453 c -7.65065,-23.64282 -13.20541,-48.14321 -14.79581,-73.08379 -1.22392,-19.084 -0.0439,-38.53235 5.11374,-57.13036 4.09277,-14.7675 10.86934,-28.96739 20.77158,-40.86652 8.60939,-10.32653 19.58808,-18.70922 31.9924,-24.02464 12.08047,-5.1599 25.32341,-7.36232 38.3935,-6.69226 2e-5,0 4e-5,0 6e-5,0 13.91596,0.71895 27.54727,4.58577 39.94546,10.76274 30.31044,15.16432 52.60311,43.08451 66.06985,73.79489 1.32635,2.90241 2.45461,6.21333 2.60792,9.88349 0.25418,2.26851 -0.48327,5.04973 -2.80472,7.32181 -2e-5,10e-6 -3e-5,2e-5 -4e-5,3e-5 -2.6322,1.80952 -5.4662,1.99827 -7.62779,1.28159 -1e-5,0 -3e-5,0 -4e-5,-10e-6 -3.39077,-0.88421 -6.23212,-2.61598 -8.62247,-4.46427 -11.66951,-8.70478 -24.44367,-16.07803 -38.28216,-19.43299 -1e-5,0 -2e-5,0 -2e-5,0 -5.65192,-1.37078 -11.43564,-2.05635 -17.05497,-1.51055 -5.07405,0.48979 -10.04933,1.98828 -14.28375,4.61783 -4.50765,2.75553 -8.24579,6.83272 -11.07171,11.46776 -3.59108,5.8822 -5.74503,12.68953 -7.13101,19.68329 -1.85172,9.42905 -2.20261,19.18858 -1.86365,28.95879 0.46037,13.03054 2.23969,26.03905 4.66452,38.95161 3.39339,17.99998 5.15115,36.44489 4.02244,54.86079 -10e-6,2e-5 -10e-6,4e-5 -10e-6,6e-5 -0.86553,14.20412 -3.52855,28.4481 -8.89303,41.79449 -1e-5,2e-5 -1e-5,4e-5 -2e-5,6e-5 -4.28738,10.66962 -10.40796,20.72498 -18.52131,29.05591 -6.94615,7.12365 -15.36125,12.87246 -24.70036,16.4941 -2e-5,10e-6 -4e-5,2e-5 -5e-5,2e-5 -17.17235,6.63007 -37.11769,5.42769 -53.25016,-3.51567 -8.37861,-4.6694 -15.60438,-11.26228 -21.14917,-19.03622 -6.30834,-8.86211 -10.43371,-19.09793 -12.59844,-29.63697 -1.72902,-8.32566 -2.26327,-16.99107 -1.0785,-25.53469 1.00687,-7.2235 3.29847,-14.29865 6.91048,-20.70057 1e-5,-10e-6 2e-5,-3e-5 3e-5,-5e-5 6.40248,-11.31238 16.9058,-20.16818 29.17442,-24.50122 11.2701,-4.00494 24.12676,-4.06704 35.20593,0.9954 5.58029,2.58458 10.52019,6.46392 14.36766,11.24921 4.40611,5.51302 7.32468,12.01176 8.96177,18.71319 0,2e-5 1e-5,4e-5 1e-5,5e-5 1.93721,7.76622 2.96525,15.9575 2.0703,24.16252 0,2e-5 0,4e-5 0,6e-5 -0.64742,5.99291 -2.49783,12.00165 -5.93349,17.2183 -10e-6,2e-5 -2e-5,4e-5 -3e-5,5e-5 -2.83082,4.26069 -6.73509,7.80585 -11.33794,10.14714 -4.21086,2.13019 -8.91269,3.21876 -13.62915,3.16007 -4.46868,-0.0483 -8.95194,-1.15132 -12.93726,-3.34594 -0.0184,-0.0101 -0.0368,-0.0203 -0.0552,-0.0305 -4.0414,-2.24608 -7.2986,-5.66602 -9.26152,-9.6909 -2.29335,-4.83672 -2.64434,-10.09793 -1.74343,-14.82809 1.30918,-6.85787 4.7458,-12.6558 8.80448,-17.47697 -2.49839,5.90096 -4.40138,11.94121 -4.58565,17.96928 -0.12282,4.14513 0.57161,8.31791 2.55102,11.74834 1.59884,2.86736 4.11196,5.33464 7.156,7.03732 0.0139,0.008 0.0279,0.0156 0.0419,0.0235 3.02318,1.68828 6.5627,2.54082 10.10605,2.59448 3.73751,0.0489 7.51037,-0.82412 10.84225,-2.51339 3.62958,-1.82741 6.77227,-4.69621 9.05321,-8.11804 1e-5,-10e-6 2e-5,-2e-5 3e-5,-4e-5 2.82733,-4.19607 4.35526,-9.31948 4.96604,-14.56229 0,-2e-5 0,-3e-5 0,-5e-5 0.83488,-7.24257 -0.14737,-14.73228 -1.93295,-22.05781 0,-10e-6 0,-2e-5 -1e-5,-3e-5 -1.49374,-5.99051 -4.02939,-11.71528 -7.81298,-16.39129 -3.2652,-4.06377 -7.48585,-7.38086 -12.20991,-9.56245 -9.36525,-4.39389 -20.71784,-4.26062 -30.6937,-0.78189 -10.85496,3.81199 -20.28171,11.76569 -25.94474,21.79493 -10e-6,10e-6 -10e-6,2e-5 -2e-5,2e-5 -3.22113,5.68468 -5.27309,12.05288 -6.19152,18.57969 -1.09445,7.73428 -0.58219,15.71794 1.0125,23.48942 2.03985,9.82431 5.83439,19.30263 11.60598,27.36446 5.05218,7.07239 11.62254,13.07953 19.18293,17.27901 14.44898,8.07296 32.70038,9.15768 48.16833,3.16269 10e-6,0 10e-6,0 2e-5,-1e-5 8.47193,-3.26756 16.17742,-8.54815 22.57154,-15.08946 7.49065,-7.65283 13.18731,-17.05867 17.24958,-27.10735 10e-6,-2e-5 2e-5,-4e-5 2e-5,-5e-5 5.08923,-12.59281 7.61108,-26.2125 8.46951,-39.92163 1e-5,-10e-6 1e-5,-10e-6 1e-5,-2e-5 1.1071,-17.78501 -0.62,-35.73696 -3.93047,-53.38193 -2.46919,-13.10928 -4.2817,-26.41625 -4.76409,-39.84698 -0.36761,-10.06131 0.0191,-20.27541 1.9711,-30.3225 1.43788,-7.46523 3.8443,-14.92572 7.88841,-21.64276 1e-5,-10e-6 2e-5,-3e-5 3e-5,-5e-5 3.22493,-5.34977 7.62376,-10.09278 13.05377,-13.46524 2e-5,-10e-6 3e-5,-2e-5 5e-5,-3e-5 5.14062,-3.15151 10.97766,-4.93878 16.86903,-5.48416 6.46321,-0.59484 12.91079,0.13933 19.04655,1.65631 2e-5,10e-6 4e-5,10e-6 6e-5,2e-5 14.92473,3.69149 28.42223,11.40673 40.45218,20.45895 2.17876,1.57515 4.29636,2.96482 6.45123,3.43801 2e-5,10e-6 3e-5,10e-6 5e-5,10e-6 1.23408,0.11447 2.32209,0.32375 2.38983,-0.0875 1e-5,0 1e-5,0 2e-5,0 0.45626,-0.0127 0.46499,-1.19337 0.61855,-2.52012 -0.0168,-2.40897 -0.97617,-4.96966 -2.10122,-7.6328 -13.13143,-29.67696 -34.48468,-56.61271 -63.25158,-70.84159 -11.73341,-5.82941 -24.57562,-9.48944 -37.57815,-10.14236 -2e-5,0 -4e-5,0 -6e-5,0 -12.19511,-0.61752 -24.54963,1.4263 -35.72824,6.21647 -11.4822,4.90306 -21.71173,12.7281 -29.74493,22.35169 -2e-5,2e-5 -3e-5,3e-5 -4e-5,5e-5 -9.27967,11.09499 -15.66519,24.54976 -19.59842,38.63116 -4.95981,17.76864 -6.0706,36.55439 -4.90623,55.14257 1.53131,24.30055 6.99314,48.31237 14.51703,71.61811 z"
           id="path3470"
           inkscape:connector-curvature="0"
           sodipodi:nodetypes="csssssc"
           inkscape:path-effect="#path-effect3605"
           inkscape:original-d="m 425.2879,744.56525 c -31.87572,52.7926 58.78848,63.06683 41.11055,-8.59725 -13.97963,-56.67165 -102.45931,-33.07088 -87.69109,38.45354 18.4509,89.36011 159.75451,73.58507 129.20378,-88.85543 -22.33758,-118.77058 37.14903,-125.1177 89.76992,-85.69109 11.39276,8.53612 18.09486,3.64567 11.9028,-10.41252 -62.80358,-142.58651 -251.18872,-99.2933 -181.8907,115.10802" />
      </g>
      <path
         sodipodi:nodetypes="sscs"
         inkscape:connector-curvature="0"
         id="path6300"
         d="m 573.67951,851.91791 c 3.81582,8.78552 62.02395,8.81265 71.10869,0.88415 7.27795,-6.35166 -49.67742,-60.80624 23.99833,-166.99144 -70.07519,-48.62352 -126.36316,94.14327 -95.10702,166.10729 z"
         style="fill:#f4e4a1;fill-opacity:1;stroke:#e6c356;stroke-width:6;stroke-miterlimit:4;stroke-opacity:1;stroke-dasharray:none" />
      <g
         transform="translate(4e-6,-4e-6)"
         id="g6309">
        <path
           sodipodi:nodetypes="ssssscs"
           inkscape:connector-curvature="0"
           id="path6290"
           d="m 751.40349,755.22132 c -10.55977,20.00789 6.29056,68.59551 22.67381,62.28771 35.55501,-13.68921 47.74327,-85.06576 29.85037,-124.51959 -4.50387,-9.93103 -25.23625,-8.94938 -50.62059,0.70382 -13.87885,5.27788 -40.82154,-40.81766 -32.70826,-0.25134 5.42178,27.10887 12.34395,43.74771 54.1018,32.6161 -7.56409,12.82544 -15.68016,14.73122 -23.29713,29.1633 z"
           style="fill:#f4e4a1;fill-opacity:1;stroke:none" />
        <path
           style="fill:#e6c356;fill-opacity:1;stroke:none"
           d="m 755.06054,754.80408 c 1.61389,-2.79596 3.39205,-5.39019 5.32963,-7.7758 2.00843,-2.48533 4.27453,-4.8337 6.47799,-7.29867 2.40717,-2.67999 4.65842,-5.51946 6.5072,-8.59727 2.47396,-4.13849 4.18531,-8.55048 5.38864,-13.0601 -2.45798,3.8972 -5.09974,7.66121 -8.13064,11.05839 -2.20362,2.47883 -4.67124,4.77365 -7.26132,7.08818 -2.4213,2.15746 -4.95687,4.40799 -7.34774,7.05763 -2.31355,2.57557 -4.37787,5.43932 -6.1607,8.52774 -0.38419,0.66552 -0.75527,1.33805 -1.11326,2.01686 -1.60806,3.08557 -2.53663,6.37174 -3.03856,9.60512 -0.58474,3.68267 -0.70074,7.37728 -0.52082,11.00004 0.38018,7.80674 2.00969,15.50589 4.61998,22.81467 0,10e-6 0,10e-6 0,2e-5 2.21978,6.35688 5.27275,12.78394 10.13467,18.05833 1.79943,1.98825 4.0928,3.82683 6.95376,4.96898 2.61003,0.99716 5.54063,1.04825 8.25584,0.0405 4.90523,-1.90037 9.33595,-4.77623 13.15631,-8.23468 4.11394,-3.72228 7.57149,-8.04837 10.4784,-12.63992 0,-10e-6 0,-10e-6 10e-6,-2e-5 6.57404,-10.3894 10.67135,-22.07575 13.18874,-33.89364 2.71391,-12.64448 3.67474,-25.66413 2.82692,-38.57189 -0.76742,-11.98108 -3.11439,-24.07311 -8.14576,-35.21817 -1.69597,-3.46923 -4.67506,-5.82231 -7.88692,-6.99497 0,-10e-6 -10e-6,-10e-6 -2e-5,-10e-6 -4.13076,-1.55459 -8.40303,-1.89026 -12.39616,-1.75729 -10e-6,0 -2e-5,0 -2e-5,0 -11.93374,0.31858 -23.37104,3.76169 -34.13597,7.89107 -0.43222,0.17846 -0.97927,0.24079 -1.55902,0.22769 -0.65468,-0.014 -1.38185,-0.18695 -2.1576,-0.43186 -1e-5,0 -1e-5,0 -2e-5,0 -1.88016,-0.59476 -3.72918,-1.72349 -5.64196,-2.99331 -2.12346,-1.4336 -4.17894,-3.0743 -6.26233,-4.77627 -1.97103,-1.61387 -3.96085,-3.30717 -6.07328,-4.94998 -1.55933,-1.24472 -3.36484,-2.59952 -5.61574,-3.62552 -0.75648,-0.37921 -1.79474,-0.68443 -3.09764,-0.75196 -1e-5,0 -2e-5,0 -4e-5,0 -1.20086,-0.0408 -2.42759,0.39225 -3.52329,1.30822 -1.09031,1.14065 -1.64482,2.27733 -1.79908,3.20639 -0.34965,1.43995 -0.42983,2.76955 -0.4051,3.93407 0.0384,4.20958 0.77859,8.20685 1.55144,11.99363 1.2448,6.28915 2.65718,12.74388 5.16563,18.98147 0,0 0,10e-6 0,2e-5 2.03722,5.16189 5.1714,10.20793 9.87989,13.88137 5.28904,3.93127 11.71926,5.53383 17.87158,5.69293 7.50077,0.23709 14.82539,-0.98428 21.88339,-2.74059 1.45826,-2.43065 2.81534,-4.88063 4.12849,-7.32492 -8.61181,2.40989 -17.27452,4.40465 -25.8005,4.06923 -5.31859,-0.24528 -10.60658,-1.43948 -14.44488,-4.46786 -3.58549,-2.65076 -6.07863,-6.85718 -7.95677,-11.36252 0,0 0,-10e-6 -10e-6,-10e-6 -2.28102,-5.58794 -3.58597,-11.68412 -4.84334,-17.90582 -0.73498,-3.75235 -1.4364,-7.36698 -1.43499,-10.84574 0,0 0,-10e-6 0,-2e-5 0.0145,-0.96353 0.031,-1.78285 0.21412,-2.40321 0.17933,-0.36109 0.14764,-0.52291 0.0405,-0.28183 0,0 0,10e-6 0,10e-6 -0.31394,0.20065 -0.46311,0.29186 -0.60442,0.26468 0.0336,-0.0503 0.29252,0.0859 0.75958,0.24477 1.38725,0.57405 2.77083,1.67741 4.34996,2.87118 1.97228,1.53087 3.9224,3.19251 5.95419,4.855 2.12163,1.7399 4.3227,3.48912 6.69909,5.10181 2.08154,1.43424 4.42511,2.80608 7.1256,3.72265 1e-5,10e-6 2e-5,10e-6 2e-5,10e-6 1.15216,0.39119 2.42714,0.66329 3.80101,0.72932 1.28208,0.0604 2.61887,-0.13102 3.92824,-0.61485 10.52937,-3.96845 21.30301,-7.2815 32.14498,-7.50092 0,0 0,0 10e-6,0 3.61676,-0.0468 7.11841,0.15403 10.08429,1.35273 2.06844,0.87594 3.9495,2.19047 4.59281,3.87935 4.67708,10.26209 6.84979,21.65916 7.62298,33.13328 0.81107,12.34825 -0.10954,24.81718 -2.70626,36.91972 -2.44728,11.31702 -6.27748,22.3509 -12.3874,31.93623 0,0 -10e-6,10e-6 -10e-6,10e-6 -2.68791,4.21918 -5.79677,8.13239 -9.43235,11.40124 -3.36176,3.02083 -7.17141,5.51526 -11.29308,7.09038 -1.17728,0.49091 -2.6781,0.43697 -3.96649,-0.049 -1.65834,-0.57723 -3.20138,-1.9118 -4.70277,-3.45697 0,0 0,-10e-6 -1e-5,-10e-6 -4.06551,-4.2822 -6.6961,-10.01554 -8.86753,-15.97713 0,-10e-6 0,-2e-5 -10e-6,-2e-5 -2.421,-6.80529 -3.93672,-13.92926 -4.27859,-21.08914 -0.15451,-3.30948 -0.0614,-6.59121 0.45219,-9.76139 0.46224,-2.78237 1.18478,-5.45152 2.42046,-7.75408 0.32348,-0.61238 0.65811,-1.21846 1.0039,-1.81752 z"
           id="path6244"
           inkscape:connector-curvature="0"
           sodipodi:nodetypes="csssssc"
           inkscape:path-effect="#path-effect6270"
           inkscape:original-d="m 778.764,718.07224 c -8.79378,20.52707 -18.42089,20.21093 -27.36051,37.14908 -10.55976,20.00789 6.29056,68.59551 22.67381,62.28771 35.55501,-13.68921 47.74327,-85.06576 29.85037,-124.51959 -4.50387,-9.93103 -25.23625,-8.94938 -50.62059,0.70382 -13.87885,5.27788 -40.82154,-40.81766 -32.70826,-0.25134 5.54166,27.70825 12.65078,44.47837 56.80523,31.96496" />
      </g>
      <path
         style="fill:#f9edbb;fill-opacity:1;stroke:none"
         d="m 690.81609,713.10537 c -30.73827,0 -51.40258,-7.31252 -62.04844,-24.90247 -81.11054,100.41348 -45.09406,176.02109 -46.46267,180.08725 -4.26696,12.67716 -68.67527,12.92903 -74.72291,-2.25281 -3.44372,-8.64502 8.17973,-92.34354 49.48666,-149.86186 2.69525,-3.75303 8.06736,-5.2773 15.36203,-5.05207 2.68181,-25.70054 -13.50382,-73.25395 22.90094,-113.58248 44.07807,-48.82887 99.40351,11.69129 104.05908,3.6276 4.26958,-7.39513 -3.12217,-39.5686 -0.62673,-122.85393 4.04494,-135.00001 188.38922,-132.67671 169.73955,18.85595 -0.61839,5.02459 22.37938,4.08694 21.12157,13.64865 -4.72548,35.92267 -55.88673,61.99339 -109.63242,55.11969 14.9746,70.13325 4.91879,147.16648 -89.17666,147.16648 z"
         id="path6304"
         inkscape:connector-curvature="0"
         sodipodi:nodetypes="scssscssssscs" />
      <path
         inkscape:original-d="m 768.00001,563.7528 c 57.84988,12.89326 116.54729,-14.33213 121.62516,-52.9336 1.25781,-9.56171 -21.73996,-8.62406 -21.12157,-13.64865 18.64967,-151.53266 -165.69461,-153.85596 -169.73955,-18.85595 -2.49544,83.28533 4.89631,115.4588 0.62673,122.85393 -4.65557,8.06369 -59.98101,-52.45647 -104.05908,-3.6276 -41.01221,45.43257 -15.27978,100.03454 -25.00531,122.21812"
         inkscape:path-effect="#path-effect6188"
         sodipodi:nodetypes="csssssc"
         inkscape:connector-curvature="0"
         id="path6162"
         d="m 839.56637,556.98961 c -3.98128,1.42607 -9.08672,3.05111 -14.90328,4.42415 -5.81657,1.37303 -12.34322,2.48547 -19.04585,3.12682 -6.70262,0.64135 -13.5736,0.81152 -20.03048,0.60368 -6.45689,-0.20784 -12.49459,-0.78703 -17.58675,-1.39146 5.15545,1.65268 11.15264,3.09681 17.57651,4.04784 6.42388,0.95103 13.26932,1.40332 20.04324,1.26678 6.77391,-0.13655 13.46965,-0.86272 19.60913,-2.02476 6.13947,-1.16203 11.71931,-2.75469 16.35604,-4.41268 2.78157,-0.99462 5.52906,-2.09152 8.23578,-3.29211 10.74592,-4.75432 20.91329,-11.31709 29.00634,-20.12408 7.08617,-7.69317 12.32912,-17.38976 13.7725,-28.00332 0.22892,-1.66873 -0.0741,-3.40738 -0.93323,-4.99084 -0.89608,-1.4959 -2.04173,-2.59334 -3.21427,-3.34344 -2.76273,-1.81105 -5.68149,-2.74723 -8.31735,-3.46548 -2.6591,-0.77062 -5.17089,-1.30739 -7.36203,-2.14162 -0.78285,-0.33795 -1.36064,-0.52757 -1.56395,-0.76385 0.1386,-0.0509 0.11662,0.23545 0.27241,1.03172 0,10e-6 0,3e-5 0,4e-5 2.08779,-16.84237 1.9738,-34.16141 -1.82581,-50.88767 -3.02294,-13.30217 -8.53848,-26.16677 -16.84634,-37.14979 -7.27546,-9.59708 -16.65835,-17.59078 -27.36958,-23.14596 -10e-6,0 -10e-6,-1e-5 -2e-5,-1e-5 -10.25297,-5.3089 -21.61468,-8.36897 -33.11595,-9.05539 -11.57026,-0.69018 -23.25077,0.9969 -34.16229,4.87466 -11.33918,4.03143 -21.8046,10.42501 -30.59383,18.63304 -9.63096,9.00538 -17.17019,20.10177 -22.34027,32.16066 -6.13099,14.32005 -9.0114,29.82693 -9.46164,45.25821 -0.89996,30.0411 -0.57096,60.11645 0.98132,90.1306 0,10e-6 0,3e-5 0,4e-5 0.38641,7.49424 0.92547,14.90187 0.99659,22.23939 0.0159,2.17707 0.01,4.26288 -0.23433,6.22796 -0.21153,1.27507 -0.32162,2.30318 -0.71628,2.84579 0.13578,-0.2445 0.34562,-0.43612 0.65417,-0.6131 2e-5,0 3e-5,-10e-6 4e-5,-10e-6 0.30375,-0.10938 0.43697,-0.16765 0.44043,-0.13478 0,0 10e-6,0 10e-6,0 -0.17042,0.071 -0.64625,-0.15711 -1.41795,-0.39494 -10e-6,0 -2e-5,0 -3e-5,-10e-6 -2.48383,-0.93659 -4.93537,-2.45939 -7.60139,-3.98557 -10e-6,-10e-6 -2e-5,-2e-5 -3e-5,-2e-5 -3.74526,-2.16664 -7.5129,-4.38782 -11.39929,-6.48965 -4.58592,-2.48095 -9.30602,-4.79231 -14.20388,-6.76571 -10.62106,-4.31741 -22.32804,-6.92444 -34.07613,-5.62304 -6.40055,0.73887 -12.63675,2.68883 -18.32321,5.69428 -1e-5,0 -2e-5,10e-6 -3e-5,10e-6 -6.79411,3.60731 -12.71618,8.56839 -17.76059,14.17472 -9.38498,10.39447 -16.50249,22.84246 -20.49133,36.30308 -2.17764,7.39513 -3.44015,14.98142 -4.05292,22.59431 -0.32759,4.06998 -0.44835,8.4506 -0.34907,12.95213 0.21755,10.10722 1.56898,20.72925 2.5459,30.39428 0,0 0,0 0,0 0.43048,4.29108 0.77198,8.36884 0.76728,12.14552 -0.006,1.8213 -0.0789,3.57227 -0.26975,5.21966 -0.19089,1.6474 -0.49978,3.19149 -0.92854,4.61936 0.7524,-1.25362 1.41086,-2.72064 1.94479,-4.35483 0.53392,-1.63418 0.9429,-3.43526 1.24572,-5.31898 0.62506,-3.84047 0.83869,-8.09964 0.87377,-12.47474 0,0 0,0 0,0 0.0438,-4.98095 -0.0989,-10.17662 -0.23326,-15.30711 -0.1344,-5.13048 -0.24828,-10.19553 -0.18062,-14.94687 0.0661,-4.48261 0.27156,-8.70657 0.56958,-12.44912 0.57944,-7.27644 1.76452,-14.45514 3.82064,-21.37156 3.70902,-12.56088 10.39328,-24.23607 19.19157,-33.98469 4.6895,-5.17672 10.06155,-9.70974 16.11054,-12.89052 5.03193,-2.65963 10.56225,-4.39093 16.20559,-5.03829 10.37791,-1.24526 21.10947,1.23025 31.14987,5.2285 4.62795,1.86047 9.14373,4.07585 13.59091,6.47781 3.75606,2.02934 7.47342,4.22241 11.24848,6.40531 2.56228,1.49771 5.29605,3.15548 8.44811,4.39049 10e-6,10e-6 2e-5,10e-6 3e-5,2e-5 0.86554,0.39302 2.09503,0.75459 3.67892,0.79528 3e-5,0 5e-5,0 8e-5,0 0.60136,0.0225 1.34076,-0.1365 2.17744,-0.51713 4e-5,-2e-5 7e-5,-3e-5 10e-5,-5e-5 0.796,-0.42509 1.41095,-1.01586 1.82021,-1.73404 0.99218,-1.85947 1.3558,-3.64779 1.47683,-5.12639 0.28537,-2.42104 0.30559,-4.76665 0.27732,-7.00736 -0.0781,-7.58714 -0.61975,-15.07808 -1.0043,-22.48932 0,-1e-5 0,-2e-5 0,-3e-5 -1.54414,-29.85133 -1.87136,-59.76347 -0.97601,-89.64098 0.45589,-14.81078 3.17506,-29.5887 8.97789,-43.07131 4.87456,-11.34248 11.94101,-21.76603 20.92194,-30.14215 8.18815,-7.64701 17.95817,-13.61774 28.50765,-17.3645 10.1558,-3.60857 21.04722,-5.18378 31.795,-4.53902 10.67805,0.64022 21.23901,3.47962 30.7137,8.39336 9.89377,5.12208 18.60314,12.5484 25.34903,21.44381 7.73413,10.17446 12.89349,22.27566 15.77778,34.85958 3.63648,15.85941 3.71532,32.48919 1.72038,48.81988 0,3e-5 0,7e-5 0,1.1e-4 0.001,2.05227 0.7259,3.54496 1.83564,4.30543 1.20791,0.94281 2.36615,1.47042 3.30531,1.77784 2.7427,1.01486 5.40269,1.60066 7.80661,2.28872 2.55381,0.77692 4.90396,1.4467 6.61153,2.66628 0,10e-6 10e-6,10e-6 2e-5,2e-5 0.64594,0.48273 1.17191,0.90736 1.35524,1.325 0.20068,0.29532 0.26278,0.79051 0.21037,1.26043 -1.15394,9.13106 -5.88924,17.73809 -12.24953,24.73465 -7.35401,8.06829 -16.85852,14.15391 -27.01778,18.6926 -2.56619,1.14338 -5.17412,2.18772 -7.81711,3.13443 z"
         style="fill:#ead070;fill-opacity:1;stroke:none" />
      <path
         inkscape:original-d="m 620.10831,651.92336 c 0.44428,44.21926 23.89182,61.18201 70.70778,61.18201 94.65001,0 104.26687,-77.94392 88.86349,-148.33262"
         inkscape:path-effect="#path-effect6208"
         sodipodi:nodetypes="csc"
         inkscape:connector-curvature="0"
         id="path6164"
         d="m 637.05217,694.08663 c -4.30048,-4.39451 -7.52054,-9.51579 -9.88777,-14.8698 -1.90686,-4.29993 -3.30673,-8.75041 -4.42362,-13.31272 -1.11688,-4.5623 -1.94804,-9.23864 -2.63247,-13.98075 -0.63709,4.64872 -0.90327,9.45458 -0.60383,14.34594 0.29945,4.89135 1.16284,9.86858 2.81135,14.80546 2.07514,6.18211 5.54798,12.17936 10.45456,17.19931 1.07254,1.09732 2.20181,2.14322 3.38648,3.13101 6.78525,5.59042 14.90079,9.14274 23.16942,11.26271 10.35975,2.67344 21.01257,3.45086 31.4898,3.43758 0,0 10e-6,0 10e-6,0 10.81235,0.007 21.71637,-0.98662 32.33667,-3.57226 8.78264,-2.13744 17.358,-5.43139 25.1916,-10.13581 13.79549,-8.3289 24.53852,-21.17476 30.92426,-35.86528 6.68828,-15.44132 9.15328,-32.29451 9.33426,-48.84969 0.21003,-17.40091 -1.98143,-34.71522 -5.57819,-51.63143 -2.09298,-0.22495 -4.18498,-0.43707 -6.27577,-0.63683 3.7566,17.19774 6.0793,34.71164 5.85442,52.19351 -0.22492,16.02007 -2.52392,32.10005 -8.83626,46.53005 -5.92946,13.60586 -15.86984,25.53619 -28.5163,33.11869 -7.21901,4.35347 -15.2376,7.41816 -23.52131,9.44805 -10.03448,2.45793 -20.46407,3.39423 -30.91338,3.401 0,0 -10e-6,0 -10e-6,0 -10.1887,-0.0133 -20.33905,-0.72656 -29.98239,-3.24513 -7.64121,-2.00959 -14.98192,-5.16506 -20.84493,-10.07215 -1.02539,-0.84646 -2.0047,-1.74918 -2.9366,-2.70146 z"
         style="fill:#ead070;fill-opacity:1;stroke:none" />
      <path
         sodipodi:nodetypes="csssc"
         inkscape:connector-curvature="0"
         id="path6166"
         d="m 628.81549,688.15161 c -81.15838,100.46477 -45.1419,176.07238 -46.51051,180.13854 -4.26696,12.67716 -68.67527,12.92903 -74.72291,-2.25281 -3.44372,-8.64502 8.17973,-92.34354 49.48666,-149.86186 2.69525,-3.75303 8.06736,-5.2773 15.38624,-5.04269"
         style="fill:none;stroke:#ead070;stroke-width:6;stroke-linecap:butt;stroke-linejoin:miter;stroke-miterlimit:4;stroke-opacity:1;stroke-dasharray:none" />
      <path
         d="m 871.88586,510.83836 c 1.5692,3.71437 4.22517,4.32618 7.49898,2.04826 -2.50005,6.98029 -9.29297,4.85984 -7.49898,-2.04826 z m -21.47983,12.20083 c 3.66092,8.88054 10.434,13.56676 24.55627,16.33759 l 4.46908,-5.36289 c -12.42403,0.89381 -21.39462,-2.94833 -29.02535,-10.9747 z"
         style="fill:#ead070;fill-opacity:1;fill-rule:nonzero;stroke:none"
         id="path6298"
         inkscape:connector-curvature="0" />
      <g
         transform="translate(4e-6,-4e-6)"
         id="g6240">
        <path
           sodipodi:nodetypes="csscc"
           inkscape:connector-curvature="0"
           id="path6238"
           d="m 678.05619,695.41168 c -20.65103,46.3744 -20.76123,130.30145 -3.49439,179.66135 6.07612,17.3695 70.60924,12.902 77.75281,5.75843 9.43896,-9.43896 -34.23823,-26.32564 -40.80382,-182.23798 z"
           style="fill:#f9edbb;fill-opacity:1;stroke:none" />
        <path
           style="fill:#ead070;fill-opacity:1;stroke:none"
           d="m 667.45988,749.05018 c 0.42978,-3.39898 0.99612,-7.70617 1.71815,-12.45361 1.05364,-6.89645 2.43221,-14.71657 4.05099,-22.01822 0.80939,-3.65083 1.67214,-7.17457 2.51162,-10.41707 0.83949,-3.2425 1.65523,-6.20448 2.31555,-8.7496 -1.38912,2.22057 -2.87182,4.94291 -4.31528,8.01903 -1.44346,3.07613 -2.84663,6.50572 -4.12648,10.10908 -2.5597,7.20671 -4.59177,15.10763 -6.0011,22.0861 -0.97448,4.81008 -1.66584,9.19952 -2.10505,12.67158 -1.50254,11.87799 -2.25637,23.8383 -2.41821,35.7843 -0.22479,16.36834 0.66568,32.77091 2.85615,49.01786 1.95064,14.51375 4.90969,29.00888 9.78384,42.96399 1.23149,3.20314 3.5188,5.5465 5.9951,7.05592 3.117,1.9853 6.48295,3.21145 9.75546,4.08 10e-6,0 10e-6,0 10e-6,0 8.42667,2.27729 17.0794,2.88563 25.53006,2.94498 8.49114,0.08 17.02913,-0.43644 25.47304,-1.79474 3.16037,-0.50382 6.38464,-1.1414 9.58629,-2.13994 1.83959,-0.45949 4.19457,-1.28648 6.36591,-3.25706 10e-6,-10e-6 10e-6,-10e-6 2e-5,-2e-5 0.82634,-0.79056 1.51143,-1.86009 1.92964,-3.17602 0.34529,-1.33473 0.34996,-2.57211 0.12658,-3.62802 0,-10e-6 -10e-6,-2e-5 -10e-6,-2e-5 -0.6051,-2.94496 -1.89226,-5.30009 -3.00454,-7.26767 -1.85591,-3.45695 -3.78251,-6.79924 -5.55177,-10.15027 -2.63307,-4.98495 -5.05975,-10.0767 -7.25972,-15.26247 -7.13548,-16.80138 -12.04113,-34.55326 -15.75417,-52.55695 -2.29905,-11.15685 -4.13777,-22.40599 -5.60915,-33.71601 -0.43344,-3.33175 -1.01803,-7.77042 -1.65158,-12.78151 -0.63356,-5.01109 -1.31471,-10.59491 -1.99507,-16.20817 -1.36071,-11.22653 -2.69597,-22.57326 -4.15537,-29.61217 -0.77316,7.13292 -0.93657,18.60611 -0.50765,29.98594 0.21446,5.68992 0.57124,11.35443 0.99861,16.43713 0.42737,5.08269 0.92384,9.5833 1.36271,12.95305 1.48977,11.43905 3.35237,22.83342 5.68077,34.15172 3.75533,18.26946 8.77874,36.39915 16.10745,53.69036 2.2682,5.34587 4.76758,10.5906 7.47781,15.72143 0,1e-5 0,1e-5 0,1e-5 1.83942,3.48086 3.7723,6.83494 5.57061,10.18563 1.08121,2.11878 2.16285,3.88603 2.38798,5.50402 0,0 0,10e-6 1e-5,10e-6 0.0484,0.43809 0.0904,0.76112 0.0133,0.88498 0.002,0.12243 -0.17658,0.33408 -0.4091,0.60238 0,0 0,0 0,0 -0.54896,0.74972 -2.08847,1.08266 -3.91951,1.77489 -2.776,0.87703 -5.71968,1.44836 -8.74452,1.94116 -8.04881,1.29916 -16.25051,1.79018 -24.46413,1.71858 -8.21176,-0.0918 -16.35674,-0.62987 -24.00681,-2.73409 -10e-6,-10e-6 -10e-6,-10e-6 -2e-5,-10e-6 -2.96094,-0.83031 -5.76672,-1.80627 -8.07495,-3.3294 -1.69535,-1.18833 -3.1809,-2.51266 -3.58981,-3.99883 -4.70805,-13.43707 -7.57288,-27.53913 -9.50116,-41.7848 -2.14932,-15.92951 -3.02203,-32.0374 -2.80287,-48.13383 0.1622,-11.74889 0.90009,-23.48565 2.37037,-35.11363 z"
           id="path6216"
           inkscape:connector-curvature="0"
           sodipodi:nodetypes="cssc"
           inkscape:path-effect="#path-effect6230"
           inkscape:original-d="m 678.05619,695.41168 c -20.65103,46.3744 -20.76123,130.30145 -3.49439,179.66135 6.07612,17.3695 70.60924,12.902 77.75281,5.75843 9.43896,-9.43896 -34.23823,-26.32564 -40.80382,-182.23798" />
      </g>
      <g
         transform="matrix(0.27622825,0.08725857,-0.09543488,0.30383545,255.87622,301.23757)"
         id="g6323"
         style="display:inline">
        <path
           style="fill:#a5ddf5;fill-opacity:1;stroke:none"
           d="m 1547.3649,740.44318 c -75.0803,-25.38433 -132.5842,-55.28 -112.8651,-142.58278 21.6294,70.9916 130.1026,16.55805 112.8651,142.58278 z"
           id="path6315"
           inkscape:connector-curvature="0"
           sodipodi:nodetypes="ccc" />
        <path
           style="fill:#72bfe1;fill-opacity:1;stroke:none"
           d="m 1435.7077,613.55035 c 13.8908,67.61961 112.4439,76.7924 114.1238,148.63661 5.1503,-76.38305 -76.362,-74.45325 -114.1238,-148.63661 z"
           id="path6313"
           inkscape:connector-curvature="0"
           sodipodi:nodetypes="ccc" />
        <path
           sodipodi:nodetypes="ccc"
           inkscape:connector-curvature="0"
           id="path6317"
           d="m 1435.0652,696.03118 c 5.5481,88.60276 84.3992,12.03481 114.7663,66.15578 -24.9305,-61.72249 -97.6514,12.91444 -114.7663,-66.15578 z"
           style="fill:#b5bb27;fill-opacity:1;stroke:none" />
        <path
           style="fill:#f3644b;fill-opacity:1;stroke:none"
           d="m 1413.7674,700.52556 c 31.0071,108.63937 99.091,15.36381 136.0641,61.6614 -38.0801,-54.38867 -96.7855,37.04444 -136.0641,-61.6614 z"
           id="path6319"
           inkscape:connector-curvature="0"
           sodipodi:nodetypes="ccc" />
        <path
           sodipodi:nodetypes="ccc"
           inkscape:connector-curvature="0"
           id="path6321"
           d="m 1430.6029,757.81195 c 55.3644,58.635 68.8579,-28.01809 119.2286,4.37501 -49.1089,-42.6885 -61.4645,42.19493 -119.2286,-4.37501 z"
           style="fill:#2cba56;fill-opacity:1;stroke:none" />
      </g>
      <path
         sodipodi:nodetypes="ccccccc"
         inkscape:connector-curvature="0"
         id="path4538"
         d="m 720.46761,413.79764 c 19.74527,2.85272 24.62065,19.54491 17.00717,38.06334 40.30735,-15.8068 88.9577,-26.16614 128.21127,-28.53715 3.68825,-13.28146 4.76577,-23.46029 2.42481,-39.04939 11.98295,10.2105 17.53012,21.10162 21.49505,36.21624 C 925.8931,360.89421 823.00767,284.44457 699.1877,388.2426 z"
         style="fill:url(#linearGradient12077);fill-opacity:1;stroke:url(#linearGradient12079);stroke-width:6;stroke-linecap:butt;stroke-linejoin:miter;stroke-miterlimit:20;stroke-opacity:1;stroke-dasharray:none" />
      <g
         transform="translate(4e-6,-4e-6)"
         id="g10765">
        <path
           sodipodi:nodetypes="ssscs"
           inkscape:connector-curvature="0"
           id="path4742"
           d="m 683.30101,633.49757 c 80.38305,-10.95319 20.98056,-89.0553 16.56945,-148.0541 -4.14788,-55.4781 -20.03217,-76.75941 -23.23161,-68.2451 -16.66428,44.34679 -23.74432,92.00422 -18.8029,142.30944 -38.88351,14.35397 -33.61423,82.04005 25.46506,73.98976 z"
           style="fill:url(#linearGradient12141);fill-opacity:1;stroke:none" />
        <path
           style="fill:url(#linearGradient12143);fill-opacity:1;stroke:none"
           d="m 660.57959,559.39421 -5.97418,0.5561 c -4.5203,-48.57881 2.06429,-98.13103 19.22517,-143.80721 0.22461,-0.69662 0.67735,-1.48865 1.411,-2.29355 0.65326,-0.69117 1.55382,-1.17873 2.65151,-1.39809 2.50384,-0.0876 4.23723,0.72189 5.05912,1.70895 10e-6,10e-6 10e-6,2e-5 2e-5,3e-5 1.68962,1.4462 2.91181,3.08875 3.874,4.64058 10e-6,0 10e-6,0 10e-6,1e-5 1.51981,2.37693 2.74898,4.85366 3.82181,7.32162 3.30287,7.5823 5.49577,15.50889 7.22267,23.41182 2.58432,11.77982 4.10074,23.73646 4.99139,35.68533 0.55393,7.48438 1.98368,14.94765 3.77556,22.36923 1.90092,7.85731 4.23735,15.64611 6.67211,23.44307 4.6962,15.0049 10.01111,30.07934 13.02136,45.89723 0,10e-6 0,2e-5 0,3e-5 1.28021,6.6902 2.09906,13.62139 1.69489,20.64454 0,10e-6 0,2e-5 0,3e-5 -0.34012,6.14603 -1.82478,12.40456 -5.00802,17.96941 -3.41388,5.82828 -8.54152,10.38645 -14.31096,13.50249 -7.84842,4.23369 -16.50485,6.29623 -25.001,7.42427 -7.30501,1.01178 -14.89037,1.01733 -22.26978,-0.65399 -1e-5,0 -2e-5,-10e-6 -3e-5,-10e-6 -5.91221,-1.34341 -11.62154,-3.87154 -16.50456,-7.65362 -10e-6,0 -2e-5,-10e-6 -3e-5,-2e-5 -4.35155,-3.39052 -7.92319,-7.72713 -10.4382,-12.62207 -2.4466,-4.77314 -3.8967,-10.0026 -4.3563,-15.30153 0,-2e-5 -10e-6,-3e-5 -10e-6,-4e-5 -0.93912,-10.72146 2.12461,-21.72825 8.69147,-30.31987 3.43995,-4.48328 7.81399,-8.22572 12.78095,-10.92627 5.59328,-3.02448 11.79596,-4.70012 18.02981,-5.18705 4.27905,-0.3532 8.69459,0.038 12.90658,1.40978 1e-5,0 2e-5,10e-6 3e-5,10e-6 3.6448,1.20002 7.03354,3.15587 9.89052,5.74794 5.39001,4.94501 8.64657,11.83883 9.42251,18.97743 0,10e-6 0,2e-5 0,3e-5 0.80618,7.07744 -0.82119,14.47335 -4.96879,20.44769 -2.17311,3.09265 -4.99907,5.69385 -8.24717,7.61023 -3.72388,2.17838 -7.85391,3.44514 -12.00462,3.94513 -2.89469,0.38511 -5.9143,0.15908 -8.76144,-0.75126 -1.95543,-0.62522 -3.80554,-1.57851 -5.45321,-2.85727 -3.50253,-2.82953 -5.61999,-6.91442 -6.07502,-11.10033 -0.47257,-4.32947 0.90947,-8.62322 3.59896,-11.66433 3.47983,-3.78973 8.37049,-5.12744 12.75592,-4.97417 -2.12408,0.65522 -4.13802,1.59921 -5.85514,2.7875 -1.71711,1.1883 -3.13861,2.62107 -4.06962,4.30015 -1.54784,2.64482 -1.94634,5.87316 -1.30162,8.76872 0.6293,2.82711 2.27363,5.49833 4.59699,7.21802 1.02698,0.80986 2.24474,1.41074 3.58802,1.81798 1.949,0.59087 4.12849,0.73321 6.24106,0.50019 3.45532,-0.43894 6.81434,-1.44346 9.69161,-3.15841 2.51132,-1.48051 4.71617,-3.50783 6.38385,-5.88859 3.25704,-4.57784 4.53377,-10.60415 3.91689,-16.3389 0,-10e-6 0,-10e-6 0,-2e-5 -0.65812,-5.77252 -3.27214,-11.40716 -7.49492,-15.19988 -2.20746,-2.01135 -4.87679,-3.5476 -7.73229,-4.48917 0,0 -10e-6,0 -10e-6,0 -3.3081,-1.10584 -6.93898,-1.40296 -10.55263,-1.12741 -5.49227,0.44721 -10.89894,1.88652 -15.64175,4.47805 -4.21967,2.29092 -7.96159,5.4932 -10.8846,9.30581 -5.62206,7.30003 -8.28035,16.91544 -7.47514,26.1457 0,0 0,1e-5 0,1e-5 0.40248,4.56156 1.63912,9.05123 3.71592,13.08215 2.11746,4.12142 5.13855,7.79371 8.78653,10.6291 10e-6,10e-6 10e-6,10e-6 2e-5,10e-6 4.07686,3.19126 9.00443,5.34822 14.15926,6.54009 6.47402,1.50226 13.34276,1.46452 20.1199,0.55743 8.10513,-1.13409 16.0753,-2.9715 22.94224,-6.74891 4.93854,-2.71342 9.29171,-6.51729 11.98757,-11.23957 2.64002,-4.49099 3.85898,-9.86637 4.2109,-15.31995 0,-10e-6 0,-2e-5 0,-3e-5 0.3909,-6.30366 -0.39657,-12.74357 -1.60073,-19.17069 -2.86887,-15.22352 -8.1277,-30.07371 -12.85316,-45.22449 -2.45088,-7.8404 -4.82214,-15.75498 -6.77661,-23.82038 -1.84781,-7.61026 -3.32816,-15.39507 -3.92737,-23.33384 0,-10e-6 0,-3e-5 0,-4e-5 -0.88073,-11.74338 -2.35616,-23.4201 -4.86842,-34.84556 0,-10e-6 0,-2e-5 0,-3e-5 -1.69834,-7.69254 -3.7705,-15.24741 -6.86046,-22.29667 -1.00669,-2.29154 -2.08611,-4.48844 -3.37256,-6.48211 -0.89186,-1.33577 -1.70908,-2.52048 -2.65909,-3.26705 -10e-6,0 -10e-6,0 -2e-5,0 -0.68482,-0.26456 -0.81192,-0.6396 -0.24026,-0.40565 0.33455,-0.0924 0.53225,-0.17591 0.64328,-0.31526 0.051,-0.11013 0.0439,-0.0163 -0.0742,0.19883 -16.84099,44.80918 -23.30637,93.47251 -18.86753,141.14057 z"
           id="path3040"
           inkscape:connector-curvature="0"
           sodipodi:nodetypes="csssssc"
           inkscape:path-effect="#path-effect3585"
           inkscape:original-d="m 672.70364,580.59651 c -21.45452,3.01981 -16.45224,30.84129 3.56724,28.36996 33.72946,-4.16378 28.68554,-54.96479 -6.39328,-52.17031 -51.43868,4.09775 -51.04074,85.48545 13.42341,76.70141 80.38305,-10.95319 20.98056,-89.0553 16.56945,-148.0541 -4.14788,-55.4781 -20.03217,-76.75941 -23.23161,-68.2451 -16.66428,44.34679 -23.74432,92.00422 -19.04635,142.47389" />
      </g>
      <g
         transform="translate(4e-6,-4e-6)"
         id="g6157">
        <path
           sodipodi:nodetypes="cscc"
           inkscape:connector-curvature="0"
           id="path6155"
           d="M 706.99478,496.20358 C 649.5527,449.68183 674.19045,378.30643 687.62703,374.70611 c 5.18015,-1.38802 33.16842,18.69388 42.44087,48.05656 z"
           style="fill:#f9edbb;fill-opacity:1;stroke:none" />
        <path
           style="fill:#ead070;fill-opacity:1;stroke:none"
           d="m 677.3662,464.2807 c 1.20489,2.44791 2.87861,5.46094 4.98472,8.61737 2.10611,3.15643 4.64692,6.45175 7.44132,9.52189 2.79439,3.07013 5.83853,5.91281 8.82099,8.27453 2.98247,2.36172 5.8969,4.24442 8.38155,5.50909 -1.8096,-2.09818 -4.08233,-4.63729 -6.46162,-7.47868 -2.37929,-2.84139 -4.86108,-5.9868 -7.16644,-9.21542 -2.30535,-3.22861 -4.43189,-6.53895 -6.22957,-9.62824 -1.79768,-3.08929 -3.26931,-5.95495 -4.39375,-8.24445 -0.75765,-1.54267 -1.46852,-3.10803 -2.13002,-4.69476 -4.93604,-11.79064 -7.23073,-24.69095 -6.88309,-37.50078 0.29242,-10.18961 2.06948,-20.35127 5.94585,-29.6206 1.3709,-3.25102 2.91365,-6.33798 4.94179,-8.93227 0.73729,-0.93646 1.47318,-1.7739 2.26832,-2.40343 0,0 10e-6,0 10e-6,0 0.62216,-0.45617 1.12414,-0.82017 1.51723,-0.88106 -0.26726,0.0122 -0.2599,0.0644 -0.018,0.0536 0.29749,0.0375 0.67332,0.16413 1.13046,0.32411 0,0 0,0 0,0 1.32729,0.47956 2.66117,1.23236 4.05472,2.07559 4.18087,2.55577 8.01462,5.7909 11.65621,9.30183 2.57275,2.49682 5.01729,5.13532 7.29808,7.90127 3.26406,3.95839 6.22583,7.92506 9.09914,12.07752 2.87331,4.15247 5.66522,8.48472 8.4438,13.42491 -0.64777,-5.61308 -2.18218,-10.84835 -4.37498,-15.72052 -2.19279,-4.87216 -5.05108,-9.38925 -8.52759,-13.60735 -2.42925,-2.94744 -5.02992,-5.74819 -7.76651,-8.38802 -3.83087,-3.7185 -8.00914,-7.22082 -12.68979,-10.10342 -1.53223,-0.95234 -3.21778,-1.87611 -5.10974,-2.58851 0,0 0,0 -10e-6,0 -0.6492,-0.24966 -1.40617,-0.47603 -2.27387,-0.62333 -0.57265,-0.14003 -1.41095,-0.14881 -2.47484,0.0768 -1.55245,0.46042 -2.79484,1.20151 -3.73846,2.01231 -10e-6,0 -10e-6,0 -10e-6,0 -1.28177,1.05102 -2.34127,2.21916 -3.23914,3.39552 -2.47145,3.21974 -4.27871,6.76158 -5.73532,10.29689 -4.19423,10.10107 -6.12438,20.97731 -6.40511,31.76432 0,0 0,0 0,0 -0.37497,13.63628 2.07383,27.36288 7.34544,39.97967 0.71276,1.69926 1.47637,3.37425 2.28823,5.02366 z"
           id="path6128"
           inkscape:connector-curvature="0"
           sodipodi:nodetypes="csc"
           inkscape:path-effect="#path-effect6147"
           inkscape:original-d="M 706.99478,496.20358 C 649.5527,449.68183 674.19045,378.30643 687.62703,374.70611 c 5.18015,-1.38802 33.16842,18.69388 42.44087,48.05656" />
        <path
           style="fill:#ead070;fill-opacity:1;stroke:none"
           d="m 691.18097,403.42331 c -3.90947,23.14587 -0.49514,45.92408 14.23463,62.13019 -9.56586,-19.70078 -13.73746,-38.83093 -14.23463,-62.13019 z"
           id="path6130"
           inkscape:connector-curvature="0"
           sodipodi:nodetypes="ccc" />
      </g>
      <g
         transform="translate(4e-6,-4e-6)"
         id="g5701">
        <path
           clip-path="url(#clipPath5693)"
           sodipodi:nodetypes="ccccc"
           inkscape:connector-curvature="0"
           id="path5649"
           d="m 394.92417,638.50459 c 44.69608,5.83652 84.56936,3.06274 125.846,-7.74454 l 2.6353,23.05353 c -41.5321,10.38347 -82.60493,13.2668 -126.67379,7.97829 z"
           style="fill:url(#linearGradient12145);fill-opacity:1;fill-rule:nonzero;stroke:#7fa619;stroke-width:6;stroke-linecap:butt;stroke-linejoin:miter;stroke-miterlimit:4;stroke-opacity:1;stroke-dasharray:none;display:inline" />
        <path
           style="fill:none;stroke:#7fa619;stroke-width:2.5999999;stroke-miterlimit:4;stroke-opacity:1;stroke-dasharray:none"
           d="m 503.29582,646.71664 c -31.21841,5.96599 -54.72629,7.9283 -87.96526,5.52297"
           id="path5721"
           inkscape:connector-curvature="0"
           sodipodi:nodetypes="cc" />
        <path
           clip-path="url(#clipPath5697)"
           sodipodi:nodetypes="ccccc"
           inkscape:connector-curvature="0"
           id="path5669"
           d="m 507.91114,685.56611 c -5.4131,-28.78186 -6.02111,-50.96171 -3.08616,-67.48801 l -92.21717,1.05232 c 0.0239,24.53701 4.61118,53.03404 15.08535,85.4401 z"
           style="fill:none;stroke:#7fa619;stroke-width:6;stroke-miterlimit:4;stroke-opacity:1;stroke-dasharray:none" />
        <g
           id="g5767">
          <path
             transform="matrix(1.1339704,0,0,1.1339704,-68.179233,-92.794579)"
             d="m 470.51591,657.10211 c 0,3.09183 -2.50642,5.59825 -5.59825,5.59825 -3.09182,0 -5.59824,-2.50642 -5.59824,-5.59825 0,-3.09182 2.50642,-5.59824 5.59824,-5.59824 3.09183,0 5.59825,2.50642 5.59825,5.59824 z"
             sodipodi:ry="5.5982432"
             sodipodi:rx="5.5982432"
             sodipodi:cy="657.10211"
             sodipodi:cx="464.91766"
             id="path5715"
             style="fill:#e4fda2;fill-opacity:1;fill-rule:nonzero;stroke:none"
             sodipodi:type="arc" />
          <path
             transform="matrix(0.85,0,0,0.85,64.773337,97.10406)"
             d="m 462.35944,649.90228 c 0,0.97631 -0.79145,1.76777 -1.76777,1.76777 -0.97631,0 -1.76776,-0.79146 -1.76776,-1.76777 0,-0.97631 0.79145,-1.76776 1.76776,-1.76776 0.97632,0 1.76777,0.79145 1.76777,1.76776 z"
             sodipodi:ry="1.767767"
             sodipodi:rx="1.767767"
             sodipodi:cy="649.90228"
             sodipodi:cx="460.59167"
             id="path5717"
             style="fill:#ffffff;fill-opacity:1;fill-rule:nonzero;stroke:none"
             sodipodi:type="arc" />
        </g>
      </g>
      <g
         transform="translate(4e-6,-4e-6)"
         id="g5810">
        <path
           clip-path="url(#clipPath5757)"
           sodipodi:nodetypes="ccccc"
           inkscape:connector-curvature="0"
           id="path5723"
           d="m 638.10626,524.68373 2.72487,19.68289 c 28.63783,1.76776 55.18771,-1.38085 81.70422,-9.3358 l -1.78034,-19.79898 c -28.63782,8.3085 -52.5967,10.86611 -82.64875,9.45189 z"
           style="fill:url(#linearGradient12147);fill-opacity:1;stroke:#7fa619;stroke-width:6;stroke-linecap:butt;stroke-linejoin:miter;stroke-miterlimit:4;stroke-opacity:1;stroke-dasharray:none" />
        <path
           sodipodi:nodetypes="cc"
           inkscape:connector-curvature="0"
           id="path5808"
           d="m 656.25,535 c 20.5,-0.125 34.875,-2.375 53.25,-6.5"
           style="fill:none;stroke:#7fa619;stroke-width:2.5999999;stroke-linecap:butt;stroke-linejoin:miter;stroke-miterlimit:4;stroke-opacity:1;stroke-dasharray:none" />
        <path
           clip-path="url(#clipPath5761)"
           sodipodi:nodetypes="ccccc"
           inkscape:connector-curvature="0"
           id="path5733"
           d="m 717.52375,554.53547 c -4.8431,-16.12325 -10.87644,-33.13654 -14.5575,-49.47115 l -46.03712,2.15655 c -1.18632,17.11763 -0.99751,34.60877 0.66337,52.45139 z"
           style="fill:none;stroke:#7fa619;stroke-width:6;stroke-miterlimit:4;stroke-opacity:1;stroke-dasharray:none" />
        <use
           height="1080"
           width="1920"
           transform="matrix(0.73292731,-0.12805623,0.12805623,0.73292731,263.06766,113.78043)"
           id="use5777"
           xlink:href="#g5767"
           y="0"
           x="0"
           style="display:inline" />
      </g>
    </g>
    <g
       id="g8221"
       style="fill:#ffffff"
       clip-path="url(#clipPath10748)">
      <path
         id="path8174"
         style="opacity:0.4;fill:#ffffff;fill-opacity:1;fill-rule:nonzero;stroke:none"
         d="m 643.20305,492.28034 -0.16501,-64.95426 32.38959,47.01014 z m 181.68975,-116.22771 -11.06621,57.91318 24.30654,13.12712 12.58084,-25.66883 z M 721.59405,823.77376 742.09268,812.754 725.46343,763.87541 702.25431,799.47455 z m -159.34492,-30.35005 -57.74262,14.61256 21.41559,26.55246 39.71786,15.43577 0.9009,-19.65572 z m 61.67502,71.11421 -24.89756,-23.1209 -4.76621,9.08253 8.93955,32.38993 z m -22.17082,-94.16076 3.27243,-22.07758 14.46422,-16.78656 12.30946,-2.49336 17.30712,42.23323 z m 73.38565,-184.85936 -34.0166,27.14608 14.13542,23.25827 53.80864,17.52354 -11.50638,-64.38973 z m -71.93906,68.88184 11.81264,6.36841 17.42411,20.1286 -23.60717,12.14796 -45.79788,-2.38916 -0.94168,-14.60912 z m -74.96786,-61.25413 -12.75068,-73.12622 55.97205,61.97715 z m -80.62599,39.52219 -34.92309,45.24858 -8.98256,-57.38919 21.42562,-42.18231 z m 14.93024,210.65072 -55.41248,-35.65102 -32.78906,24.09637 z m -10.77875,-88.39996 -46.06852,-33.81682 -2.25394,58.16248 z m 265.62057,-65.36829 42.38902,29.58753 12.54171,32.46089 -2.58212,25.45229 -44.26331,-13.17547 z"
         inkscape:connector-curvature="0" />
      <path
         id="path8182"
         style="opacity:0.3;fill:#ffffff;fill-opacity:1;fill-rule:nonzero;stroke:none"
         d="m 824.8928,376.05263 -58.78792,35.10152 -4.12295,43.97391 51.84466,-21.16225 z m -144.53868,41.54881 -37.31608,9.72464 32.38959,47.01014 33.80382,-24.84524 z m 54.59332,107.34227 -35.10284,4.5604 -2.28454,59.55185 66.2647,-4.92607 4.7969,-30.51253 z m 34.7793,252.10717 -44.26331,-13.17547 16.62925,48.87859 z m -120.62018,-5.79799 -17.30712,-42.23323 28.58459,-26.93775 23.15883,2.43154 -10.81093,58.86397 z m -47.35323,-0.87573 -23.85422,24.87239 34.28754,24.42507 32.65445,3.76664 4.26546,-52.18837 z m 0,0 3.27243,-22.07758 -35.35491,-22.52489 -1.94423,22.78572 z m -38.72171,-79.72171 45.79788,2.38916 -1.20332,24.58511 -37.95533,8.14497 -14.03469,-16.31751 z m 51.98094,-29.8874 17.42411,20.1286 22.82113,-44.9745 -14.13542,-23.25827 z m -40.50428,-131.04665 -59.0269,-9.70211 55.97205,61.97715 z m -141.81254,21.23438 28.88985,29.36048 28.4506,-21.08496 25.44519,-39.21201 -26.45122,-10.27363 z m 63.1107,109.11868 -48.20037,-27.40676 37.31442,-20.34578 54.32559,21.44838 19.68736,65.07939 z m 239.141,-135.13075 27.03449,-69.81565 -52.75048,-5.63708 z"
         inkscape:connector-curvature="0" />
      <path
         id="path8184"
         style="opacity:0.2;fill:#ffffff;fill-opacity:1;fill-rule:nonzero;stroke:none"
         d="m 824.8928,376.05263 -58.78792,35.10152 -14.927,-30.07121 30.92557,-29.74485 z m -196.32765,194.7552 -7.58749,34.07179 20.14472,7.78426 34.0166,-27.14608 -28.61607,-40.85739 z m 186.4279,-27.78931 -2.27308,-44.4998 20.23497,-5.47184 7.5971,47.29102 z m -97.61492,146.53165 42.38902,29.58753 35.41342,-13.54435 -74.25033,-31.99351 z m -17.73586,173.18341 -43.49718,-39.28224 25.5534,-27.4572 20.55582,3.48041 19.33974,24.29921 -1.64628,22.23138 z m -130.23225,22.41016 -3.77006,-35.11924 -39.71786,-15.43577 -8.01461,46.99658 z m -2.86916,-54.77496 32.48573,11.04824 13.16006,-21.7424 -34.28754,-24.42507 -15.64998,-1.82584 z m -37.08156,-79.09163 38.26732,-2.71674 1.94423,-22.78572 -14.03469,-16.31751 z m 38.52815,-152.43497 -39.75539,-5.69667 43.22137,-11.14907 z m -120.38138,33.82552 13.97952,-52.35144 -28.88985,-29.36048 -7.5697,27.389 z m -41.91703,88.43394 12.34612,-27.53824 -48.35201,12.84815 -8.96257,38.27261 z m 46.06852,33.81682 72.05126,-20.75265 -19.30231,73.87046 z"
         inkscape:connector-curvature="0" />
      <path
         id="path8198"
         style="opacity:0.25;fill:#ffffff;fill-opacity:1;fill-rule:nonzero;stroke:none"
         d="m 757.3889,329.57454 -48.15745,38.76421 41.94643,12.74419 30.92557,-29.74485 z m -22.44146,195.36917 -35.10284,4.5604 -24.41697,-55.16789 33.80382,-24.84524 z m 168.88435,-37.86008 -50.00509,-7.45167 -15.69357,-32.53903 12.58084,-25.66883 27.83207,-7.97878 z m -131.52293,264.51496 -2.58212,25.45229 53.11936,7.85033 6.37698,-48.5769 z m -72.66659,111.13499 44.29478,34.49251 -74.78027,2.42158 z m 25.82116,-98.85817 -23.20912,35.59914 -20.55582,-3.48041 -8.96656,-32.61672 z m -163.2143,29.5483 5.47749,-44.8633 -38.26732,2.71674 -24.95279,56.75912 z m 7.16089,91.72003 -3.77006,-35.11924 28.62042,0.47505 8.93955,32.38993 z m 33.7899,-230.7441 -12.10707,-48.21247 -23.1054,-7.34499 -5.89751,77.20415 z m -122.81456,-155.94246 102.19082,-5.564 -8.0679,36.82822 -59.0269,-9.70211 -26.45122,-10.27363 z m -47.68962,52.4986 -0.19665,-32.24457 -43.81275,83.82429 15.01408,17.99159 21.42562,-42.18231 z m 19.06182,203.96268 10.77875,88.39996 -55.41248,-35.65102 -3.68873,-28.40328 z m 44.04888,-94.844 -48.20037,-27.40676 22.77143,73.62298 18.61536,-4.38365 6.50974,-21.12445 z"
         inkscape:connector-curvature="0" />
      <path
         id="path8200"
         style="opacity:0.35;fill:#ffffff;fill-opacity:1;fill-rule:nonzero;stroke:none"
         d="m 757.3889,329.57454 92.75233,-4.02515 -25.24843,50.50324 -42.78935,-24.71454 z m 75.56604,163.47234 20.87176,-13.41492 50.00509,7.45167 -22.18551,72.7294 -41.09424,-19.47513 z m -17.96189,49.97164 -2.27308,-44.4998 -50.73804,-43.39066 -27.03449,69.81565 33.67422,28.67365 z m 31.09056,177.2258 -32.09202,-35.78075 -18.81102,21.12978 34.04251,30.73096 z m -103.99093,92.50968 26.14161,43.61268 16.98515,-19.55825 -15.4927,-59.75755 z m -175.55182,17.61478 32.48573,11.04824 -4.76621,9.08253 -28.62042,-0.47505 z m 52.94912,-98.85576 -14.46422,16.78656 -35.35491,-22.52489 37.95533,-8.14497 z m 40.89405,-29.43111 -27.94736,-21.18526 22.82113,-44.9745 53.80864,17.52354 11.8638,20.15415 -3.55211,15.95033 -33.83527,14.96328 z m -85.87575,-172.36051 40.08969,-10.48461 1.2236,35.00047 -44.36814,27.75918 z m -35.2622,104.0489 -11.01402,-40.62479 -34.5442,5.47159 -8.76737,13.70482 z m 19.68736,65.07939 -63.127,-38.77523 -0.30384,20.70812 z m -107.17588,56.06877 -46.06852,-33.81682 12.34612,-27.53824 31.87803,22.25443 z"
         inkscape:connector-curvature="0" />
      <path
         id="path8202"
         style="opacity:0.1;fill:#ffffff;fill-opacity:1;fill-rule:nonzero;stroke:none"
         d="m 913.79138,344.69836 -63.65015,-19.14897 -25.24843,50.50324 83.36548,18.44369 z m -162.6135,36.38458 14.927,30.07121 -4.12295,43.97391 -52.75048,-86.78931 z m -102.32467,144.72229 50.99139,3.69888 -24.41697,-55.16789 -32.22458,17.94412 z m 166.13984,17.21329 15.43286,55.83386 -37.45858,11.94041 -29.14257,-26.6629 4.7969,-30.51253 z m -29.77361,293.78991 -15.4927,-59.75755 53.11936,7.85033 z m -85.57717,25.92515 -43.49718,-39.28224 13.01169,76.19633 z m 25.82116,-98.85817 -8.0853,-74.32524 -33.83527,14.96328 -10.81093,58.86397 z m -163.2143,29.5483 5.47749,-44.8633 34.02671,21.81675 -23.85422,24.87239 z m 61.67502,71.11421 -24.89756,-23.1209 13.16006,-21.7424 32.65445,3.76664 10.78629,37.2774 z m -20.72423,-210.13828 -12.10707,-48.21247 29.88481,-1.30755 20.14472,7.78426 -26.10982,48.10417 z m -155.59385,-21.73194 13.97952,-52.35144 32.10227,18.30084 -8.76737,13.70482 z m 4.15149,122.25076 72.05126,-20.75265 -34.81596,-32.25878 -18.61536,4.38365 -20.46431,9.52715 z"
         inkscape:connector-curvature="0" />
      <path
         id="path8204"
         style="opacity:0.05;fill:#ffffff;fill-opacity:1;fill-rule:nonzero;stroke:none"
         d="m 878.54604,413.44532 -27.83207,7.97878 -25.82117,-45.37147 83.36548,18.44369 z m -198.19192,4.15612 28.87733,31.88954 52.75048,5.63708 -52.75048,-86.78931 z m -31.50091,108.20379 50.99139,3.69888 -2.28454,59.55185 -22.42108,-3.53816 -28.61607,-40.85739 z m 166.13984,17.21329 15.43286,55.83386 51.22037,-39.03935 -41.09424,-19.47513 z m -17.20044,130.3012 -4.82528,-62.52693 -72.03709,62.80705 z m -25.48375,78.27887 -12.54171,-32.46089 35.41342,-13.54435 34.04251,30.73096 z m -72.66659,111.13499 44.29478,34.49251 22.11857,-3.82984 2.17867,-37.02957 -48.28652,-10.36154 z m -50.53571,-91.48069 7.03853,52.19845 25.5534,-27.4572 -8.96656,-32.61672 z m -133.62518,-251.2336 -25.44519,39.21201 38.19587,33.91421 z m 43.45206,178.8304 -35.12462,35.31612 -34.81596,-32.25878 6.50974,-21.12445 z m -107.17588,56.06877 10.77875,88.39996 41.9702,-35.28215 z m -91.03698,-10.2343 44.96846,-23.58252 -2.25394,58.16248 -45.0026,-8.11521 z"
         inkscape:connector-curvature="0" />
      <path
         id="path8206"
         style="opacity:0.15;fill:#ffffff;fill-opacity:1;fill-rule:nonzero;stroke:none"
         d="m 878.54604,413.44532 25.28575,73.63831 4.42649,-92.58731 z m -198.19192,4.15612 -37.31608,9.72464 24.27437,-62.54537 41.91904,3.55804 z m 152.60082,75.44544 20.87176,-13.41492 -15.69357,-32.53903 -24.30654,-13.12712 -51.84466,21.16225 50.73804,43.39066 z m -112.0247,180.55296 -11.8638,-20.15415 -11.50638,-64.38973 66.2647,-4.92607 29.14257,26.6629 z m 76.86237,-0.28012 16.19898,11.14385 -18.81102,21.12978 -74.25033,-31.99351 z m -76.19856,150.45404 20.49863,-11.01976 26.14161,43.61268 -48.28652,-10.36154 z m -228.86897,49.11082 11.78143,-64.84831 21.41559,26.55246 -8.01461,46.99658 z m 167.65895,-170.80267 -27.94736,-21.18526 -23.60717,12.14796 -1.20332,24.58511 11.8638,13.8833 12.30946,-2.49336 z m -92.39658,-103.23973 23.1054,7.34499 29.88481,-1.30755 7.58749,-34.07179 -12.74358,-16.57057 -44.36814,27.75918 z m -135.29171,-47.8864 -0.19665,-32.24457 47.88627,-20.25403 8.6448,11.28848 z m -20.01276,126.9605 34.92309,-45.24858 22.77143,73.62298 -20.46431,9.52715 -31.87803,-22.25443 z m -54.25048,93.23263 15.90227,60.61486 32.78906,-24.09637 -3.68873,-28.40328 z m 135.25536,-172.53181 -32.10227,-18.30084 28.4506,-21.08496 38.19587,33.91421 z"
         inkscape:connector-curvature="0" />
    </g>
    <g
       transform="translate(4e-6,-4e-6)"
       id="g10916"
       clip-path="url(#clipPath11785)">
      <path
         style="fill:#ffffff;stroke:none"
         d="m 836.81411,517.16486 c -61.10917,14.75931 -80.0258,-10.292 -82.54403,-61.87359 60.85762,-16.19087 83.69188,4.22095 82.54403,61.87359 z"
         id="path10918"
         inkscape:connector-curvature="0"
         sodipodi:nodetypes="ccc" />
      <g
         id="g10920"
         transform="translate(1.264045,1.769663)"
         clip-path="url(#clipPath6112)">
        <path
           transform="matrix(2.2362633,-0.62570607,0.62570607,2.2362633,-1282.2082,-89.624291)"
           d="m 816.80077,482.57422 c 0,11.15802 -6.49753,20.20339 -14.51262,20.20339 -8.0151,0 -14.51262,-9.04537 -14.51262,-20.20339 0,-11.15803 6.49752,-20.20339 14.51262,-20.20339 8.01509,0 14.51262,9.04536 14.51262,20.20339 z"
           sodipodi:ry="20.203392"
           sodipodi:rx="14.512618"
           sodipodi:cy="482.57422"
           sodipodi:cx="802.28815"
           id="path10922"
           style="fill:url(#linearGradient12149);fill-opacity:1;stroke:none"
           sodipodi:type="arc" />
        <g
           clip-path="url(#clipPath3781)"
           id="g10924">
          <path
             style="fill:#e7f8f8;fill-opacity:1;stroke:none"
             d="m 786.86799,524.32584 19.97191,-15.67416 5.43539,6.06741 -7.83707,21.99439 z"
             id="path10926"
             inkscape:connector-curvature="0"
             sodipodi:nodetypes="ccccc" />
          <path
             style="fill:#a8e2e9;fill-opacity:1;stroke:none"
             d="m 783.96068,516.36235 21.10955,-8.97472 3.66573,4.67697 -17.06461,16.05337 z"
             id="path10928"
             inkscape:connector-curvature="0"
             sodipodi:nodetypes="ccccc" />
        </g>
        <path
           sodipodi:type="arc"
           style="fill:#000000;stroke:none"
           id="path10930"
           sodipodi:cx="802.28815"
           sodipodi:cy="482.57422"
           sodipodi:rx="14.639991"
           sodipodi:ry="22.164078"
           d="m 816.92814,482.57422 c 0,12.24088 -6.55455,22.16408 -14.63999,22.16408 -8.08545,0 -14.63999,-9.9232 -14.63999,-22.16408 0,-12.24088 6.55454,-22.16408 14.63999,-22.16408 8.08544,0 14.63999,9.9232 14.63999,22.16408 z"
           transform="matrix(1.6543443,-0.4235684,0.4235684,1.6543443,-714.64914,27.234771)" />
        <path
           id="path12668"
           style="fill:#ffffff;fill-opacity:1;fill-rule:nonzero;stroke:none"
           d="m 808.51229,504.09519 2.08293,-10.15424 9.50333,-2.08293 -1.82256,9.63351 z m -19.52738,-41.26789 -6.37896,21.87068 8.33169,13.27862 14.971,-6.50913 7.16004,-22.26122 -8.07133,-13.40881 z"
           inkscape:connector-curvature="0" />
      </g>
      <path
         inkscape:connector-curvature="0"
         id="path10936"
         style="fill:#000000;stroke:none"
         d="m 780.56802,450.13565 -11.43776,1.74187 c -6.98643,-2.69439 -11.52537,-7.37505 -15.03227,-15.3512 8.19038,7.05175 16.0914,11.19177 26.47003,13.60933 z m -13.44772,2.17379 -11.61959,2.86021 c -9.31691,-3.11147 -15.25749,-8.53801 -19.59645,-17.62194 10.72578,8.58062 18.32142,11.80734 31.21604,14.76173 z m 69.69381,64.85542 c -3.33247,-60.49702 -27.92876,-73.45498 -82.17899,-59.04014 -9.91453,2.63439 -22.27382,-0.56469 -29.3284,-9.91784 9.17975,4.01999 20.5852,5.3849 28.4256,3.35507 62.8412,-16.26924 89.53337,7.75354 83.08179,65.60291 z" />
    </g>
    <g
       id="g12644"
       style="fill:#ffffff">
      <path
         transform="matrix(1.5009485,-0.04666631,0.04666631,1.5009485,109.28577,272.47015)"
         d="m 372.06196,163.76974 -4.46637,-13.94195 -14.54029,1.70479 13.94195,-4.46638 -1.70478,-14.54029 4.46637,13.94195 14.54029,-1.70478 -13.94195,4.46637 z"
         inkscape:randomized="0"
         inkscape:rounded="0"
         inkscape:flatsided="false"
         sodipodi:arg2="2.1428258"
         sodipodi:arg1="1.3574277"
         sodipodi:r2="1.9980489"
         sodipodi:r1="15.984391"
         sodipodi:cy="148.14783"
         sodipodi:cx="368.67722"
         sodipodi:sides="4"
         id="path12581"
         style="fill:#ffffff;stroke:none"
         sodipodi:type="star" />
      <use
         height="556.1402"
         width="525.93335"
         transform="matrix(0.37214859,-0.33927976,0.33927976,0.37214859,412.37975,597.04916)"
         id="use12585"
         xlink:href="#path12581"
         y="0"
         x="0"
         style="fill:#ffffff" />
      <use
         x="0"
         y="0"
         xlink:href="#path12581"
         id="use12587"
         transform="matrix(-0.43286128,0.67981978,-0.67981978,-0.43286128,1175.0948,289.19017)"
         width="525.93335"
         height="556.1402"
         style="fill:#ffffff" />
      <use
         height="556.1402"
         width="525.93335"
         transform="matrix(0.2281336,0.41198412,-0.41198412,0.2281336,814.59008,282.81434)"
         id="use12589"
         xlink:href="#path12581"
         y="0"
         x="0"
         style="fill:#ffffff" />
      <use
         x="0"
         y="0"
         xlink:href="#path12581"
         id="use12591"
         transform="matrix(0.44861562,0.44166387,-0.44166387,0.44861562,781.13879,-123.36645)"
         width="525.93335"
         height="556.1402"
         style="fill:#ffffff" />
      <use
         height="556.1402"
         width="525.93335"
         transform="matrix(0.40511368,-0.39452696,0.39452696,0.40511368,-29.385108,897.61371)"
         id="use12593"
         xlink:href="#path12581"
         y="0"
         x="0"
         style="fill:#ffffff" />
      <use
         x="0"
         y="0"
         xlink:href="#path12581"
         id="use12595"
         transform="matrix(0.4380961,0.00580009,-0.00580009,0.4380961,289.73821,603.81521)"
         width="525.93335"
         height="556.1402"
         style="fill:#ffffff" />
      <use
         height="556.1402"
         width="525.93335"
         transform="matrix(0.49411539,-0.13036125,0.13036125,0.49411539,145.0708,426.14483)"
         id="use12597"
         xlink:href="#path12581"
         y="0"
         x="0"
         style="fill:#ffffff" />
      <use
         x="0"
         y="0"
         xlink:href="#path12581"
         id="use12599"
         transform="matrix(0.75350493,-0.19879533,0.19879533,0.75350493,121.7065,580.07433)"
         width="525.93335"
         height="556.1402"
         style="fill:#ffffff" />
      <use
         height="556.1402"
         width="525.93335"
         transform="matrix(0.40725495,0.10904456,-0.10904456,0.40725495,441.57638,431.3339)"
         id="use12601"
         xlink:href="#path12581"
         y="0"
         x="0"
         style="fill:#ffffff" />
      <use
         x="0"
         y="0"
         xlink:href="#path12581"
         id="use12603"
         transform="matrix(0.82710498,0.11408935,-0.11408935,0.82710498,-66.131207,76.424141)"
         width="525.93335"
         height="556.1402"
         style="fill:#ffffff" />
      <use
         height="556.1402"
         width="525.93335"
         transform="matrix(0.63611382,-0.0403085,0.0403085,0.63611382,65.005229,482.02627)"
         id="use12605"
         xlink:href="#path12581"
         y="0"
         x="0"
         style="fill:#ffffff" />
      <use
         x="0"
         y="0"
         xlink:href="#path12581"
         id="use12607"
         transform="matrix(0.34718149,-0.47078258,0.47078258,0.34718149,350.941,917.38328)"
         width="525.93335"
         height="556.1402"
         style="fill:#ffffff" />
      <use
         height="556.1402"
         width="525.93335"
         transform="matrix(0.74985038,-0.40752344,0.40752344,0.74985038,-263.37501,560.57699)"
         id="use12609"
         xlink:href="#path12581"
         y="0"
         x="0"
         style="fill:#ffffff" />
      <use
         x="0"
         y="0"
         xlink:href="#path12581"
         id="use12611"
         transform="matrix(0.71346774,-0.12857573,0.12857573,0.71346774,136.63327,351.18052)"
         width="525.93335"
         height="556.1402"
         style="fill:#ffffff" />
      <use
         height="556.1402"
         width="525.93335"
         transform="matrix(0.17246735,0.51388301,-0.51388301,0.17246735,802.72448,8.284619)"
         id="use12613"
         xlink:href="#path12581"
         y="0"
         x="0"
         style="fill:#ffffff" />
      <use
         x="0"
         y="0"
         xlink:href="#path12581"
         id="use12634"
         transform="matrix(-0.24629273,0.73954128,-0.73954128,-0.24629273,1282.141,130.91275)"
         width="525.93335"
         height="556.1402"
         style="fill:#ffffff" />
      <use
         height="556.1402"
         width="525.93335"
         transform="matrix(-0.65145779,0.24861731,-0.24861731,-0.65145779,1340.1905,496.80975)"
         id="use12636"
         xlink:href="#path12581"
         y="0"
         x="0"
         style="fill:#ffffff" />
      <use
         height="556.1402"
         width="525.93335"
         transform="matrix(-0.3360348,0.49947036,-0.49947036,-0.3360348,1347.1081,356.51925)"
         id="use12638"
         xlink:href="#path12581"
         y="0"
         x="0"
         style="fill:#ffffff" />
      <use
         height="556.1402"
         width="525.93335"
         transform="matrix(-0.2829452,-0.5121297,0.5121297,-0.2829452,587.145,1330.0336)"
         id="use12640"
         xlink:href="#path12581"
         y="0"
         x="0"
         style="fill:#ffffff" />
    </g>
  </g>
</svg>
