<svg xmlns="http://www.w3.org/2000/svg" xmlns:inkscape="http://www.inkscape.org/namespaces/inkscape" xmlns:xlink="http://www.w3.org/1999/xlink" height="851.00031" viewBox="0 0 755.00021 851.00031" width="755.00024">
  <defs>
    <inkscape:path-effect effect="powerstroke" id="path-effect5149" interpolator_type="CubicBezierSmooth" offset_points="0.35,3" start_linecap_type="zerowidth" />
    <inkscape:path-effect effect="powerstroke" id="path-effect5131" interpolator_type="CubicBezierSmooth" offset_points="0.51,3" start_linecap_type="zerowidth" />
    <inkscape:path-effect effect="powerstroke" id="path-effect5093" interpolator_type="CubicBezierSmooth" offset_points="0.33,3 | 2,3" start_linecap_type="zerowidth" />
    <inkscape:path-effect effect="powerstroke" id="path-effect4316" interpolator_type="CubicBezierSmooth" offset_points="0.72,3" start_linecap_type="zerowidth" />
    <inkscape:path-effect effect="powerstroke" end_linecap_type="zerowidth" id="path-effect7923" interpolator_type="CubicBezierSmooth" offset_points="0.42,1.95 | 1.67,1.95" start_linecap_type="zerowidth" />
    <linearGradient id="linearGradient3900">
      <stop offset="0" stop-color="#6bbdfe" />
      <stop offset="1" stop-color="#8ccbfe" />
    </linearGradient>
    <inkscape:path-effect effect="powerstroke" id="path-effect2562" interpolator_type="CubicBezierSmooth" offset_points="0.43,3" start_linecap_type="zerowidth" />
    <inkscape:path-effect effect="powerstroke" id="path-effect2560" interpolator_type="CubicBezierSmooth" offset_points="0.37,3" start_linecap_type="zerowidth" />
    <inkscape:path-effect effect="powerstroke" end_linecap_type="zerowidth" id="path-effect2558" interpolator_type="CubicBezierSmooth" offset_points="0.43,3 | 5.74,3" start_linecap_type="zerowidth" />
    <inkscape:path-effect effect="powerstroke" end_linecap_type="zerowidth" id="path-effect2532" interpolator_type="CubicBezierSmooth" offset_points="0.19,3 | 1.7,3" start_linecap_type="zerowidth" />
    <inkscape:path-effect effect="powerstroke" end_linecap_type="zerowidth" id="path-effect2528" interpolator_type="CubicBezierSmooth" offset_points="0.19,3 | 1.7,3" start_linecap_type="zerowidth" />
    <inkscape:path-effect effect="powerstroke" end_linecap_type="zerowidth" id="path-effect2336" interpolator_type="CubicBezierSmooth" offset_points="0.26,3 | 2.74,3" start_linecap_type="zerowidth" />
    <linearGradient gradientTransform="translate(74.221924,-39.265638)" gradientUnits="userSpaceOnUse" id="linearGradient4496" x1="304.45523" x2="300.65683" y1="609.34137" y2="669.52386" xlink:href="#linearGradient3900" />
    <clipPath id="clipPath533">
      <use xlink:href="#path4260" />
    </clipPath>
  </defs>
  <g transform="translate(-28.216005-150.37555)" inkscape:groupmode="layer" inkscape:label="Drawing">
    <path d="m 586.07002,792.26947 c 1.52257,-34.95978 -12.7786,-68.54294 -40.24294,-99.42216 l -46.04181,14.91662 14.83627,86.72574 z" fill="#f6f9fe" />
    <path d="m 410.72202,694.39323 c -40.75272,54.20572 -56.13348,125.45956 -44.88594,198.45413 5.63049,36.54093 -109.44629,39.6414 -106.01579,-0.82758 6.67071,-78.69312 27.93832,-148.13252 70.20992,-205.93715 42.4302,-36.96698 98.60109,-22.84794 80.69181,8.3106 z" style="stroke-miterlimit:20;stroke:#daedfd;fill:#edf6ff;stroke-width:6" />
    <g>
      <path d="M 354.6605,531.82652 C 275.23355,409.48322 93.094386,501.47857 146.57657,654.82316 150.41798,630.09366 160.1866,609.25132 175.73183,594.0307 144.63692,699.11717 231.2285,788.12665 86.329958,871.90745 158.87518,873.34852 192.16587,860.8925 217.51927,837.15666 212.99559,856.89857 201.3125,877.05761 181.89951,891.74587 286.23344,870.03676 331.9569,783.81396 300.2105,665.88114 271.13042,557.8533 308.44833,532.1558 329.92499,551.21961 Z" fill="#8ccbfe" />
      <path d="m 86.329958,871.90745 c 72.545222,1.44107 105.835912,-11.01495 131.189312,-34.75079 -30.61743,15.04501 -63.27282,18.2773 -96.48683,11.23041 -9.75241,7.89117 -21.226268,15.72839 -34.702482,23.52038 z M 338.74577,544.30396 354.6605,531.82652 C 275.23355,409.48322 93.094386,501.47857 146.57657,654.82316 c 1.75159,-11.27604 4.73552,-21.74389 8.93753,-31.2391 -21.58926,-100.87734 107.78676,-178.50486 183.23167,-79.2801 z" fill="#b9fff7" />
      <path d="M 354.6605,531.82652 C 275.23355,409.48322 93.094386,501.47857 146.57657,654.82316 150.41798,630.09366 160.1866,609.25132 175.73183,594.0307 144.63692,699.11717 231.2285,788.12665 86.329958,871.90745 158.87518,873.34852 192.16587,860.8925 217.51927,837.15666 212.99559,856.89857 201.3125,877.05761 181.89951,891.74587 286.23344,870.03676 331.9569,783.81396 300.2105,665.88114 271.13042,557.8533 308.44833,532.1558 329.92499,551.21961 Z" style="stroke-miterlimit:8;stroke:#538ed4;fill:none;stroke-width:6" />
    </g>
    <g>
      <path d="m 560.2582,570.54036 c 12.88838,52.71803 49.80597,86.2317 103.73579,87.42362 -25.63283,-36.76852 -24.73571,-87.88893 -0.37678,-123.83477 0.49934,27.2949 11.18426,52.3574 37.72461,65.98964 -23.23819,-119.19153 40.03151,-134.96569 40.03151,-250.54594 0,-103.55713 -97.96716,-156.23785 -188.32841,-116.54436 11.0675,-16.69761 25.0585,-31.027 41.39866,-41.76763 -52.80252,9.09727 -97.69395,39.99302 -119.07187,91.46978" fill="#8ccbfe" />
      <path d="m 598.53902,499.27387 c -38.07046,1.57773 -50.94693,26.1318 -38.28082,71.26649 12.88838,52.71803 49.80597,86.2317 103.73579,87.42362 -3.15132,-4.52035 -5.90166,-9.25762 -8.25671,-14.15695 -49.30057,-23.21909 -63.49777,-68.16675 -57.19826,-144.53316 z m 65.07819,34.85534 c 0.49934,27.2949 11.18426,52.3574 37.72461,65.98964 -1.96932,-10.10088 -3.31736,-19.45905 -4.13529,-28.19819 -13.94614,-5.74608 -27.11453,-16.47383 -33.58932,-37.79145 z" fill="#b9fff7" />
      <path d="m 560.2582,570.54036 c 12.88838,52.71803 49.80597,86.2317 103.73579,87.42362 -25.63283,-36.76852 -24.73571,-87.88893 -0.37678,-123.83477 0.49934,27.2949 11.18426,52.3574 37.72461,65.98964 -23.23819,-119.19153 40.03151,-134.96569 40.03151,-250.54594 0,-103.55713 -97.96716,-156.23785 -188.32841,-116.54436 11.0675,-16.69761 25.0585,-31.027 41.39866,-41.76763 -52.80252,9.09727 -97.69395,39.99302 -119.07187,91.46978" style="stroke-miterlimit:8;stroke:#538ed4;fill:none;stroke-width:6" />
    </g>
    <path d="m 573.83827,528.9013 c 32.5204,2.5797 64.81659,-2.10698 91.58385,-12.43316 -17.87881,-13.79284 -16.06094,-44.54228 -4.49259,-68.30742 13.15664,26.48468 38.92151,19.48006 44.01713,-7.16568 3.57028,-18.66948 -32.13455,-5.66755 -28.23072,-23.253 31.52416,-142.0059 -175.23606,-185.63455 -213.80387,-67.4279 -26.85597,82.31097 2.55609,141.16584 0.57018,189.67882 -35.08699,13.65455 -51.73856,-16.02242 -92.35102,-16.02242 -40.01445,0 -79.74825,35.20988 -79.74825,96.67334 0,44.11742 13.02012,61.42879 12.85304,87.28366 -8.35326,-1.98045 -16.24549,-0.62794 -21.20581,6.15509 -42.2716,57.80463 -65.6199,126.20369 -72.29061,204.89681 -3.4305,40.46898 110.47356,37.53003 106.01579,0.82758 -9.68702,-79.7568 4.95811,-140.13932 46.231,-192.26436 9.71113,-12.26454 18.58896,-24.40775 25.71281,-37.19068 130.68981,80.23573 236.21882,-29.11452 185.13907,-161.45068 z" fill="#f6f9fe" />
    <path d="m 651.84877,482.96546 c 11.05625,5.76738 15.86405,17.30928 9.15464,28.67775 -7.15147,-8.10327 -9.13078,-16.56245 -9.15464,-28.67775 z" fill="#ef6f2f" />
    <path d="m 686.16814,439.87026 c 1.46614,3.65515 4.61809,4.08078 7.45983,1.25584 -2.01519,6.17382 -8.01955,5.87933 -7.45983,-1.25584 z" fill="#daedfd" />
    <path fill="#daedfd" inkscape:original-d="m 530.88044,521.20051 c 45.5975,13.33752 95.84672,10.19524 134.54168,-4.73237 -17.87881,-13.79284 -16.06094,-44.54228 -4.49259,-68.30742 13.15664,26.48468 38.92151,19.48006 44.01713,-7.16568 3.57028,-18.66948 -32.13455,-5.66755 -28.23072,-23.253 31.52416,-142.0059 -175.23605,-185.63455 -213.80387,-67.4279 -30.31339,92.90764 11.06165,155.93096 -1.83493,208.11341" inkscape:path-effect="#path-effect2558" />
    <path fill="#daedfd" inkscape:original-d="m 469.93026,415.06746 c -59.42596,-79.00718 -12.93598,-157.50565 -1.04968,-158.4811 13.44863,-1.1037 49.48284,28.73621 54.97058,73.82576" inkscape:path-effect="#path-effect2528" />
    <path d="m 498.26414,821.50502 19.34231,101.18856" style="stroke-miterlimit:20;stroke:#f0f;fill:#ececec;stroke-width:6" />
    <path fill="#daedfd" inkscape:original-d="m 302.24543,724.12257 c 7.66851,-36.36614 -10.86245,-50.84649 -10.86245,-103.47869 0,-61.46346 39.7338,-96.67334 79.74825,-96.67334 40.61246,0 57.26403,29.67697 92.27447,15.89431" inkscape:path-effect="#path-effect2560" />
    <path fill="#daedfd" inkscape:original-d="m 406.90937,625.58178 c 0.0416,40.42695 -19.25148,70.80234 -43.92298,101.96088 -41.27289,52.12504 -55.91802,112.50756 -46.231,192.26436 4.45777,36.70245 -109.44629,39.6414 -106.01579,-0.82758 6.67071,-78.69312 30.01901,-147.09218 72.29061,-204.89681 4.96032,-6.78303 12.85255,-8.13554 21.3423,-6.16451" inkscape:path-effect="#path-effect2562" />
    <path d="m 388.62966,690.25166 c 130.75935,80.33605 236.28836,-29.0142 185.14891,-161.42329" style="stroke-miterlimit:20;stroke:#daedfd;fill:none;stroke-width:6" />
    <g transform="translate(0 .5)">
      <g clip-path="url(#clipPath533)">
        <ellipse cx="297.29462" cy="637.91589" fill="#fff" id="path4260" rx="49.473709" ry="58.117489" transform="rotate(329.97668)" />
        <g>
          <ellipse cx="390.78558" cy="600.54578" fill="url(#linearGradient4496)" rx="37.675816" ry="44.258312" transform="rotate(336.96056)" />
          <ellipse cx="394.24908" cy="601.60468" rx="29.964512" ry="35.199718" transform="rotate(336.96056)" />
          <ellipse cx="713.85376" cy="79.048004" fill="#fff" rx="4.4335299" ry="6.0381799" transform="rotate(28.23131)" />
          <ellipse cx="686.31702" cy="108.61381" fill="#fff" rx="12.19734" ry="17.577194" transform="rotate(24.630232)" />
        </g>
      </g>
      <path transform="rotate(329.97668)" inkscape:original-d="m 248.8663,649.85736 c -6.00531,-34.23458 15.17464,-69.87782 48.42832,-70.05896 42.47511,-0.23137 68.3682,62.23162 32.66848,101.76379" inkscape:path-effect="#path-effect7923" />
      <path d="m 531.12817,423.67335 c -4.36421,-0.41873 -8.3569,0.79883 -11.7721,5.37969 1.83053,-5.93956 5.83155,-8.49587 10.84694,-8.58552 m 4.9857,10.22697 c -4.81924,0.72696 -8.18972,3.30367 -10.68872,8.32516 0.67991,-6.04384 4.09497,-9.89343 9.03043,-11.19188 m -5.59898,-51.22309 c -6.26226,4.33128 -13.81412,4.89022 -22.53589,1.3158 7.5896,6.78681 15.73631,6.96754 22.28914,3.39182 m -1.68539,4.92173 c -5.0185,5.52143 -13.78366,7.49402 -23.57046,5.00167 8.30045,5.31332 16.2751,5.28887 22.67501,0.70928" />
    </g>
    <g>
      <path d="M 618.00073,295.34923 C 732.21862,155.02366 739.08468,163.52898 658.03671,325.66319 Z" style="stroke-miterlimit:20;stroke:#daedfd;fill:#f6f9fe;stroke-width:6" />
      <path d="m 673.40355,229.37425 c 11.18515,-0.0261 22.19168,-1.93524 32.27012,-5.65873 m -55.04532,31.96492 c 14.41291,2.44121 29.10948,1.69354 42.44092,-2.25278 M 630.4639,280.1028 c 15.11186,6.10177 31.43478,8.41754 46.7413,6.51144" style="stroke-miterlimit:20;stroke:#daedfd;fill:none;stroke-width:3" />
    </g>
    <g>
      <path d="m 480.32325,688.88394 c -31.75373,48.16361 -57.70866,140.24773 -47.03714,234.59633 3.95939,35.00552 110.2571,30.35394 102.29345,-0.88135 -22.37582,-87.76326 -20.04157,-169.60502 -2.78024,-234.36517 z" fill="#f6f9fe" />
      <path fill="#daedfd" inkscape:original-d="m 480.32325,688.88394 c -31.75373,48.16361 -57.70866,140.24773 -47.03714,234.59633 3.95939,35.00552 110.2571,30.35394 102.29345,-0.88135 -22.37582,-87.76326 -20.04157,-169.60502 -2.78024,-234.36517" inkscape:path-effect="#path-effect2336" />
    </g>
    <path d="m 529.80206,763.71301 c -3.59312,17.88207 -12.64258,30.97868 -27.46655,42.20532 -46.90539,35.52287 -8.45416,130.44348 23.81002,99.21203 50.9761,-49.34443 67.72789,-98.71404 56.89037,-144.79873 z" fill="#f6f9fe" />
    <path fill="#daedfd" inkscape:original-d="m 529.80206,763.71301 c -3.59312,17.88207 -12.64258,30.97868 -27.46655,42.20532 -46.90539,35.52287 -8.45416,130.44348 23.81002,99.21203 76.9646,-74.50108 75.91324,-149.05958 19.68155,-212.28305" inkscape:path-effect="#path-effect4316" />
    <g transform="rotate(9.6234913-3462.0067 2377.7811)scale(1.4970337)">
      <path d="m -16.8,-12.7 14.3,5.9 3.8,-27.8 4.2,28.1 13.7,-6.1 -11.1,13.2 9,12 L 4.7,7.6 0.9,34.6 -2.7,7.5 -15.3,12.9 -5.1,0.4 Z" fill="none" stroke="#8ccbfe" stroke-miterlimit="8" />
      <path d="M -20.1,-1.2 C -23.9,14 -10.7,23.6 0.6,20.6 11.9,17.6 17,18.9 19,24 23.9,15.4 18.8,1.9 3.6,4.7 -11.6,7.5 -17.8,3.5 -20.1,-1.2 Z" fill="#8ccbfe" fill-opacity=".5" />
      <circle cx="-9.8000002" cy="17.700001" fill="#fff" id="C" r="0.60000002" />
      <use transform="translate(-8.5-10.7)" xlink:href="#C" />
      <use transform="translate(6.8-8.2)" xlink:href="#C" />
      <use transform="translate(20.1-5)" xlink:href="#C" />
      <use transform="translate(25.7-8.1)" xlink:href="#C" />
      <use transform="translate(9.9 1)" xlink:href="#C" />
      <use transform="translate(27.2-.4)" xlink:href="#C" />
      <use transform="translate(-.4-3.8)" xlink:href="#C" />
    </g>
    <path d="m 574.35481,261.12662 c 83.66155,4.52304 122.65352,44.17517 132.15113,108.29618 -20.49224,-25.21299 -44.76791,-39.93097 -75.22395,-46.04217 5.69431,15.12839 7.98436,31.68638 7.55661,48.41412 C 615.53484,324.93691 564.52979,303.5026 505.86639,307.46082 L 475.37171,282.7307 Z" fill="#8ccbfe" />
    <path d="m 614.42645,319.47444 c -4.52933,-14.36268 -14.71466,-26.75191 -29.68372,-34.71662 36.34343,6.78792 71.80228,22.33475 95.97297,45.79697 -4.74273,-21.0461 -15.3712,-38.32041 -34.95375,-52.516 35.75613,18.06346 54.54084,49.50483 60.74399,91.38401 -20.49224,-25.21299 -44.76791,-39.93097 -75.33688,-46.33672 5.7467,14.98868 8.1029,31.76155 7.66954,48.70867 -23.30376,-46.85784 -74.30881,-68.29215 -132.97221,-64.33393 l -8.40139,-7.03414 c 45.42133,-6.75827 86.06863,-1.50386 116.96145,19.04776 z" fill="#b9fff7" />
    <path fill="#538ed4" inkscape:original-d="m 574.35481,261.12662 c 83.66155,4.52304 122.65352,44.17517 132.15113,108.29618 -20.49224,-25.21299 -44.76791,-39.93097 -75.22225,-46.17637" inkscape:path-effect="#path-effect5093" />
    <path d="m 455.8112,292.33156 c -41.12438,18.55096 -63.21321,53.37426 -62.28639,96.7696 0.76276,35.71391 14.69517,67.06122 0.82345,102.37119 18.15007,-12.11228 25.06361,-24.80142 29.14036,-44.38305 l 42.60847,-30.48261 z" fill="#8ccbfe" />
    <path d="m 399.9697,468.00499 c -0.76585,7.6838 -2.48122,15.47404 -5.62144,23.46736 18.15007,-12.11228 25.06361,-24.80142 29.14036,-44.38305 -5.12107,12.43127 -15.17212,18.8551 -23.51892,20.91569 z" fill="#b9fff7" />
    <path d="m 455.8112,292.33156 c -41.12438,18.55096 -63.21321,53.37426 -62.28639,96.7696 0.76276,35.71391 14.69517,67.06122 0.82345,102.37119 18.15007,-12.11228 25.06361,-24.80142 29.14036,-44.38305" style="stroke-miterlimit:8;stroke:#538ed4;fill:none;stroke-width:6" />
    <path fill="#538ed4" inkscape:original-d="m 619.71856,301.84267 c 14.18933,19.70657 19.76743,44.6349 19.12004,69.95208 -23.30376,-46.85784 -74.30881,-68.29215 -132.97221,-64.33393" inkscape:path-effect="#path-effect5131" />
    <g>
      <path d="m 469.93026,415.06746 c -59.42596,-79.00718 -12.93598,-157.50565 -1.04968,-158.4811 13.44863,-1.1037 49.48284,28.73621 54.97058,73.82576 z" fill="#f6f9fe" />
      <path d="m 473.12386,301.7216 c -10.66678,19.33702 -8.49277,47.88967 4.15257,65.5895 -9.19906,-21.21576 -10.28553,-44.39218 -4.15257,-65.5895 z" fill="#daedfd" />
      <path fill="#daedfd" inkscape:original-d="m 469.93026,415.06746 c -59.42596,-79.00718 -12.93598,-157.50565 -1.04968,-158.4811 13.44863,-1.1037 49.48284,28.73621 54.97058,73.82576" inkscape:path-effect="#path-effect2532" />
    </g>
    <path d="m 445.93132,394.38857 c 45.53122,16.60334 66.63708,61.8692 53.6675,109.74386 -3.65922,-19.57526 -12.33095,-33.33932 -24.3055,-42.28288 27.82782,80.88495 -25.39198,128.25295 -91.7007,104.41356 50.16613,-19.77526 57.29355,-71.02051 39.896,-119.17381 z" fill="#8ccbfe" />
    <path d="m 459.47994,400.55052 c 36.04649,19.99506 51.72394,60.74412 40.11888,103.58191 -3.65922,-19.57526 -12.33095,-33.33932 -24.3055,-42.28288 19.5822,56.91806 -0.96891,97.23913 -37.97275,107.82979 46.26031,-42.2502 20.70208,-101.95166 22.15937,-169.12882 z" fill="#b9fff7" />
    <path fill="#538ed4" inkscape:original-d="m 445.93132,394.38857 c 45.53122,16.60334 66.63708,61.8692 53.6675,109.74386 -3.65922,-19.57526 -12.33095,-33.33932 -24.3055,-42.28288 27.82782,80.88495 -25.39198,128.25295 -91.7007,104.41356 50.16613,-19.77526 57.29355,-71.02051 39.896,-119.17381 -4.07675,19.58163 -10.99029,32.27077 -29.14036,44.38305" inkscape:path-effect="#path-effect5149" />
  </g>
</svg>