<?xml version="1.0" encoding="UTF-8" standalone="no"?>
<!-- Created with Inkscape (http://www.inkscape.org/) -->

<svg xmlns:dc="http://purl.org/dc/elements/1.1/" xmlns:cc="http://creativecommons.org/ns#" xmlns:rdf="http://www.w3.org/1999/02/22-rdf-syntax-ns#" xmlns:svg="http://www.w3.org/2000/svg" xmlns="http://www.w3.org/2000/svg" xmlns:xlink="http://www.w3.org/1999/xlink" xmlns:sodipodi="http://sodipodi.sourceforge.net/DTD/sodipodi-0.dtd" xmlns:inkscape="http://www.inkscape.org/namespaces/inkscape" id="svg2" version="1.1" inkscape:version="0.91+devel r" width="720" height="576" viewBox="0 0 720 576" sodipodi:docname="TraceParlight Request.svg">
  <title id="title3452">Denser Stars on the Horse's Hooves (Onkardikypympym Iypumohenprop Rizky)</title>
  <sodipodi:namedview pagecolor="#ffffff" bordercolor="#666666" borderopacity="1" objecttolerance="10" gridtolerance="10" guidetolerance="10" inkscape:pageopacity="0" inkscape:pageshadow="2" inkscape:window-width="1364" inkscape:window-height="698" id="namedview4" showgrid="true" inkscape:zoom="1.5210255" inkscape:cx="262.06751" inkscape:cy="276.69314" inkscape:window-x="0" inkscape:window-y="0" inkscape:window-maximized="1" inkscape:current-layer="layer2" showguides="true" inkscape:object-paths="false" inkscape:object-nodes="false" inkscape:snap-bbox="false">
    <inkscape:grid type="xygrid" id="grid4642" spacingx="10px" spacingy="10px" enabled="false" />
  </sodipodi:namedview>
  <metadata id="metadata8">
    <rdf:RDF>
      <cc:Work rdf:about="">
        <dc:format>image/svg+xml</dc:format>
        <dc:type rdf:resource="http://purl.org/dc/dcmitype/StillImage" />
        <dc:title>Denser Stars on the Horse's Hooves (Onkardikypympym Iypumohenprop Rizky)</dc:title>
        <dc:date>27 November 2014</dc:date>
        <dc:creator>
          <cc:Agent>
            <dc:title>Parcly Taxel / Jeremy Tan</dc:title>
          </cc:Agent>
        </dc:creator>
        <dc:rights>
          <cc:Agent>
            <dc:title>CC BY-SA 4.0 / FAL 1.3</dc:title>
          </cc:Agent>
        </dc:rights>
        <dc:subject>
          <rdf:Bag>
            <rdf:li>Daydream Mare (MLPFIM pegasus filly OC)</rdf:li>
          </rdf:Bag>
        </dc:subject>
      </cc:Work>
    </rdf:RDF>
  </metadata>
  <defs id="defs6">
    <inkscape:path-effect miter_limit="100" jointype="extrapolated" smoothing="0.5" end_offset="0.43843061" attach_start="1e-07" stroke_width="10" is_visible="true" id="path-effect5640" effect="taper_stroke" />
    <inkscape:path-effect miter_limit="100" jointype="extrapolated" smoothing="0.5" end_offset="0.16071803" attach_start="0.19201899" stroke_width="10" is_visible="true" id="path-effect5636" effect="taper_stroke" />
    <inkscape:path-effect effect="taper_stroke" id="path-effect5632" is_visible="true" stroke_width="10" attach_start="1e-07" end_offset="0.43843061" smoothing="0.5" jointype="extrapolated" miter_limit="100" />
    <inkscape:path-effect effect="taper_stroke" id="path-effect5630" is_visible="true" stroke_width="10" attach_start="0.19676874" end_offset="0.15045536" smoothing="0.5" jointype="extrapolated" miter_limit="100" />
    <inkscape:path-effect effect="taper_stroke" id="path-effect4768" is_visible="true" stroke_width="10" attach_start="0.47368774" end_offset="0.390418" smoothing="0.5" jointype="extrapolated" miter_limit="100" />
    <inkscape:path-effect effect="taper_stroke" id="path-effect4766" is_visible="true" stroke_width="10" attach_start="0.45774879" end_offset="0.37784099" smoothing="0.5" jointype="extrapolated" miter_limit="100" />
    <inkscape:path-effect effect="taper_stroke" id="path-effect4677" is_visible="true" stroke_width="10" attach_start="0.16" end_offset="0.253" smoothing="0.5" jointype="extrapolated" miter_limit="100" />
    <inkscape:path-effect effect="taper_stroke" id="path-effect4664" is_visible="true" stroke_width="10" attach_start="0.16954252" end_offset="0.2922787" smoothing="0.5" jointype="extrapolated" miter_limit="100" />
    <linearGradient inkscape:collect="always" id="linearGradient4608">
      <stop style="stop-color:#88211e;stop-opacity:1" offset="0" id="stop4610" />
      <stop style="stop-color:#ac2827;stop-opacity:1" offset="1" id="stop4612" />
    </linearGradient>
    <linearGradient inkscape:collect="always" xlink:href="#linearGradient4608" id="linearGradient4614" x1="160.31171" y1="-279.57312" x2="228.88229" y2="-277.24426" gradientUnits="userSpaceOnUse" />
    <linearGradient inkscape:collect="always" xlink:href="#linearGradient4608" id="linearGradient4622" x1="45.137825" y1="467.24005" x2="112.66045" y2="468.27664" gradientUnits="userSpaceOnUse" />
    <clipPath clipPathUnits="userSpaceOnUse" id="clipPath7355">
      <use x="0" y="0" xlink:href="#ellipse7349" id="use7357" width="100%" height="100%" />
    </clipPath>
    <clipPath clipPathUnits="userSpaceOnUse" id="clipPath7367">
      <use x="0" y="0" xlink:href="#path4427" id="use7369" width="100%" height="100%" />
    </clipPath>
    <clipPath clipPathUnits="userSpaceOnUse" id="clipPath5769">
      <use x="0" y="0" xlink:href="#path4770" id="use5771" width="100%" height="100%" />
    </clipPath>
    <clipPath clipPathUnits="userSpaceOnUse" id="clipPath5850">
      <use x="0" y="0" xlink:href="#path4774" id="use5852" width="100%" height="100%" />
    </clipPath>
    <clipPath clipPathUnits="userSpaceOnUse" id="clipPath6186">
      <use x="0" y="0" xlink:href="#path5650" id="use6188" transform="matrix(0.96592583,-0.25881903,-0.25881903,-0.96592583,152.23544,974.30803)" width="100%" height="100%" />
    </clipPath>
  </defs>
  <g style="display:inline" inkscape:label="Drawing" id="layer2" inkscape:groupmode="layer">
    <path style="opacity:1;fill:#2f3235;fill-opacity:1;fill-rule:nonzero;stroke:#1e2022;stroke-width:10;stroke-linecap:butt;stroke-linejoin:miter;stroke-miterlimit:20;stroke-dasharray:none;stroke-dashoffset:7.80000019;stroke-opacity:1" d="M 369,373.46447 C 510.27239,279.15992 568.15686,323.78707 491.41421,352.82842 608.36396,357 620.16096,455.64015 680.12742,425.5061 c 60.25214,-30.27762 -15.66653,137.22687 -172.5122,8.82485 28.52082,52.17767 12.38432,63.11159 -27.43755,14.90559 -27.59736,-33.40772 -63.54415,-55.30761 -110.59188,-64.35786 z" id="path5734" inkscape:connector-curvature="0" sodipodi:nodetypes="ccscscc" />
    <path id="path5689" style="opacity:1;fill:#fffeed;fill-opacity:1;fill-rule:nonzero;stroke:#f5f4b4;stroke-width:10;stroke-linecap:butt;stroke-linejoin:miter;stroke-miterlimit:20;stroke-dasharray:none;stroke-dashoffset:7.80000019;stroke-opacity:1" d="M 430.57914,286.15035 C 478.42997,251.83108 522.75,278.25 463.5,314 c 18,2.75 8.76461,24.43346 -25.35586,26.58724 m -20.79059,-36.23369 c 51.88971,-77.57742 120.2199,-100.20814 129.36705,-87.49891 4.35659,6.05311 -1.64482,18.37432 -25.36705,43.49891 83,-43.5 94,4 -21.5,47 36.5,5 19.5,46 -80,31 z" inkscape:connector-curvature="0" sodipodi:nodetypes="ccccscccc" />
    <path sodipodi:nodetypes="ccccscccc" inkscape:connector-curvature="0" d="m 308.37292,285.3538 c -48.06526,-34.01831 -92.21862,-7.32176 -32.74543,28.0557 -17.98238,2.86291 -8.6111,24.48797 25.52222,26.4276 m 20.56278,-36.36346 c -52.37554,-77.25026 -120.84643,-99.45169 -129.91365,-86.68531 -4.31851,6.08035 1.76011,18.36363 25.63957,43.33885 -83.27138,-42.97824 -93.97305,4.58987 21.79454,46.86416 -36.46791,5.22897 -19.21094,46.12146 80.19296,30.49731 z" style="opacity:1;fill:#fffeed;fill-opacity:1;fill-rule:nonzero;stroke:#f5f4b4;stroke-width:10;stroke-linecap:butt;stroke-linejoin:miter;stroke-miterlimit:20;stroke-dasharray:none;stroke-dashoffset:7.80000019;stroke-opacity:1" id="path5692" />
    <path sodipodi:nodetypes="csscc" inkscape:connector-curvature="0" id="path4170" d="m 334.40623,225.87418 c -2.07004,65.17639 -30.41406,83.32422 -33.2581,162.48817 -2.61663,72.83411 131.51704,73.75254 130.56466,2.2543 -1.07063,-80.37523 -21.92544,-97.75271 -24.4053,-164.36026 z" style="opacity:1;fill:#fffeed;fill-opacity:1;fill-rule:nonzero;stroke:#f5f4b4;stroke-width:10;stroke-linecap:butt;stroke-linejoin:miter;stroke-miterlimit:4;stroke-dasharray:none;stroke-dashoffset:7.80000019;stroke-opacity:1" />
    <g id="g5671">
      <path style="opacity:1;fill:#fffeed;fill-opacity:1;fill-rule:nonzero;stroke:none;stroke-width:1;stroke-linecap:butt;stroke-linejoin:miter;stroke-miterlimit:4;stroke-dasharray:none;stroke-dashoffset:7.80000019;stroke-opacity:1" d="m 338.20711,411.79289 c -9.49203,22.30424 -22.15838,36.36972 -115.35355,83.91422 -29.51303,15.05638 -60.54167,-49.63409 -31.64645,-63.64645 21.67197,-10.50954 53.30595,-19.78881 76.00321,-22.69616 -43.62414,-39.57408 3.50401,-96.01783 49.64323,-49.24318 z" id="path5646" inkscape:connector-curvature="0" sodipodi:nodetypes="cssccc" />
      <path inkscape:original-d="m 281.76777,420.20711 c -67.27818,-38.5736 -15.50179,-111.37006 35.08578,-60.08579" inkscape:path-effect="#path-effect5630" sodipodi:nodetypes="cc" inkscape:connector-curvature="0" id="path5628" d="m 259.35355,392.27072 c 4.09376,7.65823 9.18262,14.0591 14.1212,19.46838 4.70878,5.15755 8.29302,8.46801 8.29302,8.46801 0,0 -4.76147,-1.04605 -11.33381,-4.46955 -6.66301,-3.47074 -14.69144,-9.38249 -19.85629,-18.6727 -9.03556,-16.53996 -7.01718,-34.17493 2.20242,-45.9185 9.21959,-11.74356 25.77482,-17.34746 43.27701,-10.98493 7.33122,2.71436 12.65957,7.81444 16.05002,12.22565 3.34567,4.35293 4.74643,7.73424 4.74643,7.73424 0,0 -3.2647,-1.66505 -7.92025,-3.85238 -5.18208,-2.43471 -10.06711,-4.49788 -16.29273,-6.70925 -13.97684,-5.08096 -25.29951,-0.7665 -31.99486,7.76179 -6.69536,8.52828 -8.62906,21.51874 -1.29216,34.94924 z" style="opacity:1;fill:#f5f4b4;fill-opacity:1;fill-rule:nonzero;stroke:none;stroke-width:5;stroke-linecap:butt;stroke-linejoin:miter;stroke-miterlimit:4;stroke-dasharray:none;stroke-dashoffset:7.80000019;stroke-opacity:1" />
      <g style="display:inline" id="g5950-5" transform="matrix(-0.86602541,0.49999999,0.49999999,0.86602541,439.74532,-199.22864)">
        <ellipse ry="6.7620621" rx="7.4847865" style="display:inline;opacity:1;fill:#649ccd;fill-opacity:1;fill-rule:nonzero;stroke:none;stroke-width:0.27562416;stroke-linecap:butt;stroke-linejoin:miter;stroke-miterlimit:20;stroke-dasharray:none;stroke-dashoffset:7.80000019;stroke-opacity:1" id="ellipse5740-6-6-1" cx="675.35278" cy="126.71016" transform="rotate(31.19468)" />
        <ellipse style="display:inline;opacity:1;fill:#649ccd;fill-opacity:1;fill-rule:nonzero;stroke:none;stroke-width:0.19034949;stroke-linecap:butt;stroke-linejoin:miter;stroke-miterlimit:20;stroke-dasharray:none;stroke-dashoffset:7.80000019;stroke-opacity:1" id="ellipse5744-1-8-6" cx="283.39261" cy="-622.18988" transform="rotate(106.22675)" rx="3.0952268" ry="3.2812364" />
        <ellipse ry="3.5628557" rx="3.360882" transform="rotate(92.60513)" cy="-519.02429" cx="421.06558" id="ellipse5746-1-1-6" style="display:inline;opacity:1;fill:#649ccd;fill-opacity:1;fill-rule:nonzero;stroke:none;stroke-width:0.16912016;stroke-linecap:butt;stroke-linejoin:miter;stroke-miterlimit:20;stroke-dasharray:none;stroke-dashoffset:7.80000019;stroke-opacity:1" />
        <ellipse style="display:inline;opacity:1;fill:#649ccd;fill-opacity:1;fill-rule:nonzero;stroke:none;stroke-width:0.09800453;stroke-linecap:butt;stroke-linejoin:miter;stroke-miterlimit:20;stroke-dasharray:none;stroke-dashoffset:7.80000019;stroke-opacity:1" id="ellipse5748-3-7-4" cx="-694.32288" cy="-144.33797" transform="rotate(-148.77325)" rx="2.9257545" ry="2.7570012" />
        <circle transform="rotate(106.22675)" cy="-635.88831" cx="324.8804" id="circle5752-7-8-5" style="display:inline;opacity:1;fill:#649ccd;fill-opacity:1;fill-rule:nonzero;stroke:none;stroke-width:0.19446768;stroke-linecap:butt;stroke-linejoin:miter;stroke-miterlimit:20;stroke-dasharray:none;stroke-dashoffset:7.80000019;stroke-opacity:1" r="6.2215791" />
        <circle r="4.3649993" transform="rotate(-73.77325)" cy="629.98944" cx="-301.53534" id="ellipse5754-0-3-6" style="display:inline;opacity:1;fill:#649ccd;fill-opacity:1;fill-rule:nonzero;stroke:none;stroke-width:0.09800453;stroke-linecap:butt;stroke-linejoin:miter;stroke-miterlimit:20;stroke-dasharray:none;stroke-dashoffset:7.80000019;stroke-opacity:1" />
        <ellipse ry="10.274871" rx="8.3831701" style="opacity:1;fill:#649ccd;fill-opacity:1;fill-rule:nonzero;stroke:none;stroke-width:0.27562416;stroke-linecap:butt;stroke-linejoin:miter;stroke-miterlimit:20;stroke-dasharray:none;stroke-dashoffset:7.80000019;stroke-opacity:1" id="ellipse5740-4-1" cx="648.40192" cy="-192.02031" transform="matrix(0.92037814,0.39102951,0.39102951,-0.92037814,0,0)" />
        <ellipse ry="7.0998588" rx="6.6973767" transform="matrix(-0.67423626,0.73851571,0.73851571,0.67423626,0,0)" cy="692.63885" cx="21.100603" id="ellipse5746-4-0" style="opacity:1;fill:#649ccd;fill-opacity:1;fill-rule:nonzero;stroke:none;stroke-width:0.16912016;stroke-linecap:butt;stroke-linejoin:miter;stroke-miterlimit:20;stroke-dasharray:none;stroke-dashoffset:7.80000019;stroke-opacity:1" />
        <ellipse ry="4.4472766" rx="3.8849182" transform="matrix(-0.28392598,0.9588462,0.9588462,0.28392598,0,0)" cy="614.82184" cx="307.16757" id="circle5750-4-8" style="opacity:1;fill:#649ccd;fill-opacity:1;fill-rule:nonzero;stroke:none;stroke-width:0.16183163;stroke-linecap:butt;stroke-linejoin:miter;stroke-miterlimit:20;stroke-dasharray:none;stroke-dashoffset:7.80000019;stroke-opacity:1" />
        <circle transform="matrix(0.8765315,0.4813445,0.4813445,-0.8765315,0,0)" cy="-165.41956" cx="649.17474" id="circle5752-4-2" style="opacity:1;fill:#649ccd;fill-opacity:1;fill-rule:nonzero;stroke:none;stroke-width:0.19446768;stroke-linecap:butt;stroke-linejoin:miter;stroke-miterlimit:20;stroke-dasharray:none;stroke-dashoffset:7.80000019;stroke-opacity:1" r="6.2215791" />
      </g>
      <path inkscape:original-d="m 267.72097,409.38388 c -23.20791,2.88797 -54.84189,12.16724 -76.51386,22.67678 -28.89522,14.01236 2.13342,78.70283 31.64645,63.64645 93.19517,-47.5445 105.86152,-61.60998 115.35355,-83.91422" inkscape:path-effect="#path-effect5632" sodipodi:nodetypes="cssc" inkscape:connector-curvature="0" id="path4786" d="m 268.3384,414.34561 c -22.458,2.79465 -53.95678,12.03377 -74.9496,22.21396 -5.54859,2.69072 -8.01202,7.33606 -8.59701,13.9173 -0.58498,6.58125 1.2452,14.77669 4.8283,22.11365 3.58311,7.33695 8.89976,13.77067 14.44131,17.26479 5.54154,3.49411 10.74871,4.34217 16.51996,1.39791 l 0,0 c 52.22756,-26.64444 78.96257,-42.75268 93.55097,-55.16684 5.46022,-4.67056 9.48692,-7.88171 13.83723,-12.29422 6.21948,-6.24753 10.23755,-11.99927 10.23755,-11.99927 0,0 -0.36226,7.00729 -4.79227,15.84076 -2.88237,5.70275 -7.21051,11.33312 -12.80178,16.06851 -15.89879,13.52925 -43.04385,29.70426 -95.4873,56.45884 l 0,0 c -8.98525,4.58392 -18.72408,2.99181 -26.39795,-1.84681 -7.67388,-4.83861 -13.84215,-12.63024 -18.09342,-21.33538 -4.25128,-8.70515 -6.60497,-18.36864 -5.80333,-27.38731 0.80164,-9.01867 5.29536,-17.7143 14.19436,-22.02975 22.35108,-10.83887 54.12033,-20.15832 78.07811,-23.1396 l 1.23487,9.92346 z" style="opacity:1;fill:#f5f4b4;fill-opacity:1;fill-rule:nonzero;stroke:none;stroke-width:5;stroke-linecap:butt;stroke-linejoin:miter;stroke-miterlimit:4;stroke-dasharray:none;stroke-dashoffset:7.80000019;stroke-opacity:1" />
      <path style="opacity:1;fill:#f5f4b4;fill-opacity:1;fill-rule:nonzero;stroke:none;stroke-width:1;stroke-linecap:butt;stroke-linejoin:miter;stroke-miterlimit:20;stroke-dasharray:none;stroke-dashoffset:7.80000019;stroke-opacity:1" d="m 194.5,443.75 c 12.28249,9.2972 18.78769,24.92894 21.57322,41.17678 C 216.68198,467.5009 209.28338,450.49264 194.5,443.75 Z" id="path5999" inkscape:connector-curvature="0" sodipodi:nodetypes="ccc" />
    </g>
    <g id="g5666" transform="translate(-2.5,10.25)">
      <path sodipodi:nodetypes="ccsscc" inkscape:connector-curvature="0" id="path5650" d="m 415.38274,358.76777 c 48.88072,-50.16533 97.60246,4.91107 47.13296,46.43965 27.50043,6.47604 54.28085,14.52048 77.95282,25.85324 C 569.43383,444.92756 537.72966,508.97574 508.17563,494 419.9302,449.28393 400.107,436.21845 389.20076,412.5 Z" style="opacity:1;fill:#fffeed;fill-opacity:1;fill-rule:nonzero;stroke:none;stroke-width:1;stroke-linecap:butt;stroke-linejoin:miter;stroke-miterlimit:4;stroke-dasharray:none;stroke-dashoffset:7.80000019;stroke-opacity:1" />
      <g style="display:inline" id="g5950" transform="matrix(0.96592583,-0.25881903,-0.25881903,-0.96592583,105.12131,980.51072)" clip-path="url(#clipPath6186)">
        <ellipse transform="rotate(-148.77325)" ry="11.581717" rx="11.351377" cy="-95.484779" cx="-681.86694" id="path5738-9-6" style="display:inline;opacity:1;fill:#649ccd;fill-opacity:1;fill-rule:nonzero;stroke:none;stroke-width:0.64593554;stroke-linecap:butt;stroke-linejoin:miter;stroke-miterlimit:20;stroke-dasharray:none;stroke-dashoffset:7.80000019;stroke-opacity:1" />
        <ellipse style="display:inline;opacity:1;fill:#649ccd;fill-opacity:1;fill-rule:nonzero;stroke:none;stroke-width:0.19034949;stroke-linecap:butt;stroke-linejoin:miter;stroke-miterlimit:20;stroke-dasharray:none;stroke-dashoffset:7.80000019;stroke-opacity:1" id="ellipse5744-1-8" cx="259.21475" cy="-594.72345" transform="rotate(106.22675)" rx="3.0952268" ry="3.2812364" />
        <ellipse style="display:inline;opacity:1;fill:#649ccd;fill-opacity:1;fill-rule:nonzero;stroke:none;stroke-width:0.09800453;stroke-linecap:butt;stroke-linejoin:miter;stroke-miterlimit:20;stroke-dasharray:none;stroke-dashoffset:7.80000019;stroke-opacity:1" id="ellipse5748-3-7" cx="-636.7995" cy="-78.690605" transform="rotate(-148.77325)" rx="2.9257545" ry="2.7570012" />
        <circle r="4.3649993" transform="rotate(-73.77325)" cy="605.1861" cx="-227.73544" id="ellipse5754-0-3" style="display:inline;opacity:1;fill:#649ccd;fill-opacity:1;fill-rule:nonzero;stroke:none;stroke-width:0.09800453;stroke-linecap:butt;stroke-linejoin:miter;stroke-miterlimit:20;stroke-dasharray:none;stroke-dashoffset:7.80000019;stroke-opacity:1" />
        <ellipse transform="matrix(0.69180613,-0.72208329,-0.72208329,-0.69180613,0,0)" ry="12.679793" rx="9.4643908" cy="-659.61975" cx="69.508209" id="path5738-6" style="opacity:1;fill:#649ccd;fill-opacity:1;fill-rule:nonzero;stroke:none;stroke-width:0.64593554;stroke-linecap:butt;stroke-linejoin:miter;stroke-miterlimit:20;stroke-dasharray:none;stroke-dashoffset:7.80000019;stroke-opacity:1" />
        <ellipse ry="4.9011221" rx="5.4249516" style="opacity:1;fill:#649ccd;fill-opacity:1;fill-rule:nonzero;stroke:none;stroke-width:0.27562416;stroke-linecap:butt;stroke-linejoin:miter;stroke-miterlimit:20;stroke-dasharray:none;stroke-dashoffset:7.80000019;stroke-opacity:1" id="ellipse5740-4" cx="-469.13153" cy="-508.68777" transform="matrix(-0.09504535,-0.99547294,-0.99547294,0.09504535,0,0)" />
        <ellipse ry="5.4694204" rx="6.4017496" transform="matrix(0.46179669,0.88698581,0.88698581,-0.46179669,0,0)" cy="261.25485" cx="577.00983" id="circle5742-7" style="opacity:1;fill:#649ccd;fill-opacity:1;fill-rule:nonzero;stroke:none;stroke-width:0.35438433;stroke-linecap:butt;stroke-linejoin:miter;stroke-miterlimit:20;stroke-dasharray:none;stroke-dashoffset:7.80000019;stroke-opacity:1" />
        <ellipse transform="matrix(0.96016333,-0.2794394,-0.2794394,-0.96016333,0,0)" cy="-548.9035" cx="375.76617" id="circle5752-4" style="opacity:1;fill:#649ccd;fill-opacity:1;fill-rule:nonzero;stroke:none;stroke-width:0.19446768;stroke-linecap:butt;stroke-linejoin:miter;stroke-miterlimit:20;stroke-dasharray:none;stroke-dashoffset:7.80000019;stroke-opacity:1" rx="5.2730479" ry="6.2216115" />
        <circle r="3.8649993" transform="matrix(-0.72208329,-0.69180613,-0.69180613,0.72208329,0,0)" cy="-78.377396" cx="-629.85779" id="ellipse5754-6" style="opacity:1;fill:#649ccd;fill-opacity:1;fill-rule:nonzero;stroke:none;stroke-width:0.09800453;stroke-linecap:butt;stroke-linejoin:miter;stroke-miterlimit:20;stroke-dasharray:none;stroke-dashoffset:7.80000019;stroke-opacity:1" />
      </g>
      <path style="opacity:1;fill:#f5f4b4;fill-opacity:1;fill-rule:nonzero;stroke:none;stroke-width:5;stroke-linecap:butt;stroke-linejoin:miter;stroke-miterlimit:4;stroke-dasharray:none;stroke-dashoffset:7.80000019;stroke-opacity:1" d="m 480.91996,392.93474 c -6.19441,9.34212 -14.9682,15.2057 -22.14999,18.69601 -7.08453,3.44304 -12.155,4.57636 -12.155,4.57636 0,0 3.93123,-3.40569 9.26952,-8.68647 5.59242,-5.53218 11.54796,-12.10907 16.66723,-20.06063 9.03686,-13.81302 7.84248,-26.43184 1.73133,-34.5089 -6.11115,-8.07707 -17.42978,-12.18206 -31.96539,-6.82827 -6.92078,2.49544 -12.68053,5.14933 -18.251,8.00637 -5.13906,2.63578 -8.68392,4.63856 -8.68392,4.63856 0,0 1.66982,-3.70774 5.4811,-8.49792 3.8643,-4.85684 9.84621,-10.47633 17.99758,-13.53074 17.85156,-6.57513 34.55611,-1.50565 43.39627,10.17834 8.84017,11.68398 9.52534,29.41287 -1.33773,46.01729 z" id="path5634" inkscape:connector-curvature="0" sodipodi:nodetypes="cc" inkscape:path-effect="#path-effect5636" inkscape:original-d="m 446.61497,416.20711 c 75.40991,-41.40203 22.18377,-112.25914 -31.23223,-57.43934" />
      <path style="opacity:1;fill:#f5f4b4;fill-opacity:1;fill-rule:nonzero;stroke:none;stroke-width:5;stroke-linecap:butt;stroke-linejoin:miter;stroke-miterlimit:4;stroke-dasharray:none;stroke-dashoffset:7.80000019;stroke-opacity:1" d="m 463.01999,400.41985 c 28.31959,6.43689 55.44209,14.56196 79.60757,26.13098 8.91387,4.26744 13.41202,12.92657 14.15392,21.88762 0.7419,8.96104 -1.70569,18.53856 -6.04962,27.15808 -4.34392,8.61953 -10.60936,16.32457 -18.34535,21.09339 -7.73599,4.76883 -17.47908,6.32653 -26.47091,1.77016 l 0,0 C 456.31424,473.32588 428.2334,458.20076 410.71226,445.12589 404.45774,440.48126 399.36432,434.9432 395.72298,429.15682 390.0145,420.04651 389.20076,412.5 389.20076,412.5 c 0,0 4.46707,6.08317 11.64743,12.35956 5.05725,4.45511 9.56264,7.5395 15.84473,12.25187 16.35647,12.20575 44.23233,27.34039 93.74274,52.42849 l 0,0 c 5.78517,2.93149 11.08789,2.09907 16.70332,-1.36254 5.61544,-3.46162 11.00711,-9.82737 14.66281,-17.08127 3.6557,-7.2539 5.55029,-15.35253 5.01379,-21.83257 -0.53649,-6.48004 -2.93733,-11.02705 -8.5061,-13.69305 -23.17841,-11.09647 -49.61684,-19.06032 -77.50591,-25.39936 l 2.21642,-9.75128 z" id="path5638" inkscape:connector-curvature="0" sodipodi:nodetypes="cssc" inkscape:path-effect="#path-effect5640" inkscape:original-d="m 461.91177,405.29549 c 28.10436,6.38797 54.88478,14.43241 78.55675,25.76517 C 569.43383,444.92756 537.72966,508.97574 508.17563,494 419.9302,449.28393 400.107,436.21845 389.20076,412.5" />
      <path style="display:inline;opacity:1;fill:#f5f4b4;fill-opacity:1;fill-rule:nonzero;stroke:none;stroke-width:1;stroke-linecap:butt;stroke-linejoin:miter;stroke-miterlimit:20;stroke-dasharray:none;stroke-dashoffset:7.80000019;stroke-opacity:1" d="m 513.81755,483.0056 c 0.3303,-16.91656 7.46717,-32.00117 19.43626,-42.66906 -14.90018,8.54546 -22.56088,25.61427 -19.43626,42.66906 z" id="path5999-3" inkscape:connector-curvature="0" sodipodi:nodetypes="ccc" />
    </g>
    <g id="g4778">
      <path style="opacity:1;fill:#fffeed;fill-opacity:1;fill-rule:nonzero;stroke:none;stroke-width:10;stroke-linecap:butt;stroke-linejoin:miter;stroke-miterlimit:4;stroke-dasharray:none;stroke-dashoffset:7.80000019;stroke-opacity:1" d="m 353.21456,305.71364 c 2.09619,49.69417 2.31371,107.49851 0.96015,165.75156 -0.37692,16.2217 -80.59373,15.63241 -74.90307,-3.5 16.57109,-55.71318 33.15864,-113.02795 47.52261,-167.69091 z" id="path4770" inkscape:connector-curvature="0" sodipodi:nodetypes="csscc" />
      <g id="g5756" clip-path="url(#clipPath5769)">
        <ellipse transform="rotate(-28.773253)" ry="13.825849" rx="12.595737" cy="511.67526" cx="58.058323" id="path5738" style="opacity:1;fill:#649ccd;fill-opacity:1;fill-rule:nonzero;stroke:none;stroke-width:0.64593554;stroke-linecap:butt;stroke-linejoin:miter;stroke-miterlimit:20;stroke-dasharray:none;stroke-dashoffset:7.80000019;stroke-opacity:1" />
        <ellipse ry="8.8180075" rx="9.7604685" style="opacity:1;fill:#649ccd;fill-opacity:1;fill-rule:nonzero;stroke:none;stroke-width:0.27562416;stroke-linecap:butt;stroke-linejoin:miter;stroke-miterlimit:20;stroke-dasharray:none;stroke-dashoffset:7.80000019;stroke-opacity:1" id="ellipse5740" cx="-303.60342" cy="475.58356" transform="rotate(-69.546072)" />
        <ellipse ry="11.718303" rx="12.152167" transform="rotate(-147.39487)" cy="-236.32692" cx="-523.86115" id="circle5742" style="opacity:1;fill:#649ccd;fill-opacity:1;fill-rule:nonzero;stroke:none;stroke-width:0.35438433;stroke-linecap:butt;stroke-linejoin:miter;stroke-miterlimit:20;stroke-dasharray:none;stroke-dashoffset:7.80000019;stroke-opacity:1" />
        <ellipse style="opacity:1;fill:#649ccd;fill-opacity:1;fill-rule:nonzero;stroke:none;stroke-width:0.19034949;stroke-linecap:butt;stroke-linejoin:miter;stroke-miterlimit:20;stroke-dasharray:none;stroke-dashoffset:7.80000019;stroke-opacity:1" id="ellipse5744" cx="-420.95016" cy="-338.37488" transform="rotate(-163.77325)" rx="5.9374127" ry="6.2942247" />
        <ellipse ry="5.5922427" rx="5.2752252" transform="rotate(152.60513)" cy="-562.00189" cx="-57.587727" id="ellipse5746" style="opacity:1;fill:#649ccd;fill-opacity:1;fill-rule:nonzero;stroke:none;stroke-width:0.16912016;stroke-linecap:butt;stroke-linejoin:miter;stroke-miterlimit:20;stroke-dasharray:none;stroke-dashoffset:7.80000019;stroke-opacity:1" />
        <ellipse style="opacity:1;fill:#649ccd;fill-opacity:1;fill-rule:nonzero;stroke:none;stroke-width:0.09800453;stroke-linecap:butt;stroke-linejoin:miter;stroke-miterlimit:20;stroke-dasharray:none;stroke-dashoffset:7.80000019;stroke-opacity:1" id="ellipse5748" cx="310.79956" cy="-448.35721" transform="rotate(106.22675)" rx="3.4257674" ry="3.228174" />
        <ellipse ry="5.1774588" rx="3.8849182" transform="rotate(-121.49466)" cy="38.017967" cx="-542.8255" id="circle5750" style="opacity:1;fill:#649ccd;fill-opacity:1;fill-rule:nonzero;stroke:none;stroke-width:0.16183163;stroke-linecap:butt;stroke-linejoin:miter;stroke-miterlimit:20;stroke-dasharray:none;stroke-dashoffset:7.80000019;stroke-opacity:1" />
        <circle transform="rotate(-103.77325)" cy="229.20238" cx="-541.49268" id="circle5752" style="opacity:1;fill:#649ccd;fill-opacity:1;fill-rule:nonzero;stroke:none;stroke-width:0.19446768;stroke-linecap:butt;stroke-linejoin:miter;stroke-miterlimit:20;stroke-dasharray:none;stroke-dashoffset:7.80000019;stroke-opacity:1" r="6.2215791" />
        <circle r="3.8649993" transform="rotate(61.22675)" cy="-78.602257" cx="533.39978" id="ellipse5754" style="opacity:1;fill:#649ccd;fill-opacity:1;fill-rule:nonzero;stroke:none;stroke-width:0.09800453;stroke-linecap:butt;stroke-linejoin:miter;stroke-miterlimit:20;stroke-dasharray:none;stroke-dashoffset:7.80000019;stroke-opacity:1" />
      </g>
      <path inkscape:original-d="m 353.21456,305.71364 c 2.09619,49.69417 2.31371,107.49851 0.96015,165.75156 -0.37692,16.2217 -80.59373,15.63241 -74.90307,-3.5 16.57109,-55.71318 33.15864,-113.02795 47.52261,-167.69091" inkscape:path-effect="#path-effect4766" sodipodi:nodetypes="cssc" inkscape:connector-curvature="0" id="path4762" d="m 349.94187,378.3589 c -0.14186,-17.84842 0.76081,-36.52766 1.58781,-49.88889 0.84367,-13.63032 1.68488,-22.75637 1.68488,-22.75637 0,0 6.4378,36.09853 6.72699,72.56587 0.23945,30.1601 -0.0331,61.6657 -0.76819,93.30184 l 0,0 c -0.095,4.08682 -2.78005,7.30531 -5.75938,9.31847 -2.97933,2.01316 -6.57031,3.34283 -10.65546,4.39462 -8.17031,2.10358 -18.36629,2.94244 -28.44245,2.67681 -10.07616,-0.26562 -19.92259,-1.59845 -27.53187,-4.41804 -3.80464,-1.40979 -7.12952,-3.14945 -9.64395,-5.91679 -2.51444,-2.76734 -3.83101,-7.1634 -2.66111,-11.09668 l 0,0 c 10.30536,-34.64735 20.61443,-69.9056 30.38751,-104.74778 8.7797,-31.3009 21.9276,-61.51767 21.9276,-61.51767 0,0 -3.48109,32.78106 -12.2992,64.21839 -9.79316,34.91379 -20.11658,70.22048 -30.43091,104.89798 l 0,0 c -0.25277,0.84982 -0.30739,0.65739 0.47727,1.52097 0.78466,0.86359 2.79606,2.18215 5.71738,3.26463 5.84263,2.16496 15.007,3.55294 24.32081,3.79847 9.3138,0.24553 18.88706,-0.61408 25.68557,-2.36447 3.39925,-0.87519 6.0926,-2.01139 7.55004,-2.9962 1.45744,-0.98481 1.36158,-1.29641 1.36085,-1.26501 l 0,0 c 0.73284,-31.53937 1.00433,-62.94559 0.76581,-92.99015 z" style="opacity:1;fill:#f5f4b4;fill-opacity:1;fill-rule:nonzero;stroke:none;stroke-width:10;stroke-linecap:butt;stroke-linejoin:miter;stroke-miterlimit:4;stroke-dasharray:none;stroke-dashoffset:7.80000019;stroke-opacity:1" />
    </g>
    <g id="g4782">
      <path sodipodi:nodetypes="csscc" inkscape:connector-curvature="0" id="path4774" d="m 383.58087,305.86008 c -1.38908,51.81549 0.77208,110.59471 3.1863,165.31223 0.71522,16.21031 80.75695,16.5317 74.54952,-2.43934 -18.69242,-57.1274 -34.30509,-112.88151 -49.02261,-167.54446 z" style="opacity:1;fill:#fffeed;fill-opacity:1;fill-rule:nonzero;stroke:none;stroke-width:10;stroke-linecap:butt;stroke-linejoin:miter;stroke-miterlimit:4;stroke-dasharray:none;stroke-dashoffset:7.80000019;stroke-opacity:1" />
      <g id="g5837" clip-path="url(#clipPath5850)">
        <ellipse style="display:inline;opacity:1;fill:#649ccd;fill-opacity:1;fill-rule:nonzero;stroke:none;stroke-width:0.64593554;stroke-linecap:butt;stroke-linejoin:miter;stroke-miterlimit:20;stroke-dasharray:none;stroke-dashoffset:7.80000019;stroke-opacity:1" id="path5738-9" cx="-451.3652" cy="398.27823" rx="11.351377" ry="11.581717" transform="rotate(-88.77325)" />
        <ellipse transform="rotate(-159.54607)" cy="-252.46657" cx="-539.89081" id="ellipse5740-6" style="display:inline;opacity:1;fill:#649ccd;fill-opacity:1;fill-rule:nonzero;stroke:none;stroke-width:0.27562416;stroke-linecap:butt;stroke-linejoin:miter;stroke-miterlimit:20;stroke-dasharray:none;stroke-dashoffset:7.80000019;stroke-opacity:1" rx="7.4847865" ry="6.7620621" />
        <ellipse style="display:inline;opacity:1;fill:#649ccd;fill-opacity:1;fill-rule:nonzero;stroke:none;stroke-width:0.35438433;stroke-linecap:butt;stroke-linejoin:miter;stroke-miterlimit:20;stroke-dasharray:none;stroke-dashoffset:7.80000019;stroke-opacity:1" id="circle5742-6" cx="130.51546" cy="-609.75647" transform="rotate(122.60513)" rx="10.384075" ry="10.013337" />
        <ellipse ry="3.2812364" rx="3.0952268" transform="rotate(166.22675)" cy="-560.72913" cx="-301.41406" id="ellipse5744-1" style="display:inline;opacity:1;fill:#649ccd;fill-opacity:1;fill-rule:nonzero;stroke:none;stroke-width:0.19034949;stroke-linecap:butt;stroke-linejoin:miter;stroke-miterlimit:20;stroke-dasharray:none;stroke-dashoffset:7.80000019;stroke-opacity:1" />
        <ellipse style="display:inline;opacity:1;fill:#649ccd;fill-opacity:1;fill-rule:nonzero;stroke:none;stroke-width:0.16912016;stroke-linecap:butt;stroke-linejoin:miter;stroke-miterlimit:20;stroke-dasharray:none;stroke-dashoffset:7.80000019;stroke-opacity:1" id="ellipse5746-1" cx="138.85599" cy="-596.23651" transform="rotate(122.60513)" rx="3.360882" ry="3.5628557" />
        <ellipse ry="2.7570012" rx="2.9257545" transform="rotate(-88.77325)" cy="407.80957" cx="-422.19003" id="ellipse5748-3" style="display:inline;opacity:1;fill:#649ccd;fill-opacity:1;fill-rule:nonzero;stroke:none;stroke-width:0.09800453;stroke-linecap:butt;stroke-linejoin:miter;stroke-miterlimit:20;stroke-dasharray:none;stroke-dashoffset:7.80000019;stroke-opacity:1" />
        <circle r="6.2215791" style="display:inline;opacity:1;fill:#649ccd;fill-opacity:1;fill-rule:nonzero;stroke:none;stroke-width:0.19446768;stroke-linecap:butt;stroke-linejoin:miter;stroke-miterlimit:20;stroke-dasharray:none;stroke-dashoffset:7.80000019;stroke-opacity:1" id="circle5752-7" cx="-300.22055" cy="-553.32751" transform="rotate(166.22675)" />
        <circle style="display:inline;opacity:1;fill:#649ccd;fill-opacity:1;fill-rule:nonzero;stroke:none;stroke-width:0.09800453;stroke-linecap:butt;stroke-linejoin:miter;stroke-miterlimit:20;stroke-dasharray:none;stroke-dashoffset:7.80000019;stroke-opacity:1" id="ellipse5754-0" cx="296.6398" cy="537.91559" transform="rotate(-13.77325)" r="4.3649993" />
        <ellipse ry="6.6120195" rx="6.2371893" transform="rotate(122.60513)" cy="-622.06671" cx="148.15263" id="ellipse5835" style="display:inline;opacity:1;fill:#649ccd;fill-opacity:1;fill-rule:nonzero;stroke:none;stroke-width:0.16912016;stroke-linecap:butt;stroke-linejoin:miter;stroke-miterlimit:20;stroke-dasharray:none;stroke-dashoffset:7.80000019;stroke-opacity:1" />
      </g>
      <path inkscape:original-d="m 383.58087,305.86008 c -1.38908,51.81549 0.77208,110.59471 3.1863,165.31223 0.71522,16.21031 80.75695,16.5317 74.54952,-2.43934 -18.69242,-57.1274 -34.30509,-112.88151 -49.02261,-167.54446" inkscape:path-effect="#path-effect4768" style="opacity:1;fill:#f5f4b4;fill-opacity:1;fill-rule:nonzero;stroke:none;stroke-width:10;stroke-linecap:butt;stroke-linejoin:miter;stroke-miterlimit:4;stroke-dasharray:none;stroke-dashoffset:7.80000019;stroke-opacity:1" d="m 378.64748,383.1192 c -0.43326,-19.60671 0.64585,-38.4088 2.02901,-53.1708 1.35733,-14.48629 2.90438,-24.08832 2.90438,-24.08832 0,0 0.95218,9.6792 2.09531,24.12524 1.09885,13.8864 2.55717,34.2335 2.96887,52.91325 0.64839,29.38017 1.84724,59.26869 3.11726,88.05335 l 0,0 c -0.001,-0.0247 -0.0322,0.38742 1.47529,1.41022 1.50753,1.02279 4.23039,2.18978 7.64767,3.10619 6.83456,1.83282 16.40242,2.80495 25.68416,2.67779 9.28173,-0.12717 18.39008,-1.39489 24.1289,-3.45499 2.86941,-1.03005 4.80756,-2.30507 5.50841,-3.08461 0.70086,-0.77954 0.64062,-0.45451 0.35787,-1.31864 l 0,0 c -11.42083,-34.90412 -21.69011,-69.28281 -31.30369,-103.19576 -9.14745,-32.26896 -12.96684,-65.90361 -12.96684,-65.90361 0,0 13.4771,31.03786 22.58774,63.17629 9.5876,33.82127 19.81868,68.06978 31.18695,102.81326 l 0,0 c 1.26911,3.87863 0.0654,8.34353 -2.42564,11.11427 -2.49107,2.77074 -5.79338,4.45641 -9.56613,5.81074 -7.5455,2.70866 -17.32843,3.90453 -27.37058,4.04211 -10.04215,0.13758 -20.2309,-0.82439 -28.41132,-3.01813 -4.09021,-1.09687 -7.68946,-2.46629 -10.67186,-4.48972 -2.9824,-2.02342 -5.67131,-5.16732 -5.85121,-9.24463 l 0,0 c -1.27124,-28.81229 -2.47346,-58.7711 -3.12455,-88.2735 z" id="path4764" inkscape:connector-curvature="0" sodipodi:nodetypes="cssc" />
    </g>
    <g id="g5698">
      <path sodipodi:nodetypes="cccc" inkscape:connector-curvature="0" id="path5696" d="m 401.5,177 c -50,138 22,147 18,68 19.5,37.5 68,21 15.5,-108 z" style="opacity:1;fill:#2f3235;fill-opacity:1;fill-rule:nonzero;stroke:#1e2022;stroke-width:10;stroke-linecap:butt;stroke-linejoin:miter;stroke-miterlimit:20;stroke-dasharray:none;stroke-dashoffset:7.80000019;stroke-opacity:1" />
      <ellipse transform="rotate(1.5142921)" style="opacity:1;fill:#fffeed;fill-opacity:1;fill-rule:nonzero;stroke:#f5f4b4;stroke-width:10;stroke-linecap:butt;stroke-linejoin:miter;stroke-miterlimit:4;stroke-dasharray:none;stroke-dashoffset:7.80000019;stroke-opacity:1" id="path4151" cx="380.2435" cy="117.27925" rx="125.67049" ry="129.03067" />
      <g id="g4687">
        <path style="display:inline;fill:#fffeed;fill-opacity:1;stroke:none;stroke-width:10;stroke-miterlimit:4;stroke-dasharray:none;stroke-opacity:1" d="m 264.96573,112.99854 c -51.33563,-70.471194 -8.71714,-147.207649 2.15478,-146.928377 10.29049,0.26434 36.68177,34.85871187 35.4035,85.30519 z" id="path4683" inkscape:connector-curvature="0" sodipodi:nodetypes="cscc" />
        <path sodipodi:nodetypes="csc" inkscape:connector-curvature="0" id="path4403" d="m 251.09413,75.458296 c 3.45185,10.513553 5.76529,17.30967 9.01705,25.654534 2.75658,7.07408 4.85455,11.88571 4.85455,11.88571 0,0 -4.09458,-3.2797 -9.15192,-9.32736 -5.17564,-6.189119 -10.81949,-14.769873 -14.21903,-25.088405 -9.97724,-30.333795 -6.9294,-59.188683 -0.20713,-80.491399 3.36114,-10.651358 7.62383,-19.424283 11.81369,-25.74423 2.09493,-3.159973 4.15269,-5.706944 6.2633,-7.647803 2.11061,-1.94086 4.18098,-3.720091 7.78426,-3.627531 l 1e-5,0 c 3.76259,0.09665 6.70287,1.907831 9.74942,4.374201 3.04655,2.46637 6.12947,5.827374 9.19674,10.038322 6.13454,8.421898 12.15999,20.2582343 16.26413,34.825799 2.89938,10.302572 3.07453,20.426565 2.31002,28.357204 -0.74679,7.746931 -2.24521,12.708015 -2.24521,12.708015 0,0 -1.0139,-5.085091 -2.74495,-12.38082 -2.12739,-8.96614 -3.87289,-15.080659 -6.94516,-25.972645 -3.79189,-13.45923349 -9.38808,-24.327325 -14.72184,-31.64986 -2.66688,-3.661267 -5.2798,-6.432515 -7.40589,-8.15371 -2.12608,-1.721194 -3.83525,-2.152917 -3.71406,-2.149804 l 10e-6,0 c 1.34612,0.03458 0.47511,-0.142797 -0.75861,0.991705 -1.23373,1.134502 -2.92329,3.136417 -4.69743,5.812509 -3.54827,5.352184 -7.51073,13.4002082 -10.61197,23.2279652 -6.20248,19.6555138 -9.02833,46.3918728 0.17002,74.3576028 z" style="display:inline;fill:#f5f4b4;fill-opacity:1;stroke:none;stroke-width:10;stroke-miterlimit:4;stroke-dasharray:none" inkscape:path-effect="#path-effect4664" inkscape:original-d="m 264.96573,112.99854 c -51.33563,-70.471194 -8.71714,-147.207649 2.15478,-146.928377 10.29049,0.26434 36.68177,34.85871187 35.4035,85.30519" />
        <path style="opacity:1;fill:#f5f4b4;fill-opacity:1;fill-rule:nonzero;stroke:none;stroke-width:1;stroke-linecap:butt;stroke-linejoin:miter;stroke-miterlimit:4;stroke-dasharray:none;stroke-dashoffset:7.80000019;stroke-opacity:1" d="m 268.71309,3.3785253 c -10.171,20.6096657 -8.48458,48.8451787 2.75706,69.7225027 -5.88847,-23.018587 -8.11021,-47.506889 -2.75706,-69.7225027 z" id="path4638" inkscape:connector-curvature="0" sodipodi:nodetypes="ccc" />
      </g>
      <g id="g7371">
        <ellipse transform="rotate(78.133975)" inkscape:connector-curvature="0" id="path4427" style="opacity:1;fill:white;fill-opacity:1;fill-rule:nonzero;stroke:none;stroke-width:1.04910243;stroke-linecap:butt;stroke-linejoin:miter;stroke-miterlimit:4;stroke-dasharray:none;stroke-dashoffset:7.80000019;stroke-opacity:1" cx="205.59395" cy="-272.34641" rx="56.638222" ry="43.77309" />
        <g id="g4624" clip-path="url(#clipPath7367)">
          <ellipse transform="rotate(80.889248)" inkscape:connector-curvature="0" id="ellipse4473" style="opacity:1;fill:url(#linearGradient4614);fill-opacity:1;fill-rule:nonzero;stroke:none;stroke-width:0.89233726;stroke-linecap:butt;stroke-linejoin:miter;stroke-miterlimit:4;stroke-dasharray:none;stroke-dashoffset:7.80000019;stroke-opacity:1" cx="193.354" cy="-290.94208" rx="44.772972" ry="37.497818" />
          <ellipse ry="32.000118" rx="35.995892" cy="-298.92279" cx="190.38527" style="opacity:1;fill:black;fill-opacity:1;fill-rule:nonzero;stroke:none;stroke-width:0.71740824;stroke-linecap:butt;stroke-linejoin:miter;stroke-miterlimit:4;stroke-dasharray:none;stroke-dashoffset:7.80000019;stroke-opacity:1" id="ellipse4475" inkscape:connector-curvature="0" transform="rotate(81.535428)" />
          <ellipse style="display:inline;fill:white;stroke:none" id="path3842" transform="rotate(-21.466176)" cx="234.54778" cy="230.72673" rx="13.853397" ry="17.473927" />
          <ellipse transform="rotate(-84.828032)" id="path3844" style="display:inline;fill:white;stroke:none" cx="-115.77714" cy="337.04926" rx="5.1004333" ry="6.283299" />
          <ellipse style="display:inline;fill:white;stroke:none" id="path3846" transform="rotate(12.389885)" cx="337.1908" cy="84.431129" rx="3.5585539" ry="4.6716328" />
        </g>
        <path id="path7346" style="display:inline;fill:black;stroke:none;stroke-width:1;stroke-miterlimit:4;stroke-dasharray:none" d="m 272.35838,108.69942 c -7.38241,-5.17642 -11.87363,-12.828446 -9.69494,-23.069937 2.10694,8.667014 6.75879,14.015499 12.84419,17.613437 z m -6.76069,9.64306 c -8.29029,-3.54496 -14.26127,-10.10791 -14.23861,-20.578548 3.84687,8.047238 9.50051,12.322958 16.19651,14.590388 z m -0.40107,10.63258 c -10.93395,-0.84638 -20.36596,-6.01824 -22.7326,-18.08962 5.33866,7.14521 11.71605,10.23965 18.72518,11.16132 35.19544,-79.815135 118.99697,-11.12829 87.05156,53.99162 18.2712,-72.83936 -56.54207,-119.952467 -83.04414,-47.06332 z" inkscape:connector-curvature="0" />
      </g>
      <path sodipodi:nodetypes="ccccsccc" inkscape:connector-curvature="0" id="path5694" d="m 455.62982,14.557216 c -20.97869,79.65308 -46.87261,80.180699 -58.65002,14.999999 -8.52424,31.750717 -33.07836,37.180619 -46.54773,6.149496 -22.78186,70.351779 -60.46193,65.055459 -50.9325,-17.522078 -20.90992,36.182002 -39.59854,57.207613 -53.81656,50.232078 -26.63589,-13.067896 12.47258,-143.897206 136.43535,-113.821437 -63.70579,-40.644213 13.37572,-74.039414 101.24979,40.2132038 z" style="opacity:1;fill:#2f3235;fill-opacity:1;fill-rule:nonzero;stroke:#1e2022;stroke-width:10;stroke-linecap:butt;stroke-linejoin:miter;stroke-miterlimit:20;stroke-dasharray:none;stroke-dashoffset:7.80000019;stroke-opacity:1" />
      <g id="g4696">
        <path sodipodi:nodetypes="cscc" inkscape:connector-curvature="0" id="path4679" d="m 489.54432,110.75559 c 51.33563,-70.471193 7.96009,-147.207648 -2.91183,-146.928376 -10.29049,0.26434 -37.43882,35.61576313 -36.16055,86.062241 z" style="display:inline;fill:#fffeed;fill-opacity:1;stroke:none;stroke-width:10;stroke-miterlimit:4;stroke-dasharray:none;stroke-opacity:1" />
        <path style="display:inline;fill:#f5f4b4;fill-opacity:1;stroke:none;stroke-width:10;stroke-miterlimit:4;stroke-dasharray:none" d="m 512.15896,78.421009 c -3.36077,9.720234 -8.83443,17.78924 -13.81586,23.590381 -4.87211,5.67381 -8.79878,8.7442 -8.79878,8.7442 0,0 1.92957,-4.59916 4.51269,-11.321221 3.27212,-8.515058 5.03028,-13.776199 8.64939,-24.27665 9.78223,-28.33557 6.97761,-55.538817 0.63351,-75.58732168 -3.17205,-10.02425232 -7.24615,-18.24775532 -10.89738,-23.72938232 -1.82562,-2.740813 -3.56442,-4.79628 -4.84096,-5.969466 -1.27654,-1.173186 -2.2029,-1.010992 -0.84069,-1.045984 l 1e-5,0 c 0.17249,-0.0044 -1.7829,0.523321 -4.13672,2.510849 -2.35383,1.987528 -5.22278,5.15215 -8.12051,9.295216 -5.79546,8.286133 -11.75673,20.475672 -15.42111,35.384752 0.6806,-2.767223 -7.08379,27.504354 -5.94264,22.96457 -1.61545,6.426651 -2.66797,10.908503 -2.66797,10.908503 0,0 -1.45682,-4.364514 -2.32439,-11.191071 -0.88645,-6.975061 -1.01946,-15.935099 1.22402,-25.068781 3.96023,-16.112835 10.35819,-29.322503 16.93753,-38.72939 3.28967,-4.703443 6.61204,-8.458823 9.86354,-11.204332 3.25149,-2.745509 6.31546,-4.763856 10.33145,-4.867018 l 10e-6,0 c 3.64531,-0.09364 5.71876,1.708108 7.8642,3.679849 2.14544,1.971741 4.25079,4.566593 6.39696,7.788649 4.29233,6.444111 8.67236,15.396647 12.1087,26.2561059 6.87268,21.7189181 9.90194,51.1141411 -0.715,81.8675421 z" id="path4401" inkscape:connector-curvature="0" sodipodi:nodetypes="csc" inkscape:path-effect="#path-effect4677" inkscape:original-d="m 489.54432,110.75559 c 51.33563,-70.471193 7.96009,-147.207648 -2.91183,-146.928376 -10.29049,0.26434 -37.43882,35.61576313 -36.16055,86.062241" />
        <path sodipodi:nodetypes="ccc" inkscape:connector-curvature="0" id="path4640" d="m 486.10796,2.3628196 c 9.96124,21.2421914 8.50132,47.6376134 -3.12848,68.2229564 6.65219,-22.957619 8.10048,-45.704142 3.12848,-68.2229564 z" style="opacity:1;fill:#f5f4b4;fill-opacity:1;fill-rule:nonzero;stroke:none;stroke-width:1;stroke-linecap:butt;stroke-linejoin:miter;stroke-miterlimit:4;stroke-dasharray:none;stroke-dashoffset:7.80000019;stroke-opacity:1" />
      </g>
      <g id="g7381">
        <ellipse ry="43.77309" rx="56.638222" cy="466.41086" cx="55.157265" style="opacity:1;fill:white;fill-opacity:1;fill-rule:nonzero;stroke:none;stroke-width:1.04910243;stroke-linecap:butt;stroke-linejoin:miter;stroke-miterlimit:4;stroke-dasharray:none;stroke-dashoffset:7.80000019;stroke-opacity:1" id="ellipse7349" inkscape:connector-curvature="0" transform="matrix(-0.19707481,0.98038845,0.98038845,0.19707481,0,0)" />
        <g id="g4631" clip-path="url(#clipPath7355)">
          <ellipse ry="37.497818" rx="44.772972" cy="453.74365" cx="76.747368" style="opacity:1;fill:url(#linearGradient4622);fill-opacity:1;fill-rule:nonzero;stroke:none;stroke-width:0.89233726;stroke-linecap:butt;stroke-linejoin:miter;stroke-miterlimit:4;stroke-dasharray:none;stroke-dashoffset:7.80000019;stroke-opacity:1" id="ellipse4479" inkscape:connector-curvature="0" transform="matrix(-0.15386535,0.98809182,0.98809182,0.15386535,0,0)" />
          <ellipse transform="matrix(-0.1417569,0.9899015,0.9899015,0.1417569,0,0)" inkscape:connector-curvature="0" id="ellipse4481" style="opacity:1;fill:black;fill-opacity:1;fill-rule:nonzero;stroke:none;stroke-width:0.71740824;stroke-linecap:butt;stroke-linejoin:miter;stroke-miterlimit:4;stroke-dasharray:none;stroke-dashoffset:7.80000019;stroke-opacity:1" cx="82.740555" cy="447.78268" rx="35.995892" ry="32.000118" />
          <ellipse style="display:inline;fill:white;stroke:none" id="path3842-3" transform="rotate(-28.804218)" cx="329.14801" cy="324.36673" rx="13.082885" ry="17.758551" />
          <ellipse transform="rotate(-73.58306)" id="path3844-7" style="display:inline;fill:white;stroke:none" cx="-9.2105522" cy="486.97345" rx="4.6625061" ry="5.7438102" />
          <ellipse style="display:inline;fill:white;stroke:none" id="path3846-5" transform="rotate(22.352013)" cx="474.41577" cy="-29.979534" rx="3.5585539" ry="4.6716328" />
        </g>
        <path d="m 482.51695,109.17636 c 7.33694,-5.24064 11.76119,-12.931568 9.4932,-23.153653 -2.0312,8.685073 -6.63621,14.073953 -12.68996,17.724873 z m 6.84459,9.5837 c 8.25904,-3.61718 14.17249,-10.23199 14.05845,-20.702029 -3.77649,8.080499 -9.39259,12.405399 -16.06855,14.731179 z m 0.49384,10.62868 c 10.92615,-0.94178 20.31266,-6.19576 22.57386,-18.28734 -5.27609,7.19153 -11.62623,10.34152 -18.62704,11.32434 -35.89073,-79.504925 -119.08957,-10.08929 -86.57702,54.74932 -18.90625,-72.67713 55.49299,-120.441383 82.6302,-47.78632 z" style="display:inline;fill:black;stroke:none;stroke-width:1;stroke-miterlimit:4;stroke-dasharray:none" id="path7351" inkscape:connector-curvature="0" />
      </g>
      <g id="g4756">
        <path sodipodi:nodetypes="csc" inkscape:connector-curvature="0" id="path6787" d="m 354.35355,222.25 c -13.48356,19.46268 -12.48434,32.95276 -5.781,34.96699 12.27602,3.68871 9.64144,-15.28891 18.95778,-29.1286" style="opacity:1;fill:#f60;fill-opacity:1;fill-rule:nonzero;stroke:none;stroke-width:1;stroke-linecap:butt;stroke-linejoin:miter;stroke-miterlimit:20;stroke-dasharray:none;stroke-dashoffset:7.80000019;stroke-opacity:1" />
        <path style="opacity:1;fill:#cb4607;fill-opacity:1;fill-rule:nonzero;stroke:none;stroke-width:1;stroke-linecap:butt;stroke-linejoin:miter;stroke-miterlimit:20;stroke-dasharray:none;stroke-dashoffset:7.80000019;stroke-opacity:1" d="m 359.53074,225.16866 c -3.94487,6.58848 -6.71739,14.28421 -8.41735,23.07064 2.90126,-8.34853 5.80035,-15.5343 10.22302,-22.00321" id="path6784" inkscape:connector-curvature="0" sodipodi:nodetypes="ccc" />
        <path id="path6219" style="opacity:1;fill:#f5f4b4;fill-opacity:1;fill-rule:nonzero;stroke:none;stroke-width:1;stroke-linecap:butt;stroke-linejoin:miter;stroke-miterlimit:20;stroke-dasharray:none;stroke-dashoffset:7.80000019;stroke-opacity:1" d="m 339.37757,208.43586 c 20.47205,22.31751 49.05913,25.43952 70.81761,6.38523 -17.74274,24.72939 -53.7739,22.2107 -70.81761,-6.38523 z m 48.22174,-14.83136 c 4.4725,2.12311 7.09473,-2.75927 2.74171,-5.20203 1.10257,2.42773 0.0226,4.60249 -2.74171,5.20203 z m -23.32524,-0.40533 c -4.5975,2.06061 -6.96973,-2.56105 -2.74171,-5.37881 -1.04007,2.30273 0.0399,4.65427 2.74171,5.37881 z m -4.14961,-15.90384 c 10.6066,-5.92203 23.78383,-5.78554 32.53427,0.93198 -9.8995,-2.91682 -21.7509,-3.05331 -32.53427,-0.93198 z" />
      </g>
    </g>
  </g>
</svg>
