<svg xmlns="http://www.w3.org/2000/svg" xmlns:inkscape="http://www.inkscape.org/namespaces/inkscape" xmlns:xlink="http://www.w3.org/1999/xlink" height="144.48181" viewBox="0 0 144.48181 144.48181" width="144.48181">
  <defs>
    <inkscape:path-effect effect="powerstroke" id="path-effect1678" interpolator_type="CubicBezierSmooth" offset_points="0.24,2.25 | 1,2.25" start_linecap_type="zerowidth" />
    <inkscape:path-effect effect="powerstroke" id="path-effect1676" interpolator_type="CubicBezierSmooth" offset_points="0.22,2.25 | 2,2.25" start_linecap_type="zerowidth" />
    <linearGradient id="linearGradient1308">
      <stop offset="0" stop-color="#867f36" />
      <stop offset="1" stop-color="#c0b865" />
    </linearGradient>
    <inkscape:path-effect effect="powerstroke" end_linecap_type="zerowidth" id="path-effect1890-3" interpolator_type="CubicBezierSmooth" offset_points="0.21,2.25 | 1.58,2.25" start_linecap_type="zerowidth" />
    <inkscape:path-effect effect="powerstroke" end_linecap_type="zerowidth" id="path-effect1270-6" interpolator_type="CubicBezierSmooth" offset_points="0.21,2.25 | 1.58,2.25" start_linecap_type="zerowidth" />
    <linearGradient gradientTransform="matrix(1.1038202,0,0,1.1038202,-661.8732,-31.272684)" gradientUnits="userSpaceOnUse" id="linearGradient1087-3" x1="327.80655" x2="288.19916" y1="235.28696" y2="235.00165" xlink:href="#linearGradient1308" />
    <inkscape:path-effect effect="powerstroke" end_linecap_type="zerowidth" id="path-effect1188-2" interpolator_type="CubicBezierSmooth" offset_points="0.53,1.45 | 1.43,1.45" start_linecap_type="zerowidth" />
    <inkscape:path-effect effect="powerstroke" end_linecap_type="zerowidth" id="path-effect1186-2" interpolator_type="CubicBezierSmooth" offset_points="0.53,1.45 | 1.43,1.45" start_linecap_type="zerowidth" />
    <linearGradient gradientTransform="matrix(0.56531689,0,0,0.56531689,-22.421043,156.05144)" gradientUnits="userSpaceOnUse" id="linearGradient2486" x1="151.84998" x2="150.44153" y1="316.77786" y2="393.00699" xlink:href="#linearGradient1308" />
    <clipPath id="clipPath1153">
      <use xlink:href="#path1087-8" />
    </clipPath>
    <clipPath id="clipPath1166">
      <use xlink:href="#path1502-2" />
    </clipPath>
  </defs>
  <g transform="translate(0-.43162534)">
    <path d="M 61.781175,211.58376 C 62.497655,176.99111 55.265475,149.80599 43.948595,123.07484 L 120.23247,100.16801 C 135.39276,128.07351 146.61616,157.62203 153.13233,192.4429 Z" fill="#f9faf4" stroke="#d6e1a1" stroke-width="4.5" />
    <g transform="rotate(-22.117098-406.63729 627.72648)">
      <path d="M 201.38023,307.25814 C 198.61996,331.15862 190.89667,349.08058 176.60323,365.09835 181.10369,346.83199 182.3631,331.48958 182.03518,314.3615 176.08544,327.30848 169.2557,337.48504 157.97384,347.42442 163.92975,324.64854 163.98164,303.15934 160.01602,279.69214 145.90131,196.16597 228.10134,168.36721 260.59928,226.26414 Z M 252.58022,239.00405 C 311.78374,215.25458 339.24479,299.8534 282.16683,370.26136 300.14538,360.09043 309.51608,350.04816 318.41557,333.5347 318.23879,343.08065 317.81049,351.49271 315.72318,361.42253 360.33012,290.19254 347.19591,233.01543 318.88822,205.16624 Z" fill="#f4f2c0" />
      <path d="M 201.38023,307.25814 C 198.61996,331.15862 190.89667,349.08058 176.60323,365.09835 181.10369,346.83199 182.3631,331.48958 182.03518,314.3615 176.08544,327.30848 169.2557,337.48504 157.97384,347.42442 158.64853,344.84437 159.24745,342.28083 159.77335,339.72905 M 289.43683,360.57562 C 287.18514,363.82588 284.76347,367.0583 282.16683,370.26136 300.14538,360.09043 309.51608,350.04816 318.41557,333.5347 318.23879,343.08065 317.81049,351.49271 315.72318,361.42253 362.52392,286.68939 345.76435,227.42539 314.60659,201.27193" style="fill:none;stroke:#ded779;stroke-width:4.5;stroke-miterlimit:20" />
    </g>
    <path d="M 137.64332,46.615796 C 151.11228,87.224516 135.59806,135.23701 98.14191,147.66044 60.68603,160.08356 17.14128,133.08255 3.7015796,92.456906 -31.3605,-13.528794 104.31397,-53.871624 137.64332,46.615796 Z" fill="#f9faf4" stroke="#d6e1a1" stroke-width="4.5" />
    <g transform="translate(-174.11264-208.49136)">
      <path d="M 260.60795,166.59335 C 245.02492,165.16489 230.38833,169.72532 220.22418,180.02186 188.82898,173.19622 149.20732,199.22914 153.15397,242.27656 L 205.32068,212.82193 233.81891,219.5586 267.60005,196.09806 Z" fill="#f4f2c0" />
      <path d="M 220.18307,179.91715 C 188.82898,173.19622 149.20732,199.22914 153.15397,242.27656 M 275.087,169.59454 C 246.46217,160.35304 217.36025,170.84695 208.87997,200.20043" fill="none" stroke="#ded779" stroke-width="4.5" />
      <path d="M 179.26243,287.79386 C 128.93755,244.5759 146.63701,190.25813 158.65239,187.45436 166.87707,185.53513 184.10986,208.21491 188.07298,235.23801 Z" fill="#f9faf4" />
      <path d="M 160.41407,212.77013 C 156.8932,229.04222 161.7926,247.81165 172.26311,259.74246 164.25077,245.11509 160.76328,229.31861 160.41407,212.77013 Z" fill="#d6e1a1" />
      <path fill="#d6e1a1" inkscape:original-d="M 179.26243,287.79386 C 128.93755,244.5759 146.63701,190.25814 158.65239,187.45436 166.87707,185.53514 184.10986,208.21491 188.07298,235.23801" inkscape:path-effect="#path-effect1890-3" />
      <path d="M 303.70423,246.36418 C 317.23551,181.42353 269.48324,149.44001 258.8523,154.27135 250.09213,158.25248 251.94524,187.04172 265.28281,210.8758 Z" fill="#f9faf4" />
      <path d="M 272.8935,175.40984 C 286.13085,186.33362 293.44841,203.81305 292.14598,219.86366 289.92981,203.73008 283.48284,189.28861 272.8935,175.40984 Z" fill="#d6e1a1" />
      <path fill="#d6e1a1" inkscape:original-d="M 303.70423,246.36418 C 317.23551,181.42353 269.48324,149.44002 258.8523,154.27135 250.09213,158.25249 251.94524,187.04172 265.28281,210.8758" inkscape:path-effect="#path-effect1270-6" />
    </g>
    <g transform="translate(-174.11264-208.49136)">
      <path d="M 269.56675,301.6912 C 273.73606,304.26108 272.14728,308.89775 267.18847,308.2443 269.99454,306.58577 270.71911,304.58779 269.56675,301.6912 Z M 241.46215,310.72026 C 239.58251,314.88999 243.33754,318.21296 247.06928,314.88266 243.77025,315.17356 242.20313,313.74218 241.46215,310.72026 Z M 241.24429,304.60958 C 248.53341,300.56068 257.50962,297.84566 266.13201,296.26453 257.49791,295.00941 247.1288,298.17644 241.24429,304.60958 Z" fill="#d6e1a1" />
      <g clip-path="url(#clipPath1166)">
        <ellipse cx="-316.44839" cy="232.61433" fill="#fff" id="path1502-2" rx="40.150608" ry="20.635517" transform="rotate(79.32932)scale(-1)" />
        <ellipse cx="-321.40265" cy="221.90553" fill="url(#linearGradient1087-3)" rx="28.050039" ry="17.172735" transform="rotate(78.66195)scale(-1)" />
        <ellipse cx="-327.92105" cy="211.50391" rx="23.045786" ry="13.859348" transform="rotate(77.16111)scale(-1)" />
        <ellipse cx="-236.89192" cy="299.29114" fill="#fff" rx="11.354578" ry="5.9936161" transform="rotate(-85.425126)" />
        <ellipse cx="-216.3158" cy="331.90656" fill="#fff" rx="3.6917028" ry="2.0632648" transform="rotate(-79.928596)" />
      </g>
      <path inkscape:original-d="M 308.72272,274.95511 C 308.32947,252.50327 294.16171,225.24293 279.55163,228.48814 267.9663,231.0615 264.56249,249.83332 265.94703,265.04098" inkscape:path-effect="#path-effect1188-2" />
      <g clip-path="url(#clipPath1153)">
        <ellipse cx="355.11832" cy="-58.144623" fill="#fff" id="path1087-8" rx="40.150555" ry="20.635508" transform="rotate(64.177986)" />
        <ellipse cx="69.282562" cy="357.07721" fill="url(#linearGradient2486)" rx="17.172733" ry="28.050037" transform="rotate(-25.154652)" />
        <ellipse cx="77.36824" cy="356.35147" rx="13.859349" ry="23.045786" transform="rotate(-24.190475)" />
        <ellipse cx="-266.87045" cy="227.10486" fill="#fff" rx="11.502602" ry="6.0717511" transform="rotate(-85.425126)" />
        <ellipse cx="-253.10417" cy="263.23114" fill="#fff" rx="3.7398293" ry="2.0901623" transform="rotate(-79.928596)" />
      </g>
      <path inkscape:original-d="M 193.89141,312.79743 C 180.855,294.51379 176.04108,264.18492 189.71659,258.10495 200.56085,253.28372 214.44628,266.32564 222.37752,279.37499" inkscape:path-effect="#path-effect1186-2" />
      <path d="M 245.04019,325.57877 C 257.9019,330.48868 268.7808,326.45161 275.04128,315.39521 282.94924,351.98588 261.71114,358.41513 245.04019,325.57877 Z" fill="#bb1c76" />
      <path d="M 275.44247,339.58935 C 272.2439,347.42514 266.50284,349.17844 259.39619,344.24675 262.03107,339.3032 270.27981,337.04664 275.44247,339.58935 Z" fill="#ef6f2f" />
      <path d="M 245.04019,325.57877 C 257.9019,330.48868 268.7808,326.45161 275.04128,315.39521 282.94924,351.98588 261.71114,358.41513 245.04019,325.57877 Z" fill="none" stroke="#d6e1a1" stroke-width="2.70000005" />
    </g>
    <g transform="translate(-174.11264-208.49136)">
      <path d="M 316.34297,230.08627 C 299.67986,185.45205 247.80125,163.80661 234.44188,213.12679 182.55847,171.68036 116.87328,228.38196 161.39704,300.44776 L 168.99607,288.03719 C 161.97537,239.12431 200.65909,214.45569 231.83093,227.90316 274.86483,186.3817 327.90524,243.57372 312.64855,322.33174 L 321.61078,303.94216 324.26104,258.33866 Z" fill="#f4f2c0" />
      <path fill="#ded779" inkscape:original-d="M 316.34297,230.08627 C 298.21206,181.52037 238.38839,160.17164 231.83093,227.90316" inkscape:path-effect="#path-effect1678" />
      <path d="M 185.00638,363.96494 C 181.9489,340.62258 173.90627,320.6951 161.39704,300.44776 116.87328,228.38196 182.55847,171.68036 234.46333,213.08152" style="fill:none;stroke:#ded779;stroke-width:4.5;stroke-miterlimit:20" />
      <path fill="#ded779" inkscape:original-d="M 168.99607,288.03719 C 161.97537,239.12431 200.65909,214.45569 231.83093,227.90316 277.73634,183.6111 335.02822,251.64572 308.65892,338.3627" inkscape:path-effect="#path-effect1676" />
    </g>
  </g>
</svg>
